[
  {
    "total_img": 0,
    "number_page": 0,
    "title": "Bentley Flying Spur",
    "tag": "Bentley Flying Spur,",
    "description": "Bentley Flying Spur",
    "link_thumb": "https://live.staticflickr.com/65535/49889343552_95ef47ee06_n.jpg",
    "id_album": "915915336",
    "total_view": 17
  }
]