[
  {
    "link_thumb": "https://live.staticflickr.com/65535/49889320843_27bd529dcb_n.jpg",
    "id_album": "-318023040",
    "description": "1967_rv_Shelby_rv_GT500_rv_V1_rv_2000",
    "title": "1967_rv_Shelby_rv_GT500_rv_V1_rv_2000",
    "link_img": "https://live.staticflickr.com/65535/49889320843_d72f91bc93_o.jpg",
    "id_image": "1967_rv_Shelby_rv_GT500_rv_V1_rv_2000",
    "count_view": 0
  },
  {
    "link_thumb": "https://live.staticflickr.com/65535/49889838111_7a68582a63_n.jpg",
    "id_album": "-318023040",
    "description": "1967_rv_Shelby_rv_GT500_rv_V2_rv_2000",
    "title": "1967_rv_Shelby_rv_GT500_rv_V2_rv_2000",
    "link_img": "https://live.staticflickr.com/65535/49889838111_504fcabe87_o.jpg",
    "id_image": "1967_rv_Shelby_rv_GT500_rv_V2_rv_2000",
    "count_view": 0
  },
  {
    "link_thumb": "https://live.staticflickr.com/65535/49890148522_2d14587dc3_n.jpg",
    "id_album": "-318023040",
    "description": "1967_rv_Shelby_rv_GT500_rv_V3_rv_2000",
    "title": "1967_rv_Shelby_rv_GT500_rv_V3_rv_2000",
    "link_img": "https://live.staticflickr.com/65535/49890148522_4d8854f760_o.jpg",
    "id_image": "1967_rv_Shelby_rv_GT500_rv_V3_rv_2000",
    "count_view": 0
  },
  {
    "link_thumb": "https://live.staticflickr.com/65535/49889838316_281ed1e65e_n.jpg",
    "id_album": "-318023040",
    "description": "1967_rv_Shelby_rv_GT500_rv_V4_rv_2000",
    "title": "1967_rv_Shelby_rv_GT500_rv_V4_rv_2000",
    "link_img": "https://live.staticflickr.com/65535/49889838316_4ed08840a8_o.jpg",
    "id_image": "1967_rv_Shelby_rv_GT500_rv_V4_rv_2000",
    "count_view": 0
  },
  {
    "link_thumb": "https://live.staticflickr.com/65535/49889838446_c3f6774ba3_n.jpg",
    "id_album": "-318023040",
    "description": "1967_rv_Shelby_rv_GT500_rv_V5_rv_2000",
    "title": "1967_rv_Shelby_rv_GT500_rv_V5_rv_2000",
    "link_img": "https://live.staticflickr.com/65535/49889838446_c498be35bc_o.jpg",
    "id_image": "1967_rv_Shelby_rv_GT500_rv_V5_rv_2000",
    "count_view": 0
  },
  {
    "link_thumb": "https://live.staticflickr.com/65535/49890148837_4732e30d1e_n.jpg",
    "id_album": "-318023040",
    "description": "1967_rv_Shelby_rv_GT500_rv_V6_rv_2000",
    "title": "1967_rv_Shelby_rv_GT500_rv_V6_rv_2000",
    "link_img": "https://live.staticflickr.com/65535/49890148837_04504b2e80_o.jpg",
    "id_image": "1967_rv_Shelby_rv_GT500_rv_V6_rv_2000",
    "count_view": 0
  },
  {
    "link_thumb": "https://live.staticflickr.com/65535/49890148962_5611533f84_n.jpg",
    "id_album": "-318023040",
    "description": "1967_rv_Shelby_rv_GT500_rv_V7_rv_2000",
    "title": "1967_rv_Shelby_rv_GT500_rv_V7_rv_2000",
    "link_img": "https://live.staticflickr.com/65535/49890148962_869e9280b4_o.jpg",
    "id_image": "1967_rv_Shelby_rv_GT500_rv_V7_rv_2000",
    "count_view": 0
  },
  {
    "link_thumb": "https://live.staticflickr.com/65535/49889321608_93f556b67f_n.jpg",
    "id_album": "-318023040",
    "description": "1967_rv_Shelby_rv_GT500_rv_V8_rv_2000",
    "title": "1967_rv_Shelby_rv_GT500_rv_V8_rv_2000",
    "link_img": "https://live.staticflickr.com/65535/49889321608_47f9e4b60f_o.jpg",
    "id_image": "1967_rv_Shelby_rv_GT500_rv_V8_rv_2000",
    "count_view": 0
  },
  {
    "link_thumb": "https://live.staticflickr.com/65535/49890149207_edeb2dc769_n.jpg",
    "id_album": "-318023040",
    "description": "1967_rv_Shelby_rv_GT500_rv_V9_rv_2000",
    "title": "1967_rv_Shelby_rv_GT500_rv_V9_rv_2000",
    "link_img": "https://live.staticflickr.com/65535/49890149207_9e711dce7a_o.jpg",
    "id_image": "1967_rv_Shelby_rv_GT500_rv_V9_rv_2000",
    "count_view": 0
  },
  {
    "link_thumb": "https://live.staticflickr.com/65535/49890149442_cea70cf657_n.jpg",
    "id_album": "-318023040",
    "description": "1969_rv_Shelby_rv_GT500_rv_V10_rv_1536",
    "title": "1969_rv_Shelby_rv_GT500_rv_V10_rv_1536",
    "link_img": "https://live.staticflickr.com/65535/49890149442_8d67faa8ce_o.jpg",
    "id_image": "1969_rv_Shelby_rv_GT500_rv_V10_rv_1536",
    "count_view": 0
  },
  {
    "link_thumb": "https://live.staticflickr.com/65535/49890149597_66e5f63173_n.jpg",
    "id_album": "-318023040",
    "description": "1969_rv_Shelby_rv_GT500_rv_V11_rv_1536",
    "title": "1969_rv_Shelby_rv_GT500_rv_V11_rv_1536",
    "link_img": "https://live.staticflickr.com/65535/49890149597_0b16be272c_o.jpg",
    "id_image": "1969_rv_Shelby_rv_GT500_rv_V11_rv_1536",
    "count_view": 0
  },
  {
    "link_thumb": "https://live.staticflickr.com/65535/49889322268_57ae5d3760_n.jpg",
    "id_album": "-318023040",
    "description": "1969_rv_Shelby_rv_GT500_rv_V12_rv_1536",
    "title": "1969_rv_Shelby_rv_GT500_rv_V12_rv_1536",
    "link_img": "https://live.staticflickr.com/65535/49889322268_1d550af0b2_o.jpg",
    "id_image": "1969_rv_Shelby_rv_GT500_rv_V12_rv_1536",
    "count_view": 0
  },
  {
    "link_thumb": "https://live.staticflickr.com/65535/49889322398_1e52bb8c70_n.jpg",
    "id_album": "-318023040",
    "description": "1969_rv_Shelby_rv_GT500_rv_V13_rv_1536",
    "title": "1969_rv_Shelby_rv_GT500_rv_V13_rv_1536",
    "link_img": "https://live.staticflickr.com/65535/49889322398_884d8e3924_o.jpg",
    "id_image": "1969_rv_Shelby_rv_GT500_rv_V13_rv_1536",
    "count_view": 0
  },
  {
    "link_thumb": "https://live.staticflickr.com/65535/49889322498_3dfbbb587d_n.jpg",
    "id_album": "-318023040",
    "description": "1969_rv_Shelby_rv_GT500_rv_V14_rv_1536",
    "title": "1969_rv_Shelby_rv_GT500_rv_V14_rv_1536",
    "link_img": "https://live.staticflickr.com/65535/49889322498_e13cd50c9d_o.jpg",
    "id_image": "1969_rv_Shelby_rv_GT500_rv_V14_rv_1536",
    "count_view": 0
  },
  {
    "link_thumb": "https://live.staticflickr.com/65535/49889322643_060cf3b680_n.jpg",
    "id_album": "-318023040",
    "description": "1969_rv_Shelby_rv_GT500_rv_V15_rv_1536",
    "title": "1969_rv_Shelby_rv_GT500_rv_V15_rv_1536",
    "link_img": "https://live.staticflickr.com/65535/49889322643_23854c227c_o.jpg",
    "id_image": "1969_rv_Shelby_rv_GT500_rv_V15_rv_1536",
    "count_view": 0
  },
  {
    "link_thumb": "https://live.staticflickr.com/65535/49889321783_04f04ddb64_n.jpg",
    "id_album": "-318023040",
    "description": "1969_rv_Shelby_rv_GT500_rv_V1_rv_1536",
    "title": "1969_rv_Shelby_rv_GT500_rv_V1_rv_1536",
    "link_img": "https://live.staticflickr.com/65535/49889321783_a726c893a5_o.jpg",
    "id_image": "1969_rv_Shelby_rv_GT500_rv_V1_rv_1536",
    "count_view": 0
  },
  {
    "link_thumb": "https://live.staticflickr.com/65535/49889839786_e4d3872a80_n.jpg",
    "id_album": "-318023040",
    "description": "1969_rv_Shelby_rv_GT500_rv_V2_rv_1536",
    "title": "1969_rv_Shelby_rv_GT500_rv_V2_rv_1536",
    "link_img": "https://live.staticflickr.com/65535/49889839786_a19c5a42f5_o.jpg",
    "id_image": "1969_rv_Shelby_rv_GT500_rv_V2_rv_1536",
    "count_view": 0
  },
  {
    "link_thumb": "https://live.staticflickr.com/65535/49889322798_15148421d8_n.jpg",
    "id_album": "-318023040",
    "description": "1969_rv_Shelby_rv_GT500_rv_V3_rv_1536",
    "title": "1969_rv_Shelby_rv_GT500_rv_V3_rv_1536",
    "link_img": "https://live.staticflickr.com/65535/49889322798_3db952f1af_o.jpg",
    "id_image": "1969_rv_Shelby_rv_GT500_rv_V3_rv_1536",
    "count_view": 0
  },
  {
    "link_thumb": "https://live.staticflickr.com/65535/49890150317_1faaa5ca24_n.jpg",
    "id_album": "-318023040",
    "description": "1969_rv_Shelby_rv_GT500_rv_V4_rv_1536",
    "title": "1969_rv_Shelby_rv_GT500_rv_V4_rv_1536",
    "link_img": "https://live.staticflickr.com/65535/49890150317_d811641b35_o.jpg",
    "id_image": "1969_rv_Shelby_rv_GT500_rv_V4_rv_1536",
    "count_view": 0
  },
  {
    "link_thumb": "https://live.staticflickr.com/65535/49889323053_bfe6dca739_n.jpg",
    "id_album": "-318023040",
    "description": "1969_rv_Shelby_rv_GT500_rv_V5_rv_1536",
    "title": "1969_rv_Shelby_rv_GT500_rv_V5_rv_1536",
    "link_img": "https://live.staticflickr.com/65535/49889323053_6da9179eb8_o.jpg",
    "id_image": "1969_rv_Shelby_rv_GT500_rv_V5_rv_1536",
    "count_view": 0
  },
  {
    "link_thumb": "https://live.staticflickr.com/65535/49890150602_804a822dbc_n.jpg",
    "id_album": "-318023040",
    "description": "1969_rv_Shelby_rv_GT500_rv_V6_rv_1536",
    "title": "1969_rv_Shelby_rv_GT500_rv_V6_rv_1536",
    "link_img": "https://live.staticflickr.com/65535/49890150602_8df1505d44_o.jpg",
    "id_image": "1969_rv_Shelby_rv_GT500_rv_V6_rv_1536",
    "count_view": 0
  },
  {
    "link_thumb": "https://live.staticflickr.com/65535/49889840376_484334e518_n.jpg",
    "id_album": "-318023040",
    "description": "1969_rv_Shelby_rv_GT500_rv_V7_rv_1536",
    "title": "1969_rv_Shelby_rv_GT500_rv_V7_rv_1536",
    "link_img": "https://live.staticflickr.com/65535/49889840376_7f35202db7_o.jpg",
    "id_image": "1969_rv_Shelby_rv_GT500_rv_V7_rv_1536",
    "count_view": 0
  },
  {
    "link_thumb": "https://live.staticflickr.com/65535/49889840521_e5576a32a9_n.jpg",
    "id_album": "-318023040",
    "description": "1969_rv_Shelby_rv_GT500_rv_V8_rv_1536",
    "title": "1969_rv_Shelby_rv_GT500_rv_V8_rv_1536",
    "link_img": "https://live.staticflickr.com/65535/49889840521_7ab17d0d8d_o.jpg",
    "id_image": "1969_rv_Shelby_rv_GT500_rv_V8_rv_1536",
    "count_view": 0
  },
  {
    "link_thumb": "https://live.staticflickr.com/65535/49889840646_2e40e333db_n.jpg",
    "id_album": "-318023040",
    "description": "1969_rv_Shelby_rv_GT500_rv_V9_rv_1536",
    "title": "1969_rv_Shelby_rv_GT500_rv_V9_rv_1536",
    "link_img": "https://live.staticflickr.com/65535/49889840646_d1ea801b22_o.jpg",
    "id_image": "1969_rv_Shelby_rv_GT500_rv_V9_rv_1536",
    "count_view": 0
  },
  {
    "link_thumb": "https://live.staticflickr.com/65535/49889840766_f00458a919_n.jpg",
    "id_album": "-318023040",
    "description": "2008_rv_Ford_rv_Shelby_rv_Mustang_rv_GT500KR_rv_V1_rv_1536",
    "title": "2008_rv_Ford_rv_Shelby_rv_Mustang_rv_GT500KR_rv_V1_rv_1536",
    "link_img": "https://live.staticflickr.com/65535/49889840766_3ce922bd1b_o.jpg",
    "id_image": "2008_rv_Ford_rv_Shelby_rv_Mustang_rv_GT500KR_rv_V1_rv_1536",
    "count_view": 0
  },
  {
    "link_thumb": "https://live.staticflickr.com/65535/49889841026_113b70e95f_n.jpg",
    "id_album": "-318023040",
    "description": "2008_rv_Ford_rv_Shelby_rv_Mustang_rv_GT500KR_rv_V2_rv_1440",
    "title": "2008_rv_Ford_rv_Shelby_rv_Mustang_rv_GT500KR_rv_V2_rv_1440",
    "link_img": "https://live.staticflickr.com/65535/49889841026_a73311e27a_o.jpg",
    "id_image": "2008_rv_Ford_rv_Shelby_rv_Mustang_rv_GT500KR_rv_V2_rv_1440",
    "count_view": 0
  },
  {
    "link_thumb": "https://live.staticflickr.com/65535/49890151707_a1572cc353_n.jpg",
    "id_album": "-318023040",
    "description": "2008_rv_Ford_rv_Shelby_rv_Mustang_rv_GT500KR_rv_V3_rv_1440",
    "title": "2008_rv_Ford_rv_Shelby_rv_Mustang_rv_GT500KR_rv_V3_rv_1440",
    "link_img": "https://live.staticflickr.com/65535/49890151707_8a5ca8b595_o.jpg",
    "id_image": "2008_rv_Ford_rv_Shelby_rv_Mustang_rv_GT500KR_rv_V3_rv_1440",
    "count_view": 0
  },
  {
    "link_thumb": "https://live.staticflickr.com/65535/49889324763_784105a4d3_n.jpg",
    "id_album": "-318023040",
    "description": "2008_rv_Ford_rv_Shelby_rv_Mustang_rv_GT500KR_rv_V4_rv_1440",
    "title": "2008_rv_Ford_rv_Shelby_rv_Mustang_rv_GT500KR_rv_V4_rv_1440",
    "link_img": "https://live.staticflickr.com/65535/49889324763_b333ed61ec_o.jpg",
    "id_image": "2008_rv_Ford_rv_Shelby_rv_Mustang_rv_GT500KR_rv_V4_rv_1440",
    "count_view": 0
  },
  {
    "link_thumb": "https://live.staticflickr.com/65535/49889325158_69a3a397f0_n.jpg",
    "id_album": "-318023040",
    "description": "2008_rv_Ford_rv_Shelby_rv_Mustang_rv_GT500KR_rv_V5_rv_1440",
    "title": "2008_rv_Ford_rv_Shelby_rv_Mustang_rv_GT500KR_rv_V5_rv_1440",
    "link_img": "https://live.staticflickr.com/65535/49889325158_b5a1026a19_o.jpg",
    "id_image": "2008_rv_Ford_rv_Shelby_rv_Mustang_rv_GT500KR_rv_V5_rv_1440",
    "count_view": 0
  },
  {
    "link_thumb": "https://live.staticflickr.com/65535/49889842461_c1f31479f9_n.jpg",
    "id_album": "-318023040",
    "description": "2008_rv_Ford_rv_Shelby_rv_Mustang_rv_GT500KR_rv_V6_rv_1440",
    "title": "2008_rv_Ford_rv_Shelby_rv_Mustang_rv_GT500KR_rv_V6_rv_1440",
    "link_img": "https://live.staticflickr.com/65535/49889842461_a6a5a9b961_o.jpg",
    "id_image": "2008_rv_Ford_rv_Shelby_rv_Mustang_rv_GT500KR_rv_V6_rv_1440",
    "count_view": 0
  },
  {
    "link_thumb": "https://live.staticflickr.com/65535/49890153307_661873a101_n.jpg",
    "id_album": "-318023040",
    "description": "2008_rv_Ford_rv_Shelby_rv_Mustang_rv_GT500KR_rv_V7_rv_1440",
    "title": "2008_rv_Ford_rv_Shelby_rv_Mustang_rv_GT500KR_rv_V7_rv_1440",
    "link_img": "https://live.staticflickr.com/65535/49890153307_26acb9c726_o.jpg",
    "id_image": "2008_rv_Ford_rv_Shelby_rv_Mustang_rv_GT500KR_rv_V7_rv_1440",
    "count_view": 0
  },
  {
    "link_thumb": "https://live.staticflickr.com/65535/49889326263_8fd81774c6_n.jpg",
    "id_album": "-318023040",
    "description": "2008_rv_Ford_rv_Shelby_rv_Mustang_rv_GT500KR_rv_V8_rv_1440",
    "title": "2008_rv_Ford_rv_Shelby_rv_Mustang_rv_GT500KR_rv_V8_rv_1440",
    "link_img": "https://live.staticflickr.com/65535/49889326263_cbb0001093_o.jpg",
    "id_image": "2008_rv_Ford_rv_Shelby_rv_Mustang_rv_GT500KR_rv_V8_rv_1440",
    "count_view": 0
  },
  {
    "link_thumb": "https://live.staticflickr.com/65535/49890154307_fdca5dd5e7_n.jpg",
    "id_album": "-318023040",
    "description": "2008_rv_Ford_rv_Shelby_rv_Mustang_rv_GT500KR_rv_V9_rv_1440",
    "title": "2008_rv_Ford_rv_Shelby_rv_Mustang_rv_GT500KR_rv_V9_rv_1440",
    "link_img": "https://live.staticflickr.com/65535/49890154307_3de7bab720_o.jpg",
    "id_image": "2008_rv_Ford_rv_Shelby_rv_Mustang_rv_GT500KR_rv_V9_rv_1440",
    "count_view": 0
  },
  {
    "link_thumb": "https://live.staticflickr.com/65535/49889327513_2c62898cc3_n.jpg",
    "id_album": "-318023040",
    "description": "2010_rv_Ford_rv_Shelby_rv_GT500_rv_V1_rv_1440",
    "title": "2010_rv_Ford_rv_Shelby_rv_GT500_rv_V1_rv_1440",
    "link_img": "https://live.staticflickr.com/65535/49889327513_7273956c83_o.jpg",
    "id_image": "2010_rv_Ford_rv_Shelby_rv_GT500_rv_V1_rv_1440",
    "count_view": 0
  },
  {
    "link_thumb": "https://live.staticflickr.com/65535/49889327738_fa4f65ffcb_n.jpg",
    "id_album": "-318023040",
    "description": "2010_rv_Ford_rv_Shelby_rv_GT500_rv_V2_rv_1440",
    "title": "2010_rv_Ford_rv_Shelby_rv_GT500_rv_V2_rv_1440",
    "link_img": "https://live.staticflickr.com/65535/49889327738_19b683aa1b_o.jpg",
    "id_image": "2010_rv_Ford_rv_Shelby_rv_GT500_rv_V2_rv_1440",
    "count_view": 0
  },
  {
    "link_thumb": "https://live.staticflickr.com/65535/49889327903_7161b0e23c_n.jpg",
    "id_album": "-318023040",
    "description": "2010_rv_Ford_rv_Shelby_rv_GT500_rv_V3_rv_1440",
    "title": "2010_rv_Ford_rv_Shelby_rv_GT500_rv_V3_rv_1440",
    "link_img": "https://live.staticflickr.com/65535/49889327903_69af18e6c5_o.jpg",
    "id_image": "2010_rv_Ford_rv_Shelby_rv_GT500_rv_V3_rv_1440",
    "count_view": 0
  },
  {
    "link_thumb": "https://live.staticflickr.com/65535/49889328033_7a9338cc56_n.jpg",
    "id_album": "-318023040",
    "description": "2010_rv_Ford_rv_Shelby_rv_GT500_rv_V4_rv_1440",
    "title": "2010_rv_Ford_rv_Shelby_rv_GT500_rv_V4_rv_1440",
    "link_img": "https://live.staticflickr.com/65535/49889328033_9b6732bf64_o.jpg",
    "id_image": "2010_rv_Ford_rv_Shelby_rv_GT500_rv_V4_rv_1440",
    "count_view": 0
  },
  {
    "link_thumb": "https://live.staticflickr.com/65535/49890155547_ff7d6dd82f_n.jpg",
    "id_album": "-318023040",
    "description": "2010_rv_Ford_rv_Shelby_rv_GT500_rv_V5_rv_1440",
    "title": "2010_rv_Ford_rv_Shelby_rv_GT500_rv_V5_rv_1440",
    "link_img": "https://live.staticflickr.com/65535/49890155547_2eaacb4cc7_o.jpg",
    "id_image": "2010_rv_Ford_rv_Shelby_rv_GT500_rv_V5_rv_1440",
    "count_view": 0
  },
  {
    "link_thumb": "https://live.staticflickr.com/65535/49889328283_a28b0b3386_n.jpg",
    "id_album": "-318023040",
    "description": "2011_rv_Ford_rv_Shelby_rv_GT500_rv_Convertible_rv_V1_rv_1440",
    "title": "2011_rv_Ford_rv_Shelby_rv_GT500_rv_Convertible_rv_V1_rv_1440",
    "link_img": "https://live.staticflickr.com/65535/49889328283_a3868ee805_o.jpg",
    "id_image": "2011_rv_Ford_rv_Shelby_rv_GT500_rv_Convertible_rv_V1_rv_1440",
    "count_view": 0
  },
  {
    "link_thumb": "https://live.staticflickr.com/65535/49889328358_e2eb69ef9c_n.jpg",
    "id_album": "-318023040",
    "description": "2011_rv_Ford_rv_Shelby_rv_GT500_rv_Convertible_rv_V2_rv_1440",
    "title": "2011_rv_Ford_rv_Shelby_rv_GT500_rv_Convertible_rv_V2_rv_1440",
    "link_img": "https://live.staticflickr.com/65535/49889328358_644e45aacd_o.jpg",
    "id_image": "2011_rv_Ford_rv_Shelby_rv_GT500_rv_Convertible_rv_V2_rv_1440",
    "count_view": 0
  },
  {
    "link_thumb": "https://live.staticflickr.com/65535/49889328478_350eb27502_n.jpg",
    "id_album": "-318023040",
    "description": "2013_rv_Ford_rv_Mustang_rv_Shelby_rv_GT500_rv_Cobra_rv_V1_rv_2000",
    "title": "2013_rv_Ford_rv_Mustang_rv_Shelby_rv_GT500_rv_Cobra_rv_V1_rv_2000",
    "link_img": "https://live.staticflickr.com/65535/49889328478_cc42458d37_o.jpg",
    "id_image": "2013_rv_Ford_rv_Mustang_rv_Shelby_rv_GT500_rv_Cobra_rv_V1_rv_2000",
    "count_view": 0
  },
  {
    "link_thumb": "https://live.staticflickr.com/65535/49889845471_56834b5251_n.jpg",
    "id_album": "-318023040",
    "description": "2013_rv_Ford_rv_Mustang_rv_Shelby_rv_GT500_rv_Cobra_rv_V2_rv_2000",
    "title": "2013_rv_Ford_rv_Mustang_rv_Shelby_rv_GT500_rv_Cobra_rv_V2_rv_2000",
    "link_img": "https://live.staticflickr.com/65535/49889845471_31deba616b_o.jpg",
    "id_image": "2013_rv_Ford_rv_Mustang_rv_Shelby_rv_GT500_rv_Cobra_rv_V2_rv_2000",
    "count_view": 0
  },
  {
    "link_thumb": "https://live.staticflickr.com/65535/49889845636_1d40a44cca_n.jpg",
    "id_album": "-318023040",
    "description": "2013_rv_Ford_rv_Shelby_rv_GT500_rv_V1_rv_1440",
    "title": "2013_rv_Ford_rv_Shelby_rv_GT500_rv_V1_rv_1440",
    "link_img": "https://live.staticflickr.com/65535/49889845636_d34bec5565_o.jpg",
    "id_image": "2013_rv_Ford_rv_Shelby_rv_GT500_rv_V1_rv_1440",
    "count_view": 0
  },
  {
    "link_thumb": "https://live.staticflickr.com/65535/49890156502_e27da7cb59_n.jpg",
    "id_album": "-318023040",
    "description": "2013_rv_Ford_rv_Shelby_rv_GT500_rv_V2_rv_1440",
    "title": "2013_rv_Ford_rv_Shelby_rv_GT500_rv_V2_rv_1440",
    "link_img": "https://live.staticflickr.com/65535/49890156502_4b69bd55d8_o.jpg",
    "id_image": "2013_rv_Ford_rv_Shelby_rv_GT500_rv_V2_rv_1440",
    "count_view": 0
  },
  {
    "link_thumb": "https://live.staticflickr.com/65535/49890156652_4c673c93bd_n.jpg",
    "id_album": "-318023040",
    "description": "2013_rv_Ford_rv_Shelby_rv_GT500_rv_V3_rv_1440",
    "title": "2013_rv_Ford_rv_Shelby_rv_GT500_rv_V3_rv_1440",
    "link_img": "https://live.staticflickr.com/65535/49890156652_fdbc99dbc3_o.jpg",
    "id_image": "2013_rv_Ford_rv_Shelby_rv_GT500_rv_V3_rv_1440",
    "count_view": 0
  },
  {
    "link_thumb": "https://live.staticflickr.com/65535/49889846036_3c345545df_n.jpg",
    "id_album": "-318023040",
    "description": "2013_rv_Ford_rv_Shelby_rv_Mustang_rv_GT500_rv_Convertible_rv_V1_rv_1440",
    "title": "2013_rv_Ford_rv_Shelby_rv_Mustang_rv_GT500_rv_Convertible_rv_V1_rv_1440",
    "link_img": "https://live.staticflickr.com/65535/49889846036_7440d7cc42_o.jpg",
    "id_image": "2013_rv_Ford_rv_Shelby_rv_Mustang_rv_GT500_rv_Convertible_rv_V1_rv_1440",
    "count_view": 0
  },
  {
    "link_thumb": "https://live.staticflickr.com/65535/49889846201_88b75e2912_n.jpg",
    "id_album": "-318023040",
    "description": "2013_rv_Ford_rv_Shelby_rv_Mustang_rv_GT500_rv_Convertible_rv_V2_rv_1440",
    "title": "2013_rv_Ford_rv_Shelby_rv_Mustang_rv_GT500_rv_Convertible_rv_V2_rv_1440",
    "link_img": "https://live.staticflickr.com/65535/49889846201_bdb99f3f3f_o.jpg",
    "id_image": "2013_rv_Ford_rv_Shelby_rv_Mustang_rv_GT500_rv_Convertible_rv_V2_rv_1440",
    "count_view": 0
  },
  {
    "link_thumb": "https://live.staticflickr.com/65535/49890157107_b4f1c06ace_n.jpg",
    "id_album": "-318023040",
    "description": "2014_rv_Ford_rv_Shelby_rv_GT500_rv_V1_rv_1600",
    "title": "2014_rv_Ford_rv_Shelby_rv_GT500_rv_V1_rv_1600",
    "link_img": "https://live.staticflickr.com/65535/49890157107_7d1c0c9985_o.jpg",
    "id_image": "2014_rv_Ford_rv_Shelby_rv_GT500_rv_V1_rv_1600",
    "count_view": 0
  },
  {
    "link_thumb": "https://live.staticflickr.com/65535/49889329633_47c56931f5_n.jpg",
    "id_album": "-318023040",
    "description": "2014_rv_Ford_rv_Shelby_rv_GT500_rv_V2_rv_1600",
    "title": "2014_rv_Ford_rv_Shelby_rv_GT500_rv_V2_rv_1600",
    "link_img": "https://live.staticflickr.com/65535/49889329633_70938f9e7c_o.jpg",
    "id_image": "2014_rv_Ford_rv_Shelby_rv_GT500_rv_V2_rv_1600",
    "count_view": 0
  },
  {
    "link_thumb": "https://live.staticflickr.com/65535/49889846721_df8f517ce0_n.jpg",
    "id_album": "-318023040",
    "description": "2014_rv_Ford_rv_Shelby_rv_GT500_rv_V3_rv_1600",
    "title": "2014_rv_Ford_rv_Shelby_rv_GT500_rv_V3_rv_1600",
    "link_img": "https://live.staticflickr.com/65535/49889846721_fedf4169e3_o.jpg",
    "id_image": "2014_rv_Ford_rv_Shelby_rv_GT500_rv_V3_rv_1600",
    "count_view": 0
  },
  {
    "link_thumb": "https://live.staticflickr.com/65535/49890157522_fae1c6c79e_n.jpg",
    "id_album": "-318023040",
    "description": "2014_rv_Ford_rv_Shelby_rv_GT500_rv_V4_rv_1600",
    "title": "2014_rv_Ford_rv_Shelby_rv_GT500_rv_V4_rv_1600",
    "link_img": "https://live.staticflickr.com/65535/49890157522_e6691b1d79_o.jpg",
    "id_image": "2014_rv_Ford_rv_Shelby_rv_GT500_rv_V4_rv_1600",
    "count_view": 0
  },
  {
    "link_thumb": "https://live.staticflickr.com/65535/49890157677_590ca2a174_n.jpg",
    "id_album": "-318023040",
    "description": "2014_rv_Ford_rv_Shelby_rv_GT500_rv_V5_rv_1600",
    "title": "2014_rv_Ford_rv_Shelby_rv_GT500_rv_V5_rv_1600",
    "link_img": "https://live.staticflickr.com/65535/49890157677_cbebbb98da_o.jpg",
    "id_image": "2014_rv_Ford_rv_Shelby_rv_GT500_rv_V5_rv_1600",
    "count_view": 0
  }
]