[
  {
    "link_thumb": "https://live.staticflickr.com/65535/48122069768_9a882574d3_n.jpg",
    "id_album": "-1217333387",
    "description": "Renault_843789",
    "title": "Renault_843789",
    "link_img": "https://live.staticflickr.com/65535/48122069768_59d35732d8_o.jpg",
    "id_image": "Renault_843789",
    "count_view": 0
  },
  {
    "link_thumb": "https://live.staticflickr.com/65535/49890454902_52efd927e2_n.jpg",
    "id_album": "636428280",
    "description": "2013_rv_Lamborghini_rv_Gallardo_rv_LP_rv_570_rv_4_rv_Edizione_rv_Tecnica_rv_V2_rv_1440",
    "title": "2013_rv_Lamborghini_rv_Gallardo_rv_LP_rv_570_rv_4_rv_Edizione_rv_Tecnica_rv_V2_rv_1440",
    "link_img": "https://live.staticflickr.com/65535/49890454902_ed1aab465a_o.jpg",
    "id_image": "2013_rv_Lamborghini_rv_Gallardo_rv_LP_rv_570_rv_4_rv_Edizione_rv_Tecnica_rv_V2_rv_1440",
    "count_view": 0
  },
  {
    "link_thumb": "https://live.staticflickr.com/65535/49891763103_18737fa3bd_n.jpg",
    "id_album": "-1552789430",
    "description": "2015_rv_Renovo_rv_Coupe_rv_V1_rv_1440",
    "title": "2015_rv_Renovo_rv_Coupe_rv_V1_rv_1440",
    "link_img": "https://live.staticflickr.com/65535/49891763103_620a300ea1_o.jpg",
    "id_image": "2015_rv_Renovo_rv_Coupe_rv_V1_rv_1440",
    "count_view": 0
  },
  {
    "link_thumb": "https://live.staticflickr.com/65535/48113325983_7c0a044575_n.jpg",
    "id_album": "727633301",
    "description": "BMW_985278",
    "title": "BMW_985278",
    "link_img": "https://live.staticflickr.com/65535/48113325983_23627998cc_o.jpg",
    "id_image": "BMW_985278",
    "count_view": 0
  },
  {
    "link_thumb": "https://live.staticflickr.com/65535/48114320853_60cdd687b6_n.jpg",
    "id_album": "-1721545051",
    "description": "Chevrolet_471704",
    "title": "Chevrolet_471704",
    "link_img": "https://live.staticflickr.com/65535/48114320853_1d79a1d43b_o.jpg",
    "id_image": "Chevrolet_471704",
    "count_view": 0
  },
  {
    "link_thumb": "https://live.staticflickr.com/65535/48122319163_3829121cfb_n.jpg",
    "id_album": "-58240507",
    "description": "Studebaker_217897",
    "title": "Studebaker_217897",
    "link_img": "https://live.staticflickr.com/65535/48122319163_5aaa249923_o.jpg",
    "id_image": "Studebaker_217897",
    "count_view": 0
  },
  {
    "link_thumb": "https://live.staticflickr.com/65535/48119184297_fd3c512a69_n.jpg",
    "id_album": "697984456",
    "description": "Maserati_450611",
    "title": "Maserati_450611",
    "link_img": "https://live.staticflickr.com/65535/48119184297_60d2f82cee_o.jpg",
    "id_image": "Maserati_450611",
    "count_view": 0
  },
  {
    "link_thumb": "https://live.staticflickr.com/65535/48118410948_e90dea646c_n.jpg",
    "id_album": "-2100339805",
    "description": "Lamborghini_366904",
    "title": "Lamborghini_366904",
    "link_img": "https://live.staticflickr.com/65535/48118410948_347a28dbaa_o.jpg",
    "id_image": "Lamborghini_366904",
    "count_view": 0
  },
  {
    "link_thumb": "https://live.staticflickr.com/65535/49889828891_773d9ec65e_n.jpg",
    "id_album": "-1617578684",
    "description": "2019_rv_Porsche_rv_911_rv_GT3_rv_RS_rv_V2_rv_2000",
    "title": "2019_rv_Porsche_rv_911_rv_GT3_rv_RS_rv_V2_rv_2000",
    "link_img": "https://live.staticflickr.com/65535/49889828891_da06b2e9d7_o.jpg",
    "id_image": "2019_rv_Porsche_rv_911_rv_GT3_rv_RS_rv_V2_rv_2000",
    "count_view": 0
  },
  {
    "link_thumb": "https://live.staticflickr.com/65535/48118710837_75e4e51678_n.jpg",
    "id_album": "-2100339805",
    "description": "Lamborghini_844355",
    "title": "Lamborghini_844355",
    "link_img": "https://live.staticflickr.com/65535/48118710837_b88f0b2397_o.jpg",
    "id_image": "Lamborghini_844355",
    "count_view": 0
  },
  {
    "link_thumb": "https://live.staticflickr.com/65535/48114138961_a9b9848b71_n.jpg",
    "id_album": "-1721545051",
    "description": "Chevrolet_358126",
    "title": "Chevrolet_358126",
    "link_img": "https://live.staticflickr.com/65535/48114138961_ec68a36aed_o.jpg",
    "id_image": "Chevrolet_358126",
    "count_view": 0
  },
  {
    "link_thumb": "https://live.staticflickr.com/65535/48115174787_9cc93cbb53_n.jpg",
    "id_album": "413141323",
    "description": "Dodge_241091",
    "title": "Dodge_241091",
    "link_img": "https://live.staticflickr.com/65535/48115174787_02b3eb4e00_o.jpg",
    "id_image": "Dodge_241091",
    "count_view": 0
  },
  {
    "link_thumb": "https://live.staticflickr.com/65535/48120688433_2c72533a9f_n.jpg",
    "id_album": "-6897294",
    "description": "Opel_12529",
    "title": "Opel_12529",
    "link_img": "https://live.staticflickr.com/65535/48120688433_0d92cff66a_o.jpg",
    "id_image": "Opel_12529",
    "count_view": 0
  },
  {
    "link_thumb": "https://live.staticflickr.com/65535/48112960302_049c92c590_n.jpg",
    "id_album": "727633301",
    "description": "BMW_483492",
    "title": "BMW_483492",
    "link_img": "https://live.staticflickr.com/65535/48112960302_2bd4850e70_o.jpg",
    "id_image": "BMW_483492",
    "count_view": 0
  },
  {
    "link_thumb": "https://live.staticflickr.com/65535/48112151981_dec988814b_n.jpg",
    "id_album": "555757480",
    "description": "AstonMartin_498728",
    "title": "AstonMartin_498728",
    "link_img": "https://live.staticflickr.com/65535/48112151981_ec4b21a560_o.jpg",
    "id_image": "AstonMartin_498728",
    "count_view": 0
  },
  {
    "link_thumb": "https://live.staticflickr.com/65535/48119396163_f006e0fa9e_n.jpg",
    "id_album": "990865885",
    "description": "McLaren_880417",
    "title": "McLaren_880417",
    "link_img": "https://live.staticflickr.com/65535/48119396163_e4c0792b45_o.jpg",
    "id_image": "McLaren_880417",
    "count_view": 0
  },
  {
    "link_thumb": "https://live.staticflickr.com/65535/48118865948_44a69e2daa_n.jpg",
    "id_album": "446908717",
    "description": "Lexus_226325",
    "title": "Lexus_226325",
    "link_img": "https://live.staticflickr.com/65535/48118865948_38548e9944_o.jpg",
    "id_image": "Lexus_226325",
    "count_view": 0
  },
  {
    "link_thumb": "https://live.staticflickr.com/65535/49888211933_e2704ef9c3_n.jpg",
    "id_album": "1761739892",
    "description": "2002_rv_Acura_rv_RSX_rv_A_rv_Spec_rv_V3_rv_1440",
    "title": "2002_rv_Acura_rv_RSX_rv_A_rv_Spec_rv_V3_rv_1440",
    "link_img": "https://live.staticflickr.com/65535/49888211933_10ffa68d4e_o.jpg",
    "id_image": "2002_rv_Acura_rv_RSX_rv_A_rv_Spec_rv_V3_rv_1440",
    "count_view": 0
  },
  {
    "link_thumb": "https://live.staticflickr.com/65535/48118978826_d4bd4da5f4_n.jpg",
    "id_album": "-120702461",
    "description": "Lincoln_273603",
    "title": "Lincoln_273603",
    "link_img": "https://live.staticflickr.com/65535/48118978826_b4a8854b2e_o.jpg",
    "id_image": "Lincoln_273603",
    "count_view": 0
  },
  {
    "link_thumb": "https://live.staticflickr.com/65535/48119758407_45d0d6fd83_n.jpg",
    "id_album": "-731054311",
    "description": "MercedesBenz_434425",
    "title": "MercedesBenz_434425",
    "link_img": "https://live.staticflickr.com/65535/48119758407_ce8fac9bc0_o.jpg",
    "id_image": "MercedesBenz_434425",
    "count_view": 0
  },
  {
    "link_thumb": "https://live.staticflickr.com/65535/48114768463_21637510b8_n.jpg",
    "id_album": "939606447",
    "description": "Chrysler_190737",
    "title": "Chrysler_190737",
    "link_img": "https://live.staticflickr.com/65535/48114768463_2d5d5eb2a3_o.jpg",
    "id_image": "Chrysler_190737",
    "count_view": 0
  },
  {
    "link_thumb": "https://live.staticflickr.com/65535/49891659518_6121819cae_n.jpg",
    "id_album": "-1623804583",
    "description": "1995_rv_Nissan_rv_Skyline_rv_GT_rv_R_rv_V3_rv_2160",
    "title": "1995_rv_Nissan_rv_Skyline_rv_GT_rv_R_rv_V3_rv_2160",
    "link_img": "https://live.staticflickr.com/65535/49891659518_70dfe00676_o.jpg",
    "id_image": "1995_rv_Nissan_rv_Skyline_rv_GT_rv_R_rv_V3_rv_2160",
    "count_view": 0
  },
  {
    "link_thumb": "https://live.staticflickr.com/65535/48122890448_3a899d59d8_n.jpg",
    "id_album": "-150952028",
    "description": "Volkswagen_207144",
    "title": "Volkswagen_207144",
    "link_img": "https://live.staticflickr.com/65535/48122890448_53de3f2d7e_o.jpg",
    "id_image": "Volkswagen_207144",
    "count_view": 0
  },
  {
    "link_thumb": "https://live.staticflickr.com/65535/48112242262_3885774b62_n.jpg",
    "id_album": "548548524",
    "description": "AstonMartin_470292",
    "title": "AstonMartin_470292",
    "link_img": "https://live.staticflickr.com/65535/48112242262_02e00a194b_o.jpg",
    "id_image": "AstonMartin_470292",
    "count_view": 0
  },
  {
    "link_thumb": "https://live.staticflickr.com/65535/49892625117_a701b00735_n.jpg",
    "id_album": "1934932419",
    "description": "2008_rv_Seat_rv_Ibiza_rv_Cupra_rv_V2_rv_1440",
    "title": "2008_rv_Seat_rv_Ibiza_rv_Cupra_rv_V2_rv_1440",
    "link_img": "https://live.staticflickr.com/65535/49892625117_1814a57e40_o.jpg",
    "id_image": "2008_rv_Seat_rv_Ibiza_rv_Cupra_rv_V2_rv_1440",
    "count_view": 0
  },
  {
    "link_thumb": "https://live.staticflickr.com/65535/48115788741_9bf92dfe15_n.jpg",
    "id_album": "1364506720",
    "description": "Ferrari_317743",
    "title": "Ferrari_317743",
    "link_img": "https://live.staticflickr.com/65535/48115788741_a782578e48_o.jpg",
    "id_image": "Ferrari_317743",
    "count_view": 0
  },
  {
    "link_thumb": "https://live.staticflickr.com/65535/49888900003_69fe1d7ff9_n.jpg",
    "id_album": "-1219799180",
    "description": "2015_rv_BMW_rv_M3_rv_Sedan_rv_V10_rv_1600",
    "title": "2015_rv_BMW_rv_M3_rv_Sedan_rv_V10_rv_1600",
    "link_img": "https://live.staticflickr.com/65535/49888900003_6ffde7eef6_o.jpg",
    "id_image": "2015_rv_BMW_rv_M3_rv_Sedan_rv_V10_rv_1600",
    "count_view": 0
  },
  {
    "link_thumb": "https://live.staticflickr.com/65535/49889601658_dd03b01b03_n.jpg",
    "id_album": "1554721686",
    "description": "2019_rv_Lamborghini_rv_Lambo_rv_V12_rv_Vision_rv_Gran_rv_Turismo_rv_Concept_rv_V5_rv_2160",
    "title": "2019_rv_Lamborghini_rv_Lambo_rv_V12_rv_Vision_rv_Gran_rv_Turismo_rv_Concept_rv_V5_rv_2160",
    "link_img": "https://live.staticflickr.com/65535/49889601658_17bcba4277_o.jpg",
    "id_image": "2019_rv_Lamborghini_rv_Lambo_rv_V12_rv_Vision_rv_Gran_rv_Turismo_rv_Concept_rv_V5_rv_2160",
    "count_view": 0
  },
  {
    "link_thumb": "https://live.staticflickr.com/65535/48118511041_ec4e40a230_n.jpg",
    "id_album": "-2100339805",
    "description": "Lamborghini_519865",
    "title": "Lamborghini_519865",
    "link_img": "https://live.staticflickr.com/65535/48118511041_bfcdb56168_o.jpg",
    "id_image": "Lamborghini_519865",
    "count_view": 0
  },
  {
    "link_thumb": "https://live.staticflickr.com/65535/48112879836_6a67b80e02_n.jpg",
    "id_album": "727633301",
    "description": "BMW_486696",
    "title": "BMW_486696",
    "link_img": "https://live.staticflickr.com/65535/48112879836_6d1c9be5d3_o.jpg",
    "id_image": "BMW_486696",
    "count_view": 0
  },
  {
    "link_thumb": "https://live.staticflickr.com/65535/48112747617_fbae9a7da7_n.jpg",
    "id_album": "727633301",
    "description": "BMW_253925",
    "title": "BMW_253925",
    "link_img": "https://live.staticflickr.com/65535/48112747617_03a0aacfd1_o.jpg",
    "id_image": "BMW_253925",
    "count_view": 0
  },
  {
    "link_thumb": "https://live.staticflickr.com/65535/49890887207_4bb7a53fc3_n.jpg",
    "id_album": "-81448276",
    "description": "2021_rv_McLaren_rv_Elva_rv_M1A_rv_Theme_rv_by_rv_MSO_rv_V1_rv_2160",
    "title": "2021_rv_McLaren_rv_Elva_rv_M1A_rv_Theme_rv_by_rv_MSO_rv_V1_rv_2160",
    "link_img": "https://live.staticflickr.com/65535/49890887207_76d01266c8_o.jpg",
    "id_image": "2021_rv_McLaren_rv_Elva_rv_M1A_rv_Theme_rv_by_rv_MSO_rv_V1_rv_2160",
    "count_view": 0
  },
  {
    "link_thumb": "https://live.staticflickr.com/65535/48121287418_6c9e298c0b_n.jpg",
    "id_album": "-1178450892",
    "description": "Porsche_257652",
    "title": "Porsche_257652",
    "link_img": "https://live.staticflickr.com/65535/48121287418_1f1404615b_o.jpg",
    "id_image": "Porsche_257652",
    "count_view": 0
  },
  {
    "link_thumb": "https://live.staticflickr.com/65535/49890734078_c7353b6390_n.jpg",
    "id_album": "1853044699",
    "description": "2016_rv_Peugeot_rv_308_rv_GTi_rv_V6_rv_1600",
    "title": "2016_rv_Peugeot_rv_308_rv_GTi_rv_V6_rv_1600",
    "link_img": "https://live.staticflickr.com/65535/49890734078_4fbe0ce638_o.jpg",
    "id_image": "2016_rv_Peugeot_rv_308_rv_GTi_rv_V6_rv_1600",
    "count_view": 0
  },
  {
    "link_thumb": "https://live.staticflickr.com/65535/49890836242_f5f3b7c8be_n.jpg",
    "id_album": "819163142",
    "description": "2018_rv_McLaren_rv_MSO_rv_X_rv_V4_rv_2000",
    "title": "2018_rv_McLaren_rv_MSO_rv_X_rv_V4_rv_2000",
    "link_img": "https://live.staticflickr.com/65535/49890836242_e212f98739_o.jpg",
    "id_image": "2018_rv_McLaren_rv_MSO_rv_X_rv_V4_rv_2000",
    "count_view": 0
  },
  {
    "link_thumb": "https://live.staticflickr.com/65535/48112679506_e1c1804cf7_n.jpg",
    "id_album": "727633301",
    "description": "BMW_272836",
    "title": "BMW_272836",
    "link_img": "https://live.staticflickr.com/65535/48112679506_6b18492182_o.jpg",
    "id_image": "BMW_272836",
    "count_view": 0
  },
  {
    "link_thumb": "https://live.staticflickr.com/65535/49954678872_c10a8bcd91_n.jpg",
    "id_album": "2085390830",
    "description": "1975_rv_BMW_rv_3.0_rv_CSL_rv_Race_rv_Car_rv_V2_rv_1536",
    "title": "1975_rv_BMW_rv_3.0_rv_CSL_rv_Race_rv_Car_rv_V2_rv_1536",
    "link_img": "https://live.staticflickr.com/65535/49954678872_9b045e5d26_o.jpg",
    "id_image": "1975_rv_BMW_rv_3.0_rv_CSL_rv_Race_rv_Car_rv_V2_rv_1536",
    "count_view": 0
  },
  {
    "link_thumb": "https://live.staticflickr.com/65535/48118665146_e77713802c_n.jpg",
    "id_album": "-2100339805",
    "description": "Lamborghini_928593",
    "title": "Lamborghini_928593",
    "link_img": "https://live.staticflickr.com/65535/48118665146_1296f967d9_o.jpg",
    "id_image": "Lamborghini_928593",
    "count_view": 0
  },
  {
    "link_thumb": "https://live.staticflickr.com/65535/48116756796_ebec3c2336_n.jpg",
    "id_album": "-1846404630",
    "description": "Ford_211110",
    "title": "Ford_211110",
    "link_img": "https://live.staticflickr.com/65535/48116756796_9800fcddc8_o.jpg",
    "id_image": "Ford_211110",
    "count_view": 0
  },
  {
    "link_thumb": "https://live.staticflickr.com/65535/48119396008_53d33dcd70_n.jpg",
    "id_album": "990865885",
    "description": "McLaren_880416",
    "title": "McLaren_880416",
    "link_img": "https://live.staticflickr.com/65535/48119396008_c442917932_o.jpg",
    "id_image": "McLaren_880416",
    "count_view": 0
  },
  {
    "link_thumb": "https://live.staticflickr.com/65535/48119033891_c7688809dc_n.jpg",
    "id_album": "-1153253263",
    "description": "Lotus_893132",
    "title": "Lotus_893132",
    "link_img": "https://live.staticflickr.com/65535/48119033891_648d7587fe_o.jpg",
    "id_image": "Lotus_893132",
    "count_view": 0
  },
  {
    "link_thumb": "https://live.staticflickr.com/65535/48114010221_6f6299e491_n.jpg",
    "id_album": "-1721545051",
    "description": "Chevrolet_289013",
    "title": "Chevrolet_289013",
    "link_img": "https://live.staticflickr.com/65535/48114010221_6c08ae82ae_o.jpg",
    "id_image": "Chevrolet_289013",
    "count_view": 0
  },
  {
    "link_thumb": "https://live.staticflickr.com/65535/49888621348_81d28367e3_n.jpg",
    "id_album": "-1839908265",
    "description": "2020_rv_BMW_rv_M8_rv_Competition_rv_V6_rv_2160",
    "title": "2020_rv_BMW_rv_M8_rv_Competition_rv_V6_rv_2160",
    "link_img": "https://live.staticflickr.com/65535/49888621348_6f274a39f2_o.jpg",
    "id_image": "2020_rv_BMW_rv_M8_rv_Competition_rv_V6_rv_2160",
    "count_view": 0
  },
  {
    "link_thumb": "https://live.staticflickr.com/65535/49888996071_102b984624_n.jpg",
    "id_album": "-446569246",
    "description": "2020_rv_Audi_rv_RS7_rv_Sportback_rv_V8_rv_2160",
    "title": "2020_rv_Audi_rv_RS7_rv_Sportback_rv_V8_rv_2160",
    "link_img": "https://live.staticflickr.com/65535/49888996071_d5d268f486_o.jpg",
    "id_image": "2020_rv_Audi_rv_RS7_rv_Sportback_rv_V8_rv_2160",
    "count_view": 0
  },
  {
    "link_thumb": "https://live.staticflickr.com/65535/48122851702_46022273a6_n.jpg",
    "id_album": "1274920659",
    "description": "Toyota_630608",
    "title": "Toyota_630608",
    "link_img": "https://live.staticflickr.com/65535/48122851702_17e9825b7a_o.jpg",
    "id_image": "Toyota_630608",
    "count_view": 0
  },
  {
    "link_thumb": "https://live.staticflickr.com/65535/48117234308_50015c0763_n.jpg",
    "id_album": "-1846404630",
    "description": "Ford_450677",
    "title": "Ford_450677",
    "link_img": "https://live.staticflickr.com/65535/48117234308_96a7330feb_o.jpg",
    "id_image": "Ford_450677",
    "count_view": 0
  },
  {
    "link_thumb": "https://live.staticflickr.com/65535/48112906293_a11b89e4ca_n.jpg",
    "id_album": "727633301",
    "description": "BMW_484623",
    "title": "BMW_484623",
    "link_img": "https://live.staticflickr.com/65535/48112906293_34e01b6e99_o.jpg",
    "id_image": "BMW_484623",
    "count_view": 0
  },
  {
    "link_thumb": "https://live.staticflickr.com/65535/49892697237_aa56c7ee25_n.jpg",
    "id_album": "-189032193",
    "description": "2004_rv_Skoda_rv_Octavia_rv_RS_rv_V5_rv_1536",
    "title": "2004_rv_Skoda_rv_Octavia_rv_RS_rv_V5_rv_1536",
    "link_img": "https://live.staticflickr.com/65535/49892697237_60c5c7ab95_o.jpg",
    "id_image": "2004_rv_Skoda_rv_Octavia_rv_RS_rv_V5_rv_1536",
    "count_view": 0
  },
  {
    "link_thumb": "https://live.staticflickr.com/65535/48113315213_ef6b6a87b7_n.jpg",
    "id_album": "727633301",
    "description": "BMW_98000",
    "title": "BMW_98000",
    "link_img": "https://live.staticflickr.com/65535/48113315213_7016146731_o.jpg",
    "id_image": "BMW_98000",
    "count_view": 0
  },
  {
    "link_thumb": "https://live.staticflickr.com/65535/48112272821_7ba4e583e8_n.jpg",
    "id_album": "-15119147",
    "description": "Audi_355021",
    "title": "Audi_355021",
    "link_img": "https://live.staticflickr.com/65535/48112272821_5178b0538a_o.jpg",
    "id_image": "Audi_355021",
    "count_view": 0
  },
  {
    "link_thumb": "https://live.staticflickr.com/65535/48123175866_d383595397_n.jpg",
    "id_album": "1159292543",
    "description": "Volvo_879639",
    "title": "Volvo_879639",
    "link_img": "https://live.staticflickr.com/65535/48123175866_6d2154ec5c_o.jpg",
    "id_image": "Volvo_879639",
    "count_view": 0
  },
  {
    "link_thumb": "https://live.staticflickr.com/65535/49891381301_cb7bc44d48_n.jpg",
    "id_album": "-857328710",
    "description": "2010_rv_Porsche_rv_Boxster_rv_Spyder_rv_V6_rv_1440",
    "title": "2010_rv_Porsche_rv_Boxster_rv_Spyder_rv_V6_rv_1440",
    "link_img": "https://live.staticflickr.com/65535/49891381301_8795c60a7e_o.jpg",
    "id_image": "2010_rv_Porsche_rv_Boxster_rv_Spyder_rv_V6_rv_1440",
    "count_view": 0
  },
  {
    "link_thumb": "https://live.staticflickr.com/65535/48112385016_8d441d701f_n.jpg",
    "id_album": "-15119147",
    "description": "Audi_724527",
    "title": "Audi_724527",
    "link_img": "https://live.staticflickr.com/65535/48112385016_3772094e1a_o.jpg",
    "id_image": "Audi_724527",
    "count_view": 0
  },
  {
    "link_thumb": "https://live.staticflickr.com/65535/48122375476_d1dcdc4f44_n.jpg",
    "id_album": "422322641",
    "description": "Subaru_221679",
    "title": "Subaru_221679",
    "link_img": "https://live.staticflickr.com/65535/48122375476_f18b6783dc_o.jpg",
    "id_image": "Subaru_221679",
    "count_view": 0
  },
  {
    "link_thumb": "https://live.staticflickr.com/65535/48117550377_06097ea1ce_n.jpg",
    "id_album": "-1846404630",
    "description": "Ford_785750",
    "title": "Ford_785750",
    "link_img": "https://live.staticflickr.com/65535/48117550377_a13f895d6e_o.jpg",
    "id_image": "Ford_785750",
    "count_view": 0
  },
  {
    "link_thumb": "https://live.staticflickr.com/65535/48120118637_e0b27336cc_n.jpg",
    "id_album": "-1116477526",
    "description": "Mitsubishi_257462",
    "title": "Mitsubishi_257462",
    "link_img": "https://live.staticflickr.com/65535/48120118637_354eb16ffa_o.jpg",
    "id_image": "Mitsubishi_257462",
    "count_view": 0
  },
  {
    "link_thumb": "https://live.staticflickr.com/65535/48118848223_2287dc4e2c_n.jpg",
    "id_album": "1234246491",
    "description": "LandRover_893187",
    "title": "LandRover_893187",
    "link_img": "https://live.staticflickr.com/65535/48118848223_ab6eb57a71_o.jpg",
    "id_image": "LandRover_893187",
    "count_view": 0
  },
  {
    "link_thumb": "https://live.staticflickr.com/65535/48113764963_13844161a5_n.jpg",
    "id_album": "-1721545051",
    "description": "Chevrolet_178361",
    "title": "Chevrolet_178361",
    "link_img": "https://live.staticflickr.com/65535/48113764963_eb04a628d3_o.jpg",
    "id_image": "Chevrolet_178361",
    "count_view": 0
  },
  {
    "link_thumb": "https://live.staticflickr.com/65535/48121087658_45feb427e3_n.jpg",
    "id_album": "-2099496752",
    "description": "Pontiac_150754",
    "title": "Pontiac_150754",
    "link_img": "https://live.staticflickr.com/65535/48121087658_566800be9e_o.jpg",
    "id_image": "Pontiac_150754",
    "count_view": 0
  },
  {
    "link_thumb": "https://live.staticflickr.com/65535/49889658731_7a886e1083_n.jpg",
    "id_album": "-135411974",
    "description": "1967_rv_Shelby_rv_GT350_rv_V5_rv_1600",
    "title": "1967_rv_Shelby_rv_GT350_rv_V5_rv_1600",
    "link_img": "https://live.staticflickr.com/65535/49889658731_d939cf399b_o.jpg",
    "id_image": "1967_rv_Shelby_rv_GT350_rv_V5_rv_1600",
    "count_view": 0
  },
  {
    "link_thumb": "https://live.staticflickr.com/65535/48114728491_28483cfa09_n.jpg",
    "id_album": "939606447",
    "description": "Chrysler_176918",
    "title": "Chrysler_176918",
    "link_img": "https://live.staticflickr.com/65535/48114728491_8b21176e5a_o.jpg",
    "id_image": "Chrysler_176918",
    "count_view": 0
  },
  {
    "link_thumb": "https://live.staticflickr.com/65535/49889989847_b339b247d5_n.jpg",
    "id_album": "-1221805240",
    "description": "2012_rv_Ford_rv_Mustang_rv_Boss_rv_302_rv_V5_rv_1536",
    "title": "2012_rv_Ford_rv_Mustang_rv_Boss_rv_302_rv_V5_rv_1536",
    "link_img": "https://live.staticflickr.com/65535/49889989847_e8942a0d4d_o.jpg",
    "id_image": "2012_rv_Ford_rv_Mustang_rv_Boss_rv_302_rv_V5_rv_1536",
    "count_view": 0
  },
  {
    "link_thumb": "https://live.staticflickr.com/65535/48114106313_76b7775357_n.jpg",
    "id_album": "-1721545051",
    "description": "Chevrolet_289880",
    "title": "Chevrolet_289880",
    "link_img": "https://live.staticflickr.com/65535/48114106313_861c3b38a6_o.jpg",
    "id_image": "Chevrolet_289880",
    "count_view": 0
  },
  {
    "link_thumb": "https://live.staticflickr.com/65535/48118859506_b7bb1dd5d8_n.jpg",
    "id_album": "446908717",
    "description": "Lexus_417208",
    "title": "Lexus_417208",
    "link_img": "https://live.staticflickr.com/65535/48118859506_bca0fe2362_o.jpg",
    "id_image": "Lexus_417208",
    "count_view": 0
  },
  {
    "link_thumb": "https://live.staticflickr.com/65535/48115052136_f38ba1f6e9_n.jpg",
    "id_album": "413141323",
    "description": "Dodge_200626",
    "title": "Dodge_200626",
    "link_img": "https://live.staticflickr.com/65535/48115052136_d8e36421b8_o.jpg",
    "id_image": "Dodge_200626",
    "count_view": 0
  },
  {
    "link_thumb": "https://live.staticflickr.com/65535/49891029857_fac1c98c85_n.jpg",
    "id_album": "1310566757",
    "description": "2020_rv_Mercedes_rv_AMG_rv_CLA45_rv_V6_rv_2160",
    "title": "2020_rv_Mercedes_rv_AMG_rv_CLA45_rv_V6_rv_2160",
    "link_img": "https://live.staticflickr.com/65535/49891029857_3c3a3be8d1_o.jpg",
    "id_image": "2020_rv_Mercedes_rv_AMG_rv_CLA45_rv_V6_rv_2160",
    "count_view": 0
  },
  {
    "link_thumb": "https://live.staticflickr.com/65535/48120529138_3c43df1ccd_n.jpg",
    "id_album": "810634050",
    "description": "Nissan_510585",
    "title": "Nissan_510585",
    "link_img": "https://live.staticflickr.com/65535/48120529138_47ec11cdd6_o.jpg",
    "id_image": "Nissan_510585",
    "count_view": 0
  },
  {
    "link_thumb": "https://live.staticflickr.com/65535/49889475497_4c202f5158_n.jpg",
    "id_album": "-1839909978",
    "description": "2011_rv_BMW_rv_i8_rv_Concept_rv_V5_rv_1536",
    "title": "2011_rv_BMW_rv_i8_rv_Concept_rv_V5_rv_1536",
    "link_img": "https://live.staticflickr.com/65535/49889475497_b51a2b1f0e_o.jpg",
    "id_image": "2011_rv_BMW_rv_i8_rv_Concept_rv_V5_rv_1536",
    "count_view": 0
  },
  {
    "link_thumb": "https://live.staticflickr.com/65535/48114245776_b21a9db924_n.jpg",
    "id_album": "-1721545051",
    "description": "Chevrolet_445762",
    "title": "Chevrolet_445762",
    "link_img": "https://live.staticflickr.com/65535/48114245776_d9bb052172_o.jpg",
    "id_image": "Chevrolet_445762",
    "count_view": 0
  },
  {
    "link_thumb": "https://live.staticflickr.com/65535/49892978282_5930778f50_n.jpg",
    "id_album": "127145647",
    "description": "2013_rv_Volkswagen_rv_Polo_rv_R_rv_WRC_rv_V2_rv_1600",
    "title": "2013_rv_Volkswagen_rv_Polo_rv_R_rv_WRC_rv_V2_rv_1600",
    "link_img": "https://live.staticflickr.com/65535/49892978282_0a181156c8_o.jpg",
    "id_image": "2013_rv_Volkswagen_rv_Polo_rv_R_rv_WRC_rv_V2_rv_1600",
    "count_view": 0
  },
  {
    "link_thumb": "https://live.staticflickr.com/65535/49892525561_cd293a893d_n.jpg",
    "id_album": "883034302",
    "description": "1997_rv_Toyota_rv_Supra_rv_V1_rv_1600",
    "title": "1997_rv_Toyota_rv_Supra_rv_V1_rv_1600",
    "link_img": "https://live.staticflickr.com/65535/49892525561_2b09ace69b_o.jpg",
    "id_image": "1997_rv_Toyota_rv_Supra_rv_V1_rv_1600",
    "count_view": 0
  },
  {
    "link_thumb": "https://live.staticflickr.com/65535/48120848208_4d5e6331d4_n.jpg",
    "id_album": "1952909762",
    "description": "Packard_928429",
    "title": "Packard_928429",
    "link_img": "https://live.staticflickr.com/65535/48120848208_f724031e71_o.jpg",
    "id_image": "Packard_928429",
    "count_view": 0
  },
  {
    "link_thumb": "https://live.staticflickr.com/65535/48120847858_7b64d5281c_n.jpg",
    "id_album": "1952909762",
    "description": "Packard_928427",
    "title": "Packard_928427",
    "link_img": "https://live.staticflickr.com/65535/48120847858_9268054d52_o.jpg",
    "id_image": "Packard_928427",
    "count_view": 0
  },
  {
    "link_thumb": "https://live.staticflickr.com/65535/48113463356_2cc78ca55e_n.jpg",
    "id_album": "1246496342",
    "description": "Buick_219370",
    "title": "Buick_219370",
    "link_img": "https://live.staticflickr.com/65535/48113463356_08fd3fe699_o.jpg",
    "id_image": "Buick_219370",
    "count_view": 0
  },
  {
    "link_thumb": "https://live.staticflickr.com/65535/48120236848_c0b00572a0_n.jpg",
    "id_album": "666438681",
    "description": "Motorcycles_362369",
    "title": "Motorcycles_362369",
    "link_img": "https://live.staticflickr.com/65535/48120236848_4360151afb_o.jpg",
    "id_image": "Motorcycles_362369",
    "count_view": 0
  },
  {
    "link_thumb": "https://live.staticflickr.com/65535/49890270937_bc8d31db41_n.jpg",
    "id_album": "524355637",
    "description": "2017_rv_Infiniti_rv_Q60_rv_V5_rv_2000",
    "title": "2017_rv_Infiniti_rv_Q60_rv_V5_rv_2000",
    "link_img": "https://live.staticflickr.com/65535/49890270937_d0652ea9d7_o.jpg",
    "id_image": "2017_rv_Infiniti_rv_Q60_rv_V5_rv_2000",
    "count_view": 0
  },
  {
    "link_thumb": "https://live.staticflickr.com/65535/48118549467_f1ebaa390c_n.jpg",
    "id_album": "-2100339805",
    "description": "Lamborghini_444486",
    "title": "Lamborghini_444486",
    "link_img": "https://live.staticflickr.com/65535/48118549467_bf8b609d5c_o.jpg",
    "id_image": "Lamborghini_444486",
    "count_view": 0
  },
  {
    "link_thumb": "https://live.staticflickr.com/65535/48115104197_5d45acbdfc_n.jpg",
    "id_album": "413141323",
    "description": "Dodge_156618",
    "title": "Dodge_156618",
    "link_img": "https://live.staticflickr.com/65535/48115104197_f9e8e3f921_o.jpg",
    "id_image": "Dodge_156618",
    "count_view": 0
  },
  {
    "link_thumb": "https://live.staticflickr.com/65535/48113786061_b3c7756398_n.jpg",
    "id_album": "-1721545051",
    "description": "Chevrolet_205693",
    "title": "Chevrolet_205693",
    "link_img": "https://live.staticflickr.com/65535/48113786061_753e9bdb02_o.jpg",
    "id_image": "Chevrolet_205693",
    "count_view": 0
  },
  {
    "link_thumb": "https://live.staticflickr.com/65535/49888707593_4deb1da46a_n.jpg",
    "id_album": "332864200",
    "description": "1993_rv_Bugatti_rv_EB110_rv_SuperSport_rv_V8_rv_2000",
    "title": "1993_rv_Bugatti_rv_EB110_rv_SuperSport_rv_V8_rv_2000",
    "link_img": "https://live.staticflickr.com/65535/49888707593_5a90228f40_o.jpg",
    "id_image": "1993_rv_Bugatti_rv_EB110_rv_SuperSport_rv_V8_rv_2000",
    "count_view": 0
  },
  {
    "link_thumb": "https://live.staticflickr.com/65535/48113282106_aa578bf173_n.jpg",
    "id_album": "727633301",
    "description": "BMW_983048",
    "title": "BMW_983048",
    "link_img": "https://live.staticflickr.com/65535/48113282106_39196fe564_o.jpg",
    "id_image": "BMW_983048",
    "count_view": 0
  },
  {
    "link_thumb": "https://live.staticflickr.com/65535/49889333176_2c19dddde3_n.jpg",
    "id_album": "-737550831",
    "description": "2018_rv_David_rv_Brown_rv_Speedback_rv_GT_rv_Silverstone_rv_Edition_rv_V4_rv_2000",
    "title": "2018_rv_David_rv_Brown_rv_Speedback_rv_GT_rv_Silverstone_rv_Edition_rv_V4_rv_2000",
    "link_img": "https://live.staticflickr.com/65535/49889333176_4b57f1db5b_o.jpg",
    "id_image": "2018_rv_David_rv_Brown_rv_Speedback_rv_GT_rv_Silverstone_rv_Edition_rv_V4_rv_2000",
    "count_view": 0
  },
  {
    "link_thumb": "https://live.staticflickr.com/65535/49891065447_4584331e32_n.jpg",
    "id_album": "-1036470022",
    "description": "2017_rv_Mercedes_rv_Benz_rv_EQA_rv_Concept_rv_V3_rv_2000",
    "title": "2017_rv_Mercedes_rv_Benz_rv_EQA_rv_Concept_rv_V3_rv_2000",
    "link_img": "https://live.staticflickr.com/65535/49891065447_c5f0607780_o.jpg",
    "id_image": "2017_rv_Mercedes_rv_Benz_rv_EQA_rv_Concept_rv_V3_rv_2000",
    "count_view": 0
  },
  {
    "link_thumb": "https://live.staticflickr.com/65535/49892691727_5eeec98db8_n.jpg",
    "id_album": "2063224475",
    "description": "2020_rv_Ford_rv_Mustang_rv_Shelby_rv_GT500_rv_V12_rv_2160",
    "title": "2020_rv_Ford_rv_Mustang_rv_Shelby_rv_GT500_rv_V12_rv_2160",
    "link_img": "https://live.staticflickr.com/65535/49892691727_6ca83725d2_o.jpg",
    "id_image": "2020_rv_Ford_rv_Mustang_rv_Shelby_rv_GT500_rv_V12_rv_2160",
    "count_view": 0
  },
  {
    "link_thumb": "https://live.staticflickr.com/65535/48112320762_b3cdb33a1d_n.jpg",
    "id_album": "555757480",
    "description": "AstonMartin_940316",
    "title": "AstonMartin_940316",
    "link_img": "https://live.staticflickr.com/65535/48112320762_a13e05c768_o.jpg",
    "id_image": "AstonMartin_940316",
    "count_view": 0
  },
  {
    "link_thumb": "https://live.staticflickr.com/65535/48111664951_15a39d35a0_n.jpg",
    "id_album": "1482519782",
    "description": "Hyundai_445973",
    "title": "Hyundai_445973",
    "link_img": "https://live.staticflickr.com/65535/48111664951_b2fdeef559_o.jpg",
    "id_image": "Hyundai_445973",
    "count_view": 0
  },
  {
    "link_thumb": "https://live.staticflickr.com/65535/49888719746_7885330d3c_n.jpg",
    "id_album": "-263616263",
    "description": "1988_rv_Acura_rv_Legend_rv_Coupe_rv_V2_rv_1536",
    "title": "1988_rv_Acura_rv_Legend_rv_Coupe_rv_V2_rv_1536",
    "link_img": "https://live.staticflickr.com/65535/49888719746_8659361046_o.jpg",
    "id_image": "1988_rv_Acura_rv_Legend_rv_Coupe_rv_V2_rv_1536",
    "count_view": 0
  },
  {
    "link_thumb": "https://live.staticflickr.com/65535/48116047006_70454f12b4_n.jpg",
    "id_album": "1364506720",
    "description": "Ferrari_521080",
    "title": "Ferrari_521080",
    "link_img": "https://live.staticflickr.com/65535/48116047006_00a5cef79e_o.jpg",
    "id_image": "Ferrari_521080",
    "count_view": 0
  },
  {
    "link_thumb": "https://live.staticflickr.com/65535/48112562248_5223cfd0e6_n.jpg",
    "id_album": "2097036181",
    "description": "Bentley_449757",
    "title": "Bentley_449757",
    "link_img": "https://live.staticflickr.com/65535/48112562248_2079b3a226_o.jpg",
    "id_image": "Bentley_449757",
    "count_view": 0
  },
  {
    "link_thumb": "https://live.staticflickr.com/65535/48119851078_189f788d11_n.jpg",
    "id_album": "-731054311",
    "description": "MercedesBenz_882365",
    "title": "MercedesBenz_882365",
    "link_img": "https://live.staticflickr.com/65535/48119851078_d21a99267e_o.jpg",
    "id_image": "MercedesBenz_882365",
    "count_view": 0
  },
  {
    "link_thumb": "https://live.staticflickr.com/65535/48120225146_e37c93ba79_n.jpg",
    "id_album": "666438681",
    "description": "Motorcycles_452411",
    "title": "Motorcycles_452411",
    "link_img": "https://live.staticflickr.com/65535/48120225146_efe386235a_o.jpg",
    "id_image": "Motorcycles_452411",
    "count_view": 0
  },
  {
    "link_thumb": "https://live.staticflickr.com/65535/49892466472_35a617b2dd_n.jpg",
    "id_album": "-1890503075",
    "description": "2012_rv_Porsche_rv_Panamera_rv_Sport_rv_Turismo_rv_Concept_rv_V2_rv_1440",
    "title": "2012_rv_Porsche_rv_Panamera_rv_Sport_rv_Turismo_rv_Concept_rv_V2_rv_1440",
    "link_img": "https://live.staticflickr.com/65535/49892466472_12b7463faa_o.jpg",
    "id_image": "2012_rv_Porsche_rv_Panamera_rv_Sport_rv_Turismo_rv_Concept_rv_V2_rv_1440",
    "count_view": 0
  },
  {
    "link_thumb": "https://live.staticflickr.com/65535/48112578853_bc19a3f851_n.jpg",
    "id_album": "2097036181",
    "description": "Bentley_481477",
    "title": "Bentley_481477",
    "link_img": "https://live.staticflickr.com/65535/48112578853_857ae0ffbd_o.jpg",
    "id_image": "Bentley_481477",
    "count_view": 0
  },
  {
    "link_thumb": "https://live.staticflickr.com/65535/48117968041_0b00877b14_n.jpg",
    "id_album": "427416146",
    "description": "Hummer_523211",
    "title": "Hummer_523211",
    "link_img": "https://live.staticflickr.com/65535/48117968041_4b2ee22dd0_o.jpg",
    "id_image": "Hummer_523211",
    "count_view": 0
  },
  {
    "link_thumb": "https://live.staticflickr.com/65535/48114649667_4969771d08_n.jpg",
    "id_album": "-1721545051",
    "description": "Chevrolet_805414",
    "title": "Chevrolet_805414",
    "link_img": "https://live.staticflickr.com/65535/48114649667_57a4d94ed2_o.jpg",
    "id_image": "Chevrolet_805414",
    "count_view": 0
  },
  {
    "link_thumb": "https://live.staticflickr.com/65535/49889533388_631be74e78_n.jpg",
    "id_album": "1719484632",
    "description": "2018_rv_Kia_rv_Stinger_rv_GT_rv_V3_rv_2000",
    "title": "2018_rv_Kia_rv_Stinger_rv_GT_rv_V3_rv_2000",
    "link_img": "https://live.staticflickr.com/65535/49889533388_39421c5f07_o.jpg",
    "id_image": "2018_rv_Kia_rv_Stinger_rv_GT_rv_V3_rv_2000",
    "count_view": 0
  },
  {
    "link_thumb": "https://live.staticflickr.com/65535/48114886187_7b3ffbc4be_n.jpg",
    "id_album": "2072464184",
    "description": "Citroen_117077",
    "title": "Citroen_117077",
    "link_img": "https://live.staticflickr.com/65535/48114886187_c86e8bf9f9_o.jpg",
    "id_image": "Citroen_117077",
    "count_view": 0
  },
  {
    "link_thumb": "https://live.staticflickr.com/65535/48122026496_e9706cb0bc_n.jpg",
    "id_album": "-1217333387",
    "description": "Renault_713619",
    "title": "Renault_713619",
    "link_img": "https://live.staticflickr.com/65535/48122026496_6121bdd489_o.jpg",
    "id_image": "Renault_713619",
    "count_view": 0
  },
  {
    "link_thumb": "https://live.staticflickr.com/65535/48120390642_34999787c9_n.jpg",
    "id_album": "810634050",
    "description": "Nissan_116872",
    "title": "Nissan_116872",
    "link_img": "https://live.staticflickr.com/65535/48120390642_25c98ae976_o.jpg",
    "id_image": "Nissan_116872",
    "count_view": 0
  },
  {
    "link_thumb": "https://live.staticflickr.com/65535/48113753361_fa3a15a18d_n.jpg",
    "id_album": "-1721545051",
    "description": "Chevrolet_189686",
    "title": "Chevrolet_189686",
    "link_img": "https://live.staticflickr.com/65535/48113753361_21c97c7f7e_o.jpg",
    "id_image": "Chevrolet_189686",
    "count_view": 0
  },
  {
    "link_thumb": "https://live.staticflickr.com/65535/48113535983_52d96e79cc_n.jpg",
    "id_album": "-680120434",
    "description": "Cadillac_111044",
    "title": "Cadillac_111044",
    "link_img": "https://live.staticflickr.com/65535/48113535983_510d038423_o.jpg",
    "id_image": "Cadillac_111044",
    "count_view": 0
  },
  {
    "link_thumb": "https://live.staticflickr.com/65535/48121753278_af871aa8ce_n.jpg",
    "id_album": "-1178450892",
    "description": "Porsche_894922",
    "title": "Porsche_894922",
    "link_img": "https://live.staticflickr.com/65535/48121753278_71722c3691_o.jpg",
    "id_image": "Porsche_894922",
    "count_view": 0
  },
  {
    "link_thumb": "https://live.staticflickr.com/65535/48111813887_b0b4934674_n.jpg",
    "id_album": "1906325017",
    "description": "Infiniti_187555",
    "title": "Infiniti_187555",
    "link_img": "https://live.staticflickr.com/65535/48111813887_80f2313217_o.jpg",
    "id_image": "Infiniti_187555",
    "count_view": 0
  },
  {
    "link_thumb": "https://live.staticflickr.com/65535/48122723592_61a5b65416_n.jpg",
    "id_album": "1274920659",
    "description": "Toyota_259242",
    "title": "Toyota_259242",
    "link_img": "https://live.staticflickr.com/65535/48122723592_68a841bc5e_o.jpg",
    "id_image": "Toyota_259242",
    "count_view": 0
  },
  {
    "link_thumb": "https://live.staticflickr.com/65535/49889161113_6d025d0fed_n.jpg",
    "id_album": "-1221805240",
    "description": "2010_rv_Ford_rv_Shelby_rv_GT500_rv_V1_rv_1440",
    "title": "2010_rv_Ford_rv_Shelby_rv_GT500_rv_V1_rv_1440",
    "link_img": "https://live.staticflickr.com/65535/49889161113_c44710bbba_o.jpg",
    "id_image": "2010_rv_Ford_rv_Shelby_rv_GT500_rv_V1_rv_1440",
    "count_view": 0
  },
  {
    "link_thumb": "https://live.staticflickr.com/65535/48112418411_2dbe2f6c81_n.jpg",
    "id_album": "-15119147",
    "description": "Audi_892544",
    "title": "Audi_892544",
    "link_img": "https://live.staticflickr.com/65535/48112418411_686067a268_o.jpg",
    "id_image": "Audi_892544",
    "count_view": 0
  },
  {
    "link_thumb": "https://live.staticflickr.com/65535/48118931057_caa28ebff8_n.jpg",
    "id_album": "446908717",
    "description": "Lexus_256354",
    "title": "Lexus_256354",
    "link_img": "https://live.staticflickr.com/65535/48118931057_603f9ccdf2_o.jpg",
    "id_image": "Lexus_256354",
    "count_view": 0
  },
  {
    "link_thumb": "https://live.staticflickr.com/65535/48123223936_ee02b95389_n.jpg",
    "id_album": "-360260466",
    "description": "Yamaha_329603",
    "title": "Yamaha_329603",
    "link_img": "https://live.staticflickr.com/65535/48123223936_bbee2c6f87_o.jpg",
    "id_image": "Yamaha_329603",
    "count_view": 0
  },
  {
    "link_thumb": "https://live.staticflickr.com/65535/49889294652_155e02593c_n.jpg",
    "id_album": "1119514695",
    "description": "2015_rv_Audi_rv_RS6_rv_Avant_rv_V5_rv_1600",
    "title": "2015_rv_Audi_rv_RS6_rv_Avant_rv_V5_rv_1600",
    "link_img": "https://live.staticflickr.com/65535/49889294652_cb519a9a40_o.jpg",
    "id_image": "2015_rv_Audi_rv_RS6_rv_Avant_rv_V5_rv_1600",
    "count_view": 0
  },
  {
    "link_thumb": "https://live.staticflickr.com/65535/48117467638_df9e4da3d5_n.jpg",
    "id_album": "-1846404630",
    "description": "Ford_741876",
    "title": "Ford_741876",
    "link_img": "https://live.staticflickr.com/65535/48117467638_a88fe543f0_o.jpg",
    "id_image": "Ford_741876",
    "count_view": 0
  },
  {
    "link_thumb": "https://live.staticflickr.com/65535/48113777706_24c6b097bc_n.jpg",
    "id_album": "-1721545051",
    "description": "Chevrolet_200961",
    "title": "Chevrolet_200961",
    "link_img": "https://live.staticflickr.com/65535/48113777706_f9419b7b90_o.jpg",
    "id_image": "Chevrolet_200961",
    "count_view": 0
  },
  {
    "link_thumb": "https://live.staticflickr.com/65535/48119276271_0b675fa9cb_n.jpg",
    "id_album": "990865885",
    "description": "McLaren_417206",
    "title": "McLaren_417206",
    "link_img": "https://live.staticflickr.com/65535/48119276271_2cd8aa05e8_o.jpg",
    "id_image": "McLaren_417206",
    "count_view": 0
  },
  {
    "link_thumb": "https://live.staticflickr.com/65535/48113092528_bb55beedb4_n.jpg",
    "id_album": "727633301",
    "description": "BMW_753950",
    "title": "BMW_753950",
    "link_img": "https://live.staticflickr.com/65535/48113092528_ae62f2b60e_o.jpg",
    "id_image": "BMW_753950",
    "count_view": 0
  },
  {
    "link_thumb": "https://live.staticflickr.com/65535/48121787036_712e86df70_n.jpg",
    "id_album": "-1178450892",
    "description": "Porsche_941808",
    "title": "Porsche_941808",
    "link_img": "https://live.staticflickr.com/65535/48121787036_ce68861fb3_o.jpg",
    "id_image": "Porsche_941808",
    "count_view": 0
  },
  {
    "link_thumb": "https://live.staticflickr.com/65535/48118535901_4c429668ab_n.jpg",
    "id_album": "-2100339805",
    "description": "Lamborghini_575623",
    "title": "Lamborghini_575623",
    "link_img": "https://live.staticflickr.com/65535/48118535901_736a9db88e_o.jpg",
    "id_image": "Lamborghini_575623",
    "count_view": 0
  },
  {
    "link_thumb": "https://live.staticflickr.com/65535/48119221118_711e0e8753_n.jpg",
    "id_album": "898314866",
    "description": "Mazda_251405",
    "title": "Mazda_251405",
    "link_img": "https://live.staticflickr.com/65535/48119221118_a9385deb48_o.jpg",
    "id_image": "Mazda_251405",
    "count_view": 0
  },
  {
    "link_thumb": "https://live.staticflickr.com/65535/49892428131_596853826e_n.jpg",
    "id_album": "-992651525",
    "description": "2015_rv_Subaru_rv_WRX_rv_S4_rv_V2_rv_1600",
    "title": "2015_rv_Subaru_rv_WRX_rv_S4_rv_V2_rv_1600",
    "link_img": "https://live.staticflickr.com/65535/49892428131_66f635375e_o.jpg",
    "id_image": "2015_rv_Subaru_rv_WRX_rv_S4_rv_V2_rv_1600",
    "count_view": 0
  },
  {
    "link_thumb": "https://live.staticflickr.com/65535/48118231137_04a7b07f7c_n.jpg",
    "id_album": "-625217782",
    "description": "Kia_256244",
    "title": "Kia_256244",
    "link_img": "https://live.staticflickr.com/65535/48118231137_9c05d0553f_o.jpg",
    "id_image": "Kia_256244",
    "count_view": 0
  },
  {
    "link_thumb": "https://live.staticflickr.com/65535/48117886217_2a4e41a8a2_n.jpg",
    "id_album": "-354267407",
    "description": "Honda_417521",
    "title": "Honda_417521",
    "link_img": "https://live.staticflickr.com/65535/48117886217_7f60f57131_o.jpg",
    "id_image": "Honda_417521",
    "count_view": 0
  },
  {
    "link_thumb": "https://live.staticflickr.com/65535/48120464653_e40e83035d_n.jpg",
    "id_album": "810634050",
    "description": "Nissan_451764",
    "title": "Nissan_451764",
    "link_img": "https://live.staticflickr.com/65535/48120464653_0c71975137_o.jpg",
    "id_image": "Nissan_451764",
    "count_view": 0
  },
  {
    "link_thumb": "https://live.staticflickr.com/65535/49890245226_c6d701b263_n.jpg",
    "id_album": "1049518664",
    "description": "1992_rv_Lancia_rv_Delta_rv_HF_rv_Integrale_rv_Evoluzione_rv_V4_rv_1440",
    "title": "1992_rv_Lancia_rv_Delta_rv_HF_rv_Integrale_rv_Evoluzione_rv_V4_rv_1440",
    "link_img": "https://live.staticflickr.com/65535/49890245226_fc1b4648a6_o.jpg",
    "id_image": "1992_rv_Lancia_rv_Delta_rv_HF_rv_Integrale_rv_Evoluzione_rv_V4_rv_1440",
    "count_view": 0
  },
  {
    "link_thumb": "https://live.staticflickr.com/65535/48114653648_dd9a039953_n.jpg",
    "id_album": "-1721545051",
    "description": "Chevrolet_883454",
    "title": "Chevrolet_883454",
    "link_img": "https://live.staticflickr.com/65535/48114653648_73252c31ab_o.jpg",
    "id_image": "Chevrolet_883454",
    "count_view": 0
  },
  {
    "link_thumb": "https://live.staticflickr.com/65535/48122767251_4187a9231c_n.jpg",
    "id_album": "1274920659",
    "description": "Toyota_778861",
    "title": "Toyota_778861",
    "link_img": "https://live.staticflickr.com/65535/48122767251_11dc8016de_o.jpg",
    "id_image": "Toyota_778861",
    "count_view": 0
  },
  {
    "link_thumb": "https://live.staticflickr.com/65535/48122134793_088d750fef_n.jpg",
    "id_album": "1536700661",
    "description": "RollsRoyce_319399",
    "title": "RollsRoyce_319399",
    "link_img": "https://live.staticflickr.com/65535/48122134793_fc1ba98f81_o.jpg",
    "id_image": "RollsRoyce_319399",
    "count_view": 0
  },
  {
    "link_thumb": "https://live.staticflickr.com/65535/48117820298_f720f78053_n.jpg",
    "id_album": "-354267407",
    "description": "Honda_363013",
    "title": "Honda_363013",
    "link_img": "https://live.staticflickr.com/65535/48117820298_0b4fc2f76c_o.jpg",
    "id_image": "Honda_363013",
    "count_view": 0
  },
  {
    "link_thumb": "https://live.staticflickr.com/65535/49890544893_3401ee68b7_n.jpg",
    "id_album": "-1103541452",
    "description": "2015_rv_Nissan_rv_Juke_rv_Nismo_rv_RS_rv_V1_rv_1600",
    "title": "2015_rv_Nissan_rv_Juke_rv_Nismo_rv_RS_rv_V1_rv_1600",
    "link_img": "https://live.staticflickr.com/65535/49890544893_16fba51043_o.jpg",
    "id_image": "2015_rv_Nissan_rv_Juke_rv_Nismo_rv_RS_rv_V1_rv_1600",
    "count_view": 0
  },
  {
    "link_thumb": "https://live.staticflickr.com/65535/48118983657_964477f208_n.jpg",
    "id_album": "446908717",
    "description": "Lexus_774789",
    "title": "Lexus_774789",
    "link_img": "https://live.staticflickr.com/65535/48118983657_8d0a5e7f88_o.jpg",
    "id_image": "Lexus_774789",
    "count_view": 0
  },
  {
    "link_thumb": "https://live.staticflickr.com/65535/48119386226_9a4da171d1_n.jpg",
    "id_album": "990865885",
    "description": "McLaren_906687",
    "title": "McLaren_906687",
    "link_img": "https://live.staticflickr.com/65535/48119386226_266fb893f7_o.jpg",
    "id_image": "McLaren_906687",
    "count_view": 0
  },
  {
    "link_thumb": "https://live.staticflickr.com/65535/48122386686_215fbb535b_n.jpg",
    "id_album": "422322641",
    "description": "Subaru_251606",
    "title": "Subaru_251606",
    "link_img": "https://live.staticflickr.com/65535/48122386686_fd62483056_o.jpg",
    "id_image": "Subaru_251606",
    "count_view": 0
  },
  {
    "link_thumb": "https://live.staticflickr.com/65535/48112842087_4d518d3f6f_n.jpg",
    "id_album": "727633301",
    "description": "BMW_397565",
    "title": "BMW_397565",
    "link_img": "https://live.staticflickr.com/65535/48112842087_b68391d2ce_o.jpg",
    "id_image": "BMW_397565",
    "count_view": 0
  },
  {
    "link_thumb": "https://live.staticflickr.com/65535/48111789732_c4d040f26e_n.jpg",
    "id_album": "1482519782",
    "description": "Hyundai_936528",
    "title": "Hyundai_936528",
    "link_img": "https://live.staticflickr.com/65535/48111789732_890e6c30bb_o.jpg",
    "id_image": "Hyundai_936528",
    "count_view": 0
  },
  {
    "link_thumb": "https://live.staticflickr.com/65535/49890116741_712dfc3faa_n.jpg",
    "id_album": "1554721686",
    "description": "2017_rv_Lamborghini_rv_Terzo_rv_Millennio_rv_Concept_rv_V2_rv_2000",
    "title": "2017_rv_Lamborghini_rv_Terzo_rv_Millennio_rv_Concept_rv_V2_rv_2000",
    "link_img": "https://live.staticflickr.com/65535/49890116741_eb37cf089e_o.jpg",
    "id_image": "2017_rv_Lamborghini_rv_Terzo_rv_Millennio_rv_Concept_rv_V2_rv_2000",
    "count_view": 0
  },
  {
    "link_thumb": "https://live.staticflickr.com/65535/49889302202_cf19352a43_n.jpg",
    "id_album": "-446569246",
    "description": "2016_rv_Audi_rv_RS7_rv_Sportback_rv_Performance_rv_V4_rv_1600",
    "title": "2016_rv_Audi_rv_RS7_rv_Sportback_rv_Performance_rv_V4_rv_1600",
    "link_img": "https://live.staticflickr.com/65535/49889302202_6dcb6711dc_o.jpg",
    "id_image": "2016_rv_Audi_rv_RS7_rv_Sportback_rv_Performance_rv_V4_rv_1600",
    "count_view": 0
  },
  {
    "link_thumb": "https://live.staticflickr.com/65535/48122794352_38d1671d89_n.jpg",
    "id_album": "1274920659",
    "description": "Toyota_484731",
    "title": "Toyota_484731",
    "link_img": "https://live.staticflickr.com/65535/48122794352_ed0b720f0a_o.jpg",
    "id_image": "Toyota_484731",
    "count_view": 0
  },
  {
    "link_thumb": "https://live.staticflickr.com/65535/48116553527_6071e653be_n.jpg",
    "id_album": "-803737857",
    "description": "Fiat_255196",
    "title": "Fiat_255196",
    "link_img": "https://live.staticflickr.com/65535/48116553527_09c2b4d4dc_o.jpg",
    "id_image": "Fiat_255196",
    "count_view": 0
  },
  {
    "link_thumb": "https://live.staticflickr.com/65535/49892151686_e4436bc311_n.jpg",
    "id_album": "326624747",
    "description": "2019_rv_Porsche_rv_Macan_rv_S_rv_V3_rv_2000",
    "title": "2019_rv_Porsche_rv_Macan_rv_S_rv_V3_rv_2000",
    "link_img": "https://live.staticflickr.com/65535/49892151686_ea827a6bba_o.jpg",
    "id_image": "2019_rv_Porsche_rv_Macan_rv_S_rv_V3_rv_2000",
    "count_view": 0
  },
  {
    "link_thumb": "https://live.staticflickr.com/65535/48122097621_853e2c72f3_n.jpg",
    "id_album": "1536700661",
    "description": "RollsRoyce_257780",
    "title": "RollsRoyce_257780",
    "link_img": "https://live.staticflickr.com/65535/48122097621_d5f20a21a4_o.jpg",
    "id_image": "RollsRoyce_257780",
    "count_view": 0
  },
  {
    "link_thumb": "https://live.staticflickr.com/65535/48113586453_4b2f7b99fb_n.jpg",
    "id_album": "-680120434",
    "description": "Cadillac_366026",
    "title": "Cadillac_366026",
    "link_img": "https://live.staticflickr.com/65535/48113586453_005c07e30d_o.jpg",
    "id_image": "Cadillac_366026",
    "count_view": 0
  },
  {
    "link_thumb": "https://live.staticflickr.com/65535/48117241207_bf17bc65d6_n.jpg",
    "id_album": "-1846404630",
    "description": "Ford_417558",
    "title": "Ford_417558",
    "link_img": "https://live.staticflickr.com/65535/48117241207_7b9007847d_o.jpg",
    "id_image": "Ford_417558",
    "count_view": 0
  },
  {
    "link_thumb": "https://live.staticflickr.com/65535/49889673311_554f67b2c1_n.jpg",
    "id_album": "-135411974",
    "description": "1998_rv_Subaru_rv_Impreza_rv_22B_rv_STI_rv_V1_rv_1440",
    "title": "1998_rv_Subaru_rv_Impreza_rv_22B_rv_STI_rv_V1_rv_1440",
    "link_img": "https://live.staticflickr.com/65535/49889673311_5aa6150438_o.jpg",
    "id_image": "1998_rv_Subaru_rv_Impreza_rv_22B_rv_STI_rv_V1_rv_1440",
    "count_view": 0
  },
  {
    "link_thumb": "https://live.staticflickr.com/65535/49892454331_225be309a8_n.jpg",
    "id_album": "1717130925",
    "description": "2020_rv_Tesla_rv_Roadster_rv_V8_rv_2000",
    "title": "2020_rv_Tesla_rv_Roadster_rv_V8_rv_2000",
    "link_img": "https://live.staticflickr.com/65535/49892454331_d7a85f61ee_o.jpg",
    "id_image": "2020_rv_Tesla_rv_Roadster_rv_V8_rv_2000",
    "count_view": 0
  },
  {
    "link_thumb": "https://live.staticflickr.com/65535/48113215546_10919e1d64_n.jpg",
    "id_album": "727633301",
    "description": "BMW_920336",
    "title": "BMW_920336",
    "link_img": "https://live.staticflickr.com/65535/48113215546_ff8212cc8b_o.jpg",
    "id_image": "BMW_920336",
    "count_view": 0
  },
  {
    "link_thumb": "https://live.staticflickr.com/65535/49888853031_a91ef454dd_n.jpg",
    "id_album": "410055115",
    "description": "2015_rv_Aston_rv_Martin_rv_DB9_rv_Carbon_rv_Edition_rv_V3_rv_1600",
    "title": "2015_rv_Aston_rv_Martin_rv_DB9_rv_Carbon_rv_Edition_rv_V3_rv_1600",
    "link_img": "https://live.staticflickr.com/65535/49888853031_80f6237c4e_o.jpg",
    "id_image": "2015_rv_Aston_rv_Martin_rv_DB9_rv_Carbon_rv_Edition_rv_V3_rv_1600",
    "count_view": 0
  },
  {
    "link_thumb": "https://live.staticflickr.com/65535/48112333168_ce55b045be_n.jpg",
    "id_album": "-15119147",
    "description": "Audi_435711",
    "title": "Audi_435711",
    "link_img": "https://live.staticflickr.com/65535/48112333168_88a5e06096_o.jpg",
    "id_image": "Audi_435711",
    "count_view": 0
  },
  {
    "link_thumb": "https://live.staticflickr.com/65535/48112931058_518276ffdf_n.jpg",
    "id_album": "727633301",
    "description": "BMW_487946",
    "title": "BMW_487946",
    "link_img": "https://live.staticflickr.com/65535/48112931058_500d47c9d9_o.jpg",
    "id_image": "BMW_487946",
    "count_view": 0
  },
  {
    "link_thumb": "https://live.staticflickr.com/65535/49890259097_3b192fd784_n.jpg",
    "id_album": "-45591240",
    "description": "2015_rv_Infiniti_rv_QX30_rv_Concept_rv_V2_rv_1600",
    "title": "2015_rv_Infiniti_rv_QX30_rv_Concept_rv_V2_rv_1600",
    "link_img": "https://live.staticflickr.com/65535/49890259097_60fbfa6a61_o.jpg",
    "id_image": "2015_rv_Infiniti_rv_QX30_rv_Concept_rv_V2_rv_1600",
    "count_view": 0
  },
  {
    "link_thumb": "https://live.staticflickr.com/65535/49889580418_ac68edf236_n.jpg",
    "id_album": "-59902933",
    "description": "2017_rv_Lamborghini_rv_Aventador_rv_S_rv_V2_rv_2000",
    "title": "2017_rv_Lamborghini_rv_Aventador_rv_S_rv_V2_rv_2000",
    "link_img": "https://live.staticflickr.com/65535/49889580418_bf12527e9a_o.jpg",
    "id_image": "2017_rv_Lamborghini_rv_Aventador_rv_S_rv_V2_rv_2000",
    "count_view": 0
  },
  {
    "link_thumb": "https://live.staticflickr.com/65535/48112713277_7f83ea94b8_n.jpg",
    "id_album": "727633301",
    "description": "BMW_212122",
    "title": "BMW_212122",
    "link_img": "https://live.staticflickr.com/65535/48112713277_dcf97f7b5c_o.jpg",
    "id_image": "BMW_212122",
    "count_view": 0
  },
  {
    "link_thumb": "https://live.staticflickr.com/65535/49892039308_44ab2e0ab2_n.jpg",
    "id_album": "-1782069886",
    "description": "2006_rv_TVR_rv_Tuscan_rv_S_rv_V4_rv_1440",
    "title": "2006_rv_TVR_rv_Tuscan_rv_S_rv_V4_rv_1440",
    "link_img": "https://live.staticflickr.com/65535/49892039308_c25437f3c8_o.jpg",
    "id_image": "2006_rv_TVR_rv_Tuscan_rv_S_rv_V4_rv_1440",
    "count_view": 0
  },
  {
    "link_thumb": "https://live.staticflickr.com/65535/49888758808_15cea954e0_n.jpg",
    "id_album": "-10446952",
    "description": "2011_rv_Cadillac_rv_CTS_rv_V_rv_Sport_rv_Wagon_rv_V3_rv_1600",
    "title": "2011_rv_Cadillac_rv_CTS_rv_V_rv_Sport_rv_Wagon_rv_V3_rv_1600",
    "link_img": "https://live.staticflickr.com/65535/49888758808_e1f82fbda4_o.jpg",
    "id_image": "2011_rv_Cadillac_rv_CTS_rv_V_rv_Sport_rv_Wagon_rv_V3_rv_1600",
    "count_view": 0
  },
  {
    "link_thumb": "https://live.staticflickr.com/65535/48121615511_2eb279d450_n.jpg",
    "id_album": "-1178450892",
    "description": "Porsche_744342",
    "title": "Porsche_744342",
    "link_img": "https://live.staticflickr.com/65535/48121615511_5c9367ebe0_o.jpg",
    "id_image": "Porsche_744342",
    "count_view": 0
  },
  {
    "link_thumb": "https://live.staticflickr.com/65535/48113745987_71c327dbfd_n.jpg",
    "id_album": "-1721545051",
    "description": "Chevrolet_155846",
    "title": "Chevrolet_155846",
    "link_img": "https://live.staticflickr.com/65535/48113745987_7849920617_o.jpg",
    "id_image": "Chevrolet_155846",
    "count_view": 0
  },
  {
    "link_thumb": "https://live.staticflickr.com/65535/49891964188_7986b95f9d_n.jpg",
    "id_album": "746165216",
    "description": "2019_rv_Toyota_rv_86_rv_TRD_rv_Special_rv_Edition_rv_V1_rv_2000",
    "title": "2019_rv_Toyota_rv_86_rv_TRD_rv_Special_rv_Edition_rv_V1_rv_2000",
    "link_img": "https://live.staticflickr.com/65535/49891964188_67a80a23da_o.jpg",
    "id_image": "2019_rv_Toyota_rv_86_rv_TRD_rv_Special_rv_Edition_rv_V1_rv_2000",
    "count_view": 0
  },
  {
    "link_thumb": "https://live.staticflickr.com/65535/49889626683_eabcb6a205_n.jpg",
    "id_album": "636428280",
    "description": "2012_rv_Lamborghini_rv_Gallardo_rv_LP_rv_570_rv_4_rv_Super_rv_Trofeo_rv_Stradale_rv_V5_rv_1600",
    "title": "2012_rv_Lamborghini_rv_Gallardo_rv_LP_rv_570_rv_4_rv_Super_rv_Trofeo_rv_Stradale_rv_V5_rv_1600",
    "link_img": "https://live.staticflickr.com/65535/49889626683_2dcc705c3b_o.jpg",
    "id_image": "2012_rv_Lamborghini_rv_Gallardo_rv_LP_rv_570_rv_4_rv_Super_rv_Trofeo_rv_Stradale_rv_V5_rv_1600",
    "count_view": 0
  },
  {
    "link_thumb": "https://live.staticflickr.com/65535/48114442338_4a89a05de5_n.jpg",
    "id_album": "-1721545051",
    "description": "Chevrolet_574469",
    "title": "Chevrolet_574469",
    "link_img": "https://live.staticflickr.com/65535/48114442338_d698127173_o.jpg",
    "id_image": "Chevrolet_574469",
    "count_view": 0
  },
  {
    "link_thumb": "https://live.staticflickr.com/65535/48122520237_f6d6e5fcf8_n.jpg",
    "id_album": "422322641",
    "description": "Subaru_367017",
    "title": "Subaru_367017",
    "link_img": "https://live.staticflickr.com/65535/48122520237_60cd507bd2_o.jpg",
    "id_image": "Subaru_367017",
    "count_view": 0
  },
  {
    "link_thumb": "https://live.staticflickr.com/65535/48118590842_0d9da1523b_n.jpg",
    "id_album": "-2100339805",
    "description": "Lamborghini_506844",
    "title": "Lamborghini_506844",
    "link_img": "https://live.staticflickr.com/65535/48118590842_af1a1a38f2_o.jpg",
    "id_image": "Lamborghini_506844",
    "count_view": 0
  },
  {
    "link_thumb": "https://live.staticflickr.com/65535/48113298236_b465248a53_n.jpg",
    "id_album": "727633301",
    "description": "BMW_992922",
    "title": "BMW_992922",
    "link_img": "https://live.staticflickr.com/65535/48113298236_59db3bdaac_o.jpg",
    "id_image": "BMW_992922",
    "count_view": 0
  },
  {
    "link_thumb": "https://live.staticflickr.com/65535/48113347977_9556274f99_n.jpg",
    "id_album": "727633301",
    "description": "BMW_932336",
    "title": "BMW_932336",
    "link_img": "https://live.staticflickr.com/65535/48113347977_b64d20d276_o.jpg",
    "id_image": "BMW_932336",
    "count_view": 0
  },
  {
    "link_thumb": "https://live.staticflickr.com/65535/48117711897_47fc457dc2_n.jpg",
    "id_album": "-1846404630",
    "description": "Ford_945023",
    "title": "Ford_945023",
    "link_img": "https://live.staticflickr.com/65535/48117711897_6e645cdb37_o.jpg",
    "id_image": "Ford_945023",
    "count_view": 0
  },
  {
    "link_thumb": "https://live.staticflickr.com/65535/48117704368_f994db1189_n.jpg",
    "id_album": "-1846404630",
    "description": "Ford_98706",
    "title": "Ford_98706",
    "link_img": "https://live.staticflickr.com/65535/48117704368_3c0bf2206f_o.jpg",
    "id_image": "Ford_98706",
    "count_view": 0
  },
  {
    "link_thumb": "https://live.staticflickr.com/65535/48118886032_848a05e74b_n.jpg",
    "id_album": "1234246491",
    "description": "LandRover_351150",
    "title": "LandRover_351150",
    "link_img": "https://live.staticflickr.com/65535/48118886032_35a5fc32fd_o.jpg",
    "id_image": "LandRover_351150",
    "count_view": 0
  },
  {
    "link_thumb": "https://live.staticflickr.com/65535/48112665618_e4720690a7_n.jpg",
    "id_album": "727633301",
    "description": "BMW_236593",
    "title": "BMW_236593",
    "link_img": "https://live.staticflickr.com/65535/48112665618_68af76488a_o.jpg",
    "id_image": "BMW_236593",
    "count_view": 0
  },
  {
    "link_thumb": "https://live.staticflickr.com/65535/48115815701_644c991729_n.jpg",
    "id_album": "1364506720",
    "description": "Ferrari_317829",
    "title": "Ferrari_317829",
    "link_img": "https://live.staticflickr.com/65535/48115815701_096a7daa24_o.jpg",
    "id_image": "Ferrari_317829",
    "count_view": 0
  },
  {
    "link_thumb": "https://live.staticflickr.com/65535/49892771952_37376ac978_n.jpg",
    "id_album": "-91950429",
    "description": "1987_rv_Chevrolet_rv_Camaro_rv_Z28_rv_IROC_rv_Z_rv_V8_rv_1536",
    "title": "1987_rv_Chevrolet_rv_Camaro_rv_Z28_rv_IROC_rv_Z_rv_V8_rv_1536",
    "link_img": "https://live.staticflickr.com/65535/49892771952_fe3734ea07_o.jpg",
    "id_image": "1987_rv_Chevrolet_rv_Camaro_rv_Z28_rv_IROC_rv_Z_rv_V8_rv_1536",
    "count_view": 0
  },
  {
    "link_thumb": "https://live.staticflickr.com/65535/48118274798_92927c753e_n.jpg",
    "id_album": "-2100339805",
    "description": "Lamborghini_216318",
    "title": "Lamborghini_216318",
    "link_img": "https://live.staticflickr.com/65535/48118274798_b23684ee72_o.jpg",
    "id_image": "Lamborghini_216318",
    "count_view": 0
  },
  {
    "link_thumb": "https://live.staticflickr.com/65535/48119304781_fb6c091d48_n.jpg",
    "id_album": "990865885",
    "description": "McLaren_539161",
    "title": "McLaren_539161",
    "link_img": "https://live.staticflickr.com/65535/48119304781_dd03eba900_o.jpg",
    "id_image": "McLaren_539161",
    "count_view": 0
  },
  {
    "link_thumb": "https://live.staticflickr.com/65535/48114192913_fbff148e61_n.jpg",
    "id_album": "-1721545051",
    "description": "Chevrolet_377397",
    "title": "Chevrolet_377397",
    "link_img": "https://live.staticflickr.com/65535/48114192913_da00257f1a_o.jpg",
    "id_image": "Chevrolet_377397",
    "count_view": 0
  },
  {
    "link_thumb": "https://live.staticflickr.com/65535/48120407113_e7af78a3fe_n.jpg",
    "id_album": "810634050",
    "description": "Nissan_319330",
    "title": "Nissan_319330",
    "link_img": "https://live.staticflickr.com/65535/48120407113_39e1038785_o.jpg",
    "id_image": "Nissan_319330",
    "count_view": 0
  },
  {
    "link_thumb": "https://live.staticflickr.com/65535/49889632556_534f5e9815_n.jpg",
    "id_album": "1558646706",
    "description": "2012_rv_Chevrolet_rv_Camaro_rv_ZL1_rv_V3_rv_1440",
    "title": "2012_rv_Chevrolet_rv_Camaro_rv_ZL1_rv_V3_rv_1440",
    "link_img": "https://live.staticflickr.com/65535/49889632556_d45bd3a508_o.jpg",
    "id_image": "2012_rv_Chevrolet_rv_Camaro_rv_ZL1_rv_V3_rv_1440",
    "count_view": 0
  },
  {
    "link_thumb": "https://live.staticflickr.com/65535/48116817146_ffc6b1ccfb_n.jpg",
    "id_album": "-1846404630",
    "description": "Ford_238831",
    "title": "Ford_238831",
    "link_img": "https://live.staticflickr.com/65535/48116817146_f85f2f158a_o.jpg",
    "id_image": "Ford_238831",
    "count_view": 0
  },
  {
    "link_thumb": "https://live.staticflickr.com/65535/48115973686_9988edbf74_n.jpg",
    "id_album": "1364506720",
    "description": "Ferrari_453212",
    "title": "Ferrari_453212",
    "link_img": "https://live.staticflickr.com/65535/48115973686_2190fb6ccd_o.jpg",
    "id_image": "Ferrari_453212",
    "count_view": 0
  },
  {
    "link_thumb": "https://live.staticflickr.com/65535/48122934877_a54ef5de36_n.jpg",
    "id_album": "1274920659",
    "description": "Toyota_994667",
    "title": "Toyota_994667",
    "link_img": "https://live.staticflickr.com/65535/48122934877_3e5590ee65_o.jpg",
    "id_image": "Toyota_994667",
    "count_view": 0
  },
  {
    "link_thumb": "https://live.staticflickr.com/65535/49890475587_d24efdf7ee_n.jpg",
    "id_album": "-936716449",
    "description": "2019_rv_Lamborghini_rv_Huracan_rv_Evo_rv_V2_rv_2160",
    "title": "2019_rv_Lamborghini_rv_Huracan_rv_Evo_rv_V2_rv_2160",
    "link_img": "https://live.staticflickr.com/65535/49890475587_e8eb5e49ac_o.jpg",
    "id_image": "2019_rv_Lamborghini_rv_Huracan_rv_Evo_rv_V2_rv_2160",
    "count_view": 0
  },
  {
    "link_thumb": "https://live.staticflickr.com/65535/48116414682_01b1504b9a_n.jpg",
    "id_album": "1364506720",
    "description": "Ferrari_81532",
    "title": "Ferrari_81532",
    "link_img": "https://live.staticflickr.com/65535/48116414682_002468a23c_o.jpg",
    "id_image": "Ferrari_81532",
    "count_view": 0
  },
  {
    "link_thumb": "https://live.staticflickr.com/65535/49889093092_2764489b13_n.jpg",
    "id_album": "1627109540",
    "description": "2010_rv_Alfa_rv_Romeo_rv_Mito_rv_GTA_rv_V2_rv_1536",
    "title": "2010_rv_Alfa_rv_Romeo_rv_Mito_rv_GTA_rv_V2_rv_1536",
    "link_img": "https://live.staticflickr.com/65535/49889093092_e28cb3d627_o.jpg",
    "id_image": "2010_rv_Alfa_rv_Romeo_rv_Mito_rv_GTA_rv_V2_rv_1536",
    "count_view": 0
  },
  {
    "link_thumb": "https://live.staticflickr.com/65535/48113176647_fae7246b91_n.jpg",
    "id_album": "727633301",
    "description": "BMW_817936",
    "title": "BMW_817936",
    "link_img": "https://live.staticflickr.com/65535/48113176647_517440178a_o.jpg",
    "id_image": "BMW_817936",
    "count_view": 0
  },
  {
    "link_thumb": "https://live.staticflickr.com/65535/48118714962_dd8035a62c_n.jpg",
    "id_album": "-2100339805",
    "description": "Lamborghini_844464",
    "title": "Lamborghini_844464",
    "link_img": "https://live.staticflickr.com/65535/48118714962_7a56ff02d5_o.jpg",
    "id_image": "Lamborghini_844464",
    "count_view": 0
  },
  {
    "link_thumb": "https://live.staticflickr.com/65535/48121930743_c8587e8e12_n.jpg",
    "id_album": "-1377335499",
    "description": "RangeRover_485063",
    "title": "RangeRover_485063",
    "link_img": "https://live.staticflickr.com/65535/48121930743_de26ef0666_o.jpg",
    "id_image": "RangeRover_485063",
    "count_view": 0
  },
  {
    "link_thumb": "https://live.staticflickr.com/65535/48118577917_336b753bea_n.jpg",
    "id_album": "-2100339805",
    "description": "Lamborghini_464453",
    "title": "Lamborghini_464453",
    "link_img": "https://live.staticflickr.com/65535/48118577917_4bea6be68c_o.jpg",
    "id_image": "Lamborghini_464453",
    "count_view": 0
  },
  {
    "link_thumb": "https://live.staticflickr.com/65535/49888386543_82b8dfbca6_n.jpg",
    "id_album": "1357324670",
    "description": "2011_rv_Aston_rv_Martin_rv_Virage_rv_V5_rv_1536",
    "title": "2011_rv_Aston_rv_Martin_rv_Virage_rv_V5_rv_1536",
    "link_img": "https://live.staticflickr.com/65535/49888386543_bf01755153_o.jpg",
    "id_image": "2011_rv_Aston_rv_Martin_rv_Virage_rv_V5_rv_1536",
    "count_view": 0
  },
  {
    "link_thumb": "https://live.staticflickr.com/65535/48113896552_41118be1d3_n.jpg",
    "id_album": "-1721545051",
    "description": "Chevrolet_207594",
    "title": "Chevrolet_207594",
    "link_img": "https://live.staticflickr.com/65535/48113896552_8b6ffc16f2_o.jpg",
    "id_image": "Chevrolet_207594",
    "count_view": 0
  },
  {
    "link_thumb": "https://live.staticflickr.com/65535/48117637246_056a711896_n.jpg",
    "id_album": "-1846404630",
    "description": "Ford_960086",
    "title": "Ford_960086",
    "link_img": "https://live.staticflickr.com/65535/48117637246_338455d3b5_o.jpg",
    "id_image": "Ford_960086",
    "count_view": 0
  },
  {
    "link_thumb": "https://live.staticflickr.com/65535/48120527471_762607a215_n.jpg",
    "id_album": "810634050",
    "description": "Nissan_589398",
    "title": "Nissan_589398",
    "link_img": "https://live.staticflickr.com/65535/48120527471_0aa63d1146_o.jpg",
    "id_image": "Nissan_589398",
    "count_view": 0
  },
  {
    "link_thumb": "https://live.staticflickr.com/65535/48112896786_764cc33b84_n.jpg",
    "id_album": "727633301",
    "description": "BMW_488971",
    "title": "BMW_488971",
    "link_img": "https://live.staticflickr.com/65535/48112896786_69f691d363_o.jpg",
    "id_image": "BMW_488971",
    "count_view": 0
  },
  {
    "link_thumb": "https://live.staticflickr.com/65535/48113431567_5a27f99be1_n.jpg",
    "id_album": "1456070666",
    "description": "Bugatti_264945",
    "title": "Bugatti_264945",
    "link_img": "https://live.staticflickr.com/65535/48113431567_2856a8b9a5_o.jpg",
    "id_image": "Bugatti_264945",
    "count_view": 0
  },
  {
    "link_thumb": "https://live.staticflickr.com/65535/48119571808_1be00f3c40_n.jpg",
    "id_album": "-731054311",
    "description": "MercedesBenz_257306",
    "title": "MercedesBenz_257306",
    "link_img": "https://live.staticflickr.com/65535/48119571808_d27eb09ca8_o.jpg",
    "id_image": "MercedesBenz_257306",
    "count_view": 0
  },
  {
    "link_thumb": "https://live.staticflickr.com/65535/48118860786_e8d1014272_n.jpg",
    "id_album": "446908717",
    "description": "Lexus_440236",
    "title": "Lexus_440236",
    "link_img": "https://live.staticflickr.com/65535/48118860786_a8f719dbfe_o.jpg",
    "id_image": "Lexus_440236",
    "count_view": 0
  },
  {
    "link_thumb": "https://live.staticflickr.com/65535/48122694122_4b6d30073a_n.jpg",
    "id_album": "1822826527",
    "description": "TeslaMotors_949334",
    "title": "TeslaMotors_949334",
    "link_img": "https://live.staticflickr.com/65535/48122694122_9aeb1d2b58_o.jpg",
    "id_image": "TeslaMotors_949334",
    "count_view": 0
  },
  {
    "link_thumb": "https://live.staticflickr.com/65535/48119998848_93c0af19dc_n.jpg",
    "id_album": "-731054311",
    "description": "MercedesBenz_995046",
    "title": "MercedesBenz_995046",
    "link_img": "https://live.staticflickr.com/65535/48119998848_a76704d0f0_o.jpg",
    "id_image": "MercedesBenz_995046",
    "count_view": 0
  },
  {
    "link_thumb": "https://live.staticflickr.com/65535/49888239278_1b5366d29b_n.jpg",
    "id_album": "269708336",
    "description": "2008_rv_Alfa_rv_Romeo_rv_Brera_rv_S_rv_V3_rv_1200",
    "title": "2008_rv_Alfa_rv_Romeo_rv_Brera_rv_S_rv_V3_rv_1200",
    "link_img": "https://live.staticflickr.com/65535/49888239278_f3685577bc_o.jpg",
    "id_image": "2008_rv_Alfa_rv_Romeo_rv_Brera_rv_S_rv_V3_rv_1200",
    "count_view": 0
  },
  {
    "link_thumb": "https://live.staticflickr.com/65535/48115167151_84b967ecf0_n.jpg",
    "id_album": "413141323",
    "description": "Dodge_313875",
    "title": "Dodge_313875",
    "link_img": "https://live.staticflickr.com/65535/48115167151_9736b42dab_o.jpg",
    "id_image": "Dodge_313875",
    "count_view": 0
  },
  {
    "link_thumb": "https://live.staticflickr.com/65535/48112270722_247c1d31d9_n.jpg",
    "id_album": "555757480",
    "description": "AstonMartin_715637",
    "title": "AstonMartin_715637",
    "link_img": "https://live.staticflickr.com/65535/48112270722_e472d8e3d2_o.jpg",
    "id_image": "AstonMartin_715637",
    "count_view": 0
  },
  {
    "link_thumb": "https://live.staticflickr.com/65535/48113462606_5da7d67b49_n.jpg",
    "id_album": "1246496342",
    "description": "Buick_192188",
    "title": "Buick_192188",
    "link_img": "https://live.staticflickr.com/65535/48113462606_b5712a6d61_o.jpg",
    "id_image": "Buick_192188",
    "count_view": 0
  },
  {
    "link_thumb": "https://live.staticflickr.com/65535/48112522611_28a4e8f4d6_n.jpg",
    "id_album": "2097036181",
    "description": "Bentley_456516",
    "title": "Bentley_456516",
    "link_img": "https://live.staticflickr.com/65535/48112522611_3680e95c39_o.jpg",
    "id_image": "Bentley_456516",
    "count_view": 0
  },
  {
    "link_thumb": "https://live.staticflickr.com/65535/48112906152_4680ac9f2b_n.jpg",
    "id_album": "727633301",
    "description": "BMW_464217",
    "title": "BMW_464217",
    "link_img": "https://live.staticflickr.com/65535/48112906152_b0fbe3af76_o.jpg",
    "id_image": "BMW_464217",
    "count_view": 0
  },
  {
    "link_thumb": "https://live.staticflickr.com/65535/48114004407_26aa168d3b_n.jpg",
    "id_album": "-1721545051",
    "description": "Chevrolet_254919",
    "title": "Chevrolet_254919",
    "link_img": "https://live.staticflickr.com/65535/48114004407_d640232900_o.jpg",
    "id_image": "Chevrolet_254919",
    "count_view": 0
  },
  {
    "link_thumb": "https://live.staticflickr.com/65535/49041197302_2a745c7b76_n.jpg",
    "id_album": "400986559",
    "description": "49129",
    "title": "49129",
    "link_img": "https://live.staticflickr.com/65535/49041197302_f341e1a80c_o.jpg",
    "id_image": "49129",
    "count_view": 0
  },
  {
    "link_thumb": "https://live.staticflickr.com/65535/48117786427_003b1c92e9_n.jpg",
    "id_album": "-885504812",
    "description": "GMC_318239",
    "title": "GMC_318239",
    "link_img": "https://live.staticflickr.com/65535/48117786427_399b88e47f_o.jpg",
    "id_image": "GMC_318239",
    "count_view": 0
  },
  {
    "link_thumb": "https://live.staticflickr.com/65535/48117115717_9c07dfbec3_n.jpg",
    "id_album": "-1846404630",
    "description": "Ford_330626",
    "title": "Ford_330626",
    "link_img": "https://live.staticflickr.com/65535/48117115717_6c429dca1a_o.jpg",
    "id_image": "Ford_330626",
    "count_view": 0
  },
  {
    "link_thumb": "https://live.staticflickr.com/65535/48121321797_230414a113_n.jpg",
    "id_album": "-1178450892",
    "description": "Porsche_238222",
    "title": "Porsche_238222",
    "link_img": "https://live.staticflickr.com/65535/48121321797_af7217c26e_o.jpg",
    "id_image": "Porsche_238222",
    "count_view": 0
  },
  {
    "link_thumb": "https://live.staticflickr.com/65535/48121245451_a06bcaf281_n.jpg",
    "id_album": "-1178450892",
    "description": "Porsche_257612",
    "title": "Porsche_257612",
    "link_img": "https://live.staticflickr.com/65535/48121245451_d03715f72d_o.jpg",
    "id_image": "Porsche_257612",
    "count_view": 0
  },
  {
    "link_thumb": "https://live.staticflickr.com/65535/48123119861_73ddb6fcdb_n.jpg",
    "id_album": "1159292543",
    "description": "Volvo_319452",
    "title": "Volvo_319452",
    "link_img": "https://live.staticflickr.com/65535/48123119861_b2cfaa0f9a_o.jpg",
    "id_image": "Volvo_319452",
    "count_view": 0
  },
  {
    "link_thumb": "https://live.staticflickr.com/65535/48113543586_df141b8a40_n.jpg",
    "id_album": "-680120434",
    "description": "Cadillac_357771",
    "title": "Cadillac_357771",
    "link_img": "https://live.staticflickr.com/65535/48113543586_2b2fbbee4c_o.jpg",
    "id_image": "Cadillac_357771",
    "count_view": 0
  },
  {
    "link_thumb": "https://live.staticflickr.com/65535/48120663806_310ee7b9b2_n.jpg",
    "id_album": "-6897294",
    "description": "Opel_209878",
    "title": "Opel_209878",
    "link_img": "https://live.staticflickr.com/65535/48120663806_d604d7b5d1_o.jpg",
    "id_image": "Opel_209878",
    "count_view": 0
  },
  {
    "link_thumb": "https://live.staticflickr.com/65535/48115517088_02df460ff9_n.jpg",
    "id_album": "413141323",
    "description": "Dodge_759684",
    "title": "Dodge_759684",
    "link_img": "https://live.staticflickr.com/65535/48115517088_2a90585861_o.jpg",
    "id_image": "Dodge_759684",
    "count_view": 0
  },
  {
    "link_thumb": "https://live.staticflickr.com/65535/49890555916_ef24f04620_n.jpg",
    "id_album": "-646872376",
    "description": "2016_rv_McLaren_rv_675LT_rv_V14_rv_1600",
    "title": "2016_rv_McLaren_rv_675LT_rv_V14_rv_1600",
    "link_img": "https://live.staticflickr.com/65535/49890555916_785e757df6_o.jpg",
    "id_image": "2016_rv_McLaren_rv_675LT_rv_V14_rv_1600",
    "count_view": 0
  },
  {
    "link_thumb": "https://live.staticflickr.com/65535/48117921132_922e7bf1c6_n.jpg",
    "id_album": "-354267407",
    "description": "Honda_644368",
    "title": "Honda_644368",
    "link_img": "https://live.staticflickr.com/65535/48117921132_597acd5655_o.jpg",
    "id_image": "Honda_644368",
    "count_view": 0
  },
  {
    "link_thumb": "https://live.staticflickr.com/65535/48112467022_8e726f1c9e_n.jpg",
    "id_album": "-15119147",
    "description": "Audi_614316",
    "title": "Audi_614316",
    "link_img": "https://live.staticflickr.com/65535/48112467022_dd91568597_o.jpg",
    "id_image": "Audi_614316",
    "count_view": 0
  },
  {
    "link_thumb": "https://live.staticflickr.com/65535/48118903936_8126d7267c_n.jpg",
    "id_album": "446908717",
    "description": "Lexus_880197",
    "title": "Lexus_880197",
    "link_img": "https://live.staticflickr.com/65535/48118903936_ef10df0a78_o.jpg",
    "id_image": "Lexus_880197",
    "count_view": 0
  },
  {
    "link_thumb": "https://live.staticflickr.com/65535/48112091972_fab8eb721d_n.jpg",
    "id_album": "1906325017",
    "description": "Infiniti_884871",
    "title": "Infiniti_884871",
    "link_img": "https://live.staticflickr.com/65535/48112091972_aa0a30dc03_o.jpg",
    "id_image": "Infiniti_884871",
    "count_view": 0
  },
  {
    "link_thumb": "https://live.staticflickr.com/65535/48120510653_e1d057a6ba_n.jpg",
    "id_album": "810634050",
    "description": "Nissan_485052",
    "title": "Nissan_485052",
    "link_img": "https://live.staticflickr.com/65535/48120510653_5b2374477e_o.jpg",
    "id_image": "Nissan_485052",
    "count_view": 0
  },
  {
    "link_thumb": "https://live.staticflickr.com/65535/48112667721_c00470af56_n.jpg",
    "id_album": "727633301",
    "description": "BMW_254115",
    "title": "BMW_254115",
    "link_img": "https://live.staticflickr.com/65535/48112667721_da2d414635_o.jpg",
    "id_image": "BMW_254115",
    "count_view": 0
  },
  {
    "link_thumb": "https://live.staticflickr.com/65535/48123046567_39629cd01e_n.jpg",
    "id_album": "-150952028",
    "description": "Volkswagen_421204",
    "title": "Volkswagen_421204",
    "link_img": "https://live.staticflickr.com/65535/48123046567_d935796a00_o.jpg",
    "id_image": "Volkswagen_421204",
    "count_view": 0
  },
  {
    "link_thumb": "https://live.staticflickr.com/65535/49889505416_6030d6bf2b_n.jpg",
    "id_album": "1069273903",
    "description": "2004_rv_Ferrari_rv_575_rv_GTC_rv_V3_rv_1440",
    "title": "2004_rv_Ferrari_rv_575_rv_GTC_rv_V3_rv_1440",
    "link_img": "https://live.staticflickr.com/65535/49889505416_3505e36384_o.jpg",
    "id_image": "2004_rv_Ferrari_rv_575_rv_GTC_rv_V3_rv_1440",
    "count_view": 0
  },
  {
    "link_thumb": "https://live.staticflickr.com/65535/48114740562_1189c4ae3a_n.jpg",
    "id_album": "-1721545051",
    "description": "Chevrolet_919568",
    "title": "Chevrolet_919568",
    "link_img": "https://live.staticflickr.com/65535/48114740562_5ce8e1c435_o.jpg",
    "id_image": "Chevrolet_919568",
    "count_view": 0
  },
  {
    "link_thumb": "https://live.staticflickr.com/65535/48119271963_a42344b282_n.jpg",
    "id_album": "898314866",
    "description": "Mazda_896132",
    "title": "Mazda_896132",
    "link_img": "https://live.staticflickr.com/65535/48119271963_a5660c8fef_o.jpg",
    "id_image": "Mazda_896132",
    "count_view": 0
  },
  {
    "link_thumb": "https://live.staticflickr.com/65535/48113605156_5cb5bec916_n.jpg",
    "id_album": "-680120434",
    "description": "Cadillac_805385",
    "title": "Cadillac_805385",
    "link_img": "https://live.staticflickr.com/65535/48113605156_57fd62db02_o.jpg",
    "id_image": "Cadillac_805385",
    "count_view": 0
  },
  {
    "link_thumb": "https://live.staticflickr.com/65535/48112867948_812f7df3e8_n.jpg",
    "id_album": "727633301",
    "description": "BMW_471050",
    "title": "BMW_471050",
    "link_img": "https://live.staticflickr.com/65535/48112867948_2f2d5c6a6c_o.jpg",
    "id_image": "BMW_471050",
    "count_view": 0
  },
  {
    "link_thumb": "https://live.staticflickr.com/65535/49889754038_86749a232b_n.jpg",
    "id_album": "-1696197176",
    "description": "2019_rv_Lexus_rv_LC_rv_Convertible_rv_Concept_rv_V6_rv_2160",
    "title": "2019_rv_Lexus_rv_LC_rv_Convertible_rv_Concept_rv_V6_rv_2160",
    "link_img": "https://live.staticflickr.com/65535/49889754038_2bcd4fe8de_o.jpg",
    "id_image": "2019_rv_Lexus_rv_LC_rv_Convertible_rv_Concept_rv_V6_rv_2160",
    "count_view": 0
  },
  {
    "link_thumb": "https://live.staticflickr.com/65535/49888364298_29e870024d_n.jpg",
    "id_album": "-1585552745",
    "description": "2018_rv_Aston_rv_Martin_rv_Valkyrie_rv_V6_rv_2000",
    "title": "2018_rv_Aston_rv_Martin_rv_Valkyrie_rv_V6_rv_2000",
    "link_img": "https://live.staticflickr.com/65535/49888364298_f2cbe0b4b3_o.jpg",
    "id_image": "2018_rv_Aston_rv_Martin_rv_Valkyrie_rv_V6_rv_2000",
    "count_view": 0
  },
  {
    "link_thumb": "https://live.staticflickr.com/65535/48114868246_3ab225e4ec_n.jpg",
    "id_album": "2072464184",
    "description": "Citroen_420691",
    "title": "Citroen_420691",
    "link_img": "https://live.staticflickr.com/65535/48114868246_df8331c5c4_o.jpg",
    "id_image": "Citroen_420691",
    "count_view": 0
  },
  {
    "link_thumb": "https://live.staticflickr.com/65535/49889398483_2443e3b2b6_n.jpg",
    "id_album": "-865647970",
    "description": "2009_rv_Honda_rv_Mugen_rv_NSX_rv_RR_rv_Concept_rv_V1_rv_1440",
    "title": "2009_rv_Honda_rv_Mugen_rv_NSX_rv_RR_rv_Concept_rv_V1_rv_1440",
    "link_img": "https://live.staticflickr.com/65535/49889398483_dccf07de6d_o.jpg",
    "id_image": "2009_rv_Honda_rv_Mugen_rv_NSX_rv_RR_rv_Concept_rv_V1_rv_1440",
    "count_view": 0
  },
  {
    "link_thumb": "https://live.staticflickr.com/65535/49889769043_5485c3a03b_n.jpg",
    "id_album": "84688798",
    "description": "2016_rv_Lexus_rv_IS_rv_F_rv_Sport_rv_V2_rv_1600",
    "title": "2016_rv_Lexus_rv_IS_rv_F_rv_Sport_rv_V2_rv_1600",
    "link_img": "https://live.staticflickr.com/65535/49889769043_e55acc63c5_o.jpg",
    "id_image": "2016_rv_Lexus_rv_IS_rv_F_rv_Sport_rv_V2_rv_1600",
    "count_view": 0
  },
  {
    "link_thumb": "https://live.staticflickr.com/65535/49890815102_160509348b_n.jpg",
    "id_album": "-914737879",
    "description": "2011_rv_McLaren_rv_MP4_rv_12C_rv_GT3_rv_V6_rv_1536",
    "title": "2011_rv_McLaren_rv_MP4_rv_12C_rv_GT3_rv_V6_rv_1536",
    "link_img": "https://live.staticflickr.com/65535/49890815102_4bbaf27494_o.jpg",
    "id_image": "2011_rv_McLaren_rv_MP4_rv_12C_rv_GT3_rv_V6_rv_1536",
    "count_view": 0
  },
  {
    "link_thumb": "https://live.staticflickr.com/65535/49889015806_e0ea063c78_n.jpg",
    "id_album": "857589277",
    "description": "2017_rv_Audi_rv_TT_rv_RS_rv_V9_rv_2000",
    "title": "2017_rv_Audi_rv_TT_rv_RS_rv_V9_rv_2000",
    "link_img": "https://live.staticflickr.com/65535/49889015806_1e161e08a4_o.jpg",
    "id_image": "2017_rv_Audi_rv_TT_rv_RS_rv_V9_rv_2000",
    "count_view": 0
  },
  {
    "link_thumb": "https://live.staticflickr.com/65535/49890197811_97d5eea145_n.jpg",
    "id_album": "1957300237",
    "description": "2015_rv_Novitec_rv_Torado_rv_Lamborghini_rv_Huracan_rv_N_rv_Largo_rv_V6_rv_2000",
    "title": "2015_rv_Novitec_rv_Torado_rv_Lamborghini_rv_Huracan_rv_N_rv_Largo_rv_V6_rv_2000",
    "link_img": "https://live.staticflickr.com/65535/49890197811_dc5b8c0f3d_o.jpg",
    "id_image": "2015_rv_Novitec_rv_Torado_rv_Lamborghini_rv_Huracan_rv_N_rv_Largo_rv_V6_rv_2000",
    "count_view": 0
  },
  {
    "link_thumb": "https://live.staticflickr.com/65535/48120323812_0c3b20cc7c_n.jpg",
    "id_album": "666438681",
    "description": "Motorcycles_576444",
    "title": "Motorcycles_576444",
    "link_img": "https://live.staticflickr.com/65535/48120323812_8ef6238001_o.jpg",
    "id_image": "Motorcycles_576444",
    "count_view": 0
  },
  {
    "link_thumb": "https://live.staticflickr.com/65535/48115024563_3d41280e3c_n.jpg",
    "id_album": "1906998752",
    "description": "Daewoo_440579",
    "title": "Daewoo_440579",
    "link_img": "https://live.staticflickr.com/65535/48115024563_554b8d6a14_o.jpg",
    "id_image": "Daewoo_440579",
    "count_view": 0
  },
  {
    "link_thumb": "https://live.staticflickr.com/65535/48121054926_0045188af7_n.jpg",
    "id_album": "-2099496752",
    "description": "Pontiac_151188",
    "title": "Pontiac_151188",
    "link_img": "https://live.staticflickr.com/65535/48121054926_300c6b2c51_o.jpg",
    "id_image": "Pontiac_151188",
    "count_view": 0
  },
  {
    "link_thumb": "https://live.staticflickr.com/65535/49890917196_ec3acc8fcf_n.jpg",
    "id_album": "-2129417883",
    "description": "2010_rv_Mercedes_rv_Benz_rv_SLS_rv_AMG_rv_V6_rv_1440",
    "title": "2010_rv_Mercedes_rv_Benz_rv_SLS_rv_AMG_rv_V6_rv_1440",
    "link_img": "https://live.staticflickr.com/65535/49890917196_6b73b9103b_o.jpg",
    "id_image": "2010_rv_Mercedes_rv_Benz_rv_SLS_rv_AMG_rv_V6_rv_1440",
    "count_view": 0
  },
  {
    "link_thumb": "https://live.staticflickr.com/65535/48115021482_40e87fe911_n.jpg",
    "id_album": "2072464184",
    "description": "Citroen_923224",
    "title": "Citroen_923224",
    "link_img": "https://live.staticflickr.com/65535/48115021482_ec0736da15_o.jpg",
    "id_image": "Citroen_923224",
    "count_view": 0
  },
  {
    "link_thumb": "https://live.staticflickr.com/65535/49889140552_d40dbb065e_n.jpg",
    "id_album": "1601696203",
    "description": "1959_rv_Aston_rv_Martin_rv_DB4_rv_GT_rv_V3_rv_1440",
    "title": "1959_rv_Aston_rv_Martin_rv_DB4_rv_GT_rv_V3_rv_1440",
    "link_img": "https://live.staticflickr.com/65535/49889140552_06abeff376_o.jpg",
    "id_image": "1959_rv_Aston_rv_Martin_rv_DB4_rv_GT_rv_V3_rv_1440",
    "count_view": 0
  },
  {
    "link_thumb": "https://live.staticflickr.com/65535/49888347488_771d58295d_n.jpg",
    "id_album": "-255791939",
    "description": "2014_rv_Aston_rv_Martin_rv_Lagonda_rv_Prototype_rv_V1_rv_1440",
    "title": "2014_rv_Aston_rv_Martin_rv_Lagonda_rv_Prototype_rv_V1_rv_1440",
    "link_img": "https://live.staticflickr.com/65535/49888347488_5ed00a19cf_o.jpg",
    "id_image": "2014_rv_Aston_rv_Martin_rv_Lagonda_rv_Prototype_rv_V1_rv_1440",
    "count_view": 0
  },
  {
    "link_thumb": "https://live.staticflickr.com/65535/49889908482_ca38f4d375_n.jpg",
    "id_album": "1444834859",
    "description": "2018_rv_Ferrari_rv_Portofino_rv_V4_rv_2000",
    "title": "2018_rv_Ferrari_rv_Portofino_rv_V4_rv_2000",
    "link_img": "https://live.staticflickr.com/65535/49889908482_29bd1d5ae2_o.jpg",
    "id_image": "2018_rv_Ferrari_rv_Portofino_rv_V4_rv_2000",
    "count_view": 0
  },
  {
    "link_thumb": "https://live.staticflickr.com/65535/49890578687_90a927a1f6_n.jpg",
    "id_album": "-1696197176",
    "description": "2015_rv_Lexus_rv_LF_rv_FC_rv_Concept_rv_V3_rv_1600",
    "title": "2015_rv_Lexus_rv_LF_rv_FC_rv_Concept_rv_V3_rv_1600",
    "link_img": "https://live.staticflickr.com/65535/49890578687_f36dedb311_o.jpg",
    "id_image": "2015_rv_Lexus_rv_LF_rv_FC_rv_Concept_rv_V3_rv_1600",
    "count_view": 0
  },
  {
    "link_thumb": "https://live.staticflickr.com/65535/48114766288_ae3a82c99e_n.jpg",
    "id_album": "939606447",
    "description": "Chrysler_187159",
    "title": "Chrysler_187159",
    "link_img": "https://live.staticflickr.com/65535/48114766288_f449176566_o.jpg",
    "id_image": "Chrysler_187159",
    "count_view": 0
  },
  {
    "link_thumb": "https://live.staticflickr.com/65535/48113965101_de148a2025_n.jpg",
    "id_album": "-1721545051",
    "description": "Chevrolet_288480",
    "title": "Chevrolet_288480",
    "link_img": "https://live.staticflickr.com/65535/48113965101_fe5310dc6e_o.jpg",
    "id_image": "Chevrolet_288480",
    "count_view": 0
  },
  {
    "link_thumb": "https://live.staticflickr.com/65535/48119067547_362d9920a1_n.jpg",
    "id_album": "-120702461",
    "description": "Lincoln_273598",
    "title": "Lincoln_273598",
    "link_img": "https://live.staticflickr.com/65535/48119067547_6ca7203ac7_o.jpg",
    "id_image": "Lincoln_273598",
    "count_view": 0
  },
  {
    "link_thumb": "https://live.staticflickr.com/65535/49890328372_30289c91ce_n.jpg",
    "id_album": "48258312",
    "description": "1990_rv_Jaguar_rv_XJR15_rv_V3_rv_1536",
    "title": "1990_rv_Jaguar_rv_XJR15_rv_V3_rv_1536",
    "link_img": "https://live.staticflickr.com/65535/49890328372_42f32a54e3_o.jpg",
    "id_image": "1990_rv_Jaguar_rv_XJR15_rv_V3_rv_1536",
    "count_view": 0
  },
  {
    "link_thumb": "https://live.staticflickr.com/65535/48118812721_57890459c8_n.jpg",
    "id_album": "1234246491",
    "description": "LandRover_885623",
    "title": "LandRover_885623",
    "link_img": "https://live.staticflickr.com/65535/48118812721_ec2dcd47b2_o.jpg",
    "id_image": "LandRover_885623",
    "count_view": 0
  },
  {
    "link_thumb": "https://live.staticflickr.com/65535/48123002116_2595fbaaa4_n.jpg",
    "id_album": "-150952028",
    "description": "Volkswagen_613442",
    "title": "Volkswagen_613442",
    "link_img": "https://live.staticflickr.com/65535/48123002116_d34c546af0_o.jpg",
    "id_image": "Volkswagen_613442",
    "count_view": 0
  },
  {
    "link_thumb": "https://live.staticflickr.com/65535/49889985706_f22fa22ebe_n.jpg",
    "id_album": "-1191355745",
    "description": "2016_rv_Jaguar_rv_F_rv_Type_rv_V3_rv_1600",
    "title": "2016_rv_Jaguar_rv_F_rv_Type_rv_V3_rv_1600",
    "link_img": "https://live.staticflickr.com/65535/49889985706_73bac3261c_o.jpg",
    "id_image": "2016_rv_Jaguar_rv_F_rv_Type_rv_V3_rv_1600",
    "count_view": 0
  },
  {
    "link_thumb": "https://live.staticflickr.com/65535/48118269976_175c9d6e3f_n.jpg",
    "id_album": "-2100339805",
    "description": "Lamborghini_256320",
    "title": "Lamborghini_256320",
    "link_img": "https://live.staticflickr.com/65535/48118269976_1acd830be0_o.jpg",
    "id_image": "Lamborghini_256320",
    "count_view": 0
  },
  {
    "link_thumb": "https://live.staticflickr.com/65535/48116907521_ffd7fa5d25_n.jpg",
    "id_album": "-1846404630",
    "description": "Ford_261621",
    "title": "Ford_261621",
    "link_img": "https://live.staticflickr.com/65535/48116907521_f17a2dfd10_o.jpg",
    "id_image": "Ford_261621",
    "count_view": 0
  },
  {
    "link_thumb": "https://live.staticflickr.com/65535/48121072756_71dea4327b_n.jpg",
    "id_album": "-2099496752",
    "description": "Pontiac_189504",
    "title": "Pontiac_189504",
    "link_img": "https://live.staticflickr.com/65535/48121072756_7b18b3431e_o.jpg",
    "id_image": "Pontiac_189504",
    "count_view": 0
  },
  {
    "link_thumb": "https://live.staticflickr.com/65535/48116798642_841d67a5be_n.jpg",
    "id_album": "-1846404630",
    "description": "Ford_190152",
    "title": "Ford_190152",
    "link_img": "https://live.staticflickr.com/65535/48116798642_1fd976d0bb_o.jpg",
    "id_image": "Ford_190152",
    "count_view": 0
  },
  {
    "link_thumb": "https://live.staticflickr.com/65535/48119129131_f6506394aa_n.jpg",
    "id_album": "697984456",
    "description": "Maserati_891929",
    "title": "Maserati_891929",
    "link_img": "https://live.staticflickr.com/65535/48119129131_c27bff0b47_o.jpg",
    "id_image": "Maserati_891929",
    "count_view": 0
  },
  {
    "link_thumb": "https://live.staticflickr.com/65535/49889950326_452ac33886_n.jpg",
    "id_album": "-45591240",
    "description": "2017_rv_Infiniti_rv_QX80_rv_Monograph_rv_Concept_rv_V2_rv_2000",
    "title": "2017_rv_Infiniti_rv_QX80_rv_Monograph_rv_Concept_rv_V2_rv_2000",
    "link_img": "https://live.staticflickr.com/65535/49889950326_e15585b83a_o.jpg",
    "id_image": "2017_rv_Infiniti_rv_QX80_rv_Monograph_rv_Concept_rv_V2_rv_2000",
    "count_view": 0
  },
  {
    "link_thumb": "https://live.staticflickr.com/65535/49892902387_3ff4e498e2_n.jpg",
    "id_album": "-57589574",
    "description": "2013_rv_Aston_rv_Martin_rv_V12_rv_Vantage_rv_Roadster_rv_V3_rv_1440",
    "title": "2013_rv_Aston_rv_Martin_rv_V12_rv_Vantage_rv_Roadster_rv_V3_rv_1440",
    "link_img": "https://live.staticflickr.com/65535/49892902387_f2780e9c75_o.jpg",
    "id_image": "2013_rv_Aston_rv_Martin_rv_V12_rv_Vantage_rv_Roadster_rv_V3_rv_1440",
    "count_view": 0
  }
]