[
  {
    "total_img": 0,
    "number_page": 0,
    "title": "Audi",
    "tag": "Audi,",
    "description": "Audi",
    "link_thumb": "https://live.staticflickr.com/65535/49889225902_a16eb32d4c_n.jpg",
    "id_album": "-15119147",
    "total_view": 1638
  },
  {
    "total_img": 0,
    "number_page": 0,
    "title": "Audi S3",
    "tag": "Audi S3,",
    "description": "Audi S3",
    "link_thumb": "https://live.staticflickr.com/65535/49888432278_9e18ab7978_n.jpg",
    "id_album": "1879029582",
    "total_view": 64
  }
]