[
  {
    "link_thumb": "https://live.staticflickr.com/65535/49889074016_6785a568ef_n.jpg",
    "id_album": "-1839907869",
    "description": "2013_rv_BMW_rv_4_rv_Series_rv_Coupe_rv_Concept_rv_V10_rv_1600",
    "title": "2013_rv_BMW_rv_4_rv_Series_rv_Coupe_rv_Concept_rv_V10_rv_1600",
    "link_img": "https://live.staticflickr.com/65535/49889074016_090b25bf70_o.jpg",
    "id_image": "2013_rv_BMW_rv_4_rv_Series_rv_Coupe_rv_Concept_rv_V10_rv_1600",
    "count_view": 0
  },
  {
    "link_thumb": "https://live.staticflickr.com/65535/49889074251_14273f5b3e_n.jpg",
    "id_album": "-1839907869",
    "description": "2013_rv_BMW_rv_4_rv_Series_rv_Coupe_rv_Concept_rv_V11_rv_1600",
    "title": "2013_rv_BMW_rv_4_rv_Series_rv_Coupe_rv_Concept_rv_V11_rv_1600",
    "link_img": "https://live.staticflickr.com/65535/49889074251_852fc3c97e_o.jpg",
    "id_image": "2013_rv_BMW_rv_4_rv_Series_rv_Coupe_rv_Concept_rv_V11_rv_1600",
    "count_view": 0
  },
  {
    "link_thumb": "https://live.staticflickr.com/65535/49889074471_3e8cabbaa7_n.jpg",
    "id_album": "-1839907869",
    "description": "2013_rv_BMW_rv_4_rv_Series_rv_Coupe_rv_Concept_rv_V12_rv_1600",
    "title": "2013_rv_BMW_rv_4_rv_Series_rv_Coupe_rv_Concept_rv_V12_rv_1600",
    "link_img": "https://live.staticflickr.com/65535/49889074471_53c3c76b34_o.jpg",
    "id_image": "2013_rv_BMW_rv_4_rv_Series_rv_Coupe_rv_Concept_rv_V12_rv_1600",
    "count_view": 0
  },
  {
    "link_thumb": "https://live.staticflickr.com/65535/49889074691_e923a75472_n.jpg",
    "id_album": "-1839907869",
    "description": "2013_rv_BMW_rv_4_rv_Series_rv_Coupe_rv_Concept_rv_V13_rv_1600",
    "title": "2013_rv_BMW_rv_4_rv_Series_rv_Coupe_rv_Concept_rv_V13_rv_1600",
    "link_img": "https://live.staticflickr.com/65535/49889074691_b0141b698f_o.jpg",
    "id_image": "2013_rv_BMW_rv_4_rv_Series_rv_Coupe_rv_Concept_rv_V13_rv_1600",
    "count_view": 0
  },
  {
    "link_thumb": "https://live.staticflickr.com/65535/49889383387_b49ec805fe_n.jpg",
    "id_album": "-1839907869",
    "description": "2013_rv_BMW_rv_4_rv_Series_rv_Coupe_rv_Concept_rv_V14_rv_1600",
    "title": "2013_rv_BMW_rv_4_rv_Series_rv_Coupe_rv_Concept_rv_V14_rv_1600",
    "link_img": "https://live.staticflickr.com/65535/49889383387_61572c6ddb_o.jpg",
    "id_image": "2013_rv_BMW_rv_4_rv_Series_rv_Coupe_rv_Concept_rv_V14_rv_1600",
    "count_view": 0
  },
  {
    "link_thumb": "https://live.staticflickr.com/65535/49888556378_b2f212981d_n.jpg",
    "id_album": "-1839907869",
    "description": "2013_rv_BMW_rv_4_rv_Series_rv_Coupe_rv_Concept_rv_V15_rv_1600",
    "title": "2013_rv_BMW_rv_4_rv_Series_rv_Coupe_rv_Concept_rv_V15_rv_1600",
    "link_img": "https://live.staticflickr.com/65535/49888556378_bc7d80964f_o.jpg",
    "id_image": "2013_rv_BMW_rv_4_rv_Series_rv_Coupe_rv_Concept_rv_V15_rv_1600",
    "count_view": 0
  },
  {
    "link_thumb": "https://live.staticflickr.com/65535/49889073736_379b62b4ab_n.jpg",
    "id_album": "-1839907869",
    "description": "2013_rv_BMW_rv_4_rv_Series_rv_Coupe_rv_Concept_rv_V1_rv_1600",
    "title": "2013_rv_BMW_rv_4_rv_Series_rv_Coupe_rv_Concept_rv_V1_rv_1600",
    "link_img": "https://live.staticflickr.com/65535/49889073736_b260321654_o.jpg",
    "id_image": "2013_rv_BMW_rv_4_rv_Series_rv_Coupe_rv_Concept_rv_V1_rv_1600",
    "count_view": 0
  },
  {
    "link_thumb": "https://live.staticflickr.com/65535/49889383852_cfda730fa9_n.jpg",
    "id_album": "-1839907869",
    "description": "2013_rv_BMW_rv_4_rv_Series_rv_Coupe_rv_Concept_rv_V2_rv_1600",
    "title": "2013_rv_BMW_rv_4_rv_Series_rv_Coupe_rv_Concept_rv_V2_rv_1600",
    "link_img": "https://live.staticflickr.com/65535/49889383852_873020cf16_o.jpg",
    "id_image": "2013_rv_BMW_rv_4_rv_Series_rv_Coupe_rv_Concept_rv_V2_rv_1600",
    "count_view": 0
  },
  {
    "link_thumb": "https://live.staticflickr.com/65535/49889075591_f7b7a06b2c_n.jpg",
    "id_album": "-1839907869",
    "description": "2013_rv_BMW_rv_4_rv_Series_rv_Coupe_rv_Concept_rv_V3_rv_1600",
    "title": "2013_rv_BMW_rv_4_rv_Series_rv_Coupe_rv_Concept_rv_V3_rv_1600",
    "link_img": "https://live.staticflickr.com/65535/49889075591_715484c5d8_o.jpg",
    "id_image": "2013_rv_BMW_rv_4_rv_Series_rv_Coupe_rv_Concept_rv_V3_rv_1600",
    "count_view": 0
  },
  {
    "link_thumb": "https://live.staticflickr.com/65535/49888556993_0977cf275b_n.jpg",
    "id_album": "-1839907869",
    "description": "2013_rv_BMW_rv_4_rv_Series_rv_Coupe_rv_Concept_rv_V4_rv_1600",
    "title": "2013_rv_BMW_rv_4_rv_Series_rv_Coupe_rv_Concept_rv_V4_rv_1600",
    "link_img": "https://live.staticflickr.com/65535/49888556993_d7347e2404_o.jpg",
    "id_image": "2013_rv_BMW_rv_4_rv_Series_rv_Coupe_rv_Concept_rv_V4_rv_1600",
    "count_view": 0
  },
  {
    "link_thumb": "https://live.staticflickr.com/65535/49889076011_a8aca84202_n.jpg",
    "id_album": "-1839907869",
    "description": "2013_rv_BMW_rv_4_rv_Series_rv_Coupe_rv_Concept_rv_V5_rv_1600",
    "title": "2013_rv_BMW_rv_4_rv_Series_rv_Coupe_rv_Concept_rv_V5_rv_1600",
    "link_img": "https://live.staticflickr.com/65535/49889076011_0452203f3e_o.jpg",
    "id_image": "2013_rv_BMW_rv_4_rv_Series_rv_Coupe_rv_Concept_rv_V5_rv_1600",
    "count_view": 0
  },
  {
    "link_thumb": "https://live.staticflickr.com/65535/49888557493_e6e3f9157a_n.jpg",
    "id_album": "-1839907869",
    "description": "2013_rv_BMW_rv_4_rv_Series_rv_Coupe_rv_Concept_rv_V6_rv_1600",
    "title": "2013_rv_BMW_rv_4_rv_Series_rv_Coupe_rv_Concept_rv_V6_rv_1600",
    "link_img": "https://live.staticflickr.com/65535/49888557493_766401a406_o.jpg",
    "id_image": "2013_rv_BMW_rv_4_rv_Series_rv_Coupe_rv_Concept_rv_V6_rv_1600",
    "count_view": 0
  },
  {
    "link_thumb": "https://live.staticflickr.com/65535/49888557728_1fcd5e5bd3_n.jpg",
    "id_album": "-1839907869",
    "description": "2013_rv_BMW_rv_4_rv_Series_rv_Coupe_rv_Concept_rv_V7_rv_1600",
    "title": "2013_rv_BMW_rv_4_rv_Series_rv_Coupe_rv_Concept_rv_V7_rv_1600",
    "link_img": "https://live.staticflickr.com/65535/49888557728_421147518d_o.jpg",
    "id_image": "2013_rv_BMW_rv_4_rv_Series_rv_Coupe_rv_Concept_rv_V7_rv_1600",
    "count_view": 0
  },
  {
    "link_thumb": "https://live.staticflickr.com/65535/49888557938_71526c81cd_n.jpg",
    "id_album": "-1839907869",
    "description": "2013_rv_BMW_rv_4_rv_Series_rv_Coupe_rv_Concept_rv_V8_rv_1600",
    "title": "2013_rv_BMW_rv_4_rv_Series_rv_Coupe_rv_Concept_rv_V8_rv_1600",
    "link_img": "https://live.staticflickr.com/65535/49888557938_0c67328f7b_o.jpg",
    "id_image": "2013_rv_BMW_rv_4_rv_Series_rv_Coupe_rv_Concept_rv_V8_rv_1600",
    "count_view": 0
  },
  {
    "link_thumb": "https://live.staticflickr.com/65535/49889076951_9148a6ed14_n.jpg",
    "id_album": "-1839907869",
    "description": "2013_rv_BMW_rv_4_rv_Series_rv_Coupe_rv_Concept_rv_V9_rv_1600",
    "title": "2013_rv_BMW_rv_4_rv_Series_rv_Coupe_rv_Concept_rv_V9_rv_1600",
    "link_img": "https://live.staticflickr.com/65535/49889076951_860b7b6d09_o.jpg",
    "id_image": "2013_rv_BMW_rv_4_rv_Series_rv_Coupe_rv_Concept_rv_V9_rv_1600",
    "count_view": 0
  },
  {
    "link_thumb": "https://live.staticflickr.com/65535/49888558423_3c47ea1764_n.jpg",
    "id_album": "-1839907869",
    "description": "2013_rv_BMW_rv_M4_rv_Coupe_rv_Concept_rv_V1_rv_1600",
    "title": "2013_rv_BMW_rv_M4_rv_Coupe_rv_Concept_rv_V1_rv_1600",
    "link_img": "https://live.staticflickr.com/65535/49888558423_b8653593f8_o.jpg",
    "id_image": "2013_rv_BMW_rv_M4_rv_Coupe_rv_Concept_rv_V1_rv_1600",
    "count_view": 0
  },
  {
    "link_thumb": "https://live.staticflickr.com/65535/49889077386_88d13d3b23_n.jpg",
    "id_album": "-1839907869",
    "description": "2013_rv_BMW_rv_M4_rv_Coupe_rv_Concept_rv_V2_rv_1600",
    "title": "2013_rv_BMW_rv_M4_rv_Coupe_rv_Concept_rv_V2_rv_1600",
    "link_img": "https://live.staticflickr.com/65535/49889077386_e9dc778871_o.jpg",
    "id_image": "2013_rv_BMW_rv_M4_rv_Coupe_rv_Concept_rv_V2_rv_1600",
    "count_view": 0
  },
  {
    "link_thumb": "https://live.staticflickr.com/65535/49888558823_7bcae36f66_n.jpg",
    "id_album": "-1839907869",
    "description": "2013_rv_BMW_rv_M4_rv_Coupe_rv_Concept_rv_V3_rv_1600",
    "title": "2013_rv_BMW_rv_M4_rv_Coupe_rv_Concept_rv_V3_rv_1600",
    "link_img": "https://live.staticflickr.com/65535/49888558823_f0318beb09_o.jpg",
    "id_image": "2013_rv_BMW_rv_M4_rv_Coupe_rv_Concept_rv_V3_rv_1600",
    "count_view": 0
  },
  {
    "link_thumb": "https://live.staticflickr.com/65535/49888559078_6271ffccae_n.jpg",
    "id_album": "-1839907869",
    "description": "2014_rv_BMW_rv_4_rv_Series_rv_Convertible_rv_V1_rv_1600",
    "title": "2014_rv_BMW_rv_4_rv_Series_rv_Convertible_rv_V1_rv_1600",
    "link_img": "https://live.staticflickr.com/65535/49888559078_e632299a75_o.jpg",
    "id_image": "2014_rv_BMW_rv_4_rv_Series_rv_Convertible_rv_V1_rv_1600",
    "count_view": 0
  },
  {
    "link_thumb": "https://live.staticflickr.com/65535/49889078041_e81fbfd3e8_n.jpg",
    "id_album": "-1839907869",
    "description": "2014_rv_BMW_rv_4_rv_Series_rv_Convertible_rv_V2_rv_1600",
    "title": "2014_rv_BMW_rv_4_rv_Series_rv_Convertible_rv_V2_rv_1600",
    "link_img": "https://live.staticflickr.com/65535/49889078041_35a106e75b_o.jpg",
    "id_image": "2014_rv_BMW_rv_4_rv_Series_rv_Convertible_rv_V2_rv_1600",
    "count_view": 0
  },
  {
    "link_thumb": "https://live.staticflickr.com/65535/49889078306_15bc4e8158_n.jpg",
    "id_album": "-1839907869",
    "description": "2014_rv_BMW_rv_4_rv_Series_rv_Convertible_rv_V3_rv_1600",
    "title": "2014_rv_BMW_rv_4_rv_Series_rv_Convertible_rv_V3_rv_1600",
    "link_img": "https://live.staticflickr.com/65535/49889078306_2903d5c745_o.jpg",
    "id_image": "2014_rv_BMW_rv_4_rv_Series_rv_Convertible_rv_V3_rv_1600",
    "count_view": 0
  },
  {
    "link_thumb": "https://live.staticflickr.com/65535/49889387117_3b823a160a_n.jpg",
    "id_album": "-1839907869",
    "description": "2014_rv_BMW_rv_4_rv_Series_rv_Coupe_rv_M_rv_Performance_rv_Parts_rv_V1_rv_1600",
    "title": "2014_rv_BMW_rv_4_rv_Series_rv_Coupe_rv_M_rv_Performance_rv_Parts_rv_V1_rv_1600",
    "link_img": "https://live.staticflickr.com/65535/49889387117_1bde9ebfc2_o.jpg",
    "id_image": "2014_rv_BMW_rv_4_rv_Series_rv_Coupe_rv_M_rv_Performance_rv_Parts_rv_V1_rv_1600",
    "count_view": 0
  },
  {
    "link_thumb": "https://live.staticflickr.com/65535/49889387332_1caec6b152_n.jpg",
    "id_album": "-1839907869",
    "description": "2014_rv_BMW_rv_4_rv_Series_rv_Coupe_rv_M_rv_Performance_rv_Parts_rv_V2_rv_1600",
    "title": "2014_rv_BMW_rv_4_rv_Series_rv_Coupe_rv_M_rv_Performance_rv_Parts_rv_V2_rv_1600",
    "link_img": "https://live.staticflickr.com/65535/49889387332_3ba252c4b7_o.jpg",
    "id_image": "2014_rv_BMW_rv_4_rv_Series_rv_Coupe_rv_M_rv_Performance_rv_Parts_rv_V2_rv_1600",
    "count_view": 0
  },
  {
    "link_thumb": "https://live.staticflickr.com/65535/49889078951_170dc9c37e_n.jpg",
    "id_album": "-1839907869",
    "description": "2014_rv_BMW_rv_4_rv_Series_rv_Coupe_rv_M_rv_Performance_rv_Parts_rv_V3_rv_1600",
    "title": "2014_rv_BMW_rv_4_rv_Series_rv_Coupe_rv_M_rv_Performance_rv_Parts_rv_V3_rv_1600",
    "link_img": "https://live.staticflickr.com/65535/49889078951_856a7a95bc_o.jpg",
    "id_image": "2014_rv_BMW_rv_4_rv_Series_rv_Coupe_rv_M_rv_Performance_rv_Parts_rv_V3_rv_1600",
    "count_view": 0
  },
  {
    "link_thumb": "https://live.staticflickr.com/65535/49888560568_3b8f8e7e88_n.jpg",
    "id_album": "-1839907869",
    "description": "2014_rv_BMW_rv_4_rv_Series_rv_Coupe_rv_M_rv_Performance_rv_Parts_rv_V4_rv_1600",
    "title": "2014_rv_BMW_rv_4_rv_Series_rv_Coupe_rv_M_rv_Performance_rv_Parts_rv_V4_rv_1600",
    "link_img": "https://live.staticflickr.com/65535/49888560568_a99562a164_o.jpg",
    "id_image": "2014_rv_BMW_rv_4_rv_Series_rv_Coupe_rv_M_rv_Performance_rv_Parts_rv_V4_rv_1600",
    "count_view": 0
  },
  {
    "link_thumb": "https://live.staticflickr.com/65535/49889388012_c86a48cf29_n.jpg",
    "id_album": "-1839907869",
    "description": "2014_rv_BMW_rv_4_rv_Series_rv_Coupe_rv_M_rv_Performance_rv_Parts_rv_V5_rv_1600",
    "title": "2014_rv_BMW_rv_4_rv_Series_rv_Coupe_rv_M_rv_Performance_rv_Parts_rv_V5_rv_1600",
    "link_img": "https://live.staticflickr.com/65535/49889388012_a68b6fb6cd_o.jpg",
    "id_image": "2014_rv_BMW_rv_4_rv_Series_rv_Coupe_rv_M_rv_Performance_rv_Parts_rv_V5_rv_1600",
    "count_view": 0
  },
  {
    "link_thumb": "https://live.staticflickr.com/65535/49889079741_d269ea413a_n.jpg",
    "id_album": "-1839907869",
    "description": "2014_rv_BMW_rv_4_rv_Series_rv_Coupe_rv_V10_rv_1600",
    "title": "2014_rv_BMW_rv_4_rv_Series_rv_Coupe_rv_V10_rv_1600",
    "link_img": "https://live.staticflickr.com/65535/49889079741_0a6201dc53_o.jpg",
    "id_image": "2014_rv_BMW_rv_4_rv_Series_rv_Coupe_rv_V10_rv_1600",
    "count_view": 0
  },
  {
    "link_thumb": "https://live.staticflickr.com/65535/49888561358_f337e324da_n.jpg",
    "id_album": "-1839907869",
    "description": "2014_rv_BMW_rv_4_rv_Series_rv_Coupe_rv_V11_rv_1600",
    "title": "2014_rv_BMW_rv_4_rv_Series_rv_Coupe_rv_V11_rv_1600",
    "link_img": "https://live.staticflickr.com/65535/49888561358_56a645c124_o.jpg",
    "id_image": "2014_rv_BMW_rv_4_rv_Series_rv_Coupe_rv_V11_rv_1600",
    "count_view": 0
  },
  {
    "link_thumb": "https://live.staticflickr.com/65535/49889080151_c489a940e8_n.jpg",
    "id_album": "-1839907869",
    "description": "2014_rv_BMW_rv_4_rv_Series_rv_Coupe_rv_V12_rv_1600",
    "title": "2014_rv_BMW_rv_4_rv_Series_rv_Coupe_rv_V12_rv_1600",
    "link_img": "https://live.staticflickr.com/65535/49889080151_031b0796a5_o.jpg",
    "id_image": "2014_rv_BMW_rv_4_rv_Series_rv_Coupe_rv_V12_rv_1600",
    "count_view": 0
  },
  {
    "link_thumb": "https://live.staticflickr.com/65535/49889388272_1d5903df65_n.jpg",
    "id_album": "-1839907869",
    "description": "2014_rv_BMW_rv_4_rv_Series_rv_Coupe_rv_V1_rv_1600",
    "title": "2014_rv_BMW_rv_4_rv_Series_rv_Coupe_rv_V1_rv_1600",
    "link_img": "https://live.staticflickr.com/65535/49889388272_c97d78d015_o.jpg",
    "id_image": "2014_rv_BMW_rv_4_rv_Series_rv_Coupe_rv_V1_rv_1600",
    "count_view": 0
  },
  {
    "link_thumb": "https://live.staticflickr.com/65535/49888561763_80bdfe7161_n.jpg",
    "id_album": "-1839907869",
    "description": "2014_rv_BMW_rv_4_rv_Series_rv_Coupe_rv_V2_rv_1600",
    "title": "2014_rv_BMW_rv_4_rv_Series_rv_Coupe_rv_V2_rv_1600",
    "link_img": "https://live.staticflickr.com/65535/49888561763_83f83e5126_o.jpg",
    "id_image": "2014_rv_BMW_rv_4_rv_Series_rv_Coupe_rv_V2_rv_1600",
    "count_view": 0
  },
  {
    "link_thumb": "https://live.staticflickr.com/65535/49888561983_beea1c4316_n.jpg",
    "id_album": "-1839907869",
    "description": "2014_rv_BMW_rv_4_rv_Series_rv_Coupe_rv_V3_rv_1600",
    "title": "2014_rv_BMW_rv_4_rv_Series_rv_Coupe_rv_V3_rv_1600",
    "link_img": "https://live.staticflickr.com/65535/49888561983_0a3f43b839_o.jpg",
    "id_image": "2014_rv_BMW_rv_4_rv_Series_rv_Coupe_rv_V3_rv_1600",
    "count_view": 0
  },
  {
    "link_thumb": "https://live.staticflickr.com/65535/49888562183_e6eed6922b_n.jpg",
    "id_album": "-1839907869",
    "description": "2014_rv_BMW_rv_4_rv_Series_rv_Coupe_rv_V4_rv_1600",
    "title": "2014_rv_BMW_rv_4_rv_Series_rv_Coupe_rv_V4_rv_1600",
    "link_img": "https://live.staticflickr.com/65535/49888562183_3f32e48a9d_o.jpg",
    "id_image": "2014_rv_BMW_rv_4_rv_Series_rv_Coupe_rv_V4_rv_1600",
    "count_view": 0
  },
  {
    "link_thumb": "https://live.staticflickr.com/65535/49889389517_492c02e0ed_n.jpg",
    "id_album": "-1839907869",
    "description": "2014_rv_BMW_rv_4_rv_Series_rv_Coupe_rv_V5_rv_1600",
    "title": "2014_rv_BMW_rv_4_rv_Series_rv_Coupe_rv_V5_rv_1600",
    "link_img": "https://live.staticflickr.com/65535/49889389517_4ff31a3975_o.jpg",
    "id_image": "2014_rv_BMW_rv_4_rv_Series_rv_Coupe_rv_V5_rv_1600",
    "count_view": 0
  },
  {
    "link_thumb": "https://live.staticflickr.com/65535/49888562463_05907732df_n.jpg",
    "id_album": "-1839907869",
    "description": "2014_rv_BMW_rv_4_rv_Series_rv_Coupe_rv_V6_rv_1600",
    "title": "2014_rv_BMW_rv_4_rv_Series_rv_Coupe_rv_V6_rv_1600",
    "link_img": "https://live.staticflickr.com/65535/49888562463_f4d002cf54_o.jpg",
    "id_image": "2014_rv_BMW_rv_4_rv_Series_rv_Coupe_rv_V6_rv_1600",
    "count_view": 0
  },
  {
    "link_thumb": "https://live.staticflickr.com/65535/49888562653_a087e2af7b_n.jpg",
    "id_album": "-1839907869",
    "description": "2014_rv_BMW_rv_4_rv_Series_rv_Coupe_rv_V7_rv_1600",
    "title": "2014_rv_BMW_rv_4_rv_Series_rv_Coupe_rv_V7_rv_1600",
    "link_img": "https://live.staticflickr.com/65535/49888562653_7442fe461a_o.jpg",
    "id_image": "2014_rv_BMW_rv_4_rv_Series_rv_Coupe_rv_V7_rv_1600",
    "count_view": 0
  },
  {
    "link_thumb": "https://live.staticflickr.com/65535/49889081386_8a3a266dac_n.jpg",
    "id_album": "-1839907869",
    "description": "2014_rv_BMW_rv_4_rv_Series_rv_Coupe_rv_V8_rv_1600",
    "title": "2014_rv_BMW_rv_4_rv_Series_rv_Coupe_rv_V8_rv_1600",
    "link_img": "https://live.staticflickr.com/65535/49889081386_7fe94189a0_o.jpg",
    "id_image": "2014_rv_BMW_rv_4_rv_Series_rv_Coupe_rv_V8_rv_1600",
    "count_view": 0
  },
  {
    "link_thumb": "https://live.staticflickr.com/65535/49889390252_b98c8e6556_n.jpg",
    "id_album": "-1839907869",
    "description": "2014_rv_BMW_rv_4_rv_Series_rv_Coupe_rv_V9_rv_1600",
    "title": "2014_rv_BMW_rv_4_rv_Series_rv_Coupe_rv_V9_rv_1600",
    "link_img": "https://live.staticflickr.com/65535/49889390252_bec1bbc688_o.jpg",
    "id_image": "2014_rv_BMW_rv_4_rv_Series_rv_Coupe_rv_V9_rv_1600",
    "count_view": 0
  },
  {
    "link_thumb": "https://live.staticflickr.com/65535/49888563163_1ccd31c8cf_n.jpg",
    "id_album": "-1839907869",
    "description": "2014_rv_BMW_rv_M4_rv_Coupe_rv_MotoGP_rv_Safety_rv_Car_rv_V1_rv_1600",
    "title": "2014_rv_BMW_rv_M4_rv_Coupe_rv_MotoGP_rv_Safety_rv_Car_rv_V1_rv_1600",
    "link_img": "https://live.staticflickr.com/65535/49888563163_6947c2abf8_o.jpg",
    "id_image": "2014_rv_BMW_rv_M4_rv_Coupe_rv_MotoGP_rv_Safety_rv_Car_rv_V1_rv_1600",
    "count_view": 0
  },
  {
    "link_thumb": "https://live.staticflickr.com/65535/49889081966_d25f122d30_n.jpg",
    "id_album": "-1839907869",
    "description": "2014_rv_BMW_rv_M4_rv_Coupe_rv_MotoGP_rv_Safety_rv_Car_rv_V2_rv_1600",
    "title": "2014_rv_BMW_rv_M4_rv_Coupe_rv_MotoGP_rv_Safety_rv_Car_rv_V2_rv_1600",
    "link_img": "https://live.staticflickr.com/65535/49889081966_90465a3ecd_o.jpg",
    "id_image": "2014_rv_BMW_rv_M4_rv_Coupe_rv_MotoGP_rv_Safety_rv_Car_rv_V2_rv_1600",
    "count_view": 0
  },
  {
    "link_thumb": "https://live.staticflickr.com/65535/49889082106_e88c579d6d_n.jpg",
    "id_album": "-1839907869",
    "description": "2014_rv_BMW_rv_M4_rv_Coupe_rv_MotoGP_rv_Safety_rv_Car_rv_V3_rv_1600",
    "title": "2014_rv_BMW_rv_M4_rv_Coupe_rv_MotoGP_rv_Safety_rv_Car_rv_V3_rv_1600",
    "link_img": "https://live.staticflickr.com/65535/49889082106_0af3b37563_o.jpg",
    "id_image": "2014_rv_BMW_rv_M4_rv_Coupe_rv_MotoGP_rv_Safety_rv_Car_rv_V3_rv_1600",
    "count_view": 0
  },
  {
    "link_thumb": "https://live.staticflickr.com/65535/49889082296_cabddb9eb3_n.jpg",
    "id_album": "-1839907869",
    "description": "2015_rv_BMW_rv_4_rv_Series_rv_Gran_rv_Coupe_rv_V1_rv_1600",
    "title": "2015_rv_BMW_rv_4_rv_Series_rv_Gran_rv_Coupe_rv_V1_rv_1600",
    "link_img": "https://live.staticflickr.com/65535/49889082296_31b34a6d7e_o.jpg",
    "id_image": "2015_rv_BMW_rv_4_rv_Series_rv_Gran_rv_Coupe_rv_V1_rv_1600",
    "count_view": 0
  },
  {
    "link_thumb": "https://live.staticflickr.com/65535/49889391207_87f0c56d80_n.jpg",
    "id_album": "-1839907869",
    "description": "2015_rv_BMW_rv_4_rv_Series_rv_Gran_rv_Coupe_rv_V2_rv_1600",
    "title": "2015_rv_BMW_rv_4_rv_Series_rv_Gran_rv_Coupe_rv_V2_rv_1600",
    "link_img": "https://live.staticflickr.com/65535/49889391207_be09b1f8e8_o.jpg",
    "id_image": "2015_rv_BMW_rv_4_rv_Series_rv_Gran_rv_Coupe_rv_V2_rv_1600",
    "count_view": 0
  },
  {
    "link_thumb": "https://live.staticflickr.com/65535/49888564173_d826095f31_n.jpg",
    "id_album": "-1839907869",
    "description": "2015_rv_BMW_rv_4_rv_Series_rv_Gran_rv_Coupe_rv_V3_rv_1600",
    "title": "2015_rv_BMW_rv_4_rv_Series_rv_Gran_rv_Coupe_rv_V3_rv_1600",
    "link_img": "https://live.staticflickr.com/65535/49888564173_0a943d1393_o.jpg",
    "id_image": "2015_rv_BMW_rv_4_rv_Series_rv_Gran_rv_Coupe_rv_V3_rv_1600",
    "count_view": 0
  },
  {
    "link_thumb": "https://live.staticflickr.com/65535/49889391542_6368170a0a_n.jpg",
    "id_album": "-1839907869",
    "description": "2015_rv_BMW_rv_4_rv_Series_rv_Gran_rv_Coupe_rv_V4_rv_1600",
    "title": "2015_rv_BMW_rv_4_rv_Series_rv_Gran_rv_Coupe_rv_V4_rv_1600",
    "link_img": "https://live.staticflickr.com/65535/49889391542_c90ebedf47_o.jpg",
    "id_image": "2015_rv_BMW_rv_4_rv_Series_rv_Gran_rv_Coupe_rv_V4_rv_1600",
    "count_view": 0
  },
  {
    "link_thumb": "https://live.staticflickr.com/65535/49888564658_20fd1bc332_n.jpg",
    "id_album": "-1839907869",
    "description": "2015_rv_BMW_rv_4_rv_Series_rv_Gran_rv_Coupe_rv_V5_rv_1600",
    "title": "2015_rv_BMW_rv_4_rv_Series_rv_Gran_rv_Coupe_rv_V5_rv_1600",
    "link_img": "https://live.staticflickr.com/65535/49888564658_131322bc57_o.jpg",
    "id_image": "2015_rv_BMW_rv_4_rv_Series_rv_Gran_rv_Coupe_rv_V5_rv_1600",
    "count_view": 0
  },
  {
    "link_thumb": "https://live.staticflickr.com/65535/49889083351_61260345da_n.jpg",
    "id_album": "-1839907869",
    "description": "2015_rv_BMW_rv_4_rv_Series_rv_Gran_rv_Coupe_rv_V6_rv_1600",
    "title": "2015_rv_BMW_rv_4_rv_Series_rv_Gran_rv_Coupe_rv_V6_rv_1600",
    "link_img": "https://live.staticflickr.com/65535/49889083351_bb5d61acb9_o.jpg",
    "id_image": "2015_rv_BMW_rv_4_rv_Series_rv_Gran_rv_Coupe_rv_V6_rv_1600",
    "count_view": 0
  },
  {
    "link_thumb": "https://live.staticflickr.com/65535/49888565138_28ae46517b_n.jpg",
    "id_album": "-1839907869",
    "description": "2015_rv_BMW_rv_4_rv_Series_rv_Gran_rv_Coupe_rv_V7_rv_1600",
    "title": "2015_rv_BMW_rv_4_rv_Series_rv_Gran_rv_Coupe_rv_V7_rv_1600",
    "link_img": "https://live.staticflickr.com/65535/49888565138_490ef13af3_o.jpg",
    "id_image": "2015_rv_BMW_rv_4_rv_Series_rv_Gran_rv_Coupe_rv_V7_rv_1600",
    "count_view": 0
  },
  {
    "link_thumb": "https://live.staticflickr.com/65535/49889392527_2ea5242357_n.jpg",
    "id_album": "-1839907869",
    "description": "2015_rv_BMW_rv_4_rv_Series_rv_Gran_rv_Coupe_rv_V8_rv_1600",
    "title": "2015_rv_BMW_rv_4_rv_Series_rv_Gran_rv_Coupe_rv_V8_rv_1600",
    "link_img": "https://live.staticflickr.com/65535/49889392527_d4a617d34c_o.jpg",
    "id_image": "2015_rv_BMW_rv_4_rv_Series_rv_Gran_rv_Coupe_rv_V8_rv_1600",
    "count_view": 0
  },
  {
    "link_thumb": "https://live.staticflickr.com/65535/49889392857_8bce8055fe_n.jpg",
    "id_album": "-1839907869",
    "description": "2015_rv_BMW_rv_M4_rv_Convertible_rv_V1_rv_1600",
    "title": "2015_rv_BMW_rv_M4_rv_Convertible_rv_V1_rv_1600",
    "link_img": "https://live.staticflickr.com/65535/49889392857_c9d5c647c5_o.jpg",
    "id_image": "2015_rv_BMW_rv_M4_rv_Convertible_rv_V1_rv_1600",
    "count_view": 0
  },
  {
    "link_thumb": "https://live.staticflickr.com/65535/49888565818_0f1bcd9f9d_n.jpg",
    "id_album": "-1839907869",
    "description": "2015_rv_BMW_rv_M4_rv_Convertible_rv_V2_rv_1600",
    "title": "2015_rv_BMW_rv_M4_rv_Convertible_rv_V2_rv_1600",
    "link_img": "https://live.staticflickr.com/65535/49888565818_379b60b7f6_o.jpg",
    "id_image": "2015_rv_BMW_rv_M4_rv_Convertible_rv_V2_rv_1600",
    "count_view": 0
  },
  {
    "link_thumb": "https://live.staticflickr.com/65535/49888565963_ab2e01c7a8_n.jpg",
    "id_album": "-1839907869",
    "description": "2015_rv_BMW_rv_M4_rv_Convertible_rv_V3_rv_1600",
    "title": "2015_rv_BMW_rv_M4_rv_Convertible_rv_V3_rv_1600",
    "link_img": "https://live.staticflickr.com/65535/49888565963_abf831c5e9_o.jpg",
    "id_image": "2015_rv_BMW_rv_M4_rv_Convertible_rv_V3_rv_1600",
    "count_view": 0
  },
  {
    "link_thumb": "https://live.staticflickr.com/65535/49889084851_91f48f676a_n.jpg",
    "id_album": "-1839907869",
    "description": "2015_rv_BMW_rv_M4_rv_Convertible_rv_V4_rv_1600",
    "title": "2015_rv_BMW_rv_M4_rv_Convertible_rv_V4_rv_1600",
    "link_img": "https://live.staticflickr.com/65535/49889084851_7dfef69c22_o.jpg",
    "id_image": "2015_rv_BMW_rv_M4_rv_Convertible_rv_V4_rv_1600",
    "count_view": 0
  },
  {
    "link_thumb": "https://live.staticflickr.com/65535/49889393767_daf34b91e0_n.jpg",
    "id_album": "-1839907869",
    "description": "2015_rv_BMW_rv_M4_rv_Convertible_rv_V5_rv_1600",
    "title": "2015_rv_BMW_rv_M4_rv_Convertible_rv_V5_rv_1600",
    "link_img": "https://live.staticflickr.com/65535/49889393767_2bdcbe7383_o.jpg",
    "id_image": "2015_rv_BMW_rv_M4_rv_Convertible_rv_V5_rv_1600",
    "count_view": 0
  },
  {
    "link_thumb": "https://live.staticflickr.com/65535/49889085256_7671e313ee_n.jpg",
    "id_album": "-1839907869",
    "description": "2015_rv_BMW_rv_M4_rv_Convertible_rv_V6_rv_1600",
    "title": "2015_rv_BMW_rv_M4_rv_Convertible_rv_V6_rv_1600",
    "link_img": "https://live.staticflickr.com/65535/49889085256_cdf97a57d2_o.jpg",
    "id_image": "2015_rv_BMW_rv_M4_rv_Convertible_rv_V6_rv_1600",
    "count_view": 0
  },
  {
    "link_thumb": "https://live.staticflickr.com/65535/49889085481_b0c7de23e6_n.jpg",
    "id_album": "-1839907869",
    "description": "2015_rv_BMW_rv_M4_rv_Coupe_rv_MotoGP_rv_Safety_rv_Car_rv_V1_rv_1600",
    "title": "2015_rv_BMW_rv_M4_rv_Coupe_rv_MotoGP_rv_Safety_rv_Car_rv_V1_rv_1600",
    "link_img": "https://live.staticflickr.com/65535/49889085481_e65e5c2f0c_o.jpg",
    "id_image": "2015_rv_BMW_rv_M4_rv_Coupe_rv_MotoGP_rv_Safety_rv_Car_rv_V1_rv_1600",
    "count_view": 0
  },
  {
    "link_thumb": "https://live.staticflickr.com/65535/49889085636_443d567fab_n.jpg",
    "id_album": "-1839907869",
    "description": "2015_rv_BMW_rv_M4_rv_Coupe_rv_MotoGP_rv_Safety_rv_Car_rv_V2_rv_1600",
    "title": "2015_rv_BMW_rv_M4_rv_Coupe_rv_MotoGP_rv_Safety_rv_Car_rv_V2_rv_1600",
    "link_img": "https://live.staticflickr.com/65535/49889085636_d8a89a013e_o.jpg",
    "id_image": "2015_rv_BMW_rv_M4_rv_Coupe_rv_MotoGP_rv_Safety_rv_Car_rv_V2_rv_1600",
    "count_view": 0
  },
  {
    "link_thumb": "https://live.staticflickr.com/65535/49889085751_00c4275a49_n.jpg",
    "id_album": "-1839907869",
    "description": "2015_rv_BMW_rv_M4_rv_Coupe_rv_MotoGP_rv_Safety_rv_Car_rv_V3_rv_1600",
    "title": "2015_rv_BMW_rv_M4_rv_Coupe_rv_MotoGP_rv_Safety_rv_Car_rv_V3_rv_1600",
    "link_img": "https://live.staticflickr.com/65535/49889085751_95ac9f835d_o.jpg",
    "id_image": "2015_rv_BMW_rv_M4_rv_Coupe_rv_MotoGP_rv_Safety_rv_Car_rv_V3_rv_1600",
    "count_view": 0
  },
  {
    "link_thumb": "https://live.staticflickr.com/65535/49888567818_e1fe6275c1_n.jpg",
    "id_album": "-1839907869",
    "description": "2015_rv_BMW_rv_M4_rv_Coupe_rv_V10_rv_1600",
    "title": "2015_rv_BMW_rv_M4_rv_Coupe_rv_V10_rv_1600",
    "link_img": "https://live.staticflickr.com/65535/49888567818_5cd1f7eb13_o.jpg",
    "id_image": "2015_rv_BMW_rv_M4_rv_Coupe_rv_V10_rv_1600",
    "count_view": 0
  },
  {
    "link_thumb": "https://live.staticflickr.com/65535/49889086371_051f17d642_n.jpg",
    "id_album": "-1839907869",
    "description": "2015_rv_BMW_rv_M4_rv_Coupe_rv_V11_rv_1600",
    "title": "2015_rv_BMW_rv_M4_rv_Coupe_rv_V11_rv_1600",
    "link_img": "https://live.staticflickr.com/65535/49889086371_df3ee9862f_o.jpg",
    "id_image": "2015_rv_BMW_rv_M4_rv_Coupe_rv_V11_rv_1600",
    "count_view": 0
  },
  {
    "link_thumb": "https://live.staticflickr.com/65535/49889395517_741a4f6d92_n.jpg",
    "id_album": "-1839907869",
    "description": "2015_rv_BMW_rv_M4_rv_Coupe_rv_V12_rv_1600",
    "title": "2015_rv_BMW_rv_M4_rv_Coupe_rv_V12_rv_1600",
    "link_img": "https://live.staticflickr.com/65535/49889395517_a29d5db1be_o.jpg",
    "id_image": "2015_rv_BMW_rv_M4_rv_Coupe_rv_V12_rv_1600",
    "count_view": 0
  },
  {
    "link_thumb": "https://live.staticflickr.com/65535/49889394687_2fe37c0512_n.jpg",
    "id_album": "-1839907869",
    "description": "2015_rv_BMW_rv_M4_rv_Coupe_rv_V1_rv_1600",
    "title": "2015_rv_BMW_rv_M4_rv_Coupe_rv_V1_rv_1600",
    "link_img": "https://live.staticflickr.com/65535/49889394687_7999f3ed34_o.jpg",
    "id_image": "2015_rv_BMW_rv_M4_rv_Coupe_rv_V1_rv_1600",
    "count_view": 0
  },
  {
    "link_thumb": "https://live.staticflickr.com/65535/49889086761_f134de076f_n.jpg",
    "id_album": "-1839907869",
    "description": "2015_rv_BMW_rv_M4_rv_Coupe_rv_V2_rv_1600",
    "title": "2015_rv_BMW_rv_M4_rv_Coupe_rv_V2_rv_1600",
    "link_img": "https://live.staticflickr.com/65535/49889086761_96e4677343_o.jpg",
    "id_image": "2015_rv_BMW_rv_M4_rv_Coupe_rv_V2_rv_1600",
    "count_view": 0
  },
  {
    "link_thumb": "https://live.staticflickr.com/65535/49889395797_4d08f713e7_n.jpg",
    "id_album": "-1839907869",
    "description": "2015_rv_BMW_rv_M4_rv_Coupe_rv_V3_rv_1600",
    "title": "2015_rv_BMW_rv_M4_rv_Coupe_rv_V3_rv_1600",
    "link_img": "https://live.staticflickr.com/65535/49889395797_72fb544349_o.jpg",
    "id_image": "2015_rv_BMW_rv_M4_rv_Coupe_rv_V3_rv_1600",
    "count_view": 0
  },
  {
    "link_thumb": "https://live.staticflickr.com/65535/49889395947_619345bd7c_n.jpg",
    "id_album": "-1839907869",
    "description": "2015_rv_BMW_rv_M4_rv_Coupe_rv_V4_rv_1600",
    "title": "2015_rv_BMW_rv_M4_rv_Coupe_rv_V4_rv_1600",
    "link_img": "https://live.staticflickr.com/65535/49889395947_05f833d10e_o.jpg",
    "id_image": "2015_rv_BMW_rv_M4_rv_Coupe_rv_V4_rv_1600",
    "count_view": 0
  },
  {
    "link_thumb": "https://live.staticflickr.com/65535/49889396202_49b78f10f5_n.jpg",
    "id_album": "-1839907869",
    "description": "2015_rv_BMW_rv_M4_rv_Coupe_rv_V5_rv_1600",
    "title": "2015_rv_BMW_rv_M4_rv_Coupe_rv_V5_rv_1600",
    "link_img": "https://live.staticflickr.com/65535/49889396202_1594e057a7_o.jpg",
    "id_image": "2015_rv_BMW_rv_M4_rv_Coupe_rv_V5_rv_1600",
    "count_view": 0
  },
  {
    "link_thumb": "https://live.staticflickr.com/65535/49888569138_3acdbc2dcf_n.jpg",
    "id_album": "-1839907869",
    "description": "2015_rv_BMW_rv_M4_rv_Coupe_rv_V6_rv_1600",
    "title": "2015_rv_BMW_rv_M4_rv_Coupe_rv_V6_rv_1600",
    "link_img": "https://live.staticflickr.com/65535/49888569138_5b14b3ac21_o.jpg",
    "id_image": "2015_rv_BMW_rv_M4_rv_Coupe_rv_V6_rv_1600",
    "count_view": 0
  },
  {
    "link_thumb": "https://live.staticflickr.com/65535/49889087666_d6abe77538_n.jpg",
    "id_album": "-1839907869",
    "description": "2015_rv_BMW_rv_M4_rv_Coupe_rv_V7_rv_1600",
    "title": "2015_rv_BMW_rv_M4_rv_Coupe_rv_V7_rv_1600",
    "link_img": "https://live.staticflickr.com/65535/49889087666_0d3e76bac7_o.jpg",
    "id_image": "2015_rv_BMW_rv_M4_rv_Coupe_rv_V7_rv_1600",
    "count_view": 0
  },
  {
    "link_thumb": "https://live.staticflickr.com/65535/49888569588_565f31c65a_n.jpg",
    "id_album": "-1839907869",
    "description": "2015_rv_BMW_rv_M4_rv_Coupe_rv_V8_rv_1600",
    "title": "2015_rv_BMW_rv_M4_rv_Coupe_rv_V8_rv_1600",
    "link_img": "https://live.staticflickr.com/65535/49888569588_bdc95f7558_o.jpg",
    "id_image": "2015_rv_BMW_rv_M4_rv_Coupe_rv_V8_rv_1600",
    "count_view": 0
  },
  {
    "link_thumb": "https://live.staticflickr.com/65535/49889088081_180c3788ea_n.jpg",
    "id_album": "-1839907869",
    "description": "2015_rv_BMW_rv_M4_rv_GTS_rv_Concept_rv_V1_rv_1600",
    "title": "2015_rv_BMW_rv_M4_rv_GTS_rv_Concept_rv_V1_rv_1600",
    "link_img": "https://live.staticflickr.com/65535/49889088081_2247ed8ac8_o.jpg",
    "id_image": "2015_rv_BMW_rv_M4_rv_GTS_rv_Concept_rv_V1_rv_1600",
    "count_view": 0
  },
  {
    "link_thumb": "https://live.staticflickr.com/65535/49889397122_4f613db245_n.jpg",
    "id_album": "-1839907869",
    "description": "2015_rv_BMW_rv_M4_rv_GTS_rv_Concept_rv_V2_rv_1600",
    "title": "2015_rv_BMW_rv_M4_rv_GTS_rv_Concept_rv_V2_rv_1600",
    "link_img": "https://live.staticflickr.com/65535/49889397122_ac80469b4d_o.jpg",
    "id_image": "2015_rv_BMW_rv_M4_rv_GTS_rv_Concept_rv_V2_rv_1600",
    "count_view": 0
  },
  {
    "link_thumb": "https://live.staticflickr.com/65535/49889397277_772302964e_n.jpg",
    "id_album": "-1839907869",
    "description": "2015_rv_BMW_rv_M4_rv_GTS_rv_Concept_rv_V3_rv_1600",
    "title": "2015_rv_BMW_rv_M4_rv_GTS_rv_Concept_rv_V3_rv_1600",
    "link_img": "https://live.staticflickr.com/65535/49889397277_df4c4736cf_o.jpg",
    "id_image": "2015_rv_BMW_rv_M4_rv_GTS_rv_Concept_rv_V3_rv_1600",
    "count_view": 0
  },
  {
    "link_thumb": "https://live.staticflickr.com/65535/49889397467_97fbb1901b_n.jpg",
    "id_album": "-1839907869",
    "description": "2015_rv_BMW_rv_M4_rv_GTS_rv_Concept_rv_V4_rv_1600",
    "title": "2015_rv_BMW_rv_M4_rv_GTS_rv_Concept_rv_V4_rv_1600",
    "link_img": "https://live.staticflickr.com/65535/49889397467_ee96e739a7_o.jpg",
    "id_image": "2015_rv_BMW_rv_M4_rv_GTS_rv_Concept_rv_V4_rv_1600",
    "count_view": 0
  },
  {
    "link_thumb": "https://live.staticflickr.com/65535/49888570518_f9dd262a77_n.jpg",
    "id_album": "-1839907869",
    "description": "2015_rv_BMW_rv_M4_rv_GTS_rv_Concept_rv_V5_rv_1600",
    "title": "2015_rv_BMW_rv_M4_rv_GTS_rv_Concept_rv_V5_rv_1600",
    "link_img": "https://live.staticflickr.com/65535/49888570518_5bff4b6468_o.jpg",
    "id_image": "2015_rv_BMW_rv_M4_rv_GTS_rv_Concept_rv_V5_rv_1600",
    "count_view": 0
  },
  {
    "link_thumb": "https://live.staticflickr.com/65535/49889397922_02173acd50_n.jpg",
    "id_album": "-1839907869",
    "description": "2016_rv_BMW_rv_M4_rv_GTS_rv_V1_rv_1600",
    "title": "2016_rv_BMW_rv_M4_rv_GTS_rv_V1_rv_1600",
    "link_img": "https://live.staticflickr.com/65535/49889397922_6dbd38fcdb_o.jpg",
    "id_image": "2016_rv_BMW_rv_M4_rv_GTS_rv_V1_rv_1600",
    "count_view": 0
  },
  {
    "link_thumb": "https://live.staticflickr.com/65535/49888571018_e3d68d0fb2_n.jpg",
    "id_album": "-1839907869",
    "description": "2016_rv_BMW_rv_M4_rv_GTS_rv_V2_rv_1600",
    "title": "2016_rv_BMW_rv_M4_rv_GTS_rv_V2_rv_1600",
    "link_img": "https://live.staticflickr.com/65535/49888571018_69d3ab7210_o.jpg",
    "id_image": "2016_rv_BMW_rv_M4_rv_GTS_rv_V2_rv_1600",
    "count_view": 0
  },
  {
    "link_thumb": "https://live.staticflickr.com/65535/49889398262_d2b9325fb8_n.jpg",
    "id_album": "-1839907869",
    "description": "2016_rv_BMW_rv_M4_rv_GTS_rv_V3_rv_1600",
    "title": "2016_rv_BMW_rv_M4_rv_GTS_rv_V3_rv_1600",
    "link_img": "https://live.staticflickr.com/65535/49889398262_dc24b9e566_o.jpg",
    "id_image": "2016_rv_BMW_rv_M4_rv_GTS_rv_V3_rv_1600",
    "count_view": 0
  },
  {
    "link_thumb": "https://live.staticflickr.com/65535/49889398462_5c51990dbf_n.jpg",
    "id_album": "-1839907869",
    "description": "2016_rv_BMW_rv_M4_rv_GTS_rv_V4_rv_1600",
    "title": "2016_rv_BMW_rv_M4_rv_GTS_rv_V4_rv_1600",
    "link_img": "https://live.staticflickr.com/65535/49889398462_0bc3a881c2_o.jpg",
    "id_image": "2016_rv_BMW_rv_M4_rv_GTS_rv_V4_rv_1600",
    "count_view": 0
  },
  {
    "link_thumb": "https://live.staticflickr.com/65535/49889398677_b7939713ee_n.jpg",
    "id_album": "-1839907869",
    "description": "2016_rv_BMW_rv_M4_rv_GTS_rv_V5_rv_1600",
    "title": "2016_rv_BMW_rv_M4_rv_GTS_rv_V5_rv_1600",
    "link_img": "https://live.staticflickr.com/65535/49889398677_46e1ed6994_o.jpg",
    "id_image": "2016_rv_BMW_rv_M4_rv_GTS_rv_V5_rv_1600",
    "count_view": 0
  },
  {
    "link_thumb": "https://live.staticflickr.com/65535/49888571733_1c6800b658_n.jpg",
    "id_album": "-1839907869",
    "description": "2016_rv_BMW_rv_M4_rv_GTS_rv_V7_rv_1600",
    "title": "2016_rv_BMW_rv_M4_rv_GTS_rv_V7_rv_1600",
    "link_img": "https://live.staticflickr.com/65535/49888571733_0cd1b61b10_o.jpg",
    "id_image": "2016_rv_BMW_rv_M4_rv_GTS_rv_V7_rv_1600",
    "count_view": 0
  },
  {
    "link_thumb": "https://live.staticflickr.com/65535/49889398982_942af5b104_n.jpg",
    "id_album": "-1839907869",
    "description": "2016_rv_BMW_rv_M4_rv_GTS_rv_V8_rv_1600",
    "title": "2016_rv_BMW_rv_M4_rv_GTS_rv_V8_rv_1600",
    "link_img": "https://live.staticflickr.com/65535/49889398982_627f423cdd_o.jpg",
    "id_image": "2016_rv_BMW_rv_M4_rv_GTS_rv_V8_rv_1600",
    "count_view": 0
  },
  {
    "link_thumb": "https://live.staticflickr.com/65535/49888572043_3b399a0f14_n.jpg",
    "id_album": "-1839907869",
    "description": "2016_rv_BMW_rv_M4_rv_GTS_rv_V9_rv_1600",
    "title": "2016_rv_BMW_rv_M4_rv_GTS_rv_V9_rv_1600",
    "link_img": "https://live.staticflickr.com/65535/49888572043_7648b67117_o.jpg",
    "id_image": "2016_rv_BMW_rv_M4_rv_GTS_rv_V9_rv_1600",
    "count_view": 0
  },
  {
    "link_thumb": "https://live.staticflickr.com/65535/49888572303_04f9f9957e_n.jpg",
    "id_album": "-1839907869",
    "description": "2018_rv_BMW_rv_M4_rv_CS_rv_V1_rv_2000",
    "title": "2018_rv_BMW_rv_M4_rv_CS_rv_V1_rv_2000",
    "link_img": "https://live.staticflickr.com/65535/49888572303_8aa6ace0ce_o.jpg",
    "id_image": "2018_rv_BMW_rv_M4_rv_CS_rv_V1_rv_2000",
    "count_view": 0
  },
  {
    "link_thumb": "https://live.staticflickr.com/65535/49889399627_cca0fa3e91_n.jpg",
    "id_album": "-1839907869",
    "description": "2018_rv_BMW_rv_M4_rv_CS_rv_V2_rv_2000",
    "title": "2018_rv_BMW_rv_M4_rv_CS_rv_V2_rv_2000",
    "link_img": "https://live.staticflickr.com/65535/49889399627_105320bd3a_o.jpg",
    "id_image": "2018_rv_BMW_rv_M4_rv_CS_rv_V2_rv_2000",
    "count_view": 0
  },
  {
    "link_thumb": "https://live.staticflickr.com/65535/49889091171_8c48183d39_n.jpg",
    "id_album": "-1839907869",
    "description": "2018_rv_BMW_rv_M4_rv_CS_rv_V3_rv_2000",
    "title": "2018_rv_BMW_rv_M4_rv_CS_rv_V3_rv_2000",
    "link_img": "https://live.staticflickr.com/65535/49889091171_0310338066_o.jpg",
    "id_image": "2018_rv_BMW_rv_M4_rv_CS_rv_V3_rv_2000",
    "count_view": 0
  },
  {
    "link_thumb": "https://live.staticflickr.com/65535/49888573143_aaeff67189_n.jpg",
    "id_album": "-1839907869",
    "description": "2018_rv_BMW_rv_M4_rv_CS_rv_V4_rv_2000",
    "title": "2018_rv_BMW_rv_M4_rv_CS_rv_V4_rv_2000",
    "link_img": "https://live.staticflickr.com/65535/49888573143_92e3e6744f_o.jpg",
    "id_image": "2018_rv_BMW_rv_M4_rv_CS_rv_V4_rv_2000",
    "count_view": 0
  },
  {
    "link_thumb": "https://live.staticflickr.com/65535/49888573423_8648817645_n.jpg",
    "id_album": "-1839907869",
    "description": "2018_rv_BMW_rv_M4_rv_CS_rv_V5_rv_2000",
    "title": "2018_rv_BMW_rv_M4_rv_CS_rv_V5_rv_2000",
    "link_img": "https://live.staticflickr.com/65535/49888573423_db6caacaa9_o.jpg",
    "id_image": "2018_rv_BMW_rv_M4_rv_CS_rv_V5_rv_2000",
    "count_view": 0
  },
  {
    "link_thumb": "https://live.staticflickr.com/65535/49888573718_7e48777551_n.jpg",
    "id_album": "-1839907869",
    "description": "2018_rv_BMW_rv_M4_rv_CS_rv_V6_rv_2000",
    "title": "2018_rv_BMW_rv_M4_rv_CS_rv_V6_rv_2000",
    "link_img": "https://live.staticflickr.com/65535/49888573718_bd66461a17_o.jpg",
    "id_image": "2018_rv_BMW_rv_M4_rv_CS_rv_V6_rv_2000",
    "count_view": 0
  },
  {
    "link_thumb": "https://live.staticflickr.com/65535/49888574158_ccdfc9aaf5_n.jpg",
    "id_album": "-1839907869",
    "description": "2018_rv_BMW_rv_M4_rv_V10_rv_2000",
    "title": "2018_rv_BMW_rv_M4_rv_V10_rv_2000",
    "link_img": "https://live.staticflickr.com/65535/49888574158_3f95752ba2_o.jpg",
    "id_image": "2018_rv_BMW_rv_M4_rv_V10_rv_2000",
    "count_view": 0
  },
  {
    "link_thumb": "https://live.staticflickr.com/65535/49889092586_db04b5fa47_n.jpg",
    "id_album": "-1839907869",
    "description": "2018_rv_BMW_rv_M4_rv_V11_rv_2000",
    "title": "2018_rv_BMW_rv_M4_rv_V11_rv_2000",
    "link_img": "https://live.staticflickr.com/65535/49889092586_656ae31d0c_o.jpg",
    "id_image": "2018_rv_BMW_rv_M4_rv_V11_rv_2000",
    "count_view": 0
  },
  {
    "link_thumb": "https://live.staticflickr.com/65535/49888574613_44bfc30f9c_n.jpg",
    "id_album": "-1839907869",
    "description": "2018_rv_BMW_rv_M4_rv_V12_rv_2000",
    "title": "2018_rv_BMW_rv_M4_rv_V12_rv_2000",
    "link_img": "https://live.staticflickr.com/65535/49888574613_54c7d1f325_o.jpg",
    "id_image": "2018_rv_BMW_rv_M4_rv_V12_rv_2000",
    "count_view": 0
  },
  {
    "link_thumb": "https://live.staticflickr.com/65535/49889092146_2f26b12fb9_n.jpg",
    "id_album": "-1839907869",
    "description": "2018_rv_BMW_rv_M4_rv_V1_rv_2000",
    "title": "2018_rv_BMW_rv_M4_rv_V1_rv_2000",
    "link_img": "https://live.staticflickr.com/65535/49889092146_b4d39508f6_o.jpg",
    "id_image": "2018_rv_BMW_rv_M4_rv_V1_rv_2000",
    "count_view": 0
  },
  {
    "link_thumb": "https://live.staticflickr.com/65535/49889093001_41daaefed6_n.jpg",
    "id_album": "-1839907869",
    "description": "2018_rv_BMW_rv_M4_rv_V2_rv_2000",
    "title": "2018_rv_BMW_rv_M4_rv_V2_rv_2000",
    "link_img": "https://live.staticflickr.com/65535/49889093001_96acd86abf_o.jpg",
    "id_image": "2018_rv_BMW_rv_M4_rv_V2_rv_2000",
    "count_view": 0
  },
  {
    "link_thumb": "https://live.staticflickr.com/65535/49889402142_c790890079_n.jpg",
    "id_album": "-1839907869",
    "description": "2018_rv_BMW_rv_M4_rv_V3_rv_2000",
    "title": "2018_rv_BMW_rv_M4_rv_V3_rv_2000",
    "link_img": "https://live.staticflickr.com/65535/49889402142_d3491ca2da_o.jpg",
    "id_image": "2018_rv_BMW_rv_M4_rv_V3_rv_2000",
    "count_view": 0
  },
  {
    "link_thumb": "https://live.staticflickr.com/65535/49889402362_3d6e48bbd5_n.jpg",
    "id_album": "-1839907869",
    "description": "2018_rv_BMW_rv_M4_rv_V4_rv_2000",
    "title": "2018_rv_BMW_rv_M4_rv_V4_rv_2000",
    "link_img": "https://live.staticflickr.com/65535/49889402362_25fd52cf3d_o.jpg",
    "id_image": "2018_rv_BMW_rv_M4_rv_V4_rv_2000",
    "count_view": 0
  },
  {
    "link_thumb": "https://live.staticflickr.com/65535/49889402502_ca06dfc443_n.jpg",
    "id_album": "-1839907869",
    "description": "2018_rv_BMW_rv_M4_rv_V5_rv_2000",
    "title": "2018_rv_BMW_rv_M4_rv_V5_rv_2000",
    "link_img": "https://live.staticflickr.com/65535/49889402502_749874d37c_o.jpg",
    "id_image": "2018_rv_BMW_rv_M4_rv_V5_rv_2000",
    "count_view": 0
  },
  {
    "link_thumb": "https://live.staticflickr.com/65535/49889093841_e307046f0b_n.jpg",
    "id_album": "-1839907869",
    "description": "2018_rv_BMW_rv_M4_rv_V6_rv_2000",
    "title": "2018_rv_BMW_rv_M4_rv_V6_rv_2000",
    "link_img": "https://live.staticflickr.com/65535/49889093841_ee4bab28d4_o.jpg",
    "id_image": "2018_rv_BMW_rv_M4_rv_V6_rv_2000",
    "count_view": 0
  },
  {
    "link_thumb": "https://live.staticflickr.com/65535/49889402897_8afb656f27_n.jpg",
    "id_album": "-1839907869",
    "description": "2018_rv_BMW_rv_M4_rv_V7_rv_2000",
    "title": "2018_rv_BMW_rv_M4_rv_V7_rv_2000",
    "link_img": "https://live.staticflickr.com/65535/49889402897_638cc55884_o.jpg",
    "id_image": "2018_rv_BMW_rv_M4_rv_V7_rv_2000",
    "count_view": 0
  },
  {
    "link_thumb": "https://live.staticflickr.com/65535/49889094321_0578f54058_n.jpg",
    "id_album": "-1839907869",
    "description": "2018_rv_BMW_rv_M4_rv_V8_rv_2000",
    "title": "2018_rv_BMW_rv_M4_rv_V8_rv_2000",
    "link_img": "https://live.staticflickr.com/65535/49889094321_1bb8cc9908_o.jpg",
    "id_image": "2018_rv_BMW_rv_M4_rv_V8_rv_2000",
    "count_view": 0
  },
  {
    "link_thumb": "https://live.staticflickr.com/65535/49888576343_529a7b1112_n.jpg",
    "id_album": "-1839907869",
    "description": "2018_rv_BMW_rv_M4_rv_V9_rv_2000",
    "title": "2018_rv_BMW_rv_M4_rv_V9_rv_2000",
    "link_img": "https://live.staticflickr.com/65535/49888576343_006aa56a91_o.jpg",
    "id_image": "2018_rv_BMW_rv_M4_rv_V9_rv_2000",
    "count_view": 0
  }
]