[
  {
    "link_thumb": "https://live.staticflickr.com/65535/49890031141_662599b2a9_n.jpg",
    "id_album": "1617817050",
    "description": "2012_rv_Kepler_rv_Motion_rv_V1_rv_1440",
    "title": "2012_rv_Kepler_rv_Motion_rv_V1_rv_1440",
    "link_img": "https://live.staticflickr.com/65535/49890031141_e11611f3c1_o.jpg",
    "id_image": "2012_rv_Kepler_rv_Motion_rv_V1_rv_1440",
    "count_view": 0
  },
  {
    "link_thumb": "https://live.staticflickr.com/65535/49889514278_b3c98563e2_n.jpg",
    "id_album": "1617817050",
    "description": "2012_rv_Kepler_rv_Motion_rv_V2_rv_1440",
    "title": "2012_rv_Kepler_rv_Motion_rv_V2_rv_1440",
    "link_img": "https://live.staticflickr.com/65535/49889514278_445795124d_o.jpg",
    "id_image": "2012_rv_Kepler_rv_Motion_rv_V2_rv_1440",
    "count_view": 0
  },
  {
    "link_thumb": "https://live.staticflickr.com/65535/49890031396_e3356f4599_n.jpg",
    "id_album": "1617817050",
    "description": "2012_rv_Kepler_rv_Motion_rv_V3_rv_1440",
    "title": "2012_rv_Kepler_rv_Motion_rv_V3_rv_1440",
    "link_img": "https://live.staticflickr.com/65535/49890031396_0dfba1e475_o.jpg",
    "id_image": "2012_rv_Kepler_rv_Motion_rv_V3_rv_1440",
    "count_view": 0
  },
  {
    "link_thumb": "https://live.staticflickr.com/65535/49890031566_cc2eae697b_n.jpg",
    "id_album": "1617817050",
    "description": "2012_rv_Kepler_rv_Motion_rv_V4_rv_1440",
    "title": "2012_rv_Kepler_rv_Motion_rv_V4_rv_1440",
    "link_img": "https://live.staticflickr.com/65535/49890031566_2c120eedde_o.jpg",
    "id_image": "2012_rv_Kepler_rv_Motion_rv_V4_rv_1440",
    "count_view": 0
  },
  {
    "link_thumb": "https://live.staticflickr.com/65535/49890342222_ac413d0b60_n.jpg",
    "id_album": "1617817050",
    "description": "2012_rv_Kepler_rv_Motion_rv_V5_rv_1440",
    "title": "2012_rv_Kepler_rv_Motion_rv_V5_rv_1440",
    "link_img": "https://live.staticflickr.com/65535/49890342222_1648fa29d9_o.jpg",
    "id_image": "2012_rv_Kepler_rv_Motion_rv_V5_rv_1440",
    "count_view": 0
  },
  {
    "link_thumb": "https://live.staticflickr.com/65535/49890342352_ef007dc957_n.jpg",
    "id_album": "1617817050",
    "description": "2012_rv_Kepler_rv_Motion_rv_V6_rv_1440",
    "title": "2012_rv_Kepler_rv_Motion_rv_V6_rv_1440",
    "link_img": "https://live.staticflickr.com/65535/49890342352_35f7e9ba56_o.jpg",
    "id_image": "2012_rv_Kepler_rv_Motion_rv_V6_rv_1440",
    "count_view": 0
  }
]