[
  {
    "total_img": 0,
    "number_page": 0,
    "title": "Rezvani",
    "tag": "Rezvani,",
    "description": "Rezvani",
    "link_thumb": "https://live.staticflickr.com/65535/49892277596_45d4d68a83_n.jpg",
    "id_album": "-1977273812",
    "total_view": 15
  }
]