[
  {
    "total_img": 0,
    "number_page": 0,
    "title": "Alfa Romeo red",
    "tag": "Alfa Romeo red,",
    "description": "Alfa Romeo red",
    "link_thumb": "https://live.staticflickr.com/65535/49041142142_f7d994f218_n.jpg",
    "id_album": "-1428556500",
    "total_view": 184
  }
]