[
  {
    "link_thumb": "https://live.staticflickr.com/65535/48117742372_faf2ce17d2_n.jpg",
    "id_album": "-1846404630",
    "description": "Ford_984341",
    "title": "Ford_984341",
    "link_img": "https://live.staticflickr.com/65535/48117742372_3eea616a97_o.jpg",
    "id_image": "Ford_984341",
    "count_view": 0
  },
  {
    "link_thumb": "https://live.staticflickr.com/65535/48120728728_dcbbc45a57_n.jpg",
    "id_album": "1952909762",
    "description": "Packard_187165",
    "title": "Packard_187165",
    "link_img": "https://live.staticflickr.com/65535/48120728728_001f00dd08_o.jpg",
    "id_image": "Packard_187165",
    "count_view": 0
  },
  {
    "link_thumb": "https://live.staticflickr.com/65535/48119829478_11fdccea30_n.jpg",
    "id_album": "-731054311",
    "description": "MercedesBenz_844424",
    "title": "MercedesBenz_844424",
    "link_img": "https://live.staticflickr.com/65535/48119829478_c7e91a06b2_o.jpg",
    "id_image": "MercedesBenz_844424",
    "count_view": 0
  },
  {
    "link_thumb": "https://live.staticflickr.com/65535/49889582471_bf7fcc7d8f_n.jpg",
    "id_album": "89481110",
    "description": "2014_rv_Ferrari_rv_LaFerrari_rv_V19_rv_2160",
    "title": "2014_rv_Ferrari_rv_LaFerrari_rv_V19_rv_2160",
    "link_img": "https://live.staticflickr.com/65535/49889582471_72025c80dd_o.jpg",
    "id_image": "2014_rv_Ferrari_rv_LaFerrari_rv_V19_rv_2160",
    "count_view": 0
  },
  {
    "link_thumb": "https://live.staticflickr.com/65535/49890548756_20f9d34756_n.jpg",
    "id_album": "1806856197",
    "description": "2015_rv_McLaren_rv_650S_rv_V14_rv_1536",
    "title": "2015_rv_McLaren_rv_650S_rv_V14_rv_1536",
    "link_img": "https://live.staticflickr.com/65535/49890548756_f7f23efd10_o.jpg",
    "id_image": "2015_rv_McLaren_rv_650S_rv_V14_rv_1536",
    "count_view": 0
  },
  {
    "link_thumb": "https://live.staticflickr.com/65535/48112929931_21fc929846_n.jpg",
    "id_album": "727633301",
    "description": "BMW_492686",
    "title": "BMW_492686",
    "link_img": "https://live.staticflickr.com/65535/48112929931_0907d65b4c_o.jpg",
    "id_image": "BMW_492686",
    "count_view": 0
  },
  {
    "link_thumb": "https://live.staticflickr.com/65535/48112407253_74e4d972a4_n.jpg",
    "id_album": "-15119147",
    "description": "Audi_657211",
    "title": "Audi_657211",
    "link_img": "https://live.staticflickr.com/65535/48112407253_314a4b1b59_o.jpg",
    "id_image": "Audi_657211",
    "count_view": 0
  },
  {
    "link_thumb": "https://live.staticflickr.com/65535/48112282933_6a58545638_n.jpg",
    "id_album": "-15119147",
    "description": "Audi_250721",
    "title": "Audi_250721",
    "link_img": "https://live.staticflickr.com/65535/48112282933_26b17fbd3e_o.jpg",
    "id_image": "Audi_250721",
    "count_view": 0
  },
  {
    "link_thumb": "https://live.staticflickr.com/65535/49889686573_ed3b84a327_n.jpg",
    "id_album": "1957300237",
    "description": "2016_rv_Novitec_rv_Torado_rv_Lamborghini_rv_Huracan_rv_Spyder_rv_V6_rv_2000",
    "title": "2016_rv_Novitec_rv_Torado_rv_Lamborghini_rv_Huracan_rv_Spyder_rv_V6_rv_2000",
    "link_img": "https://live.staticflickr.com/65535/49889686573_2b722cc74b_o.jpg",
    "id_image": "2016_rv_Novitec_rv_Torado_rv_Lamborghini_rv_Huracan_rv_Spyder_rv_V6_rv_2000",
    "count_view": 0
  },
  {
    "link_thumb": "https://live.staticflickr.com/65535/49890855383_a14628b175_n.jpg",
    "id_album": "-151730890",
    "description": "1991_rv_Porsche_rv_928_rv_GTS_rv_V3_rv_1536",
    "title": "1991_rv_Porsche_rv_928_rv_GTS_rv_V3_rv_1536",
    "link_img": "https://live.staticflickr.com/65535/49890855383_d6d96bb70c_o.jpg",
    "id_image": "1991_rv_Porsche_rv_928_rv_GTS_rv_V3_rv_1536",
    "count_view": 0
  },
  {
    "link_thumb": "https://live.staticflickr.com/65535/49889325158_69a3a397f0_n.jpg",
    "id_album": "-318023040",
    "description": "2008_rv_Ford_rv_Shelby_rv_Mustang_rv_GT500KR_rv_V5_rv_1440",
    "title": "2008_rv_Ford_rv_Shelby_rv_Mustang_rv_GT500KR_rv_V5_rv_1440",
    "link_img": "https://live.staticflickr.com/65535/49889325158_b5a1026a19_o.jpg",
    "id_image": "2008_rv_Ford_rv_Shelby_rv_Mustang_rv_GT500KR_rv_V5_rv_1440",
    "count_view": 0
  },
  {
    "link_thumb": "https://live.staticflickr.com/65535/48122514773_466a1698a3_n.jpg",
    "id_album": "422322641",
    "description": "Subaru_484538",
    "title": "Subaru_484538",
    "link_img": "https://live.staticflickr.com/65535/48122514773_82f15e1984_o.jpg",
    "id_image": "Subaru_484538",
    "count_view": 0
  },
  {
    "link_thumb": "https://live.staticflickr.com/65535/48118153826_df438ac465_n.jpg",
    "id_album": "-625217782",
    "description": "Kia_450358",
    "title": "Kia_450358",
    "link_img": "https://live.staticflickr.com/65535/48118153826_e00c28812f_o.jpg",
    "id_image": "Kia_450358",
    "count_view": 0
  },
  {
    "link_thumb": "https://live.staticflickr.com/65535/49889837623_0059a55593_n.jpg",
    "id_album": "764198353",
    "description": "2012_rv_Lotus_rv_Elise_rv_Club_rv_Racer_rv_V1_rv_1440",
    "title": "2012_rv_Lotus_rv_Elise_rv_Club_rv_Racer_rv_V1_rv_1440",
    "link_img": "https://live.staticflickr.com/65535/49889837623_7c0a1e7fff_o.jpg",
    "id_image": "2012_rv_Lotus_rv_Elise_rv_Club_rv_Racer_rv_V1_rv_1440",
    "count_view": 0
  },
  {
    "link_thumb": "https://live.staticflickr.com/65535/49890110002_dd7eeca0ed_n.jpg",
    "id_album": "-51494743",
    "description": "2002_rv_Porsche_rv_911_rv_GT2_rv_V3_rv_1536",
    "title": "2002_rv_Porsche_rv_911_rv_GT2_rv_V3_rv_1536",
    "link_img": "https://live.staticflickr.com/65535/49890110002_c7be0a0fa0_o.jpg",
    "id_image": "2002_rv_Porsche_rv_911_rv_GT2_rv_V3_rv_1536",
    "count_view": 0
  },
  {
    "link_thumb": "https://live.staticflickr.com/65535/48122900163_5192763ff7_n.jpg",
    "id_album": "-150952028",
    "description": "Volkswagen_249041",
    "title": "Volkswagen_249041",
    "link_img": "https://live.staticflickr.com/65535/48122900163_672aff8f07_o.jpg",
    "id_image": "Volkswagen_249041",
    "count_view": 0
  },
  {
    "link_thumb": "https://live.staticflickr.com/65535/49889763092_9111cfe7e3_n.jpg",
    "id_album": "1069142825",
    "description": "1995_rv_Ferrari_rv_F355_rv_Spider_rv_V7_rv_1440",
    "title": "1995_rv_Ferrari_rv_F355_rv_Spider_rv_V7_rv_1440",
    "link_img": "https://live.staticflickr.com/65535/49889763092_4e35189e34_o.jpg",
    "id_image": "1995_rv_Ferrari_rv_F355_rv_Spider_rv_V7_rv_1440",
    "count_view": 0
  },
  {
    "link_thumb": "https://live.staticflickr.com/65535/49892587282_99770fbeff_n.jpg",
    "id_album": "-135265162",
    "description": "2008_rv_Renault_rv_Twingo_rv_Sport_rv_V5_rv_1440",
    "title": "2008_rv_Renault_rv_Twingo_rv_Sport_rv_V5_rv_1440",
    "link_img": "https://live.staticflickr.com/65535/49892587282_9aaa75a435_o.jpg",
    "id_image": "2008_rv_Renault_rv_Twingo_rv_Sport_rv_V5_rv_1440",
    "count_view": 0
  },
  {
    "link_thumb": "https://live.staticflickr.com/65535/49889305182_a7d49ae2ff_n.jpg",
    "id_album": "669176001",
    "description": "1996_rv_Audi_rv_S8_rv_V1_rv_1536",
    "title": "1996_rv_Audi_rv_S8_rv_V1_rv_1536",
    "link_img": "https://live.staticflickr.com/65535/49889305182_476eb58178_o.jpg",
    "id_image": "1996_rv_Audi_rv_S8_rv_V1_rv_1536",
    "count_view": 0
  },
  {
    "link_thumb": "https://live.staticflickr.com/65535/49890387327_a4deabc970_n.jpg",
    "id_album": "465737886",
    "description": "2016_rv_Koenigsegg_rv_Regera_rv_V4_rv_2000",
    "title": "2016_rv_Koenigsegg_rv_Regera_rv_V4_rv_2000",
    "link_img": "https://live.staticflickr.com/65535/49890387327_7a003a0331_o.jpg",
    "id_image": "2016_rv_Koenigsegg_rv_Regera_rv_V4_rv_2000",
    "count_view": 0
  },
  {
    "link_thumb": "https://live.staticflickr.com/65535/48112448683_c8f7a013f8_n.jpg",
    "id_album": "-15119147",
    "description": "Audi_854166",
    "title": "Audi_854166",
    "link_img": "https://live.staticflickr.com/65535/48112448683_c500a77d96_o.jpg",
    "id_image": "Audi_854166",
    "count_view": 0
  },
  {
    "link_thumb": "https://live.staticflickr.com/65535/49892700997_301663c60e_n.jpg",
    "id_album": "-189032193",
    "description": "2015_rv_Skoda_rv_Octavia_rv_RS_rv_230_rv_V7_rv_1600",
    "title": "2015_rv_Skoda_rv_Octavia_rv_RS_rv_230_rv_V7_rv_1600",
    "link_img": "https://live.staticflickr.com/65535/49892700997_9a24b8f016_o.jpg",
    "id_image": "2015_rv_Skoda_rv_Octavia_rv_RS_rv_230_rv_V7_rv_1600",
    "count_view": 0
  },
  {
    "link_thumb": "https://live.staticflickr.com/65535/49889252121_3710ab846e_n.jpg",
    "id_album": "-843860003",
    "description": "2014_rv_Chevrolet_rv_Corvette_rv_C7R_rv_V5_rv_1600",
    "title": "2014_rv_Chevrolet_rv_Corvette_rv_C7R_rv_V5_rv_1600",
    "link_img": "https://live.staticflickr.com/65535/49889252121_072c3bd03b_o.jpg",
    "id_image": "2014_rv_Chevrolet_rv_Corvette_rv_C7R_rv_V5_rv_1600",
    "count_view": 0
  },
  {
    "link_thumb": "https://live.staticflickr.com/65535/49890393393_3d073a7fb1_n.jpg",
    "id_album": "-173102747",
    "description": "2007_rv_Mercedes_rv_Benz_rv_SLR_rv_McLaren_rv_722_rv_V2_rv_1536",
    "title": "2007_rv_Mercedes_rv_Benz_rv_SLR_rv_McLaren_rv_722_rv_V2_rv_1536",
    "link_img": "https://live.staticflickr.com/65535/49890393393_212a46085f_o.jpg",
    "id_image": "2007_rv_Mercedes_rv_Benz_rv_SLR_rv_McLaren_rv_722_rv_V2_rv_1536",
    "count_view": 0
  },
  {
    "link_thumb": "https://live.staticflickr.com/65535/49889427366_2434b78d5b_n.jpg",
    "id_album": "1046057332",
    "description": "2017_rv_Faraday_rv_Future_rv_FF_rv_91_rv_V4_rv_2000",
    "title": "2017_rv_Faraday_rv_Future_rv_FF_rv_91_rv_V4_rv_2000",
    "link_img": "https://live.staticflickr.com/65535/49889427366_45f83ec6ab_o.jpg",
    "id_image": "2017_rv_Faraday_rv_Future_rv_FF_rv_91_rv_V4_rv_2000",
    "count_view": 0
  },
  {
    "link_thumb": "https://live.staticflickr.com/65535/49890236412_cc582a5d3a_n.jpg",
    "id_album": "-2000594684",
    "description": "2014_rv_Holden_rv_HSV_rv_Gen_rv_F_rv_V2_rv_1440",
    "title": "2014_rv_Holden_rv_HSV_rv_Gen_rv_F_rv_V2_rv_1440",
    "link_img": "https://live.staticflickr.com/65535/49890236412_ab115bf4f9_o.jpg",
    "id_image": "2014_rv_Holden_rv_HSV_rv_Gen_rv_F_rv_V2_rv_1440",
    "count_view": 0
  },
  {
    "link_thumb": "https://live.staticflickr.com/65535/49889269411_8c40e8f895_n.jpg",
    "id_album": "-10315880",
    "description": "2016_rv_Cadillac_rv_ATS_rv_V_rv_Coupe_rv_V6_rv_1600",
    "title": "2016_rv_Cadillac_rv_ATS_rv_V_rv_Coupe_rv_V6_rv_1600",
    "link_img": "https://live.staticflickr.com/65535/49889269411_809af8f1a6_o.jpg",
    "id_image": "2016_rv_Cadillac_rv_ATS_rv_V_rv_Coupe_rv_V6_rv_1600",
    "count_view": 0
  },
  {
    "link_thumb": "https://live.staticflickr.com/65535/48113506536_263e5dc903_n.jpg",
    "id_album": "-680120434",
    "description": "Cadillac_183229",
    "title": "Cadillac_183229",
    "link_img": "https://live.staticflickr.com/65535/48113506536_97e6cdd121_o.jpg",
    "id_image": "Cadillac_183229",
    "count_view": 0
  },
  {
    "link_thumb": "https://live.staticflickr.com/65535/48111766742_118385dd30_n.jpg",
    "id_album": "1482519782",
    "description": "Hyundai_318425",
    "title": "Hyundai_318425",
    "link_img": "https://live.staticflickr.com/65535/48111766742_dab07f9ef9_o.jpg",
    "id_image": "Hyundai_318425",
    "count_view": 0
  },
  {
    "link_thumb": "https://live.staticflickr.com/65535/49888879458_37659724fa_n.jpg",
    "id_album": "-835450558",
    "description": "2010_rv_Formula1_rv_Renault_rv_R30_rv_V3_rv_1200",
    "title": "2010_rv_Formula1_rv_Renault_rv_R30_rv_V3_rv_1200",
    "link_img": "https://live.staticflickr.com/65535/49888879458_9426f53ed3_o.jpg",
    "id_image": "2010_rv_Formula1_rv_Renault_rv_R30_rv_V3_rv_1200",
    "count_view": 0
  },
  {
    "link_thumb": "https://live.staticflickr.com/65535/48113853058_37cb2cdfdb_n.jpg",
    "id_album": "-1721545051",
    "description": "Chevrolet_214968",
    "title": "Chevrolet_214968",
    "link_img": "https://live.staticflickr.com/65535/48113853058_76404b2cce_o.jpg",
    "id_image": "Chevrolet_214968",
    "count_view": 0
  },
  {
    "link_thumb": "https://live.staticflickr.com/65535/48115289987_4b18207024_n.jpg",
    "id_album": "413141323",
    "description": "Dodge_384286",
    "title": "Dodge_384286",
    "link_img": "https://live.staticflickr.com/65535/48115289987_fd0f197afa_o.jpg",
    "id_image": "Dodge_384286",
    "count_view": 0
  },
  {
    "link_thumb": "https://live.staticflickr.com/65535/48121724406_54130928f5_n.jpg",
    "id_album": "-1178450892",
    "description": "Porsche_905411",
    "title": "Porsche_905411",
    "link_img": "https://live.staticflickr.com/65535/48121724406_ce80540a59_o.jpg",
    "id_image": "Porsche_905411",
    "count_view": 0
  },
  {
    "link_thumb": "https://live.staticflickr.com/65535/48112366767_7eab2c27c1_n.jpg",
    "id_album": "-15119147",
    "description": "Audi_274924",
    "title": "Audi_274924",
    "link_img": "https://live.staticflickr.com/65535/48112366767_3e35a08121_o.jpg",
    "id_image": "Audi_274924",
    "count_view": 0
  },
  {
    "link_thumb": "https://live.staticflickr.com/65535/48119370536_1d96f10628_n.jpg",
    "id_album": "990865885",
    "description": "McLaren_882518",
    "title": "McLaren_882518",
    "link_img": "https://live.staticflickr.com/65535/48119370536_04a64919fd_o.jpg",
    "id_image": "McLaren_882518",
    "count_view": 0
  },
  {
    "link_thumb": "https://live.staticflickr.com/65535/48115639048_17f19b7f2c_n.jpg",
    "id_album": "594975066",
    "description": "Duesenberg_927540",
    "title": "Duesenberg_927540",
    "link_img": "https://live.staticflickr.com/65535/48115639048_98a3e63878_o.jpg",
    "id_image": "Duesenberg_927540",
    "count_view": 0
  },
  {
    "link_thumb": "https://live.staticflickr.com/65535/49891329561_59f34d7d54_n.jpg",
    "id_album": "-783720337",
    "description": "2004_rv_Pontiac_rv_GTO_rv_V3_rv_1536",
    "title": "2004_rv_Pontiac_rv_GTO_rv_V3_rv_1536",
    "link_img": "https://live.staticflickr.com/65535/49891329561_8183cf71fc_o.jpg",
    "id_image": "2004_rv_Pontiac_rv_GTO_rv_V3_rv_1536",
    "count_view": 0
  },
  {
    "link_thumb": "https://live.staticflickr.com/65535/48115883401_313af63eac_n.jpg",
    "id_album": "1364506720",
    "description": "Ferrari_366070",
    "title": "Ferrari_366070",
    "link_img": "https://live.staticflickr.com/65535/48115883401_11eb5e0493_o.jpg",
    "id_image": "Ferrari_366070",
    "count_view": 0
  },
  {
    "link_thumb": "https://live.staticflickr.com/65535/48118218347_70313ecdb1_n.jpg",
    "id_album": "-2009218697",
    "description": "Jeep_892356",
    "title": "Jeep_892356",
    "link_img": "https://live.staticflickr.com/65535/48118218347_c9317f4407_o.jpg",
    "id_image": "Jeep_892356",
    "count_view": 0
  },
  {
    "link_thumb": "https://live.staticflickr.com/65535/49891231987_894c50ac51_n.jpg",
    "id_album": "-2129417883",
    "description": "2014_rv_Mercedes_rv_Benz_rv_SLS_rv_AMG_rv_Black_rv_Series_rv_V1_rv_1440",
    "title": "2014_rv_Mercedes_rv_Benz_rv_SLS_rv_AMG_rv_Black_rv_Series_rv_V1_rv_1440",
    "link_img": "https://live.staticflickr.com/65535/49891231987_7450829c65_o.jpg",
    "id_image": "2014_rv_Mercedes_rv_Benz_rv_SLS_rv_AMG_rv_Black_rv_Series_rv_V1_rv_1440",
    "count_view": 0
  },
  {
    "link_thumb": "https://live.staticflickr.com/65535/48113882701_1f5f2e102e_n.jpg",
    "id_album": "-1721545051",
    "description": "Chevrolet_248662",
    "title": "Chevrolet_248662",
    "link_img": "https://live.staticflickr.com/65535/48113882701_f05e06455f_o.jpg",
    "id_image": "Chevrolet_248662",
    "count_view": 0
  },
  {
    "link_thumb": "https://live.staticflickr.com/65535/48112528573_95553d9281_n.jpg",
    "id_album": "2097036181",
    "description": "Bentley_187390",
    "title": "Bentley_187390",
    "link_img": "https://live.staticflickr.com/65535/48112528573_9240e251d7_o.jpg",
    "id_image": "Bentley_187390",
    "count_view": 0
  },
  {
    "link_thumb": "https://live.staticflickr.com/65535/48112363828_684e49abc2_n.jpg",
    "id_album": "-15119147",
    "description": "Audi_476658",
    "title": "Audi_476658",
    "link_img": "https://live.staticflickr.com/65535/48112363828_8734a7873b_o.jpg",
    "id_image": "Audi_476658",
    "count_view": 0
  },
  {
    "link_thumb": "https://live.staticflickr.com/65535/48121570542_f9c44ba9a1_n.jpg",
    "id_album": "-1178450892",
    "description": "Porsche_598071",
    "title": "Porsche_598071",
    "link_img": "https://live.staticflickr.com/65535/48121570542_5d3e643b32_o.jpg",
    "id_image": "Porsche_598071",
    "count_view": 0
  },
  {
    "link_thumb": "https://live.staticflickr.com/65535/48114597486_34ed54614a_n.jpg",
    "id_album": "-1721545051",
    "description": "Chevrolet_879947",
    "title": "Chevrolet_879947",
    "link_img": "https://live.staticflickr.com/65535/48114597486_b2f3c2097b_o.jpg",
    "id_image": "Chevrolet_879947",
    "count_view": 0
  },
  {
    "link_thumb": "https://live.staticflickr.com/65535/48122139102_705a2c55d1_n.jpg",
    "id_album": "-1217333387",
    "description": "Renault_885288",
    "title": "Renault_885288",
    "link_img": "https://live.staticflickr.com/65535/48122139102_c34b728e61_o.jpg",
    "id_image": "Renault_885288",
    "count_view": 0
  },
  {
    "link_thumb": "https://live.staticflickr.com/65535/49889292807_86c46ecd64_n.jpg",
    "id_album": "1119514695",
    "description": "2014_rv_Audi_rv_RS6_rv_Avant_rv_V5_rv_1600",
    "title": "2014_rv_Audi_rv_RS6_rv_Avant_rv_V5_rv_1600",
    "link_img": "https://live.staticflickr.com/65535/49889292807_1bb7cb2211_o.jpg",
    "id_image": "2014_rv_Audi_rv_RS6_rv_Avant_rv_V5_rv_1600",
    "count_view": 0
  },
  {
    "link_thumb": "https://live.staticflickr.com/65535/48118065727_99c83411b7_n.jpg",
    "id_album": "-843028318",
    "description": "Jaguar_449670",
    "title": "Jaguar_449670",
    "link_img": "https://live.staticflickr.com/65535/48118065727_92c7902482_o.jpg",
    "id_image": "Jaguar_449670",
    "count_view": 0
  },
  {
    "link_thumb": "https://live.staticflickr.com/65535/48113944906_85c61b180d_n.jpg",
    "id_album": "-1721545051",
    "description": "Chevrolet_274367",
    "title": "Chevrolet_274367",
    "link_img": "https://live.staticflickr.com/65535/48113944906_6e2877a40a_o.jpg",
    "id_image": "Chevrolet_274367",
    "count_view": 0
  },
  {
    "link_thumb": "https://live.staticflickr.com/65535/49890049536_ef776d5d7d_n.jpg",
    "id_album": "1719484632",
    "description": "2018_rv_Kia_rv_Stinger_rv_GT_rv_V11_rv_2000",
    "title": "2018_rv_Kia_rv_Stinger_rv_GT_rv_V11_rv_2000",
    "link_img": "https://live.staticflickr.com/65535/49890049536_4cd28a1986_o.jpg",
    "id_image": "2018_rv_Kia_rv_Stinger_rv_GT_rv_V11_rv_2000",
    "count_view": 0
  },
  {
    "link_thumb": "https://live.staticflickr.com/65535/49888760636_a3774c713a_n.jpg",
    "id_album": "269708336",
    "description": "2005_rv_Alfa_rv_Romeo_rv_Brera_rv_V9_rv_1536",
    "title": "2005_rv_Alfa_rv_Romeo_rv_Brera_rv_V9_rv_1536",
    "link_img": "https://live.staticflickr.com/65535/49888760636_95ceac7428_o.jpg",
    "id_image": "2005_rv_Alfa_rv_Romeo_rv_Brera_rv_V9_rv_1536",
    "count_view": 0
  },
  {
    "link_thumb": "https://live.staticflickr.com/65535/48120768921_46559ee767_n.jpg",
    "id_album": "1952909762",
    "description": "Packard_927776",
    "title": "Packard_927776",
    "link_img": "https://live.staticflickr.com/65535/48120768921_0b291ed491_o.jpg",
    "id_image": "Packard_927776",
    "count_view": 0
  },
  {
    "link_thumb": "https://live.staticflickr.com/65535/48115886948_3f495eeca1_n.jpg",
    "id_album": "1364506720",
    "description": "Ferrari_343151",
    "title": "Ferrari_343151",
    "link_img": "https://live.staticflickr.com/65535/48115886948_63890ffd65_o.jpg",
    "id_image": "Ferrari_343151",
    "count_view": 0
  },
  {
    "link_thumb": "https://live.staticflickr.com/65535/48121745016_8232a04591_n.jpg",
    "id_album": "-1178450892",
    "description": "Porsche_929505",
    "title": "Porsche_929505",
    "link_img": "https://live.staticflickr.com/65535/48121745016_1ab2deb4aa_o.jpg",
    "id_image": "Porsche_929505",
    "count_view": 0
  },
  {
    "link_thumb": "https://live.staticflickr.com/65535/48123276001_5514879dc3_n.jpg",
    "id_album": "-360260466",
    "description": "Yamaha_880123",
    "title": "Yamaha_880123",
    "link_img": "https://live.staticflickr.com/65535/48123276001_59400060ef_o.jpg",
    "id_image": "Yamaha_880123",
    "count_view": 0
  },
  {
    "link_thumb": "https://live.staticflickr.com/65535/49890396682_c88607cfe4_n.jpg",
    "id_album": "-59902933",
    "description": "2013_rv_Lamborghini_rv_Aventador_rv_LP700_rv_4_rv_V3_rv_1600",
    "title": "2013_rv_Lamborghini_rv_Aventador_rv_LP700_rv_4_rv_V3_rv_1600",
    "link_img": "https://live.staticflickr.com/65535/49890396682_8b209af3f6_o.jpg",
    "id_image": "2013_rv_Lamborghini_rv_Aventador_rv_LP700_rv_4_rv_V3_rv_1600",
    "count_view": 0
  },
  {
    "link_thumb": "https://live.staticflickr.com/65535/49889638102_9751baff80_n.jpg",
    "id_album": "42071222",
    "description": "2015_rv_Honda_rv_Civic_rv_Concept_rv_V3_rv_1600",
    "title": "2015_rv_Honda_rv_Civic_rv_Concept_rv_V3_rv_1600",
    "link_img": "https://live.staticflickr.com/65535/49889638102_d890d7d152_o.jpg",
    "id_image": "2015_rv_Honda_rv_Civic_rv_Concept_rv_V3_rv_1600",
    "count_view": 0
  },
  {
    "link_thumb": "https://live.staticflickr.com/65535/49888239278_1b5366d29b_n.jpg",
    "id_album": "269708336",
    "description": "2008_rv_Alfa_rv_Romeo_rv_Brera_rv_S_rv_V3_rv_1200",
    "title": "2008_rv_Alfa_rv_Romeo_rv_Brera_rv_S_rv_V3_rv_1200",
    "link_img": "https://live.staticflickr.com/65535/49888239278_f3685577bc_o.jpg",
    "id_image": "2008_rv_Alfa_rv_Romeo_rv_Brera_rv_S_rv_V3_rv_1200",
    "count_view": 0
  },
  {
    "link_thumb": "https://live.staticflickr.com/65535/48122498827_5a668cfd0b_n.jpg",
    "id_album": "422322641",
    "description": "Subaru_259070",
    "title": "Subaru_259070",
    "link_img": "https://live.staticflickr.com/65535/48122498827_bdc36468db_o.jpg",
    "id_image": "Subaru_259070",
    "count_view": 0
  },
  {
    "link_thumb": "https://live.staticflickr.com/65535/48121307247_7b331d14f5_n.jpg",
    "id_album": "-1178450892",
    "description": "Porsche_236193",
    "title": "Porsche_236193",
    "link_img": "https://live.staticflickr.com/65535/48121307247_25d7c412d0_o.jpg",
    "id_image": "Porsche_236193",
    "count_view": 0
  },
  {
    "link_thumb": "https://live.staticflickr.com/65535/48114285462_22d84fd7b3_n.jpg",
    "id_album": "-1721545051",
    "description": "Chevrolet_399987",
    "title": "Chevrolet_399987",
    "link_img": "https://live.staticflickr.com/65535/48114285462_1f230e03db_o.jpg",
    "id_image": "Chevrolet_399987",
    "count_view": 0
  },
  {
    "link_thumb": "https://live.staticflickr.com/65535/48117062921_07df00771d_n.jpg",
    "id_album": "-1846404630",
    "description": "Ford_378259",
    "title": "Ford_378259",
    "link_img": "https://live.staticflickr.com/65535/48117062921_224e9163f4_o.jpg",
    "id_image": "Ford_378259",
    "count_view": 0
  },
  {
    "link_thumb": "https://live.staticflickr.com/65535/48114462538_b6db0b3c0d_n.jpg",
    "id_album": "-1721545051",
    "description": "Chevrolet_631530",
    "title": "Chevrolet_631530",
    "link_img": "https://live.staticflickr.com/65535/48114462538_9d4e0b9c16_o.jpg",
    "id_image": "Chevrolet_631530",
    "count_view": 0
  },
  {
    "link_thumb": "https://live.staticflickr.com/65535/49889302121_319f47db92_n.jpg",
    "id_album": "-1217695571",
    "description": "2016_rv_Chevrolet_rv_Malibu_rv_V3_rv_1600",
    "title": "2016_rv_Chevrolet_rv_Malibu_rv_V3_rv_1600",
    "link_img": "https://live.staticflickr.com/65535/49889302121_37c713bf6a_o.jpg",
    "id_image": "2016_rv_Chevrolet_rv_Malibu_rv_V3_rv_1600",
    "count_view": 0
  },
  {
    "link_thumb": "https://live.staticflickr.com/65535/48115106056_2ba1753199_n.jpg",
    "id_album": "413141323",
    "description": "Dodge_254994",
    "title": "Dodge_254994",
    "link_img": "https://live.staticflickr.com/65535/48115106056_16b1e6e3b9_o.jpg",
    "id_image": "Dodge_254994",
    "count_view": 0
  },
  {
    "link_thumb": "https://live.staticflickr.com/65535/48119653536_cd98cd607a_n.jpg",
    "id_album": "-731054311",
    "description": "MercedesBenz_401192",
    "title": "MercedesBenz_401192",
    "link_img": "https://live.staticflickr.com/65535/48119653536_a029f6e93f_o.jpg",
    "id_image": "MercedesBenz_401192",
    "count_view": 0
  },
  {
    "link_thumb": "https://live.staticflickr.com/65535/48113308298_c553a51b41_n.jpg",
    "id_album": "727633301",
    "description": "BMW_962172",
    "title": "BMW_962172",
    "link_img": "https://live.staticflickr.com/65535/48113308298_b4f7f3a669_o.jpg",
    "id_image": "BMW_962172",
    "count_view": 0
  },
  {
    "link_thumb": "https://live.staticflickr.com/65535/49890476117_d9519bbb2d_n.jpg",
    "id_album": "-936716449",
    "description": "2019_rv_Lamborghini_rv_Huracan_rv_Evo_rv_V3_rv_2160",
    "title": "2019_rv_Lamborghini_rv_Huracan_rv_Evo_rv_V3_rv_2160",
    "link_img": "https://live.staticflickr.com/65535/49890476117_9989417ec2_o.jpg",
    "id_image": "2019_rv_Lamborghini_rv_Huracan_rv_Evo_rv_V3_rv_2160",
    "count_view": 0
  },
  {
    "link_thumb": "https://live.staticflickr.com/65535/49890456703_9b0d1b341e_n.jpg",
    "id_album": "-1072712416",
    "description": "2015_rv_Mitsubishi_rv_GC_rv_PHEV_rv_Concept_rv_V3_rv_1600",
    "title": "2015_rv_Mitsubishi_rv_GC_rv_PHEV_rv_Concept_rv_V3_rv_1600",
    "link_img": "https://live.staticflickr.com/65535/49890456703_a66889748c_o.jpg",
    "id_image": "2015_rv_Mitsubishi_rv_GC_rv_PHEV_rv_Concept_rv_V3_rv_1600",
    "count_view": 0
  },
  {
    "link_thumb": "https://live.staticflickr.com/65535/48113250397_40c616380b_n.jpg",
    "id_album": "727633301",
    "description": "BMW_895898",
    "title": "BMW_895898",
    "link_img": "https://live.staticflickr.com/65535/48113250397_f5c51f8025_o.jpg",
    "id_image": "BMW_895898",
    "count_view": 0
  },
  {
    "link_thumb": "https://live.staticflickr.com/65535/48112722871_8e9d847a6b_n.jpg",
    "id_album": "727633301",
    "description": "BMW_361395",
    "title": "BMW_361395",
    "link_img": "https://live.staticflickr.com/65535/48112722871_efa18923b5_o.jpg",
    "id_image": "BMW_361395",
    "count_view": 0
  },
  {
    "link_thumb": "https://live.staticflickr.com/65535/48122556523_7836937eee_n.jpg",
    "id_album": "422322641",
    "description": "Subaru_909124",
    "title": "Subaru_909124",
    "link_img": "https://live.staticflickr.com/65535/48122556523_4f52b07865_o.jpg",
    "id_image": "Subaru_909124",
    "count_view": 0
  },
  {
    "link_thumb": "https://live.staticflickr.com/65535/49891293516_7af7805e1c_n.jpg",
    "id_album": "136450507",
    "description": "2018_rv_Pininfarina_rv_HK_rv_GT_rv_Concept_rv_V2_rv_2000",
    "title": "2018_rv_Pininfarina_rv_HK_rv_GT_rv_Concept_rv_V2_rv_2000",
    "link_img": "https://live.staticflickr.com/65535/49891293516_24f91c9014_o.jpg",
    "id_image": "2018_rv_Pininfarina_rv_HK_rv_GT_rv_Concept_rv_V2_rv_2000",
    "count_view": 0
  },
  {
    "link_thumb": "https://live.staticflickr.com/65535/48116881551_0d466e2b9e_n.jpg",
    "id_album": "-1846404630",
    "description": "Ford_255397",
    "title": "Ford_255397",
    "link_img": "https://live.staticflickr.com/65535/48116881551_783e110119_o.jpg",
    "id_image": "Ford_255397",
    "count_view": 0
  },
  {
    "link_thumb": "https://live.staticflickr.com/65535/48122627142_7880872ae7_n.jpg",
    "id_album": "1645818674",
    "description": "Suzuki_825070",
    "title": "Suzuki_825070",
    "link_img": "https://live.staticflickr.com/65535/48122627142_ba93272694_o.jpg",
    "id_image": "Suzuki_825070",
    "count_view": 0
  },
  {
    "link_thumb": "https://live.staticflickr.com/65535/48114080078_bc9b0e462d_n.jpg",
    "id_album": "-1721545051",
    "description": "Chevrolet_289464",
    "title": "Chevrolet_289464",
    "link_img": "https://live.staticflickr.com/65535/48114080078_c2d4c869d0_o.jpg",
    "id_image": "Chevrolet_289464",
    "count_view": 0
  },
  {
    "link_thumb": "https://live.staticflickr.com/65535/48122623722_7aee4cef6e_n.jpg",
    "id_album": "1645818674",
    "description": "Suzuki_825058",
    "title": "Suzuki_825058",
    "link_img": "https://live.staticflickr.com/65535/48122623722_f43093b672_o.jpg",
    "id_image": "Suzuki_825058",
    "count_view": 0
  },
  {
    "link_thumb": "https://live.staticflickr.com/65535/48116171986_4a761251df_n.jpg",
    "id_album": "1364506720",
    "description": "Ferrari_709177",
    "title": "Ferrari_709177",
    "link_img": "https://live.staticflickr.com/65535/48116171986_4e928f168e_o.jpg",
    "id_image": "Ferrari_709177",
    "count_view": 0
  },
  {
    "link_thumb": "https://live.staticflickr.com/65535/49891019962_6fde1438d5_n.jpg",
    "id_album": "1310566757",
    "description": "2016_rv_Mercedes_rv_Benz_rv_CLA_rv_Shooting_rv_Brake_rv_V2_rv_1600",
    "title": "2016_rv_Mercedes_rv_Benz_rv_CLA_rv_Shooting_rv_Brake_rv_V2_rv_1600",
    "link_img": "https://live.staticflickr.com/65535/49891019962_b62c255993_o.jpg",
    "id_image": "2016_rv_Mercedes_rv_Benz_rv_CLA_rv_Shooting_rv_Brake_rv_V2_rv_1600",
    "count_view": 0
  },
  {
    "link_thumb": "https://live.staticflickr.com/65535/49889546947_e213c46bb9_n.jpg",
    "id_album": "-843466787",
    "description": "1962_rv_Chevrolet_rv_Corvette_rv_C1_rv_RS_rv_by_rv_Roadster_rv_Shop_rv_V2_rv_1440",
    "title": "1962_rv_Chevrolet_rv_Corvette_rv_C1_rv_RS_rv_by_rv_Roadster_rv_Shop_rv_V2_rv_1440",
    "link_img": "https://live.staticflickr.com/65535/49889546947_44560e40fa_o.jpg",
    "id_image": "1962_rv_Chevrolet_rv_Corvette_rv_C1_rv_RS_rv_by_rv_Roadster_rv_Shop_rv_V2_rv_1440",
    "count_view": 0
  },
  {
    "link_thumb": "https://live.staticflickr.com/65535/49891603217_07027212f7_n.jpg",
    "id_album": "136450507",
    "description": "2016_rv_Pininfarina_rv_H2_rv_Speed_rv_V2_rv_2000",
    "title": "2016_rv_Pininfarina_rv_H2_rv_Speed_rv_V2_rv_2000",
    "link_img": "https://live.staticflickr.com/65535/49891603217_be9b79da42_o.jpg",
    "id_image": "2016_rv_Pininfarina_rv_H2_rv_Speed_rv_V2_rv_2000",
    "count_view": 0
  },
  {
    "link_thumb": "https://live.staticflickr.com/65535/49890208368_6af492abb5_n.jpg",
    "id_album": "-1837389467",
    "description": "2008_rv_Mercedes_rv_Benz_rv_CLK63_rv_AMG_rv_Black_rv_V2_rv_1440",
    "title": "2008_rv_Mercedes_rv_Benz_rv_CLK63_rv_AMG_rv_Black_rv_V2_rv_1440",
    "link_img": "https://live.staticflickr.com/65535/49890208368_32914942dd_o.jpg",
    "id_image": "2008_rv_Mercedes_rv_Benz_rv_CLK63_rv_AMG_rv_Black_rv_V2_rv_1440",
    "count_view": 0
  },
  {
    "link_thumb": "https://live.staticflickr.com/65535/48123283652_c1abe3b04f_n.jpg",
    "id_album": "1159292543",
    "description": "Volvo_879857",
    "title": "Volvo_879857",
    "link_img": "https://live.staticflickr.com/65535/48123283652_44d6bbbb1b_o.jpg",
    "id_image": "Volvo_879857",
    "count_view": 0
  },
  {
    "link_thumb": "https://live.staticflickr.com/65535/48113096768_ca8c9a1706_n.jpg",
    "id_album": "727633301",
    "description": "BMW_769474",
    "title": "BMW_769474",
    "link_img": "https://live.staticflickr.com/65535/48113096768_6d3d41a339_o.jpg",
    "id_image": "BMW_769474",
    "count_view": 0
  },
  {
    "link_thumb": "https://live.staticflickr.com/65535/48118371081_1bc497eff0_n.jpg",
    "id_album": "-2100339805",
    "description": "Lamborghini_362339",
    "title": "Lamborghini_362339",
    "link_img": "https://live.staticflickr.com/65535/48118371081_1ec99b99b9_o.jpg",
    "id_image": "Lamborghini_362339",
    "count_view": 0
  },
  {
    "link_thumb": "https://live.staticflickr.com/65535/48116589508_8a76ae6444_n.jpg",
    "id_album": "-1846404630",
    "description": "Ford_143778",
    "title": "Ford_143778",
    "link_img": "https://live.staticflickr.com/65535/48116589508_665210fa75_o.jpg",
    "id_image": "Ford_143778",
    "count_view": 0
  },
  {
    "link_thumb": "https://live.staticflickr.com/65535/48122380126_dd83ccbfcf_n.jpg",
    "id_album": "422322641",
    "description": "Subaru_251586",
    "title": "Subaru_251586",
    "link_img": "https://live.staticflickr.com/65535/48122380126_0265e4013f_o.jpg",
    "id_image": "Subaru_251586",
    "count_view": 0
  },
  {
    "link_thumb": "https://live.staticflickr.com/65535/48120698282_afb1136a75_n.jpg",
    "id_album": "810634050",
    "description": "Nissan_929301",
    "title": "Nissan_929301",
    "link_img": "https://live.staticflickr.com/65535/48120698282_109f34f30d_o.jpg",
    "id_image": "Nissan_929301",
    "count_view": 0
  },
  {
    "link_thumb": "https://live.staticflickr.com/65535/48114955957_0cef4f21d0_n.jpg",
    "id_album": "2072464184",
    "description": "Citroen_420380",
    "title": "Citroen_420380",
    "link_img": "https://live.staticflickr.com/65535/48114955957_9325b35418_o.jpg",
    "id_image": "Citroen_420380",
    "count_view": 0
  },
  {
    "link_thumb": "https://live.staticflickr.com/65535/49889876772_684e2b0b82_n.jpg",
    "id_album": "-1150105315",
    "description": "2015_rv_Formula1_rv_Ferrari_rv_SF15_rv_T_rv_V5_rv_1600",
    "title": "2015_rv_Formula1_rv_Ferrari_rv_SF15_rv_T_rv_V5_rv_1600",
    "link_img": "https://live.staticflickr.com/65535/49889876772_b44d7b3166_o.jpg",
    "id_image": "2015_rv_Formula1_rv_Ferrari_rv_SF15_rv_T_rv_V5_rv_1600",
    "count_view": 0
  },
  {
    "link_thumb": "https://live.staticflickr.com/65535/49889837986_7b9f6f8acb_n.jpg",
    "id_album": "-289181366",
    "description": "2016_rv_Ford_rv_Shelby_rv_GT350_rv_Mustang_rv_Ole_rv_Yeller_rv_V3_rv_2000",
    "title": "2016_rv_Ford_rv_Shelby_rv_GT350_rv_Mustang_rv_Ole_rv_Yeller_rv_V3_rv_2000",
    "link_img": "https://live.staticflickr.com/65535/49889837986_1c0e366fd2_o.jpg",
    "id_image": "2016_rv_Ford_rv_Shelby_rv_GT350_rv_Mustang_rv_Ole_rv_Yeller_rv_V3_rv_2000",
    "count_view": 0
  },
  {
    "link_thumb": "https://live.staticflickr.com/65535/48118729387_9174fbac69_n.jpg",
    "id_album": "-2100339805",
    "description": "Lamborghini_882705",
    "title": "Lamborghini_882705",
    "link_img": "https://live.staticflickr.com/65535/48118729387_a77d0cc558_o.jpg",
    "id_image": "Lamborghini_882705",
    "count_view": 0
  },
  {
    "link_thumb": "https://live.staticflickr.com/65535/48119228528_eb073c20e6_n.jpg",
    "id_album": "898314866",
    "description": "Mazda_257079",
    "title": "Mazda_257079",
    "link_img": "https://live.staticflickr.com/65535/48119228528_d19582333c_o.jpg",
    "id_image": "Mazda_257079",
    "count_view": 0
  },
  {
    "link_thumb": "https://live.staticflickr.com/65535/48122716543_5a6cbbb312_n.jpg",
    "id_album": "1274920659",
    "description": "Toyota_478797",
    "title": "Toyota_478797",
    "link_img": "https://live.staticflickr.com/65535/48122716543_90ce1f4bbe_o.jpg",
    "id_image": "Toyota_478797",
    "count_view": 0
  },
  {
    "link_thumb": "https://live.staticflickr.com/65535/49889894597_83239e76ed_n.jpg",
    "id_album": "89481110",
    "description": "2017_rv_Ferrari_rv_LaFerrari_rv_Aperta_rv_V1_rv_2000",
    "title": "2017_rv_Ferrari_rv_LaFerrari_rv_Aperta_rv_V1_rv_2000",
    "link_img": "https://live.staticflickr.com/65535/49889894597_c04a9604c7_o.jpg",
    "id_image": "2017_rv_Ferrari_rv_LaFerrari_rv_Aperta_rv_V1_rv_2000",
    "count_view": 0
  },
  {
    "link_thumb": "https://live.staticflickr.com/65535/49889440753_816b32dfb4_n.jpg",
    "id_album": "-1041728304",
    "description": "2014_rv_Infiniti_rv_Q50_rv_V5_rv_1600",
    "title": "2014_rv_Infiniti_rv_Q50_rv_V5_rv_1600",
    "link_img": "https://live.staticflickr.com/65535/49889440753_57d358db49_o.jpg",
    "id_image": "2014_rv_Infiniti_rv_Q50_rv_V5_rv_1600",
    "count_view": 0
  },
  {
    "link_thumb": "https://live.staticflickr.com/65535/49889577876_07e49d824c_n.jpg",
    "id_album": "1671572643",
    "description": "2017_rv_Ferrari_rv_GTC4_rv_Lusso_rv_V4_rv_2000",
    "title": "2017_rv_Ferrari_rv_GTC4_rv_Lusso_rv_V4_rv_2000",
    "link_img": "https://live.staticflickr.com/65535/49889577876_edd87b376c_o.jpg",
    "id_image": "2017_rv_Ferrari_rv_GTC4_rv_Lusso_rv_V4_rv_2000",
    "count_view": 0
  },
  {
    "link_thumb": "https://live.staticflickr.com/65535/48122483781_d4d8cea7ab_n.jpg",
    "id_album": "422322641",
    "description": "Subaru_498789",
    "title": "Subaru_498789",
    "link_img": "https://live.staticflickr.com/65535/48122483781_709b1ea233_o.jpg",
    "id_image": "Subaru_498789",
    "count_view": 0
  },
  {
    "link_thumb": "https://live.staticflickr.com/65535/49891307611_cc34481f24_n.jpg",
    "id_album": "-1209827947",
    "description": "2015_rv_Pogea_rv_Racing_rv_4C_rv_Centurion_rv_V3_rv_1600",
    "title": "2015_rv_Pogea_rv_Racing_rv_4C_rv_Centurion_rv_V3_rv_1600",
    "link_img": "https://live.staticflickr.com/65535/49891307611_2151c6bcf6_o.jpg",
    "id_image": "2015_rv_Pogea_rv_Racing_rv_4C_rv_Centurion_rv_V3_rv_1600",
    "count_view": 0
  },
  {
    "link_thumb": "https://live.staticflickr.com/65535/48118742148_8c30300e40_n.jpg",
    "id_album": "-2100339805",
    "description": "Lamborghini_964052",
    "title": "Lamborghini_964052",
    "link_img": "https://live.staticflickr.com/65535/48118742148_47e6207c56_o.jpg",
    "id_image": "Lamborghini_964052",
    "count_view": 0
  },
  {
    "link_thumb": "https://live.staticflickr.com/65535/48122129273_83d82c55a4_n.jpg",
    "id_album": "1536700661",
    "description": "RollsRoyce_257771",
    "title": "RollsRoyce_257771",
    "link_img": "https://live.staticflickr.com/65535/48122129273_ff3b42d252_o.jpg",
    "id_image": "RollsRoyce_257771",
    "count_view": 0
  },
  {
    "link_thumb": "https://live.staticflickr.com/65535/48116475243_4d597717e8_n.jpg",
    "id_album": "1364506720",
    "description": "Ferrari_993593",
    "title": "Ferrari_993593",
    "link_img": "https://live.staticflickr.com/65535/48116475243_b77387c26e_o.jpg",
    "id_image": "Ferrari_993593",
    "count_view": 0
  },
  {
    "link_thumb": "https://live.staticflickr.com/65535/49889600733_dd86df9510_n.jpg",
    "id_album": "1554721686",
    "description": "2017_rv_Lamborghini_rv_Terzo_rv_Millennio_rv_Concept_rv_V9_rv_2000",
    "title": "2017_rv_Lamborghini_rv_Terzo_rv_Millennio_rv_Concept_rv_V9_rv_2000",
    "link_img": "https://live.staticflickr.com/65535/49889600733_ab4a96952d_o.jpg",
    "id_image": "2017_rv_Lamborghini_rv_Terzo_rv_Millennio_rv_Concept_rv_V9_rv_2000",
    "count_view": 0
  },
  {
    "link_thumb": "https://live.staticflickr.com/65535/48116562077_a8ff3b8305_n.jpg",
    "id_album": "-803737857",
    "description": "Fiat_282919",
    "title": "Fiat_282919",
    "link_img": "https://live.staticflickr.com/65535/48116562077_0fdcfae223_o.jpg",
    "id_image": "Fiat_282919",
    "count_view": 0
  },
  {
    "link_thumb": "https://live.staticflickr.com/65535/48112529926_88ae78b051_n.jpg",
    "id_album": "2097036181",
    "description": "Bentley_470783",
    "title": "Bentley_470783",
    "link_img": "https://live.staticflickr.com/65535/48112529926_57353338b7_o.jpg",
    "id_image": "Bentley_470783",
    "count_view": 0
  },
  {
    "link_thumb": "https://live.staticflickr.com/65535/48115737913_0e1363595e_n.jpg",
    "id_album": "1364506720",
    "description": "Ferrari_267180",
    "title": "Ferrari_267180",
    "link_img": "https://live.staticflickr.com/65535/48115737913_05f379852c_o.jpg",
    "id_image": "Ferrari_267180",
    "count_view": 0
  },
  {
    "link_thumb": "https://live.staticflickr.com/65535/48119068488_88ba71347c_n.jpg",
    "id_album": "-1153253263",
    "description": "Lotus_898050",
    "title": "Lotus_898050",
    "link_img": "https://live.staticflickr.com/65535/48119068488_2c4d14784f_o.jpg",
    "id_image": "Lotus_898050",
    "count_view": 0
  },
  {
    "link_thumb": "https://live.staticflickr.com/65535/48114838096_f1b7f0e294_n.jpg",
    "id_album": "2072464184",
    "description": "Citroen_254330",
    "title": "Citroen_254330",
    "link_img": "https://live.staticflickr.com/65535/48114838096_df9fbfb28e_o.jpg",
    "id_image": "Citroen_254330",
    "count_view": 0
  },
  {
    "link_thumb": "https://live.staticflickr.com/65535/48112766568_205ed99361_n.jpg",
    "id_album": "727633301",
    "description": "BMW_363522",
    "title": "BMW_363522",
    "link_img": "https://live.staticflickr.com/65535/48112766568_d52d7c53bc_o.jpg",
    "id_image": "BMW_363522",
    "count_view": 0
  },
  {
    "link_thumb": "https://live.staticflickr.com/65535/48122669461_0670aa0320_n.jpg",
    "id_album": "1274920659",
    "description": "Toyota_450546",
    "title": "Toyota_450546",
    "link_img": "https://live.staticflickr.com/65535/48122669461_c8c0ea158f_o.jpg",
    "id_image": "Toyota_450546",
    "count_view": 0
  },
  {
    "link_thumb": "https://live.staticflickr.com/65535/49893014947_e7431c49cf_n.jpg",
    "id_album": "552106220",
    "description": "2018_rv_W_rv_Motors_rv_Fenyr_rv_Supersport_rv_V4_rv_1600",
    "title": "2018_rv_W_rv_Motors_rv_Fenyr_rv_Supersport_rv_V4_rv_1600",
    "link_img": "https://live.staticflickr.com/65535/49893014947_bd1bf051d0_o.jpg",
    "id_image": "2018_rv_W_rv_Motors_rv_Fenyr_rv_Supersport_rv_V4_rv_1600",
    "count_view": 0
  },
  {
    "link_thumb": "https://live.staticflickr.com/65535/48122291636_344e44f316_n.jpg",
    "id_album": "-58240507",
    "description": "Studebaker_811247",
    "title": "Studebaker_811247",
    "link_img": "https://live.staticflickr.com/65535/48122291636_369d7df23a_o.jpg",
    "id_image": "Studebaker_811247",
    "count_view": 0
  },
  {
    "link_thumb": "https://live.staticflickr.com/65535/48117928813_165314f57d_n.jpg",
    "id_album": "-354267407",
    "description": "Honda_778793",
    "title": "Honda_778793",
    "link_img": "https://live.staticflickr.com/65535/48117928813_a1715fe6c0_o.jpg",
    "id_image": "Honda_778793",
    "count_view": 0
  },
  {
    "link_thumb": "https://live.staticflickr.com/65535/49890588012_e8d20220c0_n.jpg",
    "id_album": "84688798",
    "description": "2008_rv_Lexus_rv_IS_rv_F_rv_V7_rv_1440",
    "title": "2008_rv_Lexus_rv_IS_rv_F_rv_V7_rv_1440",
    "link_img": "https://live.staticflickr.com/65535/49890588012_9a755ff448_o.jpg",
    "id_image": "2008_rv_Lexus_rv_IS_rv_F_rv_V7_rv_1440",
    "count_view": 0
  },
  {
    "link_thumb": "https://live.staticflickr.com/65535/48115257711_ff55dbfe07_n.jpg",
    "id_album": "413141323",
    "description": "Dodge_453994",
    "title": "Dodge_453994",
    "link_img": "https://live.staticflickr.com/65535/48115257711_6c6bdc0f98_o.jpg",
    "id_image": "Dodge_453994",
    "count_view": 0
  },
  {
    "link_thumb": "https://live.staticflickr.com/65535/49888876851_9a3cbb3bd5_n.jpg",
    "id_album": "-31825570",
    "description": "2014_rv_Aston_rv_Martin_rv_Rapide_rv_S_rv_V1_rv_1600",
    "title": "2014_rv_Aston_rv_Martin_rv_Rapide_rv_S_rv_V1_rv_1600",
    "link_img": "https://live.staticflickr.com/65535/49888876851_c1b918d8c6_o.jpg",
    "id_image": "2014_rv_Aston_rv_Martin_rv_Rapide_rv_S_rv_V1_rv_1600",
    "count_view": 0
  },
  {
    "link_thumb": "https://live.staticflickr.com/65535/49891878428_844b740370_n.jpg",
    "id_album": "-738164840",
    "description": "2007_rv_Bentley_rv_Continental_rv_GT_rv_Speed_rv_V3_rv_1536",
    "title": "2007_rv_Bentley_rv_Continental_rv_GT_rv_Speed_rv_V3_rv_1536",
    "link_img": "https://live.staticflickr.com/65535/49891878428_aaaeca1cf6_o.jpg",
    "id_image": "2007_rv_Bentley_rv_Continental_rv_GT_rv_Speed_rv_V3_rv_1536",
    "count_view": 0
  },
  {
    "link_thumb": "https://live.staticflickr.com/65535/48117747578_e3417158ff_n.jpg",
    "id_album": "249743491",
    "description": "HarleyDavidson_465741",
    "title": "HarleyDavidson_465741",
    "link_img": "https://live.staticflickr.com/65535/48117747578_09f2867c20_o.jpg",
    "id_image": "HarleyDavidson_465741",
    "count_view": 0
  },
  {
    "link_thumb": "https://live.staticflickr.com/65535/48116359667_081752966d_n.jpg",
    "id_album": "1364506720",
    "description": "Ferrari_758285",
    "title": "Ferrari_758285",
    "link_img": "https://live.staticflickr.com/65535/48116359667_5a5c3ee41e_o.jpg",
    "id_image": "Ferrari_758285",
    "count_view": 0
  },
  {
    "link_thumb": "https://live.staticflickr.com/65535/48119713551_9ff29770e7_n.jpg",
    "id_album": "-731054311",
    "description": "MercedesBenz_611874",
    "title": "MercedesBenz_611874",
    "link_img": "https://live.staticflickr.com/65535/48119713551_4ea706834a_o.jpg",
    "id_image": "MercedesBenz_611874",
    "count_view": 0
  },
  {
    "link_thumb": "https://live.staticflickr.com/65535/49889564388_fac1ec4aec_n.jpg",
    "id_album": "-2100339805",
    "description": "2015_rv_Lamborghini_rv_Huracan_rv_LP_rv_620_rv_2_rv_Super_rv_Trofeo_rv_V4_rv_1600",
    "title": "2015_rv_Lamborghini_rv_Huracan_rv_LP_rv_620_rv_2_rv_Super_rv_Trofeo_rv_V4_rv_1600",
    "link_img": "https://live.staticflickr.com/65535/49889564388_7eba0f4a9a_o.jpg",
    "id_image": "2015_rv_Lamborghini_rv_Huracan_rv_LP_rv_620_rv_2_rv_Super_rv_Trofeo_rv_V4_rv_1600",
    "count_view": 0
  },
  {
    "link_thumb": "https://live.staticflickr.com/65535/49890084693_203af5b7b2_n.jpg",
    "id_album": "2123877454",
    "description": "2014_rv_Formula1_rv_McLaren_rv_MP4_rv_29_rv_V6_rv_1600",
    "title": "2014_rv_Formula1_rv_McLaren_rv_MP4_rv_29_rv_V6_rv_1600",
    "link_img": "https://live.staticflickr.com/65535/49890084693_37c45fa4de_o.jpg",
    "id_image": "2014_rv_Formula1_rv_McLaren_rv_MP4_rv_29_rv_V6_rv_1600",
    "count_view": 0
  },
  {
    "link_thumb": "https://live.staticflickr.com/65535/48114859193_c21e947bd3_n.jpg",
    "id_album": "2072464184",
    "description": "Citroen_240323",
    "title": "Citroen_240323",
    "link_img": "https://live.staticflickr.com/65535/48114859193_fc60e93b3b_o.jpg",
    "id_image": "Citroen_240323",
    "count_view": 0
  },
  {
    "link_thumb": "https://live.staticflickr.com/65535/49892971152_b46326ab5e_n.jpg",
    "id_album": "-1197081173",
    "description": "2019_rv_Volkswagen_rv_Atlas_rv_Cross_rv_Sport_rv_R_rv_Concept_rv_V5_rv_2160",
    "title": "2019_rv_Volkswagen_rv_Atlas_rv_Cross_rv_Sport_rv_R_rv_Concept_rv_V5_rv_2160",
    "link_img": "https://live.staticflickr.com/65535/49892971152_cde46aba8f_o.jpg",
    "id_image": "2019_rv_Volkswagen_rv_Atlas_rv_Cross_rv_Sport_rv_R_rv_Concept_rv_V5_rv_2160",
    "count_view": 0
  },
  {
    "link_thumb": "https://live.staticflickr.com/65535/49892374466_2ef3b68ae5_n.jpg",
    "id_album": "2063224475",
    "description": "2019_rv_Chevrolet_rv_Camaro_rv_SS_rv_V2_rv_2160",
    "title": "2019_rv_Chevrolet_rv_Camaro_rv_SS_rv_V2_rv_2160",
    "link_img": "https://live.staticflickr.com/65535/49892374466_d41d9d965d_o.jpg",
    "id_image": "2019_rv_Chevrolet_rv_Camaro_rv_SS_rv_V2_rv_2160",
    "count_view": 0
  },
  {
    "link_thumb": "https://live.staticflickr.com/65535/48114131397_2d8337a11b_n.jpg",
    "id_album": "-1721545051",
    "description": "Chevrolet_289182",
    "title": "Chevrolet_289182",
    "link_img": "https://live.staticflickr.com/65535/48114131397_4147b808c6_o.jpg",
    "id_image": "Chevrolet_289182",
    "count_view": 0
  },
  {
    "link_thumb": "https://live.staticflickr.com/65535/48119723078_ca535cde95_n.jpg",
    "id_album": "-731054311",
    "description": "MercedesBenz_498626",
    "title": "MercedesBenz_498626",
    "link_img": "https://live.staticflickr.com/65535/48119723078_9b576032eb_o.jpg",
    "id_image": "MercedesBenz_498626",
    "count_view": 0
  },
  {
    "link_thumb": "https://live.staticflickr.com/65535/48120801411_a9323af9d6_n.jpg",
    "id_album": "1952909762",
    "description": "Packard_928243",
    "title": "Packard_928243",
    "link_img": "https://live.staticflickr.com/65535/48120801411_fa46f4f669_o.jpg",
    "id_image": "Packard_928243",
    "count_view": 0
  },
  {
    "link_thumb": "https://live.staticflickr.com/65535/48123138132_ce1503eb9d_n.jpg",
    "id_album": "-150952028",
    "description": "Volkswagen_884610",
    "title": "Volkswagen_884610",
    "link_img": "https://live.staticflickr.com/65535/48123138132_62c4b917de_o.jpg",
    "id_image": "Volkswagen_884610",
    "count_view": 0
  },
  {
    "link_thumb": "https://live.staticflickr.com/65535/48118103331_ba129874d9_n.jpg",
    "id_album": "-2009218697",
    "description": "Jeep_500173",
    "title": "Jeep_500173",
    "link_img": "https://live.staticflickr.com/65535/48118103331_2ab67bbf31_o.jpg",
    "id_image": "Jeep_500173",
    "count_view": 0
  },
  {
    "link_thumb": "https://live.staticflickr.com/65535/49893017167_70e638a603_n.jpg",
    "id_album": "-1852700606",
    "description": "2013_rv_Wiesmann_rv_GT_rv_MF4_rv_CS_rv_V2_rv_1600",
    "title": "2013_rv_Wiesmann_rv_GT_rv_MF4_rv_CS_rv_V2_rv_1600",
    "link_img": "https://live.staticflickr.com/65535/49893017167_90c158eec2_o.jpg",
    "id_image": "2013_rv_Wiesmann_rv_GT_rv_MF4_rv_CS_rv_V2_rv_1600",
    "count_view": 0
  },
  {
    "link_thumb": "https://live.staticflickr.com/65535/49890410518_eb4fc06447_n.jpg",
    "id_album": "-2129417883",
    "description": "2014_rv_Mercedes_rv_Benz_rv_SLS_rv_AMG_rv_GT_rv_Final_rv_Edition_rv_V7_rv_1440",
    "title": "2014_rv_Mercedes_rv_Benz_rv_SLS_rv_AMG_rv_GT_rv_Final_rv_Edition_rv_V7_rv_1440",
    "link_img": "https://live.staticflickr.com/65535/49890410518_3f3b5c99c7_o.jpg",
    "id_image": "2014_rv_Mercedes_rv_Benz_rv_SLS_rv_AMG_rv_GT_rv_Final_rv_Edition_rv_V7_rv_1440",
    "count_view": 0
  },
  {
    "link_thumb": "https://live.staticflickr.com/65535/48117140873_82916c1c78_n.jpg",
    "id_album": "-1846404630",
    "description": "Ford_400694",
    "title": "Ford_400694",
    "link_img": "https://live.staticflickr.com/65535/48117140873_bbd64aca1e_o.jpg",
    "id_image": "Ford_400694",
    "count_view": 0
  },
  {
    "link_thumb": "https://live.staticflickr.com/65535/48120023506_ea0ff0b4ca_n.jpg",
    "id_album": "-1116477526",
    "description": "Mitsubishi_257435",
    "title": "Mitsubishi_257435",
    "link_img": "https://live.staticflickr.com/65535/48120023506_db7c21e5bf_o.jpg",
    "id_image": "Mitsubishi_257435",
    "count_view": 0
  },
  {
    "link_thumb": "https://live.staticflickr.com/65535/48117750666_683072dd39_n.jpg",
    "id_album": "249743491",
    "description": "HarleyDavidson_923804",
    "title": "HarleyDavidson_923804",
    "link_img": "https://live.staticflickr.com/65535/48117750666_64ddbc1f8c_o.jpg",
    "id_image": "HarleyDavidson_923804",
    "count_view": 0
  },
  {
    "link_thumb": "https://live.staticflickr.com/65535/48123131801_db2fa78d76_n.jpg",
    "id_album": "1159292543",
    "description": "Volvo_450515",
    "title": "Volvo_450515",
    "link_img": "https://live.staticflickr.com/65535/48123131801_4a580a618f_o.jpg",
    "id_image": "Volvo_450515",
    "count_view": 0
  },
  {
    "link_thumb": "https://live.staticflickr.com/65535/48112145268_bd29937b18_n.jpg",
    "id_album": "1546790746",
    "description": "AstonMartin_271253",
    "title": "AstonMartin_271253",
    "link_img": "https://live.staticflickr.com/65535/48112145268_4cb26ea1cb_o.jpg",
    "id_image": "AstonMartin_271253",
    "count_view": 0
  },
  {
    "link_thumb": "https://live.staticflickr.com/65535/49888833178_77afd5f7c4_n.jpg",
    "id_album": "-549514508",
    "description": "2014_rv_Donkervoort_rv_D8_rv_GTO_rv_V6_rv_1600",
    "title": "2014_rv_Donkervoort_rv_D8_rv_GTO_rv_V6_rv_1600",
    "link_img": "https://live.staticflickr.com/65535/49888833178_4ebbde0479_o.jpg",
    "id_image": "2014_rv_Donkervoort_rv_D8_rv_GTO_rv_V6_rv_1600",
    "count_view": 0
  },
  {
    "link_thumb": "https://live.staticflickr.com/65535/48118778431_4acba04a86_n.jpg",
    "id_album": "1986285173",
    "description": "Lancia_642634",
    "title": "Lancia_642634",
    "link_img": "https://live.staticflickr.com/65535/48118778431_b6743e9190_o.jpg",
    "id_image": "Lancia_642634",
    "count_view": 0
  },
  {
    "link_thumb": "https://live.staticflickr.com/65535/48122330736_478ac53246_n.jpg",
    "id_album": "-58240507",
    "description": "Studebaker_929359",
    "title": "Studebaker_929359",
    "link_img": "https://live.staticflickr.com/65535/48122330736_b7b267a3ae_o.jpg",
    "id_image": "Studebaker_929359",
    "count_view": 0
  },
  {
    "link_thumb": "https://live.staticflickr.com/65535/48113394368_6d5ddeb700_n.jpg",
    "id_album": "1456070666",
    "description": "Bugatti_363580",
    "title": "Bugatti_363580",
    "link_img": "https://live.staticflickr.com/65535/48113394368_754be9ef90_o.jpg",
    "id_image": "Bugatti_363580",
    "count_view": 0
  },
  {
    "link_thumb": "https://live.staticflickr.com/65535/48112244667_f819ca4aef_n.jpg",
    "id_album": "555757480",
    "description": "AstonMartin_470851",
    "title": "AstonMartin_470851",
    "link_img": "https://live.staticflickr.com/65535/48112244667_0b5eddbd9f_o.jpg",
    "id_image": "AstonMartin_470851",
    "count_view": 0
  },
  {
    "link_thumb": "https://live.staticflickr.com/65535/48117653737_def1f56b4c_n.jpg",
    "id_album": "-1846404630",
    "description": "Ford_931273",
    "title": "Ford_931273",
    "link_img": "https://live.staticflickr.com/65535/48117653737_1eeec74858_o.jpg",
    "id_image": "Ford_931273",
    "count_view": 0
  },
  {
    "link_thumb": "https://live.staticflickr.com/65535/48117951631_e67f736efb_n.jpg",
    "id_album": "427416146",
    "description": "Hummer_401274",
    "title": "Hummer_401274",
    "link_img": "https://live.staticflickr.com/65535/48117951631_3113cbf48a_o.jpg",
    "id_image": "Hummer_401274",
    "count_view": 0
  },
  {
    "link_thumb": "https://live.staticflickr.com/65535/49888981418_8152cb6669_n.jpg",
    "id_album": "1471706463",
    "description": "2020_rv_Ferrari_rv_488_rv_GT3_rv_Evo_rv_V6_rv_2160",
    "title": "2020_rv_Ferrari_rv_488_rv_GT3_rv_Evo_rv_V6_rv_2160",
    "link_img": "https://live.staticflickr.com/65535/49888981418_522e0e983b_o.jpg",
    "id_image": "2020_rv_Ferrari_rv_488_rv_GT3_rv_Evo_rv_V6_rv_2160",
    "count_view": 0
  },
  {
    "link_thumb": "https://live.staticflickr.com/65535/49890227753_e508b4d091_n.jpg",
    "id_album": "-1036470022",
    "description": "2013_rv_Mercedes_rv_Benz_rv_AMG_rv_Vision_rv_Gran_rv_Turismo_rv_Concept_rv_V6_rv_1600",
    "title": "2013_rv_Mercedes_rv_Benz_rv_AMG_rv_Vision_rv_Gran_rv_Turismo_rv_Concept_rv_V6_rv_1600",
    "link_img": "https://live.staticflickr.com/65535/49890227753_e81cf3374c_o.jpg",
    "id_image": "2013_rv_Mercedes_rv_Benz_rv_AMG_rv_Vision_rv_Gran_rv_Turismo_rv_Concept_rv_V6_rv_1600",
    "count_view": 0
  },
  {
    "link_thumb": "https://live.staticflickr.com/65535/49890419486_9f617df498_n.jpg",
    "id_album": "-544969959",
    "description": "2014_rv_Maserati_rv_Ghibli_rv_V4_rv_1600",
    "title": "2014_rv_Maserati_rv_Ghibli_rv_V4_rv_1600",
    "link_img": "https://live.staticflickr.com/65535/49890419486_8426990a50_o.jpg",
    "id_image": "2014_rv_Maserati_rv_Ghibli_rv_V4_rv_1600",
    "count_view": 0
  },
  {
    "link_thumb": "https://live.staticflickr.com/65535/49888823843_e857001b06_n.jpg",
    "id_album": "413141323",
    "description": "2000_rv_Dodge_rv_Viper_rv_GTS_rv_R_rv_Concept_rv_V3_rv_1440",
    "title": "2000_rv_Dodge_rv_Viper_rv_GTS_rv_R_rv_Concept_rv_V3_rv_1440",
    "link_img": "https://live.staticflickr.com/65535/49888823843_78f1c89f59_o.jpg",
    "id_image": "2000_rv_Dodge_rv_Viper_rv_GTS_rv_R_rv_Concept_rv_V3_rv_1440",
    "count_view": 0
  },
  {
    "link_thumb": "https://live.staticflickr.com/65535/48119560596_89abac57ff_n.jpg",
    "id_album": "-731054311",
    "description": "MercedesBenz_273637",
    "title": "MercedesBenz_273637",
    "link_img": "https://live.staticflickr.com/65535/48119560596_652d4eeb2e_o.jpg",
    "id_image": "MercedesBenz_273637",
    "count_view": 0
  },
  {
    "link_thumb": "https://live.staticflickr.com/65535/48120427321_11a71abd78_n.jpg",
    "id_album": "810634050",
    "description": "Nissan_450390",
    "title": "Nissan_450390",
    "link_img": "https://live.staticflickr.com/65535/48120427321_44b0d1b22f_o.jpg",
    "id_image": "Nissan_450390",
    "count_view": 0
  },
  {
    "link_thumb": "https://live.staticflickr.com/65535/49890920532_825d98a075_n.jpg",
    "id_album": "1875498083",
    "description": "2020_rv_McLaren_rv_GT_rv_Verdant_rv_by_rv_MSO_rv_V2_rv_2160",
    "title": "2020_rv_McLaren_rv_GT_rv_Verdant_rv_by_rv_MSO_rv_V2_rv_2160",
    "link_img": "https://live.staticflickr.com/65535/49890920532_f2a69f6eee_o.jpg",
    "id_image": "2020_rv_McLaren_rv_GT_rv_Verdant_rv_by_rv_MSO_rv_V2_rv_2160",
    "count_view": 0
  },
  {
    "link_thumb": "https://live.staticflickr.com/65535/49888528448_0cf9dc2d72_n.jpg",
    "id_album": "-1839907970",
    "description": "1979_rv_Canepa_rv_BMW_rv_M1_rv_Procar_rv_V8_rv_2000",
    "title": "1979_rv_Canepa_rv_BMW_rv_M1_rv_Procar_rv_V8_rv_2000",
    "link_img": "https://live.staticflickr.com/65535/49888528448_d75c33d979_o.jpg",
    "id_image": "1979_rv_Canepa_rv_BMW_rv_M1_rv_Procar_rv_V8_rv_2000",
    "count_view": 0
  },
  {
    "link_thumb": "https://live.staticflickr.com/65535/48122831032_0b31620706_n.jpg",
    "id_album": "1274920659",
    "description": "Toyota_549173",
    "title": "Toyota_549173",
    "link_img": "https://live.staticflickr.com/65535/48122831032_4a0277dcc3_o.jpg",
    "id_image": "Toyota_549173",
    "count_view": 0
  },
  {
    "link_thumb": "https://live.staticflickr.com/65535/48119958847_eecf588897_n.jpg",
    "id_album": "-731054311",
    "description": "MercedesBenz_920296",
    "title": "MercedesBenz_920296",
    "link_img": "https://live.staticflickr.com/65535/48119958847_067c06e3f3_o.jpg",
    "id_image": "MercedesBenz_920296",
    "count_view": 0
  },
  {
    "link_thumb": "https://live.staticflickr.com/65535/48116540647_818e6eaf8c_n.jpg",
    "id_album": "-803737857",
    "description": "Fiat_164785",
    "title": "Fiat_164785",
    "link_img": "https://live.staticflickr.com/65535/48116540647_c6158a643b_o.jpg",
    "id_image": "Fiat_164785",
    "count_view": 0
  },
  {
    "link_thumb": "https://live.staticflickr.com/65535/49892480707_db50b3bff7_n.jpg",
    "id_album": "-842352658",
    "description": "2015_rv_Volkswagen_rv_Golf_rv_R_rv_Variant_rv_V4_rv_1600",
    "title": "2015_rv_Volkswagen_rv_Golf_rv_R_rv_Variant_rv_V4_rv_1600",
    "link_img": "https://live.staticflickr.com/65535/49892480707_29f663ed21_o.jpg",
    "id_image": "2015_rv_Volkswagen_rv_Golf_rv_R_rv_Variant_rv_V4_rv_1600",
    "count_view": 0
  },
  {
    "link_thumb": "https://live.staticflickr.com/65535/48119269568_b90c1207f1_n.jpg",
    "id_album": "898314866",
    "description": "Mazda_893275",
    "title": "Mazda_893275",
    "link_img": "https://live.staticflickr.com/65535/48119269568_824a231fe1_o.jpg",
    "id_image": "Mazda_893275",
    "count_view": 0
  },
  {
    "link_thumb": "https://live.staticflickr.com/65535/48119267316_372f08a201_n.jpg",
    "id_album": "990865885",
    "description": "McLaren_318889",
    "title": "McLaren_318889",
    "link_img": "https://live.staticflickr.com/65535/48119267316_716cc5183e_o.jpg",
    "id_image": "McLaren_318889",
    "count_view": 0
  },
  {
    "link_thumb": "https://live.staticflickr.com/65535/49889282463_f73c838a36_n.jpg",
    "id_album": "-51494743",
    "description": "2002_rv_Porsche_rv_911_rv_GT2_rv_V1_rv_1536",
    "title": "2002_rv_Porsche_rv_911_rv_GT2_rv_V1_rv_1536",
    "link_img": "https://live.staticflickr.com/65535/49889282463_4d8e9a5131_o.jpg",
    "id_image": "2002_rv_Porsche_rv_911_rv_GT2_rv_V1_rv_1536",
    "count_view": 0
  },
  {
    "link_thumb": "https://live.staticflickr.com/65535/48112414798_953778e810_n.jpg",
    "id_album": "-15119147",
    "description": "Audi_695095",
    "title": "Audi_695095",
    "link_img": "https://live.staticflickr.com/65535/48112414798_12ca57faac_o.jpg",
    "id_image": "Audi_695095",
    "count_view": 0
  },
  {
    "link_thumb": "https://live.staticflickr.com/65535/48113460287_859f9f1290_n.jpg",
    "id_album": "1456070666",
    "description": "Bugatti_366007",
    "title": "Bugatti_366007",
    "link_img": "https://live.staticflickr.com/65535/48113460287_f87354beb9_o.jpg",
    "id_image": "Bugatti_366007",
    "count_view": 0
  },
  {
    "link_thumb": "https://live.staticflickr.com/65535/48119429178_941c40f7b2_n.jpg",
    "id_album": "990865885",
    "description": "McLaren_936205",
    "title": "McLaren_936205",
    "link_img": "https://live.staticflickr.com/65535/48119429178_5158936c1e_o.jpg",
    "id_image": "McLaren_936205",
    "count_view": 0
  },
  {
    "link_thumb": "https://live.staticflickr.com/65535/48112850581_b9bbe39b76_n.jpg",
    "id_album": "727633301",
    "description": "BMW_482182",
    "title": "BMW_482182",
    "link_img": "https://live.staticflickr.com/65535/48112850581_9d4a659160_o.jpg",
    "id_image": "BMW_482182",
    "count_view": 0
  },
  {
    "link_thumb": "https://live.staticflickr.com/65535/48119620051_e7d1d6a9c8_n.jpg",
    "id_album": "-731054311",
    "description": "MercedesBenz_323634",
    "title": "MercedesBenz_323634",
    "link_img": "https://live.staticflickr.com/65535/48119620051_11ce511f3a_o.jpg",
    "id_image": "MercedesBenz_323634",
    "count_view": 0
  },
  {
    "link_thumb": "https://live.staticflickr.com/65535/48112994897_7b1935d9bd_n.jpg",
    "id_album": "727633301",
    "description": "BMW_488521",
    "title": "BMW_488521",
    "link_img": "https://live.staticflickr.com/65535/48112994897_06260474b5_o.jpg",
    "id_image": "BMW_488521",
    "count_view": 0
  },
  {
    "link_thumb": "https://live.staticflickr.com/65535/48116767251_ef5a4536eb_n.jpg",
    "id_album": "-1846404630",
    "description": "Ford_219613",
    "title": "Ford_219613",
    "link_img": "https://live.staticflickr.com/65535/48116767251_2eabbc1f5d_o.jpg",
    "id_image": "Ford_219613",
    "count_view": 0
  },
  {
    "link_thumb": "https://live.staticflickr.com/65535/49892199853_be6edb4917_n.jpg",
    "id_album": "1158113959",
    "description": "2012_rv_BMW_rv_Zagato_rv_Coupe_rv_Concept_rv_V2_rv_1440",
    "title": "2012_rv_BMW_rv_Zagato_rv_Coupe_rv_Concept_rv_V2_rv_1440",
    "link_img": "https://live.staticflickr.com/65535/49892199853_5c279ba6eb_o.jpg",
    "id_image": "2012_rv_BMW_rv_Zagato_rv_Coupe_rv_Concept_rv_V2_rv_1440",
    "count_view": 0
  },
  {
    "link_thumb": "https://live.staticflickr.com/65535/49891145851_187f6e1b46_n.jpg",
    "id_album": "-909236608",
    "description": "2006_rv_Noble_rv_M15_rv_V6_rv_1440",
    "title": "2006_rv_Noble_rv_M15_rv_V6_rv_1440",
    "link_img": "https://live.staticflickr.com/65535/49891145851_222863f8c3_o.jpg",
    "id_image": "2006_rv_Noble_rv_M15_rv_V6_rv_1440",
    "count_view": 0
  },
  {
    "link_thumb": "https://live.staticflickr.com/65535/48114309777_795d49e336_n.jpg",
    "id_album": "-1721545051",
    "description": "Chevrolet_419464",
    "title": "Chevrolet_419464",
    "link_img": "https://live.staticflickr.com/65535/48114309777_c3b0a5224b_o.jpg",
    "id_image": "Chevrolet_419464",
    "count_view": 0
  },
  {
    "link_thumb": "https://live.staticflickr.com/65535/49890521697_a36f815771_n.jpg",
    "id_album": "1283657530",
    "description": "1976_rv_Lamborghini_rv_Silhouette_rv_P300_rv_V4_rv_1600",
    "title": "1976_rv_Lamborghini_rv_Silhouette_rv_P300_rv_V4_rv_1600",
    "link_img": "https://live.staticflickr.com/65535/49890521697_4e325087a7_o.jpg",
    "id_image": "1976_rv_Lamborghini_rv_Silhouette_rv_P300_rv_V4_rv_1600",
    "count_view": 0
  },
  {
    "link_thumb": "https://live.staticflickr.com/65535/48114498388_f392478627_n.jpg",
    "id_album": "-1721545051",
    "description": "Chevrolet_700334",
    "title": "Chevrolet_700334",
    "link_img": "https://live.staticflickr.com/65535/48114498388_ccb8343282_o.jpg",
    "id_image": "Chevrolet_700334",
    "count_view": 0
  },
  {
    "link_thumb": "https://live.staticflickr.com/65535/48113183463_b77d99a0fb_n.jpg",
    "id_album": "727633301",
    "description": "BMW_886995",
    "title": "BMW_886995",
    "link_img": "https://live.staticflickr.com/65535/48113183463_678461beac_o.jpg",
    "id_image": "BMW_886995",
    "count_view": 0
  },
  {
    "link_thumb": "https://live.staticflickr.com/65535/49889214006_87d7de2ab2_n.jpg",
    "id_album": "-1678364421",
    "description": "2017_rv_Bugatti_rv_Chiron_rv_V17_rv_2000",
    "title": "2017_rv_Bugatti_rv_Chiron_rv_V17_rv_2000",
    "link_img": "https://live.staticflickr.com/65535/49889214006_2c78485782_o.jpg",
    "id_image": "2017_rv_Bugatti_rv_Chiron_rv_V17_rv_2000",
    "count_view": 0
  },
  {
    "link_thumb": "https://live.staticflickr.com/65535/48114844867_61c2681a71_n.jpg",
    "id_album": "939606447",
    "description": "Chrysler_420662",
    "title": "Chrysler_420662",
    "link_img": "https://live.staticflickr.com/65535/48114844867_1a70eea0c1_o.jpg",
    "id_image": "Chrysler_420662",
    "count_view": 0
  },
  {
    "link_thumb": "https://live.staticflickr.com/65535/48117726022_e32f1dce7b_n.jpg",
    "id_album": "-1846404630",
    "description": "Ford_960083",
    "title": "Ford_960083",
    "link_img": "https://live.staticflickr.com/65535/48117726022_cd9081d92d_o.jpg",
    "id_image": "Ford_960083",
    "count_view": 0
  },
  {
    "link_thumb": "https://live.staticflickr.com/65535/49888665363_f479ca6d0e_n.jpg",
    "id_album": "-1839909257",
    "description": "2019_rv_BMW_rv_X2_rv_M35i_rv_V3_rv_2160",
    "title": "2019_rv_BMW_rv_X2_rv_M35i_rv_V3_rv_2160",
    "link_img": "https://live.staticflickr.com/65535/49888665363_cfedfb849e_o.jpg",
    "id_image": "2019_rv_BMW_rv_X2_rv_M35i_rv_V3_rv_2160",
    "count_view": 0
  },
  {
    "link_thumb": "https://live.staticflickr.com/65535/48120545967_939f58ae2c_n.jpg",
    "id_album": "810634050",
    "description": "Nissan_477660",
    "title": "Nissan_477660",
    "link_img": "https://live.staticflickr.com/65535/48120545967_3564400aa4_o.jpg",
    "id_image": "Nissan_477660",
    "count_view": 0
  },
  {
    "link_thumb": "https://live.staticflickr.com/65535/48114601891_1e3e6f64ab_n.jpg",
    "id_album": "-1721545051",
    "description": "Chevrolet_883010",
    "title": "Chevrolet_883010",
    "link_img": "https://live.staticflickr.com/65535/48114601891_bbdc422511_o.jpg",
    "id_image": "Chevrolet_883010",
    "count_view": 0
  },
  {
    "link_thumb": "https://live.staticflickr.com/65535/49890326872_79ceed870c_n.jpg",
    "id_album": "-1171889069",
    "description": "1992_rv_Jaguar_rv_XJ220_rv_V5_rv_1440",
    "title": "1992_rv_Jaguar_rv_XJ220_rv_V5_rv_1440",
    "link_img": "https://live.staticflickr.com/65535/49890326872_4d15ab5dd7_o.jpg",
    "id_image": "1992_rv_Jaguar_rv_XJ220_rv_V5_rv_1440",
    "count_view": 0
  },
  {
    "link_thumb": "https://live.staticflickr.com/65535/49889302202_cf19352a43_n.jpg",
    "id_album": "-446569246",
    "description": "2016_rv_Audi_rv_RS7_rv_Sportback_rv_Performance_rv_V4_rv_1600",
    "title": "2016_rv_Audi_rv_RS7_rv_Sportback_rv_Performance_rv_V4_rv_1600",
    "link_img": "https://live.staticflickr.com/65535/49889302202_6dcb6711dc_o.jpg",
    "id_image": "2016_rv_Audi_rv_RS7_rv_Sportback_rv_Performance_rv_V4_rv_1600",
    "count_view": 0
  },
  {
    "link_thumb": "https://live.staticflickr.com/65535/49888421018_44d0705d8d_n.jpg",
    "id_album": "1342281184",
    "description": "2011_rv_Audi_rv_R18_rv_V2_rv_1440",
    "title": "2011_rv_Audi_rv_R18_rv_V2_rv_1440",
    "link_img": "https://live.staticflickr.com/65535/49888421018_f36462798e_o.jpg",
    "id_image": "2011_rv_Audi_rv_R18_rv_V2_rv_1440",
    "count_view": 0
  },
  {
    "link_thumb": "https://live.staticflickr.com/65535/48112325513_f7753f2ece_n.jpg",
    "id_album": "-15119147",
    "description": "Audi_381474",
    "title": "Audi_381474",
    "link_img": "https://live.staticflickr.com/65535/48112325513_4c2b5f0464_o.jpg",
    "id_image": "Audi_381474",
    "count_view": 0
  },
  {
    "link_thumb": "https://live.staticflickr.com/65535/49888503218_1b9997cb88_n.jpg",
    "id_album": "-263426311",
    "description": "1958_rv_Chevrolet_rv_Bel_rv_Air_rv_Impala_rv_V2_rv_1440",
    "title": "1958_rv_Chevrolet_rv_Bel_rv_Air_rv_Impala_rv_V2_rv_1440",
    "link_img": "https://live.staticflickr.com/65535/49888503218_5d13347304_o.jpg",
    "id_image": "1958_rv_Chevrolet_rv_Bel_rv_Air_rv_Impala_rv_V2_rv_1440",
    "count_view": 0
  },
  {
    "link_thumb": "https://live.staticflickr.com/65535/49890289372_e93350c279_n.jpg",
    "id_album": "988367143",
    "description": "2019_rv_Jaguar_rv_F_rv_Pace_rv_SVR_rv_V1_rv_2000",
    "title": "2019_rv_Jaguar_rv_F_rv_Pace_rv_SVR_rv_V1_rv_2000",
    "link_img": "https://live.staticflickr.com/65535/49890289372_b47ca56ce3_o.jpg",
    "id_image": "2019_rv_Jaguar_rv_F_rv_Pace_rv_SVR_rv_V1_rv_2000",
    "count_view": 0
  },
  {
    "link_thumb": "https://live.staticflickr.com/65535/48118940602_a99a91bd53_n.jpg",
    "id_album": "446908717",
    "description": "Lexus_272929",
    "title": "Lexus_272929",
    "link_img": "https://live.staticflickr.com/65535/48118940602_b356176e4c_o.jpg",
    "id_image": "Lexus_272929",
    "count_view": 0
  },
  {
    "link_thumb": "https://live.staticflickr.com/65535/48117629737_c0600576d1_n.jpg",
    "id_album": "-1846404630",
    "description": "Ford_928067",
    "title": "Ford_928067",
    "link_img": "https://live.staticflickr.com/65535/48117629737_791d281fb4_o.jpg",
    "id_image": "Ford_928067",
    "count_view": 0
  },
  {
    "link_thumb": "https://live.staticflickr.com/65535/48112372342_05210e5d26_n.jpg",
    "id_album": "-15119147",
    "description": "Audi_322201",
    "title": "Audi_322201",
    "link_img": "https://live.staticflickr.com/65535/48112372342_c5cd7d987b_o.jpg",
    "id_image": "Audi_322201",
    "count_view": 0
  },
  {
    "link_thumb": "https://live.staticflickr.com/65535/48114208342_6c8e633b35_n.jpg",
    "id_album": "-1721545051",
    "description": "Chevrolet_323303",
    "title": "Chevrolet_323303",
    "link_img": "https://live.staticflickr.com/65535/48114208342_08e48a5f6d_o.jpg",
    "id_image": "Chevrolet_323303",
    "count_view": 0
  },
  {
    "link_thumb": "https://live.staticflickr.com/65535/48120486651_2bc623c341_n.jpg",
    "id_album": "810634050",
    "description": "Nissan_496803",
    "title": "Nissan_496803",
    "link_img": "https://live.staticflickr.com/65535/48120486651_f8634b1b15_o.jpg",
    "id_image": "Nissan_496803",
    "count_view": 0
  },
  {
    "link_thumb": "https://live.staticflickr.com/65535/49041189142_6735fb004a_n.jpg",
    "id_album": "-2126948992",
    "description": "AlfaRomeo_467333",
    "title": "AlfaRomeo_467333",
    "link_img": "https://live.staticflickr.com/65535/49041189142_504474d314_o.jpg",
    "id_image": "AlfaRomeo_467333",
    "count_view": 0
  },
  {
    "link_thumb": "https://live.staticflickr.com/65535/48117000056_022ae61739_n.jpg",
    "id_album": "-1846404630",
    "description": "Ford_318084",
    "title": "Ford_318084",
    "link_img": "https://live.staticflickr.com/65535/48117000056_b2866bbcaa_o.jpg",
    "id_image": "Ford_318084",
    "count_view": 0
  },
  {
    "link_thumb": "https://live.staticflickr.com/65535/49889810608_c774e3668d_n.jpg",
    "id_album": "-1856303726",
    "description": "2011_rv_Nissan_rv_Signature_rv_Racing_rv_LMP2_rv_V1_rv_1440",
    "title": "2011_rv_Nissan_rv_Signature_rv_Racing_rv_LMP2_rv_V1_rv_1440",
    "link_img": "https://live.staticflickr.com/65535/49889810608_f047e9d550_o.jpg",
    "id_image": "2011_rv_Nissan_rv_Signature_rv_Racing_rv_LMP2_rv_V1_rv_1440",
    "count_view": 0
  },
  {
    "link_thumb": "https://live.staticflickr.com/65535/48114614743_68afdfe4f5_n.jpg",
    "id_album": "-1721545051",
    "description": "Chevrolet_844294",
    "title": "Chevrolet_844294",
    "link_img": "https://live.staticflickr.com/65535/48114614743_0000ac272d_o.jpg",
    "id_image": "Chevrolet_844294",
    "count_view": 0
  },
  {
    "link_thumb": "https://live.staticflickr.com/65535/48118365681_8ef9034c4b_n.jpg",
    "id_album": "-2100339805",
    "description": "Lamborghini_358545",
    "title": "Lamborghini_358545",
    "link_img": "https://live.staticflickr.com/65535/48118365681_e68fe2fd6c_o.jpg",
    "id_image": "Lamborghini_358545",
    "count_view": 0
  },
  {
    "link_thumb": "https://live.staticflickr.com/65535/48112988186_e7e81de82e_n.jpg",
    "id_album": "727633301",
    "description": "BMW_598331",
    "title": "BMW_598331",
    "link_img": "https://live.staticflickr.com/65535/48112988186_367c5a56cf_o.jpg",
    "id_image": "BMW_598331",
    "count_view": 0
  },
  {
    "link_thumb": "https://live.staticflickr.com/65535/48118099072_11013b70d6_n.jpg",
    "id_album": "-843028318",
    "description": "Jaguar_792358",
    "title": "Jaguar_792358",
    "link_img": "https://live.staticflickr.com/65535/48118099072_f5f25eb65c_o.jpg",
    "id_image": "Jaguar_792358",
    "count_view": 0
  },
  {
    "link_thumb": "https://live.staticflickr.com/65535/48112240618_058ee421db_n.jpg",
    "id_album": "548548524",
    "description": "AstonMartin_905056",
    "title": "AstonMartin_905056",
    "link_img": "https://live.staticflickr.com/65535/48112240618_507c9073c6_o.jpg",
    "id_image": "AstonMartin_905056",
    "count_view": 0
  },
  {
    "link_thumb": "https://live.staticflickr.com/65535/49889761921_6a6b729902_n.jpg",
    "id_album": "1370790237",
    "description": "2012_rv_Dodge_rv_Challenger_rv_Rallye_rv_Redline_rv_V3_rv_1536",
    "title": "2012_rv_Dodge_rv_Challenger_rv_Rallye_rv_Redline_rv_V3_rv_1536",
    "link_img": "https://live.staticflickr.com/65535/49889761921_999fd650b3_o.jpg",
    "id_image": "2012_rv_Dodge_rv_Challenger_rv_Rallye_rv_Redline_rv_V3_rv_1536",
    "count_view": 0
  },
  {
    "link_thumb": "https://live.staticflickr.com/65535/48112866962_5a30432c2f_n.jpg",
    "id_album": "727633301",
    "description": "BMW_449883",
    "title": "BMW_449883",
    "link_img": "https://live.staticflickr.com/65535/48112866962_e2671c2192_o.jpg",
    "id_image": "BMW_449883",
    "count_view": 0
  },
  {
    "link_thumb": "https://live.staticflickr.com/65535/49888969663_8ea987e4bb_n.jpg",
    "id_album": "1471706463",
    "description": "2016_rv_Ferrari_rv_488_rv_GTB_rv_V7_rv_1600",
    "title": "2016_rv_Ferrari_rv_488_rv_GTB_rv_V7_rv_1600",
    "link_img": "https://live.staticflickr.com/65535/49888969663_eca876f9db_o.jpg",
    "id_image": "2016_rv_Ferrari_rv_488_rv_GTB_rv_V7_rv_1600",
    "count_view": 0
  },
  {
    "link_thumb": "https://live.staticflickr.com/65535/48117808043_ef3c7721bb_n.jpg",
    "id_album": "-354267407",
    "description": "Honda_256034",
    "title": "Honda_256034",
    "link_img": "https://live.staticflickr.com/65535/48117808043_bb82e79c77_o.jpg",
    "id_image": "Honda_256034",
    "count_view": 0
  },
  {
    "link_thumb": "https://live.staticflickr.com/65535/48122128973_ae096c1c16_n.jpg",
    "id_album": "1536700661",
    "description": "RollsRoyce_257770",
    "title": "RollsRoyce_257770",
    "link_img": "https://live.staticflickr.com/65535/48122128973_79cf1cd2a4_o.jpg",
    "id_image": "RollsRoyce_257770",
    "count_view": 0
  },
  {
    "link_thumb": "https://live.staticflickr.com/65535/49890013378_f6edd648e3_n.jpg",
    "id_album": "819228677",
    "description": "2019_rv_McLaren_rv_600LT_rv_V3_rv_2160",
    "title": "2019_rv_McLaren_rv_600LT_rv_V3_rv_2160",
    "link_img": "https://live.staticflickr.com/65535/49890013378_5e2b764bf5_o.jpg",
    "id_image": "2019_rv_McLaren_rv_600LT_rv_V3_rv_2160",
    "count_view": 0
  },
  {
    "link_thumb": "https://live.staticflickr.com/65535/48114170331_f5d30753b2_n.jpg",
    "id_album": "-1721545051",
    "description": "Chevrolet_381251",
    "title": "Chevrolet_381251",
    "link_img": "https://live.staticflickr.com/65535/48114170331_75dff28059_o.jpg",
    "id_image": "Chevrolet_381251",
    "count_view": 0
  },
  {
    "link_thumb": "https://live.staticflickr.com/65535/49889096292_b56cbb6eba_n.jpg",
    "id_album": "110008377",
    "description": "2006_rv_Alfa_rv_Romeo_rv_Spider_rv_V6_rv_1600",
    "title": "2006_rv_Alfa_rv_Romeo_rv_Spider_rv_V6_rv_1600",
    "link_img": "https://live.staticflickr.com/65535/49889096292_9d9e285ed6_o.jpg",
    "id_image": "2006_rv_Alfa_rv_Romeo_rv_Spider_rv_V6_rv_1600",
    "count_view": 0
  },
  {
    "link_thumb": "https://live.staticflickr.com/65535/48119174206_5921471a88_n.jpg",
    "id_album": "1385906093",
    "description": "Maybach_453210",
    "title": "Maybach_453210",
    "link_img": "https://live.staticflickr.com/65535/48119174206_3479d2f74a_o.jpg",
    "id_image": "Maybach_453210",
    "count_view": 0
  },
  {
    "link_thumb": "https://live.staticflickr.com/65535/49890126698_27280f5b6e_n.jpg",
    "id_album": "1873728602",
    "description": "2015_rv_McLaren_rv_P1_rv_Prost_rv_V4_rv_1600",
    "title": "2015_rv_McLaren_rv_P1_rv_Prost_rv_V4_rv_1600",
    "link_img": "https://live.staticflickr.com/65535/49890126698_28e8dd7004_o.jpg",
    "id_image": "2015_rv_McLaren_rv_P1_rv_Prost_rv_V4_rv_1600",
    "count_view": 0
  },
  {
    "link_thumb": "https://live.staticflickr.com/65535/48112280376_6d78f149bf_n.jpg",
    "id_album": "-15119147",
    "description": "Audi_378268",
    "title": "Audi_378268",
    "link_img": "https://live.staticflickr.com/65535/48112280376_58997514f7_o.jpg",
    "id_image": "Audi_378268",
    "count_view": 0
  },
  {
    "link_thumb": "https://live.staticflickr.com/65535/49890190333_d3f4ef5146_n.jpg",
    "id_album": "1310566757",
    "description": "2014_rv_Mercedes_rv_Benz_rv_CLA_rv_Class_rv_V9_rv_1600",
    "title": "2014_rv_Mercedes_rv_Benz_rv_CLA_rv_Class_rv_V9_rv_1600",
    "link_img": "https://live.staticflickr.com/65535/49890190333_f5c9e40f95_o.jpg",
    "id_image": "2014_rv_Mercedes_rv_Benz_rv_CLA_rv_Class_rv_V9_rv_1600",
    "count_view": 0
  },
  {
    "link_thumb": "https://live.staticflickr.com/65535/49889937593_1976c125a4_n.jpg",
    "id_album": "1935587636",
    "description": "2014_rv_Mazda_rv_LM55_rv_Vision_rv_Gran_rv_Turismo_rv_V2_rv_1600",
    "title": "2014_rv_Mazda_rv_LM55_rv_Vision_rv_Gran_rv_Turismo_rv_V2_rv_1600",
    "link_img": "https://live.staticflickr.com/65535/49889937593_267729bc78_o.jpg",
    "id_image": "2014_rv_Mazda_rv_LM55_rv_Vision_rv_Gran_rv_Turismo_rv_V2_rv_1600",
    "count_view": 0
  },
  {
    "link_thumb": "https://live.staticflickr.com/65535/48112572271_dcbd4ba0b7_n.jpg",
    "id_album": "2097036181",
    "description": "Bentley_936208",
    "title": "Bentley_936208",
    "link_img": "https://live.staticflickr.com/65535/48112572271_5df6099301_o.jpg",
    "id_image": "Bentley_936208",
    "count_view": 0
  },
  {
    "link_thumb": "https://live.staticflickr.com/65535/48121851766_bddacbe3e6_n.jpg",
    "id_album": "-1377335499",
    "description": "RangeRover_225824",
    "title": "RangeRover_225824",
    "link_img": "https://live.staticflickr.com/65535/48121851766_b624438034_o.jpg",
    "id_image": "RangeRover_225824",
    "count_view": 0
  },
  {
    "link_thumb": "https://live.staticflickr.com/65535/49888835413_0298792afe_n.jpg",
    "id_album": "-1156404364",
    "description": "2020_rv_Drako_rv_GTE_rv_V6_rv_2160",
    "title": "2020_rv_Drako_rv_GTE_rv_V6_rv_2160",
    "link_img": "https://live.staticflickr.com/65535/49888835413_c10c6151b6_o.jpg",
    "id_image": "2020_rv_Drako_rv_GTE_rv_V6_rv_2160",
    "count_view": 0
  },
  {
    "link_thumb": "https://live.staticflickr.com/65535/48122905756_49d5bd30f5_n.jpg",
    "id_album": "-150952028",
    "description": "Volkswagen_275416",
    "title": "Volkswagen_275416",
    "link_img": "https://live.staticflickr.com/65535/48122905756_5f683d7394_o.jpg",
    "id_image": "Volkswagen_275416",
    "count_view": 0
  },
  {
    "link_thumb": "https://live.staticflickr.com/65535/49889378503_af6a5b7920_n.jpg",
    "id_album": "2135768675",
    "description": "2010_rv_Holden_rv_HSV_rv_E_rv_Series_rv_2_rv_V3_rv_1200",
    "title": "2010_rv_Holden_rv_HSV_rv_E_rv_Series_rv_2_rv_V3_rv_1200",
    "link_img": "https://live.staticflickr.com/65535/49889378503_b5f3c7c32b_o.jpg",
    "id_image": "2010_rv_Holden_rv_HSV_rv_E_rv_Series_rv_2_rv_V3_rv_1200",
    "count_view": 0
  },
  {
    "link_thumb": "https://live.staticflickr.com/65535/48116408517_d99228b66d_n.jpg",
    "id_album": "1364506720",
    "description": "Ferrari_81511",
    "title": "Ferrari_81511",
    "link_img": "https://live.staticflickr.com/65535/48116408517_160470b7f0_o.jpg",
    "id_image": "Ferrari_81511",
    "count_view": 0
  },
  {
    "link_thumb": "https://live.staticflickr.com/65535/48112040448_1662792597_n.jpg",
    "id_album": "1906325017",
    "description": "Infiniti_962191",
    "title": "Infiniti_962191",
    "link_img": "https://live.staticflickr.com/65535/48112040448_1bb1de0b44_o.jpg",
    "id_image": "Infiniti_962191",
    "count_view": 0
  },
  {
    "link_thumb": "https://live.staticflickr.com/65535/49888755883_89cb74e123_n.jpg",
    "id_album": "-641230952",
    "description": "2016_rv_Cadillac_rv_CT6_rv_V1_rv_1600",
    "title": "2016_rv_Cadillac_rv_CT6_rv_V1_rv_1600",
    "link_img": "https://live.staticflickr.com/65535/49888755883_716ac4c057_o.jpg",
    "id_image": "2016_rv_Cadillac_rv_CT6_rv_V1_rv_1600",
    "count_view": 0
  },
  {
    "link_thumb": "https://live.staticflickr.com/65535/49889062157_c868557109_n.jpg",
    "id_album": "1066923342",
    "description": "2009_rv_Alfa_rv_Romeo_rv_8C_rv_Competizione_rv_V5_rv_1440",
    "title": "2009_rv_Alfa_rv_Romeo_rv_8C_rv_Competizione_rv_V5_rv_1440",
    "link_img": "https://live.staticflickr.com/65535/49889062157_5efb355cc3_o.jpg",
    "id_image": "2009_rv_Alfa_rv_Romeo_rv_8C_rv_Competizione_rv_V5_rv_1440",
    "count_view": 0
  },
  {
    "link_thumb": "https://live.staticflickr.com/65535/48117640377_cb580f267a_n.jpg",
    "id_album": "-1846404630",
    "description": "Ford_931172",
    "title": "Ford_931172",
    "link_img": "https://live.staticflickr.com/65535/48117640377_eb73a0082e_o.jpg",
    "id_image": "Ford_931172",
    "count_view": 0
  },
  {
    "link_thumb": "https://live.staticflickr.com/65535/49890125016_70d338bf81_n.jpg",
    "id_album": "91448049",
    "description": "1989_rv_Lamborghini_rv_Countach_rv_V11_rv_1600",
    "title": "1989_rv_Lamborghini_rv_Countach_rv_V11_rv_1600",
    "link_img": "https://live.staticflickr.com/65535/49890125016_fd90838a47_o.jpg",
    "id_image": "1989_rv_Lamborghini_rv_Countach_rv_V11_rv_1600",
    "count_view": 0
  },
  {
    "link_thumb": "https://live.staticflickr.com/65535/49890616273_cf9ce0ba15_n.jpg",
    "id_album": "-1354931280",
    "description": "2014_rv_Nissan_rv_Pulsar_rv_Nismo_rv_Concept_rv_V1_rv_1600",
    "title": "2014_rv_Nissan_rv_Pulsar_rv_Nismo_rv_Concept_rv_V1_rv_1600",
    "link_img": "https://live.staticflickr.com/65535/49890616273_e7645edeb5_o.jpg",
    "id_image": "2014_rv_Nissan_rv_Pulsar_rv_Nismo_rv_Concept_rv_V1_rv_1600",
    "count_view": 0
  },
  {
    "link_thumb": "https://live.staticflickr.com/65535/49889619868_b206f2e6f1_n.jpg",
    "id_album": "636428280",
    "description": "2006_rv_Lamborghini_rv_Gallardo_rv_SE_rv_V3_rv_1440",
    "title": "2006_rv_Lamborghini_rv_Gallardo_rv_SE_rv_V3_rv_1440",
    "link_img": "https://live.staticflickr.com/65535/49889619868_eafa773442_o.jpg",
    "id_image": "2006_rv_Lamborghini_rv_Gallardo_rv_SE_rv_V3_rv_1440",
    "count_view": 0
  },
  {
    "link_thumb": "https://live.staticflickr.com/65535/49888397528_5b083f6974_n.jpg",
    "id_album": "216453960",
    "description": "2020_rv_Aston_rv_Martin_rv_DBS_rv_GT_rv_Zagato_rv_V4_rv_2160",
    "title": "2020_rv_Aston_rv_Martin_rv_DBS_rv_GT_rv_Zagato_rv_V4_rv_2160",
    "link_img": "https://live.staticflickr.com/65535/49888397528_466f758b03_o.jpg",
    "id_image": "2020_rv_Aston_rv_Martin_rv_DBS_rv_GT_rv_Zagato_rv_V4_rv_2160",
    "count_view": 0
  },
  {
    "link_thumb": "https://live.staticflickr.com/65535/49890811706_1470010437_n.jpg",
    "id_album": "-21475779",
    "description": "2016_rv_Mercedes_rv_Benz_rv_AMG_rv_GT_rv_S_rv_Edition_rv_1_rv_V7_rv_1600",
    "title": "2016_rv_Mercedes_rv_Benz_rv_AMG_rv_GT_rv_S_rv_Edition_rv_1_rv_V7_rv_1600",
    "link_img": "https://live.staticflickr.com/65535/49890811706_aa5166a1f0_o.jpg",
    "id_image": "2016_rv_Mercedes_rv_Benz_rv_AMG_rv_GT_rv_S_rv_Edition_rv_1_rv_V7_rv_1600",
    "count_view": 0
  },
  {
    "link_thumb": "https://live.staticflickr.com/65535/48117126163_cf12073bff_n.jpg",
    "id_album": "-1846404630",
    "description": "Ford_396250",
    "title": "Ford_396250",
    "link_img": "https://live.staticflickr.com/65535/48117126163_08157abcb1_o.jpg",
    "id_image": "Ford_396250",
    "count_view": 0
  },
  {
    "link_thumb": "https://live.staticflickr.com/65535/48121682582_49853275ec_n.jpg",
    "id_album": "-1178450892",
    "description": "Porsche_714762",
    "title": "Porsche_714762",
    "link_img": "https://live.staticflickr.com/65535/48121682582_887a3551d2_o.jpg",
    "id_image": "Porsche_714762",
    "count_view": 0
  },
  {
    "link_thumb": "https://live.staticflickr.com/65535/48112710037_a681868fb3_n.jpg",
    "id_album": "727633301",
    "description": "BMW_208198",
    "title": "BMW_208198",
    "link_img": "https://live.staticflickr.com/65535/48112710037_c38442b1f6_o.jpg",
    "id_image": "BMW_208198",
    "count_view": 0
  },
  {
    "link_thumb": "https://live.staticflickr.com/65535/49889033072_b4a44fe61d_n.jpg",
    "id_album": "504832144",
    "description": "2016_rv_Acura_rv_NSX_rv_EV_rv_Concept_rv_V5_rv_2000",
    "title": "2016_rv_Acura_rv_NSX_rv_EV_rv_Concept_rv_V5_rv_2000",
    "link_img": "https://live.staticflickr.com/65535/49889033072_9307fc5125_o.jpg",
    "id_image": "2016_rv_Acura_rv_NSX_rv_EV_rv_Concept_rv_V5_rv_2000",
    "count_view": 0
  },
  {
    "link_thumb": "https://live.staticflickr.com/65535/48115482898_6c158c2508_n.jpg",
    "id_album": "413141323",
    "description": "Dodge_712369",
    "title": "Dodge_712369",
    "link_img": "https://live.staticflickr.com/65535/48115482898_99b21b86e4_o.jpg",
    "id_image": "Dodge_712369",
    "count_view": 0
  },
  {
    "link_thumb": "https://live.staticflickr.com/65535/49891092877_9653fcf296_n.jpg",
    "id_album": "-1381089085",
    "description": "2017_rv_Formula1_rv_Mercedes_rv_AMG_rv_F1_rv_W08_rv_V4_rv_2000",
    "title": "2017_rv_Formula1_rv_Mercedes_rv_AMG_rv_F1_rv_W08_rv_V4_rv_2000",
    "link_img": "https://live.staticflickr.com/65535/49891092877_d60912761a_o.jpg",
    "id_image": "2017_rv_Formula1_rv_Mercedes_rv_AMG_rv_F1_rv_W08_rv_V4_rv_2000",
    "count_view": 0
  },
  {
    "link_thumb": "https://live.staticflickr.com/65535/48114124997_d20325e58b_n.jpg",
    "id_album": "-1721545051",
    "description": "Chevrolet_289126",
    "title": "Chevrolet_289126",
    "link_img": "https://live.staticflickr.com/65535/48114124997_98e99f13ba_o.jpg",
    "id_image": "Chevrolet_289126",
    "count_view": 0
  },
  {
    "link_thumb": "https://live.staticflickr.com/65535/48121317716_269a952afd_n.jpg",
    "id_album": "-1178450892",
    "description": "Porsche_350544",
    "title": "Porsche_350544",
    "link_img": "https://live.staticflickr.com/65535/48121317716_42fe148675_o.jpg",
    "id_image": "Porsche_350544",
    "count_view": 0
  },
  {
    "link_thumb": "https://live.staticflickr.com/65535/49889706028_1b761eef8c_n.jpg",
    "id_album": "-196242968",
    "description": "2014_rv_Lamborghini_rv_Veneno_rv_Roadster_rv_V11_rv_2160",
    "title": "2014_rv_Lamborghini_rv_Veneno_rv_Roadster_rv_V11_rv_2160",
    "link_img": "https://live.staticflickr.com/65535/49889706028_47e468313d_o.jpg",
    "id_image": "2014_rv_Lamborghini_rv_Veneno_rv_Roadster_rv_V11_rv_2160",
    "count_view": 0
  },
  {
    "link_thumb": "https://live.staticflickr.com/65535/48120540847_065d270bed_n.jpg",
    "id_album": "810634050",
    "description": "Nissan_477301",
    "title": "Nissan_477301",
    "link_img": "https://live.staticflickr.com/65535/48120540847_6bbda1cd33_o.jpg",
    "id_image": "Nissan_477301",
    "count_view": 0
  },
  {
    "link_thumb": "https://live.staticflickr.com/65535/48120285366_8881cf8943_n.jpg",
    "id_album": "666438681",
    "description": "Motorcycles_888399",
    "title": "Motorcycles_888399",
    "link_img": "https://live.staticflickr.com/65535/48120285366_86b1f7f6f9_o.jpg",
    "id_image": "Motorcycles_888399",
    "count_view": 0
  },
  {
    "link_thumb": "https://live.staticflickr.com/65535/48112633896_10ee3b4436_n.jpg",
    "id_album": "727633301",
    "description": "BMW_253822",
    "title": "BMW_253822",
    "link_img": "https://live.staticflickr.com/65535/48112633896_56fe3b54f4_o.jpg",
    "id_image": "BMW_253822",
    "count_view": 0
  },
  {
    "link_thumb": "https://live.staticflickr.com/65535/48114024988_accb188f3e_n.jpg",
    "id_album": "-1721545051",
    "description": "Chevrolet_288578",
    "title": "Chevrolet_288578",
    "link_img": "https://live.staticflickr.com/65535/48114024988_7f26972cd1_o.jpg",
    "id_image": "Chevrolet_288578",
    "count_view": 0
  },
  {
    "link_thumb": "https://live.staticflickr.com/65535/49889639573_3800f90703_n.jpg",
    "id_album": "-936716449",
    "description": "2017_rv_Lamborghini_rv_Huracan_rv_RWD_rv_Spyder_rv_V1_rv_2000",
    "title": "2017_rv_Lamborghini_rv_Huracan_rv_RWD_rv_Spyder_rv_V1_rv_2000",
    "link_img": "https://live.staticflickr.com/65535/49889639573_14a1b8f9c7_o.jpg",
    "id_image": "2017_rv_Lamborghini_rv_Huracan_rv_RWD_rv_Spyder_rv_V1_rv_2000",
    "count_view": 0
  },
  {
    "link_thumb": "https://live.staticflickr.com/65535/48115528818_1a6560e848_n.jpg",
    "id_album": "413141323",
    "description": "Dodge_844533",
    "title": "Dodge_844533",
    "link_img": "https://live.staticflickr.com/65535/48115528818_1cbc5869dc_o.jpg",
    "id_image": "Dodge_844533",
    "count_view": 0
  },
  {
    "link_thumb": "https://live.staticflickr.com/65535/48117410987_2d928e1196_n.jpg",
    "id_album": "-1846404630",
    "description": "Ford_590662",
    "title": "Ford_590662",
    "link_img": "https://live.staticflickr.com/65535/48117410987_fc8bd8da8d_o.jpg",
    "id_image": "Ford_590662",
    "count_view": 0
  },
  {
    "link_thumb": "https://live.staticflickr.com/65535/48112429933_8357c00547_n.jpg",
    "id_album": "-15119147",
    "description": "Audi_76921",
    "title": "Audi_76921",
    "link_img": "https://live.staticflickr.com/65535/48112429933_a0cff612a2_o.jpg",
    "id_image": "Audi_76921",
    "count_view": 0
  },
  {
    "link_thumb": "https://live.staticflickr.com/65535/48118496633_d7543260fd_n.jpg",
    "id_album": "-2100339805",
    "description": "Lamborghini_445978",
    "title": "Lamborghini_445978",
    "link_img": "https://live.staticflickr.com/65535/48118496633_66eeaa0d43_o.jpg",
    "id_image": "Lamborghini_445978",
    "count_view": 0
  },
  {
    "link_thumb": "https://live.staticflickr.com/65535/48113341106_79c45ac475_n.jpg",
    "id_album": "1456070666",
    "description": "Bugatti_313185",
    "title": "Bugatti_313185",
    "link_img": "https://live.staticflickr.com/65535/48113341106_59c807c89a_o.jpg",
    "id_image": "Bugatti_313185",
    "count_view": 0
  },
  {
    "link_thumb": "https://live.staticflickr.com/65535/49890739683_1c52efa335_n.jpg",
    "id_album": "-925276176",
    "description": "2002_rv_Peugeot_rv_RC_rv_Concept_rv_V1_rv_1536",
    "title": "2002_rv_Peugeot_rv_RC_rv_Concept_rv_V1_rv_1536",
    "link_img": "https://live.staticflickr.com/65535/49890739683_52e32e8b7c_o.jpg",
    "id_image": "2002_rv_Peugeot_rv_RC_rv_Concept_rv_V1_rv_1536",
    "count_view": 0
  },
  {
    "link_thumb": "https://live.staticflickr.com/65535/48113831412_33ca90358c_n.jpg",
    "id_album": "-1721545051",
    "description": "Chevrolet_181209",
    "title": "Chevrolet_181209",
    "link_img": "https://live.staticflickr.com/65535/48113831412_191485da20_o.jpg",
    "id_image": "Chevrolet_181209",
    "count_view": 0
  },
  {
    "link_thumb": "https://live.staticflickr.com/65535/49889356172_c4e583958a_n.jpg",
    "id_album": "-1839907970",
    "description": "2008_rv_BMW_rv_M1_rv_Homage_rv_Concept_rv_V1_rv_1536",
    "title": "2008_rv_BMW_rv_M1_rv_Homage_rv_Concept_rv_V1_rv_1536",
    "link_img": "https://live.staticflickr.com/65535/49889356172_06f55be0b5_o.jpg",
    "id_image": "2008_rv_BMW_rv_M1_rv_Homage_rv_Concept_rv_V1_rv_1536",
    "count_view": 0
  },
  {
    "link_thumb": "https://live.staticflickr.com/65535/48113996413_12723b76f7_n.jpg",
    "id_album": "-1721545051",
    "description": "Chevrolet_288405",
    "title": "Chevrolet_288405",
    "link_img": "https://live.staticflickr.com/65535/48113996413_ea7d799bf4_o.jpg",
    "id_image": "Chevrolet_288405",
    "count_view": 0
  },
  {
    "link_thumb": "https://live.staticflickr.com/65535/48122703283_f54e3ba413_n.jpg",
    "id_album": "1274920659",
    "description": "Toyota_450368",
    "title": "Toyota_450368",
    "link_img": "https://live.staticflickr.com/65535/48122703283_4a7c596b94_o.jpg",
    "id_image": "Toyota_450368",
    "count_view": 0
  },
  {
    "link_thumb": "https://live.staticflickr.com/65535/48115804023_feb4c7306d_n.jpg",
    "id_album": "1364506720",
    "description": "Ferrari_317682",
    "title": "Ferrari_317682",
    "link_img": "https://live.staticflickr.com/65535/48115804023_801511e06b_o.jpg",
    "id_image": "Ferrari_317682",
    "count_view": 0
  }
]