[
  {
    "total_img": 0,
    "number_page": 0,
    "title": "Alfa Romeo Brera",
    "tag": "Alfa Romeo Brera,",
    "description": "Alfa Romeo Brera",
    "link_thumb": "https://live.staticflickr.com/65535/49888757401_65a10ccec9_n.jpg",
    "id_album": "269708336",
    "total_view": 20
  },
  {
    "total_img": 0,
    "number_page": 0,
    "title": "Autodelta",
    "tag": "Autodelta,",
    "description": "Autodelta",
    "link_thumb": "https://live.staticflickr.com/65535/49889068607_4dabd04675_n.jpg",
    "id_album": "-500460384",
    "total_view": 3
  }
]