[
  {
    "link_thumb": "https://live.staticflickr.com/65535/49890000332_194de26b30_n.jpg",
    "id_album": "-1870649696",
    "description": "1993_rv_Ford_rv_Escort_rv_RS_rv_Cosworth_rv_V1_rv_1600",
    "title": "1993_rv_Ford_rv_Escort_rv_RS_rv_Cosworth_rv_V1_rv_1600",
    "link_img": "https://live.staticflickr.com/65535/49890000332_91637b79c5_o.jpg",
    "id_image": "1993_rv_Ford_rv_Escort_rv_RS_rv_Cosworth_rv_V1_rv_1600",
    "count_view": 0
  },
  {
    "link_thumb": "https://live.staticflickr.com/65535/49889173533_e7e57226f4_n.jpg",
    "id_album": "-1870649696",
    "description": "1993_rv_Ford_rv_Escort_rv_RS_rv_Cosworth_rv_V2_rv_1600",
    "title": "1993_rv_Ford_rv_Escort_rv_RS_rv_Cosworth_rv_V2_rv_1600",
    "link_img": "https://live.staticflickr.com/65535/49889173533_c1c4c62ee8_o.jpg",
    "id_image": "1993_rv_Ford_rv_Escort_rv_RS_rv_Cosworth_rv_V2_rv_1600",
    "count_view": 0
  },
  {
    "link_thumb": "https://live.staticflickr.com/65535/49889692041_0b2fa5151e_n.jpg",
    "id_album": "-1870649696",
    "description": "1993_rv_Ford_rv_Escort_rv_RS_rv_Cosworth_rv_V3_rv_1600",
    "title": "1993_rv_Ford_rv_Escort_rv_RS_rv_Cosworth_rv_V3_rv_1600",
    "link_img": "https://live.staticflickr.com/65535/49889692041_a8b33f27c4_o.jpg",
    "id_image": "1993_rv_Ford_rv_Escort_rv_RS_rv_Cosworth_rv_V3_rv_1600",
    "count_view": 0
  },
  {
    "link_thumb": "https://live.staticflickr.com/65535/49890000757_5ee0e7c8e5_n.jpg",
    "id_album": "-1870649696",
    "description": "1993_rv_Ford_rv_Escort_rv_RS_rv_Cosworth_rv_V4_rv_1600",
    "title": "1993_rv_Ford_rv_Escort_rv_RS_rv_Cosworth_rv_V4_rv_1600",
    "link_img": "https://live.staticflickr.com/65535/49890000757_8028a01bcc_o.jpg",
    "id_image": "1993_rv_Ford_rv_Escort_rv_RS_rv_Cosworth_rv_V4_rv_1600",
    "count_view": 0
  },
  {
    "link_thumb": "https://live.staticflickr.com/65535/49889692236_d47e5f4e02_n.jpg",
    "id_album": "-1870649696",
    "description": "1993_rv_Ford_rv_Escort_rv_RS_rv_Cosworth_rv_V5_rv_1600",
    "title": "1993_rv_Ford_rv_Escort_rv_RS_rv_Cosworth_rv_V5_rv_1600",
    "link_img": "https://live.staticflickr.com/65535/49889692236_329e61e532_o.jpg",
    "id_image": "1993_rv_Ford_rv_Escort_rv_RS_rv_Cosworth_rv_V5_rv_1600",
    "count_view": 0
  },
  {
    "link_thumb": "https://live.staticflickr.com/65535/49889173928_f023ec617e_n.jpg",
    "id_album": "-1870649696",
    "description": "1993_rv_Ford_rv_Escort_rv_RS_rv_Cosworth_rv_V6_rv_1600",
    "title": "1993_rv_Ford_rv_Escort_rv_RS_rv_Cosworth_rv_V6_rv_1600",
    "link_img": "https://live.staticflickr.com/65535/49889173928_f1ea4751d8_o.jpg",
    "id_image": "1993_rv_Ford_rv_Escort_rv_RS_rv_Cosworth_rv_V6_rv_1600",
    "count_view": 0
  },
  {
    "link_thumb": "https://live.staticflickr.com/65535/49890001067_d18aaa38d6_n.jpg",
    "id_album": "-1870649696",
    "description": "1993_rv_Ford_rv_Escort_rv_RS_rv_Cosworth_rv_V7_rv_1600",
    "title": "1993_rv_Ford_rv_Escort_rv_RS_rv_Cosworth_rv_V7_rv_1600",
    "link_img": "https://live.staticflickr.com/65535/49890001067_518f8aa0aa_o.jpg",
    "id_image": "1993_rv_Ford_rv_Escort_rv_RS_rv_Cosworth_rv_V7_rv_1600",
    "count_view": 0
  },
  {
    "link_thumb": "https://live.staticflickr.com/65535/49889174173_99e48a7014_n.jpg",
    "id_album": "-1870649696",
    "description": "1993_rv_Ford_rv_Escort_rv_RS_rv_Cosworth_rv_V8_rv_1600",
    "title": "1993_rv_Ford_rv_Escort_rv_RS_rv_Cosworth_rv_V8_rv_1600",
    "link_img": "https://live.staticflickr.com/65535/49889174173_c7d94f9636_o.jpg",
    "id_image": "1993_rv_Ford_rv_Escort_rv_RS_rv_Cosworth_rv_V8_rv_1600",
    "count_view": 0
  },
  {
    "link_thumb": "https://live.staticflickr.com/65535/49889692641_71eb8f1ed7_n.jpg",
    "id_album": "-1870649696",
    "description": "1993_rv_Ford_rv_Escort_rv_RS_rv_Cosworth_rv_V9_rv_1600",
    "title": "1993_rv_Ford_rv_Escort_rv_RS_rv_Cosworth_rv_V9_rv_1600",
    "link_img": "https://live.staticflickr.com/65535/49889692641_5e585c99ca_o.jpg",
    "id_image": "1993_rv_Ford_rv_Escort_rv_RS_rv_Cosworth_rv_V9_rv_1600",
    "count_view": 0
  }
]