[
  {
    "total_img": 0,
    "number_page": 0,
    "title": "Maserati Khamsin",
    "tag": "Maserati Khamsin,",
    "description": "Maserati Khamsin",
    "link_thumb": "https://live.staticflickr.com/65535/49890743597_0f6c064d07_n.jpg",
    "id_album": "1135569684",
    "total_view": 2
  }
]