[
  {
    "total_img": 0,
    "number_page": 0,
    "title": "Ferrari J50",
    "tag": "Ferrari J50,",
    "description": "Ferrari J50",
    "link_thumb": "https://live.staticflickr.com/65535/49889890197_269a02d11e_n.jpg",
    "id_album": "1828657673",
    "total_view": 5
  }
]