[
  {
    "total_img": 0,
    "number_page": 0,
    "title": "Volvo S90",
    "tag": "Volvo S90,",
    "description": "Volvo S90",
    "link_thumb": "https://live.staticflickr.com/65535/49893000397_53be61db5c_n.jpg",
    "id_album": "589422399",
    "total_view": 6
  }
]