[
  {
    "link_thumb": "https://live.staticflickr.com/65535/49889896303_c285452556_n.jpg",
    "id_album": "-544969959",
    "description": "1967_rv_Maserati_rv_Ghibli_rv_V1_rv_1440",
    "title": "1967_rv_Maserati_rv_Ghibli_rv_V1_rv_1440",
    "link_img": "https://live.staticflickr.com/65535/49889896303_b20082e0fb_o.jpg",
    "id_image": "1967_rv_Maserati_rv_Ghibli_rv_V1_rv_1440",
    "count_view": 0
  },
  {
    "link_thumb": "https://live.staticflickr.com/65535/49890721957_32002de271_n.jpg",
    "id_album": "-544969959",
    "description": "1967_rv_Maserati_rv_Ghibli_rv_V2_rv_1440",
    "title": "1967_rv_Maserati_rv_Ghibli_rv_V2_rv_1440",
    "link_img": "https://live.staticflickr.com/65535/49890721957_ba0c12573b_o.jpg",
    "id_image": "1967_rv_Maserati_rv_Ghibli_rv_V2_rv_1440",
    "count_view": 0
  },
  {
    "link_thumb": "https://live.staticflickr.com/65535/49890415136_66247ef161_n.jpg",
    "id_album": "-544969959",
    "description": "1967_rv_Maserati_rv_Ghibli_rv_V3_rv_1440",
    "title": "1967_rv_Maserati_rv_Ghibli_rv_V3_rv_1440",
    "link_img": "https://live.staticflickr.com/65535/49890415136_31ba40d709_o.jpg",
    "id_image": "1967_rv_Maserati_rv_Ghibli_rv_V3_rv_1440",
    "count_view": 0
  },
  {
    "link_thumb": "https://live.staticflickr.com/65535/49890722277_f18a0e3b9e_n.jpg",
    "id_album": "-544969959",
    "description": "1967_rv_Maserati_rv_Ghibli_rv_V4_rv_1440",
    "title": "1967_rv_Maserati_rv_Ghibli_rv_V4_rv_1440",
    "link_img": "https://live.staticflickr.com/65535/49890722277_2ae20ae091_o.jpg",
    "id_image": "1967_rv_Maserati_rv_Ghibli_rv_V4_rv_1440",
    "count_view": 0
  },
  {
    "link_thumb": "https://live.staticflickr.com/65535/49890415611_0ab709b93f_n.jpg",
    "id_album": "-544969959",
    "description": "1967_rv_Maserati_rv_Ghibli_rv_V5_rv_1440",
    "title": "1967_rv_Maserati_rv_Ghibli_rv_V5_rv_1440",
    "link_img": "https://live.staticflickr.com/65535/49890415611_6ed5953a8e_o.jpg",
    "id_image": "1967_rv_Maserati_rv_Ghibli_rv_V5_rv_1440",
    "count_view": 0
  },
  {
    "link_thumb": "https://live.staticflickr.com/65535/49890415781_1cb677950b_n.jpg",
    "id_album": "-544969959",
    "description": "1969_rv_Maserati_rv_Ghibli_rv_Spyder_rv_V1_rv_1440",
    "title": "1969_rv_Maserati_rv_Ghibli_rv_Spyder_rv_V1_rv_1440",
    "link_img": "https://live.staticflickr.com/65535/49890415781_db6f5137e5_o.jpg",
    "id_image": "1969_rv_Maserati_rv_Ghibli_rv_Spyder_rv_V1_rv_1440",
    "count_view": 0
  },
  {
    "link_thumb": "https://live.staticflickr.com/65535/49890415921_42aa1436dc_n.jpg",
    "id_album": "-544969959",
    "description": "1969_rv_Maserati_rv_Ghibli_rv_Spyder_rv_V2_rv_1440",
    "title": "1969_rv_Maserati_rv_Ghibli_rv_Spyder_rv_V2_rv_1440",
    "link_img": "https://live.staticflickr.com/65535/49890415921_433772e578_o.jpg",
    "id_image": "1969_rv_Maserati_rv_Ghibli_rv_Spyder_rv_V2_rv_1440",
    "count_view": 0
  },
  {
    "link_thumb": "https://live.staticflickr.com/65535/49889897513_10f91b75c8_n.jpg",
    "id_album": "-544969959",
    "description": "1969_rv_Maserati_rv_Ghibli_rv_Spyder_rv_V3_rv_1440",
    "title": "1969_rv_Maserati_rv_Ghibli_rv_Spyder_rv_V3_rv_1440",
    "link_img": "https://live.staticflickr.com/65535/49889897513_aa33222a9d_o.jpg",
    "id_image": "1969_rv_Maserati_rv_Ghibli_rv_Spyder_rv_V3_rv_1440",
    "count_view": 0
  },
  {
    "link_thumb": "https://live.staticflickr.com/65535/49890723107_b1cf4db2e4_n.jpg",
    "id_album": "-544969959",
    "description": "1969_rv_Maserati_rv_Ghibli_rv_Spyder_rv_V4_rv_1440",
    "title": "1969_rv_Maserati_rv_Ghibli_rv_Spyder_rv_V4_rv_1440",
    "link_img": "https://live.staticflickr.com/65535/49890723107_09892316ee_o.jpg",
    "id_image": "1969_rv_Maserati_rv_Ghibli_rv_Spyder_rv_V4_rv_1440",
    "count_view": 0
  },
  {
    "link_thumb": "https://live.staticflickr.com/65535/49890723247_e5687b1b79_n.jpg",
    "id_album": "-544969959",
    "description": "1969_rv_Maserati_rv_Ghibli_rv_Spyder_rv_V5_rv_1440",
    "title": "1969_rv_Maserati_rv_Ghibli_rv_Spyder_rv_V5_rv_1440",
    "link_img": "https://live.staticflickr.com/65535/49890723247_c8baeefd5c_o.jpg",
    "id_image": "1969_rv_Maserati_rv_Ghibli_rv_Spyder_rv_V5_rv_1440",
    "count_view": 0
  },
  {
    "link_thumb": "https://live.staticflickr.com/65535/49890416526_0d07ce2a46_n.jpg",
    "id_album": "-544969959",
    "description": "1970_rv_Maserati_rv_Ghibli_rv_SS_rv_V1_rv_1440",
    "title": "1970_rv_Maserati_rv_Ghibli_rv_SS_rv_V1_rv_1440",
    "link_img": "https://live.staticflickr.com/65535/49890416526_2516e85b3b_o.jpg",
    "id_image": "1970_rv_Maserati_rv_Ghibli_rv_SS_rv_V1_rv_1440",
    "count_view": 0
  },
  {
    "link_thumb": "https://live.staticflickr.com/65535/49889898123_0534f1e331_n.jpg",
    "id_album": "-544969959",
    "description": "1970_rv_Maserati_rv_Ghibli_rv_SS_rv_V2_rv_1440",
    "title": "1970_rv_Maserati_rv_Ghibli_rv_SS_rv_V2_rv_1440",
    "link_img": "https://live.staticflickr.com/65535/49889898123_74b2c67db1_o.jpg",
    "id_image": "1970_rv_Maserati_rv_Ghibli_rv_SS_rv_V2_rv_1440",
    "count_view": 0
  },
  {
    "link_thumb": "https://live.staticflickr.com/65535/49889898263_276ca62fbe_n.jpg",
    "id_album": "-544969959",
    "description": "1970_rv_Maserati_rv_Ghibli_rv_SS_rv_V3_rv_1440",
    "title": "1970_rv_Maserati_rv_Ghibli_rv_SS_rv_V3_rv_1440",
    "link_img": "https://live.staticflickr.com/65535/49889898263_a05bd7874d_o.jpg",
    "id_image": "1970_rv_Maserati_rv_Ghibli_rv_SS_rv_V3_rv_1440",
    "count_view": 0
  },
  {
    "link_thumb": "https://live.staticflickr.com/65535/49890417011_1ed2c2f6fa_n.jpg",
    "id_album": "-544969959",
    "description": "1970_rv_Maserati_rv_Ghibli_rv_SS_rv_V4_rv_1440",
    "title": "1970_rv_Maserati_rv_Ghibli_rv_SS_rv_V4_rv_1440",
    "link_img": "https://live.staticflickr.com/65535/49890417011_7f0eca7140_o.jpg",
    "id_image": "1970_rv_Maserati_rv_Ghibli_rv_SS_rv_V4_rv_1440",
    "count_view": 0
  },
  {
    "link_thumb": "https://live.staticflickr.com/65535/49890723972_5d9f1ba464_n.jpg",
    "id_album": "-544969959",
    "description": "1970_rv_Maserati_rv_Ghibli_rv_SS_rv_V5_rv_1440",
    "title": "1970_rv_Maserati_rv_Ghibli_rv_SS_rv_V5_rv_1440",
    "link_img": "https://live.staticflickr.com/65535/49890723972_cabe9a0441_o.jpg",
    "id_image": "1970_rv_Maserati_rv_Ghibli_rv_SS_rv_V5_rv_1440",
    "count_view": 0
  },
  {
    "link_thumb": "https://live.staticflickr.com/65535/49890417296_1ab7bf31f2_n.jpg",
    "id_album": "-544969959",
    "description": "1970_rv_Maserati_rv_Ghibli_rv_SS_rv_V6_rv_1440",
    "title": "1970_rv_Maserati_rv_Ghibli_rv_SS_rv_V6_rv_1440",
    "link_img": "https://live.staticflickr.com/65535/49890417296_0e19bcabef_o.jpg",
    "id_image": "1970_rv_Maserati_rv_Ghibli_rv_SS_rv_V6_rv_1440",
    "count_view": 0
  },
  {
    "link_thumb": "https://live.staticflickr.com/65535/49890417476_1943458225_n.jpg",
    "id_album": "-544969959",
    "description": "1970_rv_Maserati_rv_Ghibli_rv_SS_rv_V7_rv_1600",
    "title": "1970_rv_Maserati_rv_Ghibli_rv_SS_rv_V7_rv_1600",
    "link_img": "https://live.staticflickr.com/65535/49890417476_d2896b76e3_o.jpg",
    "id_image": "1970_rv_Maserati_rv_Ghibli_rv_SS_rv_V7_rv_1600",
    "count_view": 0
  },
  {
    "link_thumb": "https://live.staticflickr.com/65535/49890417641_48358c21b0_n.jpg",
    "id_album": "-544969959",
    "description": "1970_rv_Maserati_rv_Ghibli_rv_SS_rv_V8_rv_1600",
    "title": "1970_rv_Maserati_rv_Ghibli_rv_SS_rv_V8_rv_1600",
    "link_img": "https://live.staticflickr.com/65535/49890417641_241ee793bc_o.jpg",
    "id_image": "1970_rv_Maserati_rv_Ghibli_rv_SS_rv_V8_rv_1600",
    "count_view": 0
  },
  {
    "link_thumb": "https://live.staticflickr.com/65535/49890417826_ea6bedbd92_n.jpg",
    "id_album": "-544969959",
    "description": "1970_rv_Maserati_rv_Ghibli_rv_SS_rv_V9_rv_1600",
    "title": "1970_rv_Maserati_rv_Ghibli_rv_SS_rv_V9_rv_1600",
    "link_img": "https://live.staticflickr.com/65535/49890417826_6cebc76aef_o.jpg",
    "id_image": "1970_rv_Maserati_rv_Ghibli_rv_SS_rv_V9_rv_1600",
    "count_view": 0
  },
  {
    "link_thumb": "https://live.staticflickr.com/65535/49889899473_c43e1e62fc_n.jpg",
    "id_album": "-544969959",
    "description": "2014_rv_Maserati_rv_Ghibli_rv_Ermenegildo_rv_Zegna_rv_Edition_rv_Concept_rv_V1_rv_1600",
    "title": "2014_rv_Maserati_rv_Ghibli_rv_Ermenegildo_rv_Zegna_rv_Edition_rv_Concept_rv_V1_rv_1600",
    "link_img": "https://live.staticflickr.com/65535/49889899473_54a6a2954b_o.jpg",
    "id_image": "2014_rv_Maserati_rv_Ghibli_rv_Ermenegildo_rv_Zegna_rv_Edition_rv_Concept_rv_V1_rv_1600",
    "count_view": 0
  },
  {
    "link_thumb": "https://live.staticflickr.com/65535/49889899598_e9e857e472_n.jpg",
    "id_album": "-544969959",
    "description": "2014_rv_Maserati_rv_Ghibli_rv_Ermenegildo_rv_Zegna_rv_Edition_rv_Concept_rv_V2_rv_1600",
    "title": "2014_rv_Maserati_rv_Ghibli_rv_Ermenegildo_rv_Zegna_rv_Edition_rv_Concept_rv_V2_rv_1600",
    "link_img": "https://live.staticflickr.com/65535/49889899598_64f17fabba_o.jpg",
    "id_image": "2014_rv_Maserati_rv_Ghibli_rv_Ermenegildo_rv_Zegna_rv_Edition_rv_Concept_rv_V2_rv_1600",
    "count_view": 0
  },
  {
    "link_thumb": "https://live.staticflickr.com/65535/49890418221_a07c8f1680_n.jpg",
    "id_album": "-544969959",
    "description": "2014_rv_Maserati_rv_Ghibli_rv_Ermenegildo_rv_Zegna_rv_Edition_rv_Concept_rv_V3_rv_1600",
    "title": "2014_rv_Maserati_rv_Ghibli_rv_Ermenegildo_rv_Zegna_rv_Edition_rv_Concept_rv_V3_rv_1600",
    "link_img": "https://live.staticflickr.com/65535/49890418221_ce7a833c4e_o.jpg",
    "id_image": "2014_rv_Maserati_rv_Ghibli_rv_Ermenegildo_rv_Zegna_rv_Edition_rv_Concept_rv_V3_rv_1600",
    "count_view": 0
  },
  {
    "link_thumb": "https://live.staticflickr.com/65535/49889900173_1992d8acf3_n.jpg",
    "id_album": "-544969959",
    "description": "2014_rv_Maserati_rv_Ghibli_rv_V10_rv_1600",
    "title": "2014_rv_Maserati_rv_Ghibli_rv_V10_rv_1600",
    "link_img": "https://live.staticflickr.com/65535/49889900173_791da23119_o.jpg",
    "id_image": "2014_rv_Maserati_rv_Ghibli_rv_V10_rv_1600",
    "count_view": 0
  },
  {
    "link_thumb": "https://live.staticflickr.com/65535/49890725722_bca221829a_n.jpg",
    "id_album": "-544969959",
    "description": "2014_rv_Maserati_rv_Ghibli_rv_V11_rv_1600",
    "title": "2014_rv_Maserati_rv_Ghibli_rv_V11_rv_1600",
    "link_img": "https://live.staticflickr.com/65535/49890725722_81ed032426_o.jpg",
    "id_image": "2014_rv_Maserati_rv_Ghibli_rv_V11_rv_1600",
    "count_view": 0
  },
  {
    "link_thumb": "https://live.staticflickr.com/65535/49890725287_cc3b5ba58a_n.jpg",
    "id_album": "-544969959",
    "description": "2014_rv_Maserati_rv_Ghibli_rv_V1_rv_1600",
    "title": "2014_rv_Maserati_rv_Ghibli_rv_V1_rv_1600",
    "link_img": "https://live.staticflickr.com/65535/49890725287_3066d8355b_o.jpg",
    "id_image": "2014_rv_Maserati_rv_Ghibli_rv_V1_rv_1600",
    "count_view": 0
  },
  {
    "link_thumb": "https://live.staticflickr.com/65535/49890419106_0d99235865_n.jpg",
    "id_album": "-544969959",
    "description": "2014_rv_Maserati_rv_Ghibli_rv_V2_rv_1600",
    "title": "2014_rv_Maserati_rv_Ghibli_rv_V2_rv_1600",
    "link_img": "https://live.staticflickr.com/65535/49890419106_83f36b6614_o.jpg",
    "id_image": "2014_rv_Maserati_rv_Ghibli_rv_V2_rv_1600",
    "count_view": 0
  },
  {
    "link_thumb": "https://live.staticflickr.com/65535/49890419311_7165122fc5_n.jpg",
    "id_album": "-544969959",
    "description": "2014_rv_Maserati_rv_Ghibli_rv_V3_rv_1600",
    "title": "2014_rv_Maserati_rv_Ghibli_rv_V3_rv_1600",
    "link_img": "https://live.staticflickr.com/65535/49890419311_021435350d_o.jpg",
    "id_image": "2014_rv_Maserati_rv_Ghibli_rv_V3_rv_1600",
    "count_view": 0
  },
  {
    "link_thumb": "https://live.staticflickr.com/65535/49890419486_9f617df498_n.jpg",
    "id_album": "-544969959",
    "description": "2014_rv_Maserati_rv_Ghibli_rv_V4_rv_1600",
    "title": "2014_rv_Maserati_rv_Ghibli_rv_V4_rv_1600",
    "link_img": "https://live.staticflickr.com/65535/49890419486_8426990a50_o.jpg",
    "id_image": "2014_rv_Maserati_rv_Ghibli_rv_V4_rv_1600",
    "count_view": 0
  },
  {
    "link_thumb": "https://live.staticflickr.com/65535/49890726627_4365eccc4b_n.jpg",
    "id_album": "-544969959",
    "description": "2014_rv_Maserati_rv_Ghibli_rv_V5_rv_1600",
    "title": "2014_rv_Maserati_rv_Ghibli_rv_V5_rv_1600",
    "link_img": "https://live.staticflickr.com/65535/49890726627_3691366406_o.jpg",
    "id_image": "2014_rv_Maserati_rv_Ghibli_rv_V5_rv_1600",
    "count_view": 0
  },
  {
    "link_thumb": "https://live.staticflickr.com/65535/49890419826_4e288b1cfe_n.jpg",
    "id_album": "-544969959",
    "description": "2014_rv_Maserati_rv_Ghibli_rv_V6_rv_1600",
    "title": "2014_rv_Maserati_rv_Ghibli_rv_V6_rv_1600",
    "link_img": "https://live.staticflickr.com/65535/49890419826_1cb2084b68_o.jpg",
    "id_image": "2014_rv_Maserati_rv_Ghibli_rv_V6_rv_1600",
    "count_view": 0
  },
  {
    "link_thumb": "https://live.staticflickr.com/65535/49890726977_7bcba3aecd_n.jpg",
    "id_album": "-544969959",
    "description": "2014_rv_Maserati_rv_Ghibli_rv_V7_rv_1600",
    "title": "2014_rv_Maserati_rv_Ghibli_rv_V7_rv_1600",
    "link_img": "https://live.staticflickr.com/65535/49890726977_110b9c0c18_o.jpg",
    "id_image": "2014_rv_Maserati_rv_Ghibli_rv_V7_rv_1600",
    "count_view": 0
  },
  {
    "link_thumb": "https://live.staticflickr.com/65535/49889901608_695cc846bd_n.jpg",
    "id_album": "-544969959",
    "description": "2014_rv_Maserati_rv_Ghibli_rv_V8_rv_1600",
    "title": "2014_rv_Maserati_rv_Ghibli_rv_V8_rv_1600",
    "link_img": "https://live.staticflickr.com/65535/49889901608_d597a119cb_o.jpg",
    "id_image": "2014_rv_Maserati_rv_Ghibli_rv_V8_rv_1600",
    "count_view": 0
  },
  {
    "link_thumb": "https://live.staticflickr.com/65535/49890727392_618160647a_n.jpg",
    "id_album": "-544969959",
    "description": "2014_rv_Maserati_rv_Ghibli_rv_V9_rv_1600",
    "title": "2014_rv_Maserati_rv_Ghibli_rv_V9_rv_1600",
    "link_img": "https://live.staticflickr.com/65535/49890727392_362e6427aa_o.jpg",
    "id_image": "2014_rv_Maserati_rv_Ghibli_rv_V9_rv_1600",
    "count_view": 0
  },
  {
    "link_thumb": "https://live.staticflickr.com/65535/49889901998_84e400b29e_n.jpg",
    "id_album": "-544969959",
    "description": "2018_rv_Maserati_rv_Ghibli_rv_GranLusso_rv_V1_rv_2000",
    "title": "2018_rv_Maserati_rv_Ghibli_rv_GranLusso_rv_V1_rv_2000",
    "link_img": "https://live.staticflickr.com/65535/49889901998_2b666e8c7d_o.jpg",
    "id_image": "2018_rv_Maserati_rv_Ghibli_rv_GranLusso_rv_V1_rv_2000",
    "count_view": 0
  },
  {
    "link_thumb": "https://live.staticflickr.com/65535/49889902183_550ec1fb41_n.jpg",
    "id_album": "-544969959",
    "description": "2018_rv_Maserati_rv_Ghibli_rv_GranLusso_rv_V2_rv_2000",
    "title": "2018_rv_Maserati_rv_Ghibli_rv_GranLusso_rv_V2_rv_2000",
    "link_img": "https://live.staticflickr.com/65535/49889902183_b8956d3865_o.jpg",
    "id_image": "2018_rv_Maserati_rv_Ghibli_rv_GranLusso_rv_V2_rv_2000",
    "count_view": 0
  },
  {
    "link_thumb": "https://live.staticflickr.com/65535/49890420886_02b1f09035_n.jpg",
    "id_album": "-544969959",
    "description": "2018_rv_Maserati_rv_Ghibli_rv_GranLusso_rv_V3_rv_2000",
    "title": "2018_rv_Maserati_rv_Ghibli_rv_GranLusso_rv_V3_rv_2000",
    "link_img": "https://live.staticflickr.com/65535/49890420886_0d1bd25afa_o.jpg",
    "id_image": "2018_rv_Maserati_rv_Ghibli_rv_GranLusso_rv_V3_rv_2000",
    "count_view": 0
  },
  {
    "link_thumb": "https://live.staticflickr.com/65535/49890728042_0ec3f266e4_n.jpg",
    "id_album": "-544969959",
    "description": "2018_rv_Maserati_rv_Ghibli_rv_GranLusso_rv_V4_rv_2000",
    "title": "2018_rv_Maserati_rv_Ghibli_rv_GranLusso_rv_V4_rv_2000",
    "link_img": "https://live.staticflickr.com/65535/49890728042_da329ef77e_o.jpg",
    "id_image": "2018_rv_Maserati_rv_Ghibli_rv_GranLusso_rv_V4_rv_2000",
    "count_view": 0
  },
  {
    "link_thumb": "https://live.staticflickr.com/65535/49890728282_30955f0ac0_n.jpg",
    "id_album": "-544969959",
    "description": "2018_rv_Maserati_rv_Ghibli_rv_GranLusso_rv_V5_rv_2000",
    "title": "2018_rv_Maserati_rv_Ghibli_rv_GranLusso_rv_V5_rv_2000",
    "link_img": "https://live.staticflickr.com/65535/49890728282_eef82faa12_o.jpg",
    "id_image": "2018_rv_Maserati_rv_Ghibli_rv_GranLusso_rv_V5_rv_2000",
    "count_view": 0
  }
]