[
  {
    "link_thumb": "https://live.staticflickr.com/65535/49888729268_531d7cf69e_n.jpg",
    "id_album": "-843794467",
    "description": "2005_rv_Chevrolet_rv_Corvette_rv_C6R_rv_V1_rv_1440",
    "title": "2005_rv_Chevrolet_rv_Corvette_rv_C6R_rv_V1_rv_1440",
    "link_img": "https://live.staticflickr.com/65535/49888729268_ed3d5d8681_o.jpg",
    "id_image": "2005_rv_Chevrolet_rv_Corvette_rv_C6R_rv_V1_rv_1440",
    "count_view": 0
  },
  {
    "link_thumb": "https://live.staticflickr.com/65535/49889247181_360547c95b_n.jpg",
    "id_album": "-843794467",
    "description": "2005_rv_Chevrolet_rv_Corvette_rv_C6R_rv_V2_rv_1440",
    "title": "2005_rv_Chevrolet_rv_Corvette_rv_C6R_rv_V2_rv_1440",
    "link_img": "https://live.staticflickr.com/65535/49889247181_ecf96b7dc0_o.jpg",
    "id_image": "2005_rv_Chevrolet_rv_Corvette_rv_C6R_rv_V2_rv_1440",
    "count_view": 0
  },
  {
    "link_thumb": "https://live.staticflickr.com/65535/49889247321_9e124bb65e_n.jpg",
    "id_album": "-843794467",
    "description": "2005_rv_Chevrolet_rv_Corvette_rv_Show_rv_Go_rv_Concept_rv_V1_rv_1440",
    "title": "2005_rv_Chevrolet_rv_Corvette_rv_Show_rv_Go_rv_Concept_rv_V1_rv_1440",
    "link_img": "https://live.staticflickr.com/65535/49889247321_342b373f4f_o.jpg",
    "id_image": "2005_rv_Chevrolet_rv_Corvette_rv_Show_rv_Go_rv_Concept_rv_V1_rv_1440",
    "count_view": 0
  },
  {
    "link_thumb": "https://live.staticflickr.com/65535/49888729658_4f353028e6_n.jpg",
    "id_album": "-843794467",
    "description": "2005_rv_Chevrolet_rv_Corvette_rv_Show_rv_Go_rv_Concept_rv_V2_rv_1440",
    "title": "2005_rv_Chevrolet_rv_Corvette_rv_Show_rv_Go_rv_Concept_rv_V2_rv_1440",
    "link_img": "https://live.staticflickr.com/65535/49888729658_028387b343_o.jpg",
    "id_image": "2005_rv_Chevrolet_rv_Corvette_rv_Show_rv_Go_rv_Concept_rv_V2_rv_1440",
    "count_view": 0
  },
  {
    "link_thumb": "https://live.staticflickr.com/65535/49888729793_b529260539_n.jpg",
    "id_album": "-843794467",
    "description": "2006_rv_Chevrolet_rv_Corvette_rv_Z06_rv_V1_rv_1440",
    "title": "2006_rv_Chevrolet_rv_Corvette_rv_Z06_rv_V1_rv_1440",
    "link_img": "https://live.staticflickr.com/65535/49888729793_4cc18245a9_o.jpg",
    "id_image": "2006_rv_Chevrolet_rv_Corvette_rv_Z06_rv_V1_rv_1440",
    "count_view": 0
  },
  {
    "link_thumb": "https://live.staticflickr.com/65535/49888729948_608c349823_n.jpg",
    "id_album": "-843794467",
    "description": "2006_rv_Chevrolet_rv_Corvette_rv_Z06_rv_V2_rv_1440",
    "title": "2006_rv_Chevrolet_rv_Corvette_rv_Z06_rv_V2_rv_1440",
    "link_img": "https://live.staticflickr.com/65535/49888729948_a55d4ea3f0_o.jpg",
    "id_image": "2006_rv_Chevrolet_rv_Corvette_rv_Z06_rv_V2_rv_1440",
    "count_view": 0
  },
  {
    "link_thumb": "https://live.staticflickr.com/65535/49889247956_8ee8d35bf1_n.jpg",
    "id_album": "-843794467",
    "description": "2006_rv_Chevrolet_rv_Corvette_rv_Z06_rv_V3_rv_1600",
    "title": "2006_rv_Chevrolet_rv_Corvette_rv_Z06_rv_V3_rv_1600",
    "link_img": "https://live.staticflickr.com/65535/49889247956_25fecb851e_o.jpg",
    "id_image": "2006_rv_Chevrolet_rv_Corvette_rv_Z06_rv_V3_rv_1600",
    "count_view": 0
  },
  {
    "link_thumb": "https://live.staticflickr.com/65535/49888730198_23449eab97_n.jpg",
    "id_album": "-843794467",
    "description": "2006_rv_Chevrolet_rv_Corvette_rv_Z06_rv_V4_rv_1600",
    "title": "2006_rv_Chevrolet_rv_Corvette_rv_Z06_rv_V4_rv_1600",
    "link_img": "https://live.staticflickr.com/65535/49888730198_e69950f674_o.jpg",
    "id_image": "2006_rv_Chevrolet_rv_Corvette_rv_Z06_rv_V4_rv_1600",
    "count_view": 0
  },
  {
    "link_thumb": "https://live.staticflickr.com/65535/49888730288_bd04de216d_n.jpg",
    "id_album": "-843794467",
    "description": "2006_rv_Chevrolet_rv_Corvette_rv_Z06_rv_V5_rv_1600",
    "title": "2006_rv_Chevrolet_rv_Corvette_rv_Z06_rv_V5_rv_1600",
    "link_img": "https://live.staticflickr.com/65535/49888730288_4bbb3aab26_o.jpg",
    "id_image": "2006_rv_Chevrolet_rv_Corvette_rv_Z06_rv_V5_rv_1600",
    "count_view": 0
  },
  {
    "link_thumb": "https://live.staticflickr.com/65535/49888730458_5731508170_n.jpg",
    "id_album": "-843794467",
    "description": "2006_rv_Chevrolet_rv_Corvette_rv_Z06_rv_V6_rv_1600",
    "title": "2006_rv_Chevrolet_rv_Corvette_rv_Z06_rv_V6_rv_1600",
    "link_img": "https://live.staticflickr.com/65535/49888730458_420285ee9a_o.jpg",
    "id_image": "2006_rv_Chevrolet_rv_Corvette_rv_Z06_rv_V6_rv_1600",
    "count_view": 0
  },
  {
    "link_thumb": "https://live.staticflickr.com/65535/49889248541_d37c38f767_n.jpg",
    "id_album": "-843794467",
    "description": "2008_rv_Chevrolet_rv_Corvette_rv_V1_rv_1440",
    "title": "2008_rv_Chevrolet_rv_Corvette_rv_V1_rv_1440",
    "link_img": "https://live.staticflickr.com/65535/49889248541_bbc8ef5443_o.jpg",
    "id_image": "2008_rv_Chevrolet_rv_Corvette_rv_V1_rv_1440",
    "count_view": 0
  },
  {
    "link_thumb": "https://live.staticflickr.com/65535/49888730723_e82e198ac8_n.jpg",
    "id_album": "-843794467",
    "description": "2008_rv_Chevrolet_rv_Corvette_rv_V2_rv_1440",
    "title": "2008_rv_Chevrolet_rv_Corvette_rv_V2_rv_1440",
    "link_img": "https://live.staticflickr.com/65535/49888730723_b8359dcc9c_o.jpg",
    "id_image": "2008_rv_Chevrolet_rv_Corvette_rv_V2_rv_1440",
    "count_view": 0
  },
  {
    "link_thumb": "https://live.staticflickr.com/65535/49889558522_de48af247a_n.jpg",
    "id_album": "-843794467",
    "description": "2009_rv_Chevrolet_rv_Corvette_rv_V1_rv_1440",
    "title": "2009_rv_Chevrolet_rv_Corvette_rv_V1_rv_1440",
    "link_img": "https://live.staticflickr.com/65535/49889558522_7d56d03eaa_o.jpg",
    "id_image": "2009_rv_Chevrolet_rv_Corvette_rv_V1_rv_1440",
    "count_view": 0
  },
  {
    "link_thumb": "https://live.staticflickr.com/65535/49889248921_997668601f_n.jpg",
    "id_album": "-843794467",
    "description": "2009_rv_Chevrolet_rv_Corvette_rv_V2_rv_1440",
    "title": "2009_rv_Chevrolet_rv_Corvette_rv_V2_rv_1440",
    "link_img": "https://live.staticflickr.com/65535/49889248921_84220dc0b1_o.jpg",
    "id_image": "2009_rv_Chevrolet_rv_Corvette_rv_V2_rv_1440",
    "count_view": 0
  },
  {
    "link_thumb": "https://live.staticflickr.com/65535/49889249036_0568d1cb8d_n.jpg",
    "id_album": "-843794467",
    "description": "2009_rv_Chevrolet_rv_Corvette_rv_V3_rv_1440",
    "title": "2009_rv_Chevrolet_rv_Corvette_rv_V3_rv_1440",
    "link_img": "https://live.staticflickr.com/65535/49889249036_57ebc790a6_o.jpg",
    "id_image": "2009_rv_Chevrolet_rv_Corvette_rv_V3_rv_1440",
    "count_view": 0
  },
  {
    "link_thumb": "https://live.staticflickr.com/65535/49889558857_45fc94979e_n.jpg",
    "id_album": "-843794467",
    "description": "2009_rv_Chevrolet_rv_Corvette_rv_ZR1_rv_V1_rv_1440",
    "title": "2009_rv_Chevrolet_rv_Corvette_rv_ZR1_rv_V1_rv_1440",
    "link_img": "https://live.staticflickr.com/65535/49889558857_2913e1a88f_o.jpg",
    "id_image": "2009_rv_Chevrolet_rv_Corvette_rv_ZR1_rv_V1_rv_1440",
    "count_view": 0
  },
  {
    "link_thumb": "https://live.staticflickr.com/65535/49889249246_12ec353767_n.jpg",
    "id_album": "-843794467",
    "description": "2009_rv_Chevrolet_rv_Corvette_rv_ZR1_rv_V2_rv_1440",
    "title": "2009_rv_Chevrolet_rv_Corvette_rv_ZR1_rv_V2_rv_1440",
    "link_img": "https://live.staticflickr.com/65535/49889249246_013d55caa8_o.jpg",
    "id_image": "2009_rv_Chevrolet_rv_Corvette_rv_ZR1_rv_V2_rv_1440",
    "count_view": 0
  },
  {
    "link_thumb": "https://live.staticflickr.com/65535/49889249396_12feeeea20_n.jpg",
    "id_album": "-843794467",
    "description": "2009_rv_Chevrolet_rv_Corvette_rv_ZR1_rv_V3_rv_1440",
    "title": "2009_rv_Chevrolet_rv_Corvette_rv_ZR1_rv_V3_rv_1440",
    "link_img": "https://live.staticflickr.com/65535/49889249396_552d3cc4e2_o.jpg",
    "id_image": "2009_rv_Chevrolet_rv_Corvette_rv_ZR1_rv_V3_rv_1440",
    "count_view": 0
  },
  {
    "link_thumb": "https://live.staticflickr.com/65535/49889249626_db8be42083_n.jpg",
    "id_album": "-843794467",
    "description": "2009_rv_Chevrolet_rv_Corvette_rv_ZR1_rv_V4_rv_1440",
    "title": "2009_rv_Chevrolet_rv_Corvette_rv_ZR1_rv_V4_rv_1440",
    "link_img": "https://live.staticflickr.com/65535/49889249626_442b7ff060_o.jpg",
    "id_image": "2009_rv_Chevrolet_rv_Corvette_rv_ZR1_rv_V4_rv_1440",
    "count_view": 0
  },
  {
    "link_thumb": "https://live.staticflickr.com/65535/49888731803_291346c540_n.jpg",
    "id_album": "-843794467",
    "description": "2009_rv_Chevrolet_rv_Corvette_rv_ZR1_rv_V5_rv_1440",
    "title": "2009_rv_Chevrolet_rv_Corvette_rv_ZR1_rv_V5_rv_1440",
    "link_img": "https://live.staticflickr.com/65535/49888731803_843a89514c_o.jpg",
    "id_image": "2009_rv_Chevrolet_rv_Corvette_rv_ZR1_rv_V5_rv_1440",
    "count_view": 0
  },
  {
    "link_thumb": "https://live.staticflickr.com/65535/49889559482_865000e550_n.jpg",
    "id_album": "-843794467",
    "description": "2009_rv_Chevrolet_rv_Corvette_rv_ZR1_rv_V6_rv_1440",
    "title": "2009_rv_Chevrolet_rv_Corvette_rv_ZR1_rv_V6_rv_1440",
    "link_img": "https://live.staticflickr.com/65535/49889559482_5b0eb952ea_o.jpg",
    "id_image": "2009_rv_Chevrolet_rv_Corvette_rv_ZR1_rv_V6_rv_1440",
    "count_view": 0
  },
  {
    "link_thumb": "https://live.staticflickr.com/65535/49889249941_a1f5247d1c_n.jpg",
    "id_album": "-843794467",
    "description": "2009_rv_Chevrolet_rv_Corvette_rv_ZR1_rv_V7_rv_1440",
    "title": "2009_rv_Chevrolet_rv_Corvette_rv_ZR1_rv_V7_rv_1440",
    "link_img": "https://live.staticflickr.com/65535/49889249941_8c9a5608fa_o.jpg",
    "id_image": "2009_rv_Chevrolet_rv_Corvette_rv_ZR1_rv_V7_rv_1440",
    "count_view": 0
  },
  {
    "link_thumb": "https://live.staticflickr.com/65535/49888732068_fcd2dbc1bb_n.jpg",
    "id_album": "-843794467",
    "description": "2009_rv_Chevrolet_rv_Corvette_rv_ZR1_rv_V8_rv_1440",
    "title": "2009_rv_Chevrolet_rv_Corvette_rv_ZR1_rv_V8_rv_1440",
    "link_img": "https://live.staticflickr.com/65535/49888732068_9d2e27f4bd_o.jpg",
    "id_image": "2009_rv_Chevrolet_rv_Corvette_rv_ZR1_rv_V8_rv_1440",
    "count_view": 0
  },
  {
    "link_thumb": "https://live.staticflickr.com/65535/49889250151_16663b8654_n.jpg",
    "id_album": "-843794467",
    "description": "2009_rv_Chevrolet_rv_Corvette_rv_ZR1_rv_V9_rv_1440",
    "title": "2009_rv_Chevrolet_rv_Corvette_rv_ZR1_rv_V9_rv_1440",
    "link_img": "https://live.staticflickr.com/65535/49889250151_0686321740_o.jpg",
    "id_image": "2009_rv_Chevrolet_rv_Corvette_rv_ZR1_rv_V9_rv_1440",
    "count_view": 0
  },
  {
    "link_thumb": "https://live.staticflickr.com/65535/49889250251_8543be821a_n.jpg",
    "id_album": "-843794467",
    "description": "2010_rv_Chevrolet_rv_Corvette_rv_Grand_rv_Sport_rv_V1_rv_1440",
    "title": "2010_rv_Chevrolet_rv_Corvette_rv_Grand_rv_Sport_rv_V1_rv_1440",
    "link_img": "https://live.staticflickr.com/65535/49889250251_e4c6d94d79_o.jpg",
    "id_image": "2010_rv_Chevrolet_rv_Corvette_rv_Grand_rv_Sport_rv_V1_rv_1440",
    "count_view": 0
  },
  {
    "link_thumb": "https://live.staticflickr.com/65535/49889559917_f2c97bf219_n.jpg",
    "id_album": "-843794467",
    "description": "2010_rv_Chevrolet_rv_Corvette_rv_Grand_rv_Sport_rv_V2_rv_1440",
    "title": "2010_rv_Chevrolet_rv_Corvette_rv_Grand_rv_Sport_rv_V2_rv_1440",
    "link_img": "https://live.staticflickr.com/65535/49889559917_292286c24e_o.jpg",
    "id_image": "2010_rv_Chevrolet_rv_Corvette_rv_Grand_rv_Sport_rv_V2_rv_1440",
    "count_view": 0
  },
  {
    "link_thumb": "https://live.staticflickr.com/65535/49889560052_e73a7f2c9c_n.jpg",
    "id_album": "-843794467",
    "description": "2010_rv_Chevrolet_rv_Corvette_rv_Grand_rv_Sport_rv_V3_rv_1440",
    "title": "2010_rv_Chevrolet_rv_Corvette_rv_Grand_rv_Sport_rv_V3_rv_1440",
    "link_img": "https://live.staticflickr.com/65535/49889560052_ee3abe0f68_o.jpg",
    "id_image": "2010_rv_Chevrolet_rv_Corvette_rv_Grand_rv_Sport_rv_V3_rv_1440",
    "count_view": 0
  },
  {
    "link_thumb": "https://live.staticflickr.com/65535/49889560182_9419bb9665_n.jpg",
    "id_album": "-843794467",
    "description": "2011_rv_Chevrolet_rv_Corvette_rv_Carlisle_rv_Grand_rv_Sport_rv_V1_rv_1536",
    "title": "2011_rv_Chevrolet_rv_Corvette_rv_Carlisle_rv_Grand_rv_Sport_rv_V1_rv_1536",
    "link_img": "https://live.staticflickr.com/65535/49889560182_aa6c7bdbb0_o.jpg",
    "id_image": "2011_rv_Chevrolet_rv_Corvette_rv_Carlisle_rv_Grand_rv_Sport_rv_V1_rv_1536",
    "count_view": 0
  },
  {
    "link_thumb": "https://live.staticflickr.com/65535/49889560337_f1887a3ae8_n.jpg",
    "id_album": "-843794467",
    "description": "2011_rv_Chevrolet_rv_Corvette_rv_Carlisle_rv_Grand_rv_Sport_rv_V2_rv_1536",
    "title": "2011_rv_Chevrolet_rv_Corvette_rv_Carlisle_rv_Grand_rv_Sport_rv_V2_rv_1536",
    "link_img": "https://live.staticflickr.com/65535/49889560337_7243e7f4db_o.jpg",
    "id_image": "2011_rv_Chevrolet_rv_Corvette_rv_Carlisle_rv_Grand_rv_Sport_rv_V2_rv_1536",
    "count_view": 0
  },
  {
    "link_thumb": "https://live.staticflickr.com/65535/49888733073_032a9341ce_n.jpg",
    "id_album": "-843794467",
    "description": "2011_rv_Chevrolet_rv_Corvette_rv_Z06X_rv_Track_rv_Car_rv_Concept_rv_V1_rv_1536",
    "title": "2011_rv_Chevrolet_rv_Corvette_rv_Z06X_rv_Track_rv_Car_rv_Concept_rv_V1_rv_1536",
    "link_img": "https://live.staticflickr.com/65535/49888733073_2ae37b943e_o.jpg",
    "id_image": "2011_rv_Chevrolet_rv_Corvette_rv_Z06X_rv_Track_rv_Car_rv_Concept_rv_V1_rv_1536",
    "count_view": 0
  },
  {
    "link_thumb": "https://live.staticflickr.com/65535/49889560947_3c7a309ebd_n.jpg",
    "id_album": "-843794467",
    "description": "2011_rv_Chevrolet_rv_Corvette_rv_Z06X_rv_Track_rv_Car_rv_Concept_rv_V2_rv_1536",
    "title": "2011_rv_Chevrolet_rv_Corvette_rv_Z06X_rv_Track_rv_Car_rv_Concept_rv_V2_rv_1536",
    "link_img": "https://live.staticflickr.com/65535/49889560947_204d928816_o.jpg",
    "id_image": "2011_rv_Chevrolet_rv_Corvette_rv_Z06X_rv_Track_rv_Car_rv_Concept_rv_V2_rv_1536",
    "count_view": 0
  },
  {
    "link_thumb": "https://live.staticflickr.com/65535/49889560532_75ca31fa4d_n.jpg",
    "id_album": "-843794467",
    "description": "2011_rv_Chevrolet_rv_Corvette_rv_Z06_rv_Centennial_rv_Edition_rv_V1_rv_1600",
    "title": "2011_rv_Chevrolet_rv_Corvette_rv_Z06_rv_Centennial_rv_Edition_rv_V1_rv_1600",
    "link_img": "https://live.staticflickr.com/65535/49889560532_9d63b4e9b7_o.jpg",
    "id_image": "2011_rv_Chevrolet_rv_Corvette_rv_Z06_rv_Centennial_rv_Edition_rv_V1_rv_1600",
    "count_view": 0
  },
  {
    "link_thumb": "https://live.staticflickr.com/65535/49889560647_d0c8e828ac_n.jpg",
    "id_album": "-843794467",
    "description": "2011_rv_Chevrolet_rv_Corvette_rv_Z06_rv_Centennial_rv_Edition_rv_V2_rv_1600",
    "title": "2011_rv_Chevrolet_rv_Corvette_rv_Z06_rv_Centennial_rv_Edition_rv_V2_rv_1600",
    "link_img": "https://live.staticflickr.com/65535/49889560647_3ac0281985_o.jpg",
    "id_image": "2011_rv_Chevrolet_rv_Corvette_rv_Z06_rv_Centennial_rv_Edition_rv_V2_rv_1600",
    "count_view": 0
  },
  {
    "link_thumb": "https://live.staticflickr.com/65535/49889251031_f20d46e38e_n.jpg",
    "id_album": "-843794467",
    "description": "2011_rv_Chevrolet_rv_Corvette_rv_Z06_rv_Centennial_rv_Edition_rv_V3_rv_1600",
    "title": "2011_rv_Chevrolet_rv_Corvette_rv_Z06_rv_Centennial_rv_Edition_rv_V3_rv_1600",
    "link_img": "https://live.staticflickr.com/65535/49889251031_79b43d7d2a_o.jpg",
    "id_image": "2011_rv_Chevrolet_rv_Corvette_rv_Z06_rv_Centennial_rv_Edition_rv_V3_rv_1600",
    "count_view": 0
  }
]