[
  {
    "total_img": 0,
    "number_page": 0,
    "title": "Aston Martin DB9",
    "tag": "Aston Martin DB9,",
    "description": "Aston Martin DB9",
    "link_thumb": "https://live.staticflickr.com/65535/49888326418_7d29ea3280_n.jpg",
    "id_album": "410055115",
    "total_view": 43
  }
]