[
  {
    "total_img": 0,
    "number_page": 0,
    "title": "Mercedes SLR",
    "tag": "Mercedes SLR,",
    "description": "Mercedes SLR",
    "link_thumb": "https://live.staticflickr.com/65535/49891214722_9ca2a1c558_n.jpg",
    "id_album": "-173102747",
    "total_view": 38
  }
]