[
  {
    "link_thumb": "https://live.staticflickr.com/65535/49892615307_c1cc24d678_n.jpg",
    "id_album": "1291673563",
    "description": "2006_rv_Saleen_rv_S302_rv_Parnelli_rv_Jones_rv_Limited_rv_Edition_rv_V1_rv_1440",
    "title": "2006_rv_Saleen_rv_S302_rv_Parnelli_rv_Jones_rv_Limited_rv_Edition_rv_V1_rv_1440",
    "link_img": "https://live.staticflickr.com/65535/49892615307_c1aa5c4ab2_o.jpg",
    "id_image": "2006_rv_Saleen_rv_S302_rv_Parnelli_rv_Jones_rv_Limited_rv_Edition_rv_V1_rv_1440",
    "count_view": 0
  },
  {
    "link_thumb": "https://live.staticflickr.com/65535/49892302371_9749a0304e_n.jpg",
    "id_album": "1291673563",
    "description": "2006_rv_Saleen_rv_S302_rv_Parnelli_rv_Jones_rv_Limited_rv_Edition_rv_V2_rv_1440",
    "title": "2006_rv_Saleen_rv_S302_rv_Parnelli_rv_Jones_rv_Limited_rv_Edition_rv_V2_rv_1440",
    "link_img": "https://live.staticflickr.com/65535/49892302371_6d2bded4b8_o.jpg",
    "id_image": "2006_rv_Saleen_rv_S302_rv_Parnelli_rv_Jones_rv_Limited_rv_Edition_rv_V2_rv_1440",
    "count_view": 0
  },
  {
    "link_thumb": "https://live.staticflickr.com/65535/49892302506_76e3958cd8_n.jpg",
    "id_album": "1291673563",
    "description": "2006_rv_Saleen_rv_S302_rv_Parnelli_rv_Jones_rv_Limited_rv_Edition_rv_V3_rv_1440",
    "title": "2006_rv_Saleen_rv_S302_rv_Parnelli_rv_Jones_rv_Limited_rv_Edition_rv_V3_rv_1440",
    "link_img": "https://live.staticflickr.com/65535/49892302506_c4496622b8_o.jpg",
    "id_image": "2006_rv_Saleen_rv_S302_rv_Parnelli_rv_Jones_rv_Limited_rv_Edition_rv_V3_rv_1440",
    "count_view": 0
  },
  {
    "link_thumb": "https://live.staticflickr.com/65535/49891789563_c065448937_n.jpg",
    "id_album": "1291673563",
    "description": "2008_rv_Saleen_rv_S302_rv_Extreme_rv_V1_rv_1440",
    "title": "2008_rv_Saleen_rv_S302_rv_Extreme_rv_V1_rv_1440",
    "link_img": "https://live.staticflickr.com/65535/49891789563_4d8f53e324_o.jpg",
    "id_image": "2008_rv_Saleen_rv_S302_rv_Extreme_rv_V1_rv_1440",
    "count_view": 0
  },
  {
    "link_thumb": "https://live.staticflickr.com/65535/49892616062_0cd896d275_n.jpg",
    "id_album": "1291673563",
    "description": "2008_rv_Saleen_rv_S302_rv_Extreme_rv_V2_rv_1440",
    "title": "2008_rv_Saleen_rv_S302_rv_Extreme_rv_V2_rv_1440",
    "link_img": "https://live.staticflickr.com/65535/49892616062_55c03e91cd_o.jpg",
    "id_image": "2008_rv_Saleen_rv_S302_rv_Extreme_rv_V2_rv_1440",
    "count_view": 0
  },
  {
    "link_thumb": "https://live.staticflickr.com/65535/49892616277_f306d8958f_n.jpg",
    "id_album": "1291673563",
    "description": "2008_rv_Saleen_rv_S302_rv_Extreme_rv_V3_rv_1440",
    "title": "2008_rv_Saleen_rv_S302_rv_Extreme_rv_V3_rv_1440",
    "link_img": "https://live.staticflickr.com/65535/49892616277_e4cc2b14a3_o.jpg",
    "id_image": "2008_rv_Saleen_rv_S302_rv_Extreme_rv_V3_rv_1440",
    "count_view": 0
  },
  {
    "link_thumb": "https://live.staticflickr.com/65535/49892616457_e9d3787f75_n.jpg",
    "id_album": "1291673563",
    "description": "2008_rv_Saleen_rv_S302_rv_Extreme_rv_V4_rv_1600",
    "title": "2008_rv_Saleen_rv_S302_rv_Extreme_rv_V4_rv_1600",
    "link_img": "https://live.staticflickr.com/65535/49892616457_9770295cc1_o.jpg",
    "id_image": "2008_rv_Saleen_rv_S302_rv_Extreme_rv_V4_rv_1600",
    "count_view": 0
  },
  {
    "link_thumb": "https://live.staticflickr.com/65535/49891790208_8390fde268_n.jpg",
    "id_album": "1291673563",
    "description": "2008_rv_Saleen_rv_S302_rv_Extreme_rv_V5_rv_1600",
    "title": "2008_rv_Saleen_rv_S302_rv_Extreme_rv_V5_rv_1600",
    "link_img": "https://live.staticflickr.com/65535/49891790208_b6f0465b89_o.jpg",
    "id_image": "2008_rv_Saleen_rv_S302_rv_Extreme_rv_V5_rv_1600",
    "count_view": 0
  },
  {
    "link_thumb": "https://live.staticflickr.com/65535/49891790348_07a8bbf27a_n.jpg",
    "id_album": "1291673563",
    "description": "2008_rv_Saleen_rv_S302_rv_Extreme_rv_V6_rv_1600",
    "title": "2008_rv_Saleen_rv_S302_rv_Extreme_rv_V6_rv_1600",
    "link_img": "https://live.staticflickr.com/65535/49891790348_41172879bd_o.jpg",
    "id_image": "2008_rv_Saleen_rv_S302_rv_Extreme_rv_V6_rv_1600",
    "count_view": 0
  },
  {
    "link_thumb": "https://live.staticflickr.com/65535/49891790458_4b72d7653a_n.jpg",
    "id_album": "1291673563",
    "description": "2015_rv_Saleen_rv_Mustang_rv_302_rv_Black_rv_Label_rv_V1_rv_1600",
    "title": "2015_rv_Saleen_rv_Mustang_rv_302_rv_Black_rv_Label_rv_V1_rv_1600",
    "link_img": "https://live.staticflickr.com/65535/49891790458_9bd50bbffd_o.jpg",
    "id_image": "2015_rv_Saleen_rv_Mustang_rv_302_rv_Black_rv_Label_rv_V1_rv_1600",
    "count_view": 0
  },
  {
    "link_thumb": "https://live.staticflickr.com/65535/49892617022_7afe7f03b5_n.jpg",
    "id_album": "1291673563",
    "description": "2015_rv_Saleen_rv_Mustang_rv_302_rv_Black_rv_Label_rv_V2_rv_1600",
    "title": "2015_rv_Saleen_rv_Mustang_rv_302_rv_Black_rv_Label_rv_V2_rv_1600",
    "link_img": "https://live.staticflickr.com/65535/49892617022_649bdca195_o.jpg",
    "id_image": "2015_rv_Saleen_rv_Mustang_rv_302_rv_Black_rv_Label_rv_V2_rv_1600",
    "count_view": 0
  },
  {
    "link_thumb": "https://live.staticflickr.com/65535/49892617197_41dec99537_n.jpg",
    "id_album": "1291673563",
    "description": "2015_rv_Saleen_rv_Mustang_rv_302_rv_Black_rv_Label_rv_V3_rv_1600",
    "title": "2015_rv_Saleen_rv_Mustang_rv_302_rv_Black_rv_Label_rv_V3_rv_1600",
    "link_img": "https://live.staticflickr.com/65535/49892617197_1623a4a938_o.jpg",
    "id_image": "2015_rv_Saleen_rv_Mustang_rv_302_rv_Black_rv_Label_rv_V3_rv_1600",
    "count_view": 0
  },
  {
    "link_thumb": "https://live.staticflickr.com/65535/49892617377_c5836727b4_n.jpg",
    "id_album": "1291673563",
    "description": "2015_rv_Saleen_rv_Mustang_rv_302_rv_Black_rv_Label_rv_V4_rv_1600",
    "title": "2015_rv_Saleen_rv_Mustang_rv_302_rv_Black_rv_Label_rv_V4_rv_1600",
    "link_img": "https://live.staticflickr.com/65535/49892617377_80f450bc82_o.jpg",
    "id_image": "2015_rv_Saleen_rv_Mustang_rv_302_rv_Black_rv_Label_rv_V4_rv_1600",
    "count_view": 0
  },
  {
    "link_thumb": "https://live.staticflickr.com/65535/49892617542_432e818a5c_n.jpg",
    "id_album": "1291673563",
    "description": "2015_rv_Saleen_rv_Mustang_rv_302_rv_Black_rv_Label_rv_V5_rv_1600",
    "title": "2015_rv_Saleen_rv_Mustang_rv_302_rv_Black_rv_Label_rv_V5_rv_1600",
    "link_img": "https://live.staticflickr.com/65535/49892617542_1833b9b528_o.jpg",
    "id_image": "2015_rv_Saleen_rv_Mustang_rv_302_rv_Black_rv_Label_rv_V5_rv_1600",
    "count_view": 0
  },
  {
    "link_thumb": "https://live.staticflickr.com/65535/49892617747_780571cab5_n.jpg",
    "id_album": "1291673563",
    "description": "2015_rv_Saleen_rv_Mustang_rv_302_rv_Black_rv_Label_rv_V6_rv_1600",
    "title": "2015_rv_Saleen_rv_Mustang_rv_302_rv_Black_rv_Label_rv_V6_rv_1600",
    "link_img": "https://live.staticflickr.com/65535/49892617747_b46d9f2749_o.jpg",
    "id_image": "2015_rv_Saleen_rv_Mustang_rv_302_rv_Black_rv_Label_rv_V6_rv_1600",
    "count_view": 0
  }
]