[
  {
    "link_thumb": "https://live.staticflickr.com/65535/48112527601_5b8207e85a_n.jpg",
    "id_album": "2097036181",
    "description": "Bentley_470762",
    "title": "Bentley_470762",
    "link_img": "https://live.staticflickr.com/65535/48112527601_9d56dab4d5_o.jpg",
    "id_image": "Bentley_470762",
    "count_view": 0
  },
  {
    "link_thumb": "https://live.staticflickr.com/65535/48121554953_83957f0cfd_n.jpg",
    "id_album": "-1178450892",
    "description": "Porsche_681605",
    "title": "Porsche_681605",
    "link_img": "https://live.staticflickr.com/65535/48121554953_0b15b39821_o.jpg",
    "id_image": "Porsche_681605",
    "count_view": 0
  },
  {
    "link_thumb": "https://live.staticflickr.com/65535/49892395341_7d926ed247_n.jpg",
    "id_album": "-738164840",
    "description": "2013_rv_Bentley_rv_Continental_rv_GT_rv_Speed_rv_V9_rv_1600",
    "title": "2013_rv_Bentley_rv_Continental_rv_GT_rv_Speed_rv_V9_rv_1600",
    "link_img": "https://live.staticflickr.com/65535/49892395341_93b29ef9da_o.jpg",
    "id_image": "2013_rv_Bentley_rv_Continental_rv_GT_rv_Speed_rv_V9_rv_1600",
    "count_view": 0
  },
  {
    "link_thumb": "https://live.staticflickr.com/65535/49889639743_c7cbcd4352_n.jpg",
    "id_album": "-936716449",
    "description": "2017_rv_Lamborghini_rv_Huracan_rv_RWD_rv_Spyder_rv_V10_rv_2000",
    "title": "2017_rv_Lamborghini_rv_Huracan_rv_RWD_rv_Spyder_rv_V10_rv_2000",
    "link_img": "https://live.staticflickr.com/65535/49889639743_60eb9e2361_o.jpg",
    "id_image": "2017_rv_Lamborghini_rv_Huracan_rv_RWD_rv_Spyder_rv_V10_rv_2000",
    "count_view": 0
  },
  {
    "link_thumb": "https://live.staticflickr.com/65535/48118959641_eab1a04ff4_n.jpg",
    "id_album": "446908717",
    "description": "Lexus_962196",
    "title": "Lexus_962196",
    "link_img": "https://live.staticflickr.com/65535/48118959641_c9bc285bac_o.jpg",
    "id_image": "Lexus_962196",
    "count_view": 0
  },
  {
    "link_thumb": "https://live.staticflickr.com/65535/48112414786_7e9207f320_n.jpg",
    "id_album": "-15119147",
    "description": "Audi_885866",
    "title": "Audi_885866",
    "link_img": "https://live.staticflickr.com/65535/48112414786_6a7fc2098b_o.jpg",
    "id_image": "Audi_885866",
    "count_view": 0
  },
  {
    "link_thumb": "https://live.staticflickr.com/65535/48120804497_b68e568462_n.jpg",
    "id_album": "1952909762",
    "description": "Packard_741050",
    "title": "Packard_741050",
    "link_img": "https://live.staticflickr.com/65535/48120804497_56d6e954e9_o.jpg",
    "id_image": "Packard_741050",
    "count_view": 0
  },
  {
    "link_thumb": "https://live.staticflickr.com/65535/48122012573_887bd7043f_n.jpg",
    "id_album": "-1217333387",
    "description": "Renault_251823",
    "title": "Renault_251823",
    "link_img": "https://live.staticflickr.com/65535/48122012573_3b05af9d0e_o.jpg",
    "id_image": "Renault_251823",
    "count_view": 0
  },
  {
    "link_thumb": "https://live.staticflickr.com/65535/48118381656_2617d1714b_n.jpg",
    "id_album": "-2100339805",
    "description": "Lamborghini_369463",
    "title": "Lamborghini_369463",
    "link_img": "https://live.staticflickr.com/65535/48118381656_1c0239b2b4_o.jpg",
    "id_image": "Lamborghini_369463",
    "count_view": 0
  },
  {
    "link_thumb": "https://live.staticflickr.com/65535/48115171686_90b509c7f9_n.jpg",
    "id_album": "413141323",
    "description": "Dodge_317648",
    "title": "Dodge_317648",
    "link_img": "https://live.staticflickr.com/65535/48115171686_3d0f6f2277_o.jpg",
    "id_image": "Dodge_317648",
    "count_view": 0
  },
  {
    "link_thumb": "https://live.staticflickr.com/65535/49890048813_fdcebb03bd_n.jpg",
    "id_album": "1807183876",
    "description": "2018_rv_McLaren_rv_720S_rv_V21_rv_2000",
    "title": "2018_rv_McLaren_rv_720S_rv_V21_rv_2000",
    "link_img": "https://live.staticflickr.com/65535/49890048813_c1524bcb5f_o.jpg",
    "id_image": "2018_rv_McLaren_rv_720S_rv_V21_rv_2000",
    "count_view": 0
  },
  {
    "link_thumb": "https://live.staticflickr.com/65535/48123283652_c1abe3b04f_n.jpg",
    "id_album": "1159292543",
    "description": "Volvo_879857",
    "title": "Volvo_879857",
    "link_img": "https://live.staticflickr.com/65535/48123283652_44d6bbbb1b_o.jpg",
    "id_image": "Volvo_879857",
    "count_view": 0
  },
  {
    "link_thumb": "https://live.staticflickr.com/65535/48118883442_b35094a9c4_n.jpg",
    "id_album": "1234246491",
    "description": "LandRover_323828",
    "title": "LandRover_323828",
    "link_img": "https://live.staticflickr.com/65535/48118883442_cab389644f_o.jpg",
    "id_image": "LandRover_323828",
    "count_view": 0
  },
  {
    "link_thumb": "https://live.staticflickr.com/65535/49888387113_8b8e0e5108_n.jpg",
    "id_album": "1357324670",
    "description": "2011_rv_Aston_rv_Martin_rv_Virage_rv_V8_rv_1536",
    "title": "2011_rv_Aston_rv_Martin_rv_Virage_rv_V8_rv_1536",
    "link_img": "https://live.staticflickr.com/65535/49888387113_feb217d504_o.jpg",
    "id_image": "2011_rv_Aston_rv_Martin_rv_Virage_rv_V8_rv_1536",
    "count_view": 0
  },
  {
    "link_thumb": "https://live.staticflickr.com/65535/48115480441_2be51024f0_n.jpg",
    "id_album": "413141323",
    "description": "Dodge_759663",
    "title": "Dodge_759663",
    "link_img": "https://live.staticflickr.com/65535/48115480441_3f328f5f88_o.jpg",
    "id_image": "Dodge_759663",
    "count_view": 0
  },
  {
    "link_thumb": "https://live.staticflickr.com/65535/48113338578_40844e324b_n.jpg",
    "id_album": "727633301",
    "description": "BMW_994338",
    "title": "BMW_994338",
    "link_img": "https://live.staticflickr.com/65535/48113338578_eb5d9cd686_o.jpg",
    "id_image": "BMW_994338",
    "count_view": 0
  },
  {
    "link_thumb": "https://live.staticflickr.com/65535/48120748913_128f98e4f1_n.jpg",
    "id_album": "1952909762",
    "description": "Packard_741072",
    "title": "Packard_741072",
    "link_img": "https://live.staticflickr.com/65535/48120748913_6e5cc1667e_o.jpg",
    "id_image": "Packard_741072",
    "count_view": 0
  },
  {
    "link_thumb": "https://live.staticflickr.com/65535/48119991916_a73f12d622_n.jpg",
    "id_album": "-1366790033",
    "description": "Mercury_397630",
    "title": "Mercury_397630",
    "link_img": "https://live.staticflickr.com/65535/48119991916_01b2a939a3_o.jpg",
    "id_image": "Mercury_397630",
    "count_view": 0
  },
  {
    "link_thumb": "https://live.staticflickr.com/65535/49889451956_126b8b19bd_n.jpg",
    "id_album": "1069142825",
    "description": "1994_rv_Ferrari_rv_F355_rv_V10_rv_2160",
    "title": "1994_rv_Ferrari_rv_F355_rv_V10_rv_2160",
    "link_img": "https://live.staticflickr.com/65535/49889451956_b969f24fd1_o.jpg",
    "id_image": "1994_rv_Ferrari_rv_F355_rv_V10_rv_2160",
    "count_view": 0
  },
  {
    "link_thumb": "https://live.staticflickr.com/65535/49890333306_c29f084c18_n.jpg",
    "id_album": "874709450",
    "description": "2010_rv_Peugeot_rv_908_rv_HDi_rv_FAP_rv_V4_rv_1440",
    "title": "2010_rv_Peugeot_rv_908_rv_HDi_rv_FAP_rv_V4_rv_1440",
    "link_img": "https://live.staticflickr.com/65535/49890333306_70f772872b_o.jpg",
    "id_image": "2010_rv_Peugeot_rv_908_rv_HDi_rv_FAP_rv_V4_rv_1440",
    "count_view": 0
  },
  {
    "link_thumb": "https://live.staticflickr.com/65535/49888787883_fa874f8b0c_n.jpg",
    "id_album": "91016594",
    "description": "2003_rv_Chrysler_rv_300C_rv_Concept_rv_V1_rv_1536",
    "title": "2003_rv_Chrysler_rv_300C_rv_Concept_rv_V1_rv_1536",
    "link_img": "https://live.staticflickr.com/65535/49888787883_10a67ec994_o.jpg",
    "id_image": "2003_rv_Chrysler_rv_300C_rv_Concept_rv_V1_rv_1536",
    "count_view": 0
  },
  {
    "link_thumb": "https://live.staticflickr.com/65535/48121078477_e016a937d7_n.jpg",
    "id_album": "-1123679742",
    "description": "Plymouth_289077",
    "title": "Plymouth_289077",
    "link_img": "https://live.staticflickr.com/65535/48121078477_10f570730a_o.jpg",
    "id_image": "Plymouth_289077",
    "count_view": 0
  },
  {
    "link_thumb": "https://live.staticflickr.com/65535/48112502477_2c6d8f551a_n.jpg",
    "id_album": "-15119147",
    "description": "Audi_805453",
    "title": "Audi_805453",
    "link_img": "https://live.staticflickr.com/65535/48112502477_7b84ce9dfb_o.jpg",
    "id_image": "Audi_805453",
    "count_view": 0
  },
  {
    "link_thumb": "https://live.staticflickr.com/65535/48112647712_4f7bc05418_n.jpg",
    "id_album": "2097036181",
    "description": "Bentley_542047",
    "title": "Bentley_542047",
    "link_img": "https://live.staticflickr.com/65535/48112647712_0cb198b17c_o.jpg",
    "id_image": "Bentley_542047",
    "count_view": 0
  },
  {
    "link_thumb": "https://live.staticflickr.com/65535/49890196051_3121b85c80_n.jpg",
    "id_album": "1957300237",
    "description": "2013_rv_Novitec_rv_Torado_rv_Lamborghini_rv_Aventador_rv_V2_rv_1600",
    "title": "2013_rv_Novitec_rv_Torado_rv_Lamborghini_rv_Aventador_rv_V2_rv_1600",
    "link_img": "https://live.staticflickr.com/65535/49890196051_461f86d991_o.jpg",
    "id_image": "2013_rv_Novitec_rv_Torado_rv_Lamborghini_rv_Aventador_rv_V2_rv_1600",
    "count_view": 0
  },
  {
    "link_thumb": "https://live.staticflickr.com/65535/48120892562_6b0b86e419_n.jpg",
    "id_album": "1952909762",
    "description": "Packard_928244",
    "title": "Packard_928244",
    "link_img": "https://live.staticflickr.com/65535/48120892562_c2b7b3eb6f_o.jpg",
    "id_image": "Packard_928244",
    "count_view": 0
  },
  {
    "link_thumb": "https://live.staticflickr.com/65535/48118967568_d098257ccd_n.jpg",
    "id_album": "446908717",
    "description": "Lexus_917774",
    "title": "Lexus_917774",
    "link_img": "https://live.staticflickr.com/65535/48118967568_ca2e5bb734_o.jpg",
    "id_image": "Lexus_917774",
    "count_view": 0
  },
  {
    "link_thumb": "https://live.staticflickr.com/65535/48114233057_9fd04eb8a0_n.jpg",
    "id_album": "-1721545051",
    "description": "Chevrolet_352984",
    "title": "Chevrolet_352984",
    "link_img": "https://live.staticflickr.com/65535/48114233057_2a5469844c_o.jpg",
    "id_image": "Chevrolet_352984",
    "count_view": 0
  },
  {
    "link_thumb": "https://live.staticflickr.com/65535/48116947117_ce97981c04_n.jpg",
    "id_album": "-1846404630",
    "description": "Ford_248657",
    "title": "Ford_248657",
    "link_img": "https://live.staticflickr.com/65535/48116947117_51c18d3e4d_o.jpg",
    "id_image": "Ford_248657",
    "count_view": 0
  },
  {
    "link_thumb": "https://live.staticflickr.com/65535/48117000241_b820ef56f3_n.jpg",
    "id_album": "-1846404630",
    "description": "Ford_318085",
    "title": "Ford_318085",
    "link_img": "https://live.staticflickr.com/65535/48117000241_29b3c5b009_o.jpg",
    "id_image": "Ford_318085",
    "count_view": 0
  },
  {
    "link_thumb": "https://live.staticflickr.com/65535/48116170053_b85e6e5870_n.jpg",
    "id_album": "1364506720",
    "description": "Ferrari_664302",
    "title": "Ferrari_664302",
    "link_img": "https://live.staticflickr.com/65535/48116170053_ee7b6a286f_o.jpg",
    "id_image": "Ferrari_664302",
    "count_view": 0
  },
  {
    "link_thumb": "https://live.staticflickr.com/65535/48123304682_3537969a69_n.jpg",
    "id_album": "1159292543",
    "description": "Volvo_990963",
    "title": "Volvo_990963",
    "link_img": "https://live.staticflickr.com/65535/48123304682_8ba78f6122_o.jpg",
    "id_image": "Volvo_990963",
    "count_view": 0
  },
  {
    "link_thumb": "https://live.staticflickr.com/65535/49889825012_dbe8077c97_n.jpg",
    "id_album": "665596159",
    "description": "2008_rv_Ferrari_rv_612_rv_Scaglietti_rv_V3_rv_1440",
    "title": "2008_rv_Ferrari_rv_612_rv_Scaglietti_rv_V3_rv_1440",
    "link_img": "https://live.staticflickr.com/65535/49889825012_5f3fc6f2d3_o.jpg",
    "id_image": "2008_rv_Ferrari_rv_612_rv_Scaglietti_rv_V3_rv_1440",
    "count_view": 0
  },
  {
    "link_thumb": "https://live.staticflickr.com/65535/48120222682_bf5936f327_n.jpg",
    "id_album": "666438681",
    "description": "Motorcycles_178806",
    "title": "Motorcycles_178806",
    "link_img": "https://live.staticflickr.com/65535/48120222682_366c007665_o.jpg",
    "id_image": "Motorcycles_178806",
    "count_view": 0
  },
  {
    "link_thumb": "https://live.staticflickr.com/65535/49892192248_8a16375e98_n.jpg",
    "id_album": "103614530",
    "description": "2009_rv_Wiesmann_rv_GT_rv_MF5_rv_20th_rv_Anniversary_rv_V1_rv_1440",
    "title": "2009_rv_Wiesmann_rv_GT_rv_MF5_rv_20th_rv_Anniversary_rv_V1_rv_1440",
    "link_img": "https://live.staticflickr.com/65535/49892192248_ac77478904_o.jpg",
    "id_image": "2009_rv_Wiesmann_rv_GT_rv_MF5_rv_20th_rv_Anniversary_rv_V1_rv_1440",
    "count_view": 0
  },
  {
    "link_thumb": "https://live.staticflickr.com/65535/48112432262_86f160a316_n.jpg",
    "id_album": "-15119147",
    "description": "Audi_477865",
    "title": "Audi_477865",
    "link_img": "https://live.staticflickr.com/65535/48112432262_ee83db2b13_o.jpg",
    "id_image": "Audi_477865",
    "count_view": 0
  },
  {
    "link_thumb": "https://live.staticflickr.com/65535/49889408263_4d1cb559c9_n.jpg",
    "id_album": "-2000594684",
    "description": "2012_rv_HSV_rv_GTS_rv_25th_rv_Anniversary_rv_Edition_rv_V3_rv_1440",
    "title": "2012_rv_HSV_rv_GTS_rv_25th_rv_Anniversary_rv_Edition_rv_V3_rv_1440",
    "link_img": "https://live.staticflickr.com/65535/49889408263_053e98104c_o.jpg",
    "id_image": "2012_rv_HSV_rv_GTS_rv_25th_rv_Anniversary_rv_Edition_rv_V3_rv_1440",
    "count_view": 0
  },
  {
    "link_thumb": "https://live.staticflickr.com/65535/49891609267_69c3c551d7_n.jpg",
    "id_album": "2122916111",
    "description": "1970_rv_Plymouth_rv_AAR_rv_Barracuda_rv_V5_rv_1536",
    "title": "1970_rv_Plymouth_rv_AAR_rv_Barracuda_rv_V5_rv_1536",
    "link_img": "https://live.staticflickr.com/65535/49891609267_5ca2a5a373_o.jpg",
    "id_image": "1970_rv_Plymouth_rv_AAR_rv_Barracuda_rv_V5_rv_1536",
    "count_view": 0
  },
  {
    "link_thumb": "https://live.staticflickr.com/65535/48116234466_5a945f175d_n.jpg",
    "id_album": "1364506720",
    "description": "Ferrari_757774",
    "title": "Ferrari_757774",
    "link_img": "https://live.staticflickr.com/65535/48116234466_769189c311_o.jpg",
    "id_image": "Ferrari_757774",
    "count_view": 0
  },
  {
    "link_thumb": "https://live.staticflickr.com/65535/49889233348_0e3e5db092_n.jpg",
    "id_album": "-559101122",
    "description": "1996_rv_Chevrolet_rv_Camaro_rv_SS_rv_V6_rv_1536",
    "title": "1996_rv_Chevrolet_rv_Camaro_rv_SS_rv_V6_rv_1536",
    "link_img": "https://live.staticflickr.com/65535/49889233348_6aa29f1e05_o.jpg",
    "id_image": "1996_rv_Chevrolet_rv_Camaro_rv_SS_rv_V6_rv_1536",
    "count_view": 0
  },
  {
    "link_thumb": "https://live.staticflickr.com/65535/48112707803_edb355a1b1_n.jpg",
    "id_album": "727633301",
    "description": "BMW_254107",
    "title": "BMW_254107",
    "link_img": "https://live.staticflickr.com/65535/48112707803_f2d7977d02_o.jpg",
    "id_image": "BMW_254107",
    "count_view": 0
  },
  {
    "link_thumb": "https://live.staticflickr.com/65535/48119157526_e930ef82c2_n.jpg",
    "id_album": "697984456",
    "description": "Maserati_935348",
    "title": "Maserati_935348",
    "link_img": "https://live.staticflickr.com/65535/48119157526_e8e9ecf31a_o.jpg",
    "id_image": "Maserati_935348",
    "count_view": 0
  },
  {
    "link_thumb": "https://live.staticflickr.com/65535/48113347977_9556274f99_n.jpg",
    "id_album": "727633301",
    "description": "BMW_932336",
    "title": "BMW_932336",
    "link_img": "https://live.staticflickr.com/65535/48113347977_b64d20d276_o.jpg",
    "id_image": "BMW_932336",
    "count_view": 0
  },
  {
    "link_thumb": "https://live.staticflickr.com/65535/48113763598_8068b78a27_n.jpg",
    "id_album": "-1721545051",
    "description": "Chevrolet_176579",
    "title": "Chevrolet_176579",
    "link_img": "https://live.staticflickr.com/65535/48113763598_2347ea9279_o.jpg",
    "id_image": "Chevrolet_176579",
    "count_view": 0
  },
  {
    "link_thumb": "https://live.staticflickr.com/65535/49892575422_51940da13b_n.jpg",
    "id_album": "-924016578",
    "description": "2007_rv_Renault_rv_Megane_rv_RS_rv_R26_rv_V2_rv_1536",
    "title": "2007_rv_Renault_rv_Megane_rv_RS_rv_R26_rv_V2_rv_1536",
    "link_img": "https://live.staticflickr.com/65535/49892575422_445522b2d6_o.jpg",
    "id_image": "2007_rv_Renault_rv_Megane_rv_RS_rv_R26_rv_V2_rv_1536",
    "count_view": 0
  },
  {
    "link_thumb": "https://live.staticflickr.com/65535/49891172357_af369eb9fb_n.jpg",
    "id_album": "-772805750",
    "description": "2017_rv_Mercedes_rv_Maybach_rv_S_rv_650_rv_Cabriolet_rv_V2_rv_2000",
    "title": "2017_rv_Mercedes_rv_Maybach_rv_S_rv_650_rv_Cabriolet_rv_V2_rv_2000",
    "link_img": "https://live.staticflickr.com/65535/49891172357_54a69e5955_o.jpg",
    "id_image": "2017_rv_Mercedes_rv_Maybach_rv_S_rv_650_rv_Cabriolet_rv_V2_rv_2000",
    "count_view": 0
  },
  {
    "link_thumb": "https://live.staticflickr.com/65535/49889786278_05d4290baa_n.jpg",
    "id_album": "-318595729",
    "description": "2013_rv_Lexus_rv_LS_rv_V5_rv_1440",
    "title": "2013_rv_Lexus_rv_LS_rv_V5_rv_1440",
    "link_img": "https://live.staticflickr.com/65535/49889786278_d9c506eafd_o.jpg",
    "id_image": "2013_rv_Lexus_rv_LS_rv_V5_rv_1440",
    "count_view": 0
  },
  {
    "link_thumb": "https://live.staticflickr.com/65535/48116282296_7e97a689a2_n.jpg",
    "id_album": "1364506720",
    "description": "Ferrari_758322",
    "title": "Ferrari_758322",
    "link_img": "https://live.staticflickr.com/65535/48116282296_36fddb4fd7_o.jpg",
    "id_image": "Ferrari_758322",
    "count_view": 0
  },
  {
    "link_thumb": "https://live.staticflickr.com/65535/49891838603_9bde8ed8d7_n.jpg",
    "id_album": "2063224475",
    "description": "2006_rv_Dodge_rv_Charger_rv_Daytona_rv_RT_rv_V2_rv_1536",
    "title": "2006_rv_Dodge_rv_Charger_rv_Daytona_rv_RT_rv_V2_rv_1536",
    "link_img": "https://live.staticflickr.com/65535/49891838603_0d7be76de5_o.jpg",
    "id_image": "2006_rv_Dodge_rv_Charger_rv_Daytona_rv_RT_rv_V2_rv_1536",
    "count_view": 0
  },
  {
    "link_thumb": "https://live.staticflickr.com/65535/48121328571_fa0dc7d586_n.jpg",
    "id_album": "-1178450892",
    "description": "Porsche_366598",
    "title": "Porsche_366598",
    "link_img": "https://live.staticflickr.com/65535/48121328571_2fd3965801_o.jpg",
    "id_image": "Porsche_366598",
    "count_view": 0
  },
  {
    "link_thumb": "https://live.staticflickr.com/65535/48114689717_00be35eb87_n.jpg",
    "id_album": "-1721545051",
    "description": "Chevrolet_879970",
    "title": "Chevrolet_879970",
    "link_img": "https://live.staticflickr.com/65535/48114689717_e117021a4c_o.jpg",
    "id_image": "Chevrolet_879970",
    "count_view": 0
  },
  {
    "link_thumb": "https://live.staticflickr.com/65535/48115013452_04e7d102a7_n.jpg",
    "id_album": "2072464184",
    "description": "Citroen_687263",
    "title": "Citroen_687263",
    "link_img": "https://live.staticflickr.com/65535/48115013452_ca37785884_o.jpg",
    "id_image": "Citroen_687263",
    "count_view": 0
  },
  {
    "link_thumb": "https://live.staticflickr.com/65535/48118297778_6cac2ab120_n.jpg",
    "id_album": "-2100339805",
    "description": "Lamborghini_256286",
    "title": "Lamborghini_256286",
    "link_img": "https://live.staticflickr.com/65535/48118297778_6014df489f_o.jpg",
    "id_image": "Lamborghini_256286",
    "count_view": 0
  },
  {
    "link_thumb": "https://live.staticflickr.com/65535/49888909183_0e7277e100_n.jpg",
    "id_album": "822895535",
    "description": "2012_rv_Falcon_rv_F7_rv_V8_rv_1440",
    "title": "2012_rv_Falcon_rv_F7_rv_V8_rv_1440",
    "link_img": "https://live.staticflickr.com/65535/49888909183_b455533a8b_o.jpg",
    "id_image": "2012_rv_Falcon_rv_F7_rv_V8_rv_1440",
    "count_view": 0
  },
  {
    "link_thumb": "https://live.staticflickr.com/65535/48119684563_293d4b78b8_n.jpg",
    "id_album": "-731054311",
    "description": "MercedesBenz_401305",
    "title": "MercedesBenz_401305",
    "link_img": "https://live.staticflickr.com/65535/48119684563_f6e1243b2c_o.jpg",
    "id_image": "MercedesBenz_401305",
    "count_view": 0
  },
  {
    "link_thumb": "https://live.staticflickr.com/65535/48118849628_80176235f9_n.jpg",
    "id_album": "1234246491",
    "description": "LandRover_893194",
    "title": "LandRover_893194",
    "link_img": "https://live.staticflickr.com/65535/48118849628_7a284da103_o.jpg",
    "id_image": "LandRover_893194",
    "count_view": 0
  },
  {
    "link_thumb": "https://live.staticflickr.com/65535/48121020397_327b985f51_n.jpg",
    "id_album": "-1123679742",
    "description": "Plymouth_155958",
    "title": "Plymouth_155958",
    "link_img": "https://live.staticflickr.com/65535/48121020397_b626331673_o.jpg",
    "id_image": "Plymouth_155958",
    "count_view": 0
  },
  {
    "link_thumb": "https://live.staticflickr.com/65535/48123233633_7b8a59717f_n.jpg",
    "id_album": "1159292543",
    "description": "Volvo_952156",
    "title": "Volvo_952156",
    "link_img": "https://live.staticflickr.com/65535/48123233633_6ff73cbdeb_o.jpg",
    "id_image": "Volvo_952156",
    "count_view": 0
  },
  {
    "link_thumb": "https://live.staticflickr.com/65535/48117632773_805f68f8dd_n.jpg",
    "id_album": "-1846404630",
    "description": "Ford_935079",
    "title": "Ford_935079",
    "link_img": "https://live.staticflickr.com/65535/48117632773_3ba5db3612_o.jpg",
    "id_image": "Ford_935079",
    "count_view": 0
  },
  {
    "link_thumb": "https://live.staticflickr.com/65535/49890081078_c206b101de_n.jpg",
    "id_album": "2123877454",
    "description": "2008_rv_Formula1_rv_McLaren_rv_MP4_rv_23_rv_V3_rv_1440",
    "title": "2008_rv_Formula1_rv_McLaren_rv_MP4_rv_23_rv_V3_rv_1440",
    "link_img": "https://live.staticflickr.com/65535/49890081078_33555d9ce1_o.jpg",
    "id_image": "2008_rv_Formula1_rv_McLaren_rv_MP4_rv_23_rv_V3_rv_1440",
    "count_view": 0
  },
  {
    "link_thumb": "https://live.staticflickr.com/65535/48114456203_4ab5526841_n.jpg",
    "id_album": "-1721545051",
    "description": "Chevrolet_612887",
    "title": "Chevrolet_612887",
    "link_img": "https://live.staticflickr.com/65535/48114456203_b62e6abfde_o.jpg",
    "id_image": "Chevrolet_612887",
    "count_view": 0
  },
  {
    "link_thumb": "https://live.staticflickr.com/65535/49891456052_fbd8a7a44b_n.jpg",
    "id_album": "-909236608",
    "description": "2006_rv_Noble_rv_M15_rv_V3_rv_1440",
    "title": "2006_rv_Noble_rv_M15_rv_V3_rv_1440",
    "link_img": "https://live.staticflickr.com/65535/49891456052_48131853d4_o.jpg",
    "id_image": "2006_rv_Noble_rv_M15_rv_V3_rv_1440",
    "count_view": 0
  },
  {
    "link_thumb": "https://live.staticflickr.com/65535/49889453843_95781ecd50_n.jpg",
    "id_album": "781714354",
    "description": "2013_rv_Jaguar_rv_Project_rv_7_rv_V3_rv_1600",
    "title": "2013_rv_Jaguar_rv_Project_rv_7_rv_V3_rv_1600",
    "link_img": "https://live.staticflickr.com/65535/49889453843_31ba6d58a5_o.jpg",
    "id_image": "2013_rv_Jaguar_rv_Project_rv_7_rv_V3_rv_1600",
    "count_view": 0
  },
  {
    "link_thumb": "https://live.staticflickr.com/65535/48119113518_c2fd3c27af_n.jpg",
    "id_album": "697984456",
    "description": "Maserati_405476",
    "title": "Maserati_405476",
    "link_img": "https://live.staticflickr.com/65535/48119113518_226e073a17_o.jpg",
    "id_image": "Maserati_405476",
    "count_view": 0
  },
  {
    "link_thumb": "https://live.staticflickr.com/65535/48111693013_48516ef879_n.jpg",
    "id_album": "1482519782",
    "description": "Hyundai_256063",
    "title": "Hyundai_256063",
    "link_img": "https://live.staticflickr.com/65535/48111693013_8b6dae4cdc_o.jpg",
    "id_image": "Hyundai_256063",
    "count_view": 0
  },
  {
    "link_thumb": "https://live.staticflickr.com/65535/48121002511_fd28d3a715_n.jpg",
    "id_album": "-1123679742",
    "description": "Plymouth_404028",
    "title": "Plymouth_404028",
    "link_img": "https://live.staticflickr.com/65535/48121002511_e1291befb2_o.jpg",
    "id_image": "Plymouth_404028",
    "count_view": 0
  },
  {
    "link_thumb": "https://live.staticflickr.com/65535/49888701591_a1938bf789_n.jpg",
    "id_album": "-1199458397",
    "description": "2005_rv_Bugatti_rv_Veyron_rv_V3_rv_1440",
    "title": "2005_rv_Bugatti_rv_Veyron_rv_V3_rv_1440",
    "link_img": "https://live.staticflickr.com/65535/49888701591_9bb61679e3_o.jpg",
    "id_image": "2005_rv_Bugatti_rv_Veyron_rv_V3_rv_1440",
    "count_view": 0
  },
  {
    "link_thumb": "https://live.staticflickr.com/65535/48123047372_5852fa7333_n.jpg",
    "id_album": "-150952028",
    "description": "Volkswagen_436044",
    "title": "Volkswagen_436044",
    "link_img": "https://live.staticflickr.com/65535/48123047372_1e524a8e54_o.jpg",
    "id_image": "Volkswagen_436044",
    "count_view": 0
  },
  {
    "link_thumb": "https://live.staticflickr.com/65535/49892420321_085c0cac44_n.jpg",
    "id_album": "1416792536",
    "description": "2006_rv_Subaru_rv_Legacy_rv_STI_rv_V1_rv_1440",
    "title": "2006_rv_Subaru_rv_Legacy_rv_STI_rv_V1_rv_1440",
    "link_img": "https://live.staticflickr.com/65535/49892420321_ee140352df_o.jpg",
    "id_image": "2006_rv_Subaru_rv_Legacy_rv_STI_rv_V1_rv_1440",
    "count_view": 0
  },
  {
    "link_thumb": "https://live.staticflickr.com/65535/49889456737_25f31cbdde_n.jpg",
    "id_album": "357418516",
    "description": "2019_rv_Alpina_rv_B3_rv_Touring_rv_V4_rv_2160",
    "title": "2019_rv_Alpina_rv_B3_rv_Touring_rv_V4_rv_2160",
    "link_img": "https://live.staticflickr.com/65535/49889456737_eff7003a6d_o.jpg",
    "id_image": "2019_rv_Alpina_rv_B3_rv_Touring_rv_V4_rv_2160",
    "count_view": 0
  },
  {
    "link_thumb": "https://live.staticflickr.com/65535/48113374732_24a647ef98_n.jpg",
    "id_album": "727633301",
    "description": "BMW_974419",
    "title": "BMW_974419",
    "link_img": "https://live.staticflickr.com/65535/48113374732_d63c0c5e48_o.jpg",
    "id_image": "BMW_974419",
    "count_view": 0
  },
  {
    "link_thumb": "https://live.staticflickr.com/65535/49890416788_daa4a6d7ff_n.jpg",
    "id_album": "-1503939287",
    "description": "2016_rv_Mini_rv_Vision_rv_Next_rv_100_rv_Concept_rv_V3_rv_2000",
    "title": "2016_rv_Mini_rv_Vision_rv_Next_rv_100_rv_Concept_rv_V3_rv_2000",
    "link_img": "https://live.staticflickr.com/65535/49890416788_d74e8fa12f_o.jpg",
    "id_image": "2016_rv_Mini_rv_Vision_rv_Next_rv_100_rv_Concept_rv_V3_rv_2000",
    "count_view": 0
  },
  {
    "link_thumb": "https://live.staticflickr.com/65535/49892991727_4739bc8841_n.jpg",
    "id_album": "-1154480391",
    "description": "2013_rv_Volvo_rv_Coupe_rv_Concept_rv_V2_rv_1600",
    "title": "2013_rv_Volvo_rv_Coupe_rv_Concept_rv_V2_rv_1600",
    "link_img": "https://live.staticflickr.com/65535/49892991727_121dc94cc9_o.jpg",
    "id_image": "2013_rv_Volvo_rv_Coupe_rv_Concept_rv_V2_rv_1600",
    "count_view": 0
  },
  {
    "link_thumb": "https://live.staticflickr.com/65535/48121955952_3305a8ea32_n.jpg",
    "id_album": "-1377335499",
    "description": "RangeRover_258952",
    "title": "RangeRover_258952",
    "link_img": "https://live.staticflickr.com/65535/48121955952_9407819861_o.jpg",
    "id_image": "RangeRover_258952",
    "count_view": 0
  },
  {
    "link_thumb": "https://live.staticflickr.com/65535/48115480226_cf7552f130_n.jpg",
    "id_album": "413141323",
    "description": "Dodge_759662",
    "title": "Dodge_759662",
    "link_img": "https://live.staticflickr.com/65535/48115480226_6e56bd7fe1_o.jpg",
    "id_image": "Dodge_759662",
    "count_view": 0
  },
  {
    "link_thumb": "https://live.staticflickr.com/65535/49888196233_ee6bba4aae_n.jpg",
    "id_album": "-1718242549",
    "description": "2016_rv_Acura_rv_Precision_rv_Concept_rv_V4_rv_2000",
    "title": "2016_rv_Acura_rv_Precision_rv_Concept_rv_V4_rv_2000",
    "link_img": "https://live.staticflickr.com/65535/49888196233_42b1b88c93_o.jpg",
    "id_image": "2016_rv_Acura_rv_Precision_rv_Concept_rv_V4_rv_2000",
    "count_view": 0
  },
  {
    "link_thumb": "https://live.staticflickr.com/65535/49888978553_43b55738fe_n.jpg",
    "id_album": "1471706463",
    "description": "2019_rv_Ferrari_rv_488_rv_Pista_rv_V2_rv_2000",
    "title": "2019_rv_Ferrari_rv_488_rv_Pista_rv_V2_rv_2000",
    "link_img": "https://live.staticflickr.com/65535/49888978553_4b6e98b848_o.jpg",
    "id_image": "2019_rv_Ferrari_rv_488_rv_Pista_rv_V2_rv_2000",
    "count_view": 0
  },
  {
    "link_thumb": "https://live.staticflickr.com/65535/48112892851_5be3c8e19b_n.jpg",
    "id_album": "727633301",
    "description": "BMW_488524",
    "title": "BMW_488524",
    "link_img": "https://live.staticflickr.com/65535/48112892851_2d2a1d5e46_o.jpg",
    "id_image": "BMW_488524",
    "count_view": 0
  },
  {
    "link_thumb": "https://live.staticflickr.com/65535/49891815888_dc356082cb_n.jpg",
    "id_album": "-283016394",
    "description": "2002_rv_Subaru_rv_Impreza_rv_WRX_rv_STI_rv_V6_rv_1440",
    "title": "2002_rv_Subaru_rv_Impreza_rv_WRX_rv_STI_rv_V6_rv_1440",
    "link_img": "https://live.staticflickr.com/65535/49891815888_c25c60f15a_o.jpg",
    "id_image": "2002_rv_Subaru_rv_Impreza_rv_WRX_rv_STI_rv_V6_rv_1440",
    "count_view": 0
  },
  {
    "link_thumb": "https://live.staticflickr.com/65535/48121000581_639117164d_n.jpg",
    "id_album": "-1123679742",
    "description": "Plymouth_401009",
    "title": "Plymouth_401009",
    "link_img": "https://live.staticflickr.com/65535/48121000581_7e6f8f4403_o.jpg",
    "id_image": "Plymouth_401009",
    "count_view": 0
  },
  {
    "link_thumb": "https://live.staticflickr.com/65535/49890883193_7753592f34_n.jpg",
    "id_album": "1743682947",
    "description": "2012_rv_Porsche_rv_Cayenne_rv_Turbo_rv_S_rv_V3_rv_1440",
    "title": "2012_rv_Porsche_rv_Cayenne_rv_Turbo_rv_S_rv_V3_rv_1440",
    "link_img": "https://live.staticflickr.com/65535/49890883193_96ef7b6bb0_o.jpg",
    "id_image": "2012_rv_Porsche_rv_Cayenne_rv_Turbo_rv_S_rv_V3_rv_1440",
    "count_view": 0
  },
  {
    "link_thumb": "https://live.staticflickr.com/65535/48115792252_0b39558022_n.jpg",
    "id_album": "1364506720",
    "description": "Ferrari_265621",
    "title": "Ferrari_265621",
    "link_img": "https://live.staticflickr.com/65535/48115792252_3968eb53c0_o.jpg",
    "id_image": "Ferrari_265621",
    "count_view": 0
  },
  {
    "link_thumb": "https://live.staticflickr.com/65535/48114401323_b6d8b29029_n.jpg",
    "id_album": "-1721545051",
    "description": "Chevrolet_505564",
    "title": "Chevrolet_505564",
    "link_img": "https://live.staticflickr.com/65535/48114401323_020809ec0a_o.jpg",
    "id_image": "Chevrolet_505564",
    "count_view": 0
  },
  {
    "link_thumb": "https://live.staticflickr.com/65535/48116864557_f4538071c4_n.jpg",
    "id_album": "-1846404630",
    "description": "Ford_222120",
    "title": "Ford_222120",
    "link_img": "https://live.staticflickr.com/65535/48116864557_8d6422ceda_o.jpg",
    "id_image": "Ford_222120",
    "count_view": 0
  },
  {
    "link_thumb": "https://live.staticflickr.com/65535/49892576736_a021fa8fbf_n.jpg",
    "id_album": "-1220388988",
    "description": "2015_rv_Audi_rv_R8_rv_LMX_rv_V4_rv_1600",
    "title": "2015_rv_Audi_rv_R8_rv_LMX_rv_V4_rv_1600",
    "link_img": "https://live.staticflickr.com/65535/49892576736_0017fc93be_o.jpg",
    "id_image": "2015_rv_Audi_rv_R8_rv_LMX_rv_V4_rv_1600",
    "count_view": 0
  },
  {
    "link_thumb": "https://live.staticflickr.com/65535/49889675677_31150ea3b9_n.jpg",
    "id_album": "-39098563",
    "description": "2010_rv_Eagle_rv_Speedster_rv_V9_rv_1600",
    "title": "2010_rv_Eagle_rv_Speedster_rv_V9_rv_1600",
    "link_img": "https://live.staticflickr.com/65535/49889675677_58abe26bda_o.jpg",
    "id_image": "2010_rv_Eagle_rv_Speedster_rv_V9_rv_1600",
    "count_view": 0
  },
  {
    "link_thumb": "https://live.staticflickr.com/65535/49890316952_9aaf4ffe74_n.jpg",
    "id_album": "1773051543",
    "description": "2014_rv_Jaguar_rv_XFR_rv_S_rv_V7_rv_1600",
    "title": "2014_rv_Jaguar_rv_XFR_rv_S_rv_V7_rv_1600",
    "link_img": "https://live.staticflickr.com/65535/49890316952_ffa7c92b38_o.jpg",
    "id_image": "2014_rv_Jaguar_rv_XFR_rv_S_rv_V7_rv_1600",
    "count_view": 0
  },
  {
    "link_thumb": "https://live.staticflickr.com/65535/48119982713_df61b25276_n.jpg",
    "id_album": "-731054311",
    "description": "MercedesBenz_984380",
    "title": "MercedesBenz_984380",
    "link_img": "https://live.staticflickr.com/65535/48119982713_0a16946c1b_o.jpg",
    "id_image": "MercedesBenz_984380",
    "count_view": 0
  },
  {
    "link_thumb": "https://live.staticflickr.com/65535/48118024366_15546e1252_n.jpg",
    "id_album": "-843028318",
    "description": "Jaguar_885773",
    "title": "Jaguar_885773",
    "link_img": "https://live.staticflickr.com/65535/48118024366_38f827193c_o.jpg",
    "id_image": "Jaguar_885773",
    "count_view": 0
  },
  {
    "link_thumb": "https://live.staticflickr.com/65535/48117115717_9c07dfbec3_n.jpg",
    "id_album": "-1846404630",
    "description": "Ford_330626",
    "title": "Ford_330626",
    "link_img": "https://live.staticflickr.com/65535/48117115717_6c429dca1a_o.jpg",
    "id_image": "Ford_330626",
    "count_view": 0
  },
  {
    "link_thumb": "https://live.staticflickr.com/65535/49889532773_460d90a54f_n.jpg",
    "id_album": "1719484632",
    "description": "2018_rv_Kia_rv_Stinger_rv_GT_rv_V10_rv_2000",
    "title": "2018_rv_Kia_rv_Stinger_rv_GT_rv_V10_rv_2000",
    "link_img": "https://live.staticflickr.com/65535/49889532773_783681b598_o.jpg",
    "id_image": "2018_rv_Kia_rv_Stinger_rv_GT_rv_V10_rv_2000",
    "count_view": 0
  },
  {
    "link_thumb": "https://live.staticflickr.com/65535/48112470766_5e9ed71a3b_n.jpg",
    "id_album": "-15119147",
    "description": "Audi_985548",
    "title": "Audi_985548",
    "link_img": "https://live.staticflickr.com/65535/48112470766_53d7a79cc8_o.jpg",
    "id_image": "Audi_985548",
    "count_view": 0
  },
  {
    "link_thumb": "https://live.staticflickr.com/65535/49890994697_0873c0be78_n.jpg",
    "id_album": "-538739456",
    "description": "2017_rv_Mercedes_rv_Benz_rv_C43_rv_AMG_rv_Cabriolet_rv_V2_rv_2000",
    "title": "2017_rv_Mercedes_rv_Benz_rv_C43_rv_AMG_rv_Cabriolet_rv_V2_rv_2000",
    "link_img": "https://live.staticflickr.com/65535/49890994697_9cc228e7c7_o.jpg",
    "id_image": "2017_rv_Mercedes_rv_Benz_rv_C43_rv_AMG_rv_Cabriolet_rv_V2_rv_2000",
    "count_view": 0
  },
  {
    "link_thumb": "https://live.staticflickr.com/65535/48121631773_b823855c98_n.jpg",
    "id_album": "-1178450892",
    "description": "Porsche_717721",
    "title": "Porsche_717721",
    "link_img": "https://live.staticflickr.com/65535/48121631773_ec6956736f_o.jpg",
    "id_image": "Porsche_717721",
    "count_view": 0
  },
  {
    "link_thumb": "https://live.staticflickr.com/65535/48116764753_69911ac453_n.jpg",
    "id_album": "-1846404630",
    "description": "Ford_200632",
    "title": "Ford_200632",
    "link_img": "https://live.staticflickr.com/65535/48116764753_b7c4dd7cf4_o.jpg",
    "id_image": "Ford_200632",
    "count_view": 0
  },
  {
    "link_thumb": "https://live.staticflickr.com/65535/48113382198_fe458a864d_n.jpg",
    "id_album": "1456070666",
    "description": "Bugatti_317569",
    "title": "Bugatti_317569",
    "link_img": "https://live.staticflickr.com/65535/48113382198_9f261bac08_o.jpg",
    "id_image": "Bugatti_317569",
    "count_view": 0
  },
  {
    "link_thumb": "https://live.staticflickr.com/65535/48119343251_f9a95225b3_n.jpg",
    "id_album": "990865885",
    "description": "McLaren_769555",
    "title": "McLaren_769555",
    "link_img": "https://live.staticflickr.com/65535/48119343251_619be0464e_o.jpg",
    "id_image": "McLaren_769555",
    "count_view": 0
  },
  {
    "link_thumb": "https://live.staticflickr.com/65535/48119147327_741864b93f_n.jpg",
    "id_album": "697984456",
    "description": "Maserati_251384",
    "title": "Maserati_251384",
    "link_img": "https://live.staticflickr.com/65535/48119147327_9c66a5eb87_o.jpg",
    "id_image": "Maserati_251384",
    "count_view": 0
  },
  {
    "link_thumb": "https://live.staticflickr.com/65535/48118061512_33b51a21f9_n.jpg",
    "id_album": "-843028318",
    "description": "Jaguar_418347",
    "title": "Jaguar_418347",
    "link_img": "https://live.staticflickr.com/65535/48118061512_54f35e2a2c_o.jpg",
    "id_image": "Jaguar_418347",
    "count_view": 0
  },
  {
    "link_thumb": "https://live.staticflickr.com/65535/49890282037_e53878c1c9_n.jpg",
    "id_album": "781714354",
    "description": "2013_rv_Jaguar_rv_Project_rv_7_rv_V4_rv_1600",
    "title": "2013_rv_Jaguar_rv_Project_rv_7_rv_V4_rv_1600",
    "link_img": "https://live.staticflickr.com/65535/49890282037_7e7f5cea80_o.jpg",
    "id_image": "2013_rv_Jaguar_rv_Project_rv_7_rv_V4_rv_1600",
    "count_view": 0
  },
  {
    "link_thumb": "https://live.staticflickr.com/65535/48119361252_c611eab144_n.jpg",
    "id_album": "990865885",
    "description": "McLaren_334286",
    "title": "McLaren_334286",
    "link_img": "https://live.staticflickr.com/65535/48119361252_7462c6ff79_o.jpg",
    "id_image": "McLaren_334286",
    "count_view": 0
  },
  {
    "link_thumb": "https://live.staticflickr.com/65535/48115686346_e2a229a40a_n.jpg",
    "id_album": "1364506720",
    "description": "Ferrari_255138",
    "title": "Ferrari_255138",
    "link_img": "https://live.staticflickr.com/65535/48115686346_3946b2ba2a_o.jpg",
    "id_image": "Ferrari_255138",
    "count_view": 0
  },
  {
    "link_thumb": "https://live.staticflickr.com/65535/49892206318_125a43c256_n.jpg",
    "id_album": "1158113959",
    "description": "2020_rv_Aston_rv_Martin_rv_DBS_rv_GT_rv_Zagato_rv_V1_rv_2160",
    "title": "2020_rv_Aston_rv_Martin_rv_DBS_rv_GT_rv_Zagato_rv_V1_rv_2160",
    "link_img": "https://live.staticflickr.com/65535/49892206318_ccb03c659c_o.jpg",
    "id_image": "2020_rv_Aston_rv_Martin_rv_DBS_rv_GT_rv_Zagato_rv_V1_rv_2160",
    "count_view": 0
  },
  {
    "link_thumb": "https://live.staticflickr.com/65535/48111788857_688ed960fd_n.jpg",
    "id_album": "1482519782",
    "description": "Hyundai_936089",
    "title": "Hyundai_936089",
    "link_img": "https://live.staticflickr.com/65535/48111788857_f047c795b9_o.jpg",
    "id_image": "Hyundai_936089",
    "count_view": 0
  },
  {
    "link_thumb": "https://live.staticflickr.com/65535/48122045157_173fcf4a37_n.jpg",
    "id_album": "-1217333387",
    "description": "Renault_143140",
    "title": "Renault_143140",
    "link_img": "https://live.staticflickr.com/65535/48122045157_99314f4ff7_o.jpg",
    "id_image": "Renault_143140",
    "count_view": 0
  },
  {
    "link_thumb": "https://live.staticflickr.com/65535/48114291967_fa479d6d81_n.jpg",
    "id_album": "-1721545051",
    "description": "Chevrolet_401782",
    "title": "Chevrolet_401782",
    "link_img": "https://live.staticflickr.com/65535/48114291967_1c34ce43e5_o.jpg",
    "id_image": "Chevrolet_401782",
    "count_view": 0
  },
  {
    "link_thumb": "https://live.staticflickr.com/65535/49888795173_8f9c640b53_n.jpg",
    "id_album": "-597555173",
    "description": "2005_rv_Chrysler_rv_Crossfire_rv_SRT6_rv_V1_rv_1536",
    "title": "2005_rv_Chrysler_rv_Crossfire_rv_SRT6_rv_V1_rv_1536",
    "link_img": "https://live.staticflickr.com/65535/49888795173_1626798519_o.jpg",
    "id_image": "2005_rv_Chrysler_rv_Crossfire_rv_SRT6_rv_V1_rv_1536",
    "count_view": 0
  },
  {
    "link_thumb": "https://live.staticflickr.com/65535/48121477646_eb4c9d34de_n.jpg",
    "id_album": "-1178450892",
    "description": "Porsche_598068",
    "title": "Porsche_598068",
    "link_img": "https://live.staticflickr.com/65535/48121477646_3dcb3e5e2f_o.jpg",
    "id_image": "Porsche_598068",
    "count_view": 0
  },
  {
    "link_thumb": "https://live.staticflickr.com/65535/49890316908_4f11d14014_n.jpg",
    "id_album": "-21475779",
    "description": "2017_rv_Mercedes_rv_Benz_rv_AMG_rv_GT_rv_C_rv_Roadster_rv_V9_rv_2000",
    "title": "2017_rv_Mercedes_rv_Benz_rv_AMG_rv_GT_rv_C_rv_Roadster_rv_V9_rv_2000",
    "link_img": "https://live.staticflickr.com/65535/49890316908_d5f9d753a4_o.jpg",
    "id_image": "2017_rv_Mercedes_rv_Benz_rv_AMG_rv_GT_rv_C_rv_Roadster_rv_V9_rv_2000",
    "count_view": 0
  },
  {
    "link_thumb": "https://live.staticflickr.com/65535/48112288826_c629f44d77_n.jpg",
    "id_album": "-15119147",
    "description": "Audi_426484",
    "title": "Audi_426484",
    "link_img": "https://live.staticflickr.com/65535/48112288826_3f48c89a9d_o.jpg",
    "id_image": "Audi_426484",
    "count_view": 0
  },
  {
    "link_thumb": "https://live.staticflickr.com/65535/48122046862_23c5f35e18_n.jpg",
    "id_album": "-1217333387",
    "description": "Renault_145304",
    "title": "Renault_145304",
    "link_img": "https://live.staticflickr.com/65535/48122046862_dc7843f9c7_o.jpg",
    "id_image": "Renault_145304",
    "count_view": 0
  },
  {
    "link_thumb": "https://live.staticflickr.com/65535/48123174872_f917f9414f_n.jpg",
    "id_album": "-150952028",
    "description": "Volkswagen_948945",
    "title": "Volkswagen_948945",
    "link_img": "https://live.staticflickr.com/65535/48123174872_a2b263af89_o.jpg",
    "id_image": "Volkswagen_948945",
    "count_view": 0
  },
  {
    "link_thumb": "https://live.staticflickr.com/65535/49892231836_51dc7c56d4_n.jpg",
    "id_album": "200874695",
    "description": "2012_rv_Renault_rv_Alpine_rv_A_rv_110_rv_50_rv_Concept_rv_V3_rv_1440",
    "title": "2012_rv_Renault_rv_Alpine_rv_A_rv_110_rv_50_rv_Concept_rv_V3_rv_1440",
    "link_img": "https://live.staticflickr.com/65535/49892231836_38cb4cd2ce_o.jpg",
    "id_image": "2012_rv_Renault_rv_Alpine_rv_A_rv_110_rv_50_rv_Concept_rv_V3_rv_1440",
    "count_view": 0
  },
  {
    "link_thumb": "https://live.staticflickr.com/65535/48117307536_a94d13ec02_n.jpg",
    "id_album": "-1846404630",
    "description": "Ford_559604",
    "title": "Ford_559604",
    "link_img": "https://live.staticflickr.com/65535/48117307536_a4317a10b7_o.jpg",
    "id_image": "Ford_559604",
    "count_view": 0
  },
  {
    "link_thumb": "https://live.staticflickr.com/65535/48115793448_c21cbe866b_n.jpg",
    "id_album": "1364506720",
    "description": "Ferrari_292153",
    "title": "Ferrari_292153",
    "link_img": "https://live.staticflickr.com/65535/48115793448_2b26135fa3_o.jpg",
    "id_image": "Ferrari_292153",
    "count_view": 0
  },
  {
    "link_thumb": "https://live.staticflickr.com/65535/49891947898_066ab6d61d_n.jpg",
    "id_album": "-91950429",
    "description": "2008_rv_Subaru_rv_Impreza_rv_WRX_rv_V3_rv_1440",
    "title": "2008_rv_Subaru_rv_Impreza_rv_WRX_rv_V3_rv_1440",
    "link_img": "https://live.staticflickr.com/65535/49891947898_32ae7cf215_o.jpg",
    "id_image": "2008_rv_Subaru_rv_Impreza_rv_WRX_rv_V3_rv_1440",
    "count_view": 0
  },
  {
    "link_thumb": "https://live.staticflickr.com/65535/48112532647_bbb497214b_n.jpg",
    "id_album": "-15119147",
    "description": "Audi_906783",
    "title": "Audi_906783",
    "link_img": "https://live.staticflickr.com/65535/48112532647_a5c116a4f4_o.jpg",
    "id_image": "Audi_906783",
    "count_view": 0
  },
  {
    "link_thumb": "https://live.staticflickr.com/65535/49890684641_75c138288b_n.jpg",
    "id_album": "-538739456",
    "description": "2017_rv_Mercedes_rv_Benz_rv_C_rv_Class_rv_Coupe_rv_V5_rv_1600",
    "title": "2017_rv_Mercedes_rv_Benz_rv_C_rv_Class_rv_Coupe_rv_V5_rv_1600",
    "link_img": "https://live.staticflickr.com/65535/49890684641_20e03f5cdd_o.jpg",
    "id_image": "2017_rv_Mercedes_rv_Benz_rv_C_rv_Class_rv_Coupe_rv_V5_rv_1600",
    "count_view": 0
  },
  {
    "link_thumb": "https://live.staticflickr.com/65535/49889615612_c189e6f3b9_n.jpg",
    "id_album": "91016594",
    "description": "2003_rv_Chrysler_rv_300C_rv_Touring_rv_Concept_rv_V2_rv_1536",
    "title": "2003_rv_Chrysler_rv_300C_rv_Touring_rv_Concept_rv_V2_rv_1536",
    "link_img": "https://live.staticflickr.com/65535/49889615612_b0acd2f7d3_o.jpg",
    "id_image": "2003_rv_Chrysler_rv_300C_rv_Touring_rv_Concept_rv_V2_rv_1536",
    "count_view": 0
  },
  {
    "link_thumb": "https://live.staticflickr.com/65535/48123151718_4fa3f1e85a_n.jpg",
    "id_album": "1159292543",
    "description": "Volvo_342472",
    "title": "Volvo_342472",
    "link_img": "https://live.staticflickr.com/65535/48123151718_896a120695_o.jpg",
    "id_image": "Volvo_342472",
    "count_view": 0
  },
  {
    "link_thumb": "https://live.staticflickr.com/65535/48112252346_f9818daf0d_n.jpg",
    "id_album": "-15119147",
    "description": "Audi_253687",
    "title": "Audi_253687",
    "link_img": "https://live.staticflickr.com/65535/48112252346_32bba5d641_o.jpg",
    "id_image": "Audi_253687",
    "count_view": 0
  },
  {
    "link_thumb": "https://live.staticflickr.com/65535/48112154738_7a77e8a126_n.jpg",
    "id_album": "1546790746",
    "description": "AstonMartin_370186",
    "title": "AstonMartin_370186",
    "link_img": "https://live.staticflickr.com/65535/48112154738_dbba68784d_o.jpg",
    "id_image": "AstonMartin_370186",
    "count_view": 0
  },
  {
    "link_thumb": "https://live.staticflickr.com/65535/49892993202_e3fd94d649_n.jpg",
    "id_album": "-1595779521",
    "description": "2020_rv_Polestar_rv_1_rv_V2_rv_2160",
    "title": "2020_rv_Polestar_rv_1_rv_V2_rv_2160",
    "link_img": "https://live.staticflickr.com/65535/49892993202_fa2463780e_o.jpg",
    "id_image": "2020_rv_Polestar_rv_1_rv_V2_rv_2160",
    "count_view": 0
  },
  {
    "link_thumb": "https://live.staticflickr.com/65535/48120430588_5ee42b73a4_n.jpg",
    "id_album": "810634050",
    "description": "Nissan_400188",
    "title": "Nissan_400188",
    "link_img": "https://live.staticflickr.com/65535/48120430588_f9b12d35c5_o.jpg",
    "id_image": "Nissan_400188",
    "count_view": 0
  },
  {
    "link_thumb": "https://live.staticflickr.com/65535/49889374628_be0da799e2_n.jpg",
    "id_album": "159808189",
    "description": "1969_rv_Holden_rv_Hurricane_rv_Concept_rv_V3_rv_1536",
    "title": "1969_rv_Holden_rv_Hurricane_rv_Concept_rv_V3_rv_1536",
    "link_img": "https://live.staticflickr.com/65535/49889374628_ac2a186fca_o.jpg",
    "id_image": "1969_rv_Holden_rv_Hurricane_rv_Concept_rv_V3_rv_1536",
    "count_view": 0
  },
  {
    "link_thumb": "https://live.staticflickr.com/65535/48113049316_e5717fa768_n.jpg",
    "id_album": "727633301",
    "description": "BMW_745693",
    "title": "BMW_745693",
    "link_img": "https://live.staticflickr.com/65535/48113049316_427b90198c_o.jpg",
    "id_image": "BMW_745693",
    "count_view": 0
  },
  {
    "link_thumb": "https://live.staticflickr.com/65535/48114241322_94a7b1e686_n.jpg",
    "id_album": "-1721545051",
    "description": "Chevrolet_362778",
    "title": "Chevrolet_362778",
    "link_img": "https://live.staticflickr.com/65535/48114241322_943e59184e_o.jpg",
    "id_image": "Chevrolet_362778",
    "count_view": 0
  },
  {
    "link_thumb": "https://live.staticflickr.com/65535/49892669257_57e3fb6863_n.jpg",
    "id_album": "2063224475",
    "description": "2015_rv_Ford_rv_Mustang_rv_GT_rv_Convertible_rv_V2_rv_1600",
    "title": "2015_rv_Ford_rv_Mustang_rv_GT_rv_Convertible_rv_V2_rv_1600",
    "link_img": "https://live.staticflickr.com/65535/49892669257_37aa8b4b01_o.jpg",
    "id_image": "2015_rv_Ford_rv_Mustang_rv_GT_rv_Convertible_rv_V2_rv_1600",
    "count_view": 0
  },
  {
    "link_thumb": "https://live.staticflickr.com/65535/48119654362_8d77b621dd_n.jpg",
    "id_album": "-731054311",
    "description": "MercedesBenz_273659",
    "title": "MercedesBenz_273659",
    "link_img": "https://live.staticflickr.com/65535/48119654362_4f1652b08b_o.jpg",
    "id_image": "MercedesBenz_273659",
    "count_view": 0
  },
  {
    "link_thumb": "https://live.staticflickr.com/65535/48121142332_19600d74c7_n.jpg",
    "id_album": "-2099496752",
    "description": "Pontiac_143524",
    "title": "Pontiac_143524",
    "link_img": "https://live.staticflickr.com/65535/48121142332_b4b4652653_o.jpg",
    "id_image": "Pontiac_143524",
    "count_view": 0
  },
  {
    "link_thumb": "https://live.staticflickr.com/65535/49889941621_4c47b8f3a5_n.jpg",
    "id_album": "-1565243236",
    "description": "2018_rv_Hyundai_rv_i30_rv_N_rv_V2_rv_2000",
    "title": "2018_rv_Hyundai_rv_i30_rv_N_rv_V2_rv_2000",
    "link_img": "https://live.staticflickr.com/65535/49889941621_ac308bc516_o.jpg",
    "id_image": "2018_rv_Hyundai_rv_i30_rv_N_rv_V2_rv_2000",
    "count_view": 0
  },
  {
    "link_thumb": "https://live.staticflickr.com/65535/48118226133_79f6a5cabd_n.jpg",
    "id_album": "1911063798",
    "description": "Koenigsegg_188671",
    "title": "Koenigsegg_188671",
    "link_img": "https://live.staticflickr.com/65535/48118226133_b6fbcf732d_o.jpg",
    "id_image": "Koenigsegg_188671",
    "count_view": 0
  },
  {
    "link_thumb": "https://live.staticflickr.com/65535/48113076633_f6067907e4_n.jpg",
    "id_album": "727633301",
    "description": "BMW_720788",
    "title": "BMW_720788",
    "link_img": "https://live.staticflickr.com/65535/48113076633_b25b60f1a6_o.jpg",
    "id_image": "BMW_720788",
    "count_view": 0
  },
  {
    "link_thumb": "https://live.staticflickr.com/65535/48114333908_0011144a51_n.jpg",
    "id_album": "-1721545051",
    "description": "Chevrolet_485462",
    "title": "Chevrolet_485462",
    "link_img": "https://live.staticflickr.com/65535/48114333908_e5c794b8cd_o.jpg",
    "id_image": "Chevrolet_485462",
    "count_view": 0
  },
  {
    "link_thumb": "https://live.staticflickr.com/65535/48118371081_1bc497eff0_n.jpg",
    "id_album": "-2100339805",
    "description": "Lamborghini_362339",
    "title": "Lamborghini_362339",
    "link_img": "https://live.staticflickr.com/65535/48118371081_1ec99b99b9_o.jpg",
    "id_image": "Lamborghini_362339",
    "count_view": 0
  },
  {
    "link_thumb": "https://live.staticflickr.com/65535/48119475808_b7c6093c8d_n.jpg",
    "id_album": "-731054311",
    "description": "MercedesBenz_147489",
    "title": "MercedesBenz_147489",
    "link_img": "https://live.staticflickr.com/65535/48119475808_2a5c78701b_o.jpg",
    "id_image": "MercedesBenz_147489",
    "count_view": 0
  },
  {
    "link_thumb": "https://live.staticflickr.com/65535/48118038917_6e68dae531_n.jpg",
    "id_album": "427416146",
    "description": "Hummer_328405",
    "title": "Hummer_328405",
    "link_img": "https://live.staticflickr.com/65535/48118038917_d96c231881_o.jpg",
    "id_image": "Hummer_328405",
    "count_view": 0
  },
  {
    "link_thumb": "https://live.staticflickr.com/65535/48122115738_8f0dd77ac5_n.jpg",
    "id_album": "1536700661",
    "description": "RollsRoyce_193386",
    "title": "RollsRoyce_193386",
    "link_img": "https://live.staticflickr.com/65535/48122115738_0660637381_o.jpg",
    "id_image": "RollsRoyce_193386",
    "count_view": 0
  },
  {
    "link_thumb": "https://live.staticflickr.com/65535/48118996102_dee6a1a429_n.jpg",
    "id_album": "446908717",
    "description": "Lexus_880862",
    "title": "Lexus_880862",
    "link_img": "https://live.staticflickr.com/65535/48118996102_37c670cbc3_o.jpg",
    "id_image": "Lexus_880862",
    "count_view": 0
  },
  {
    "link_thumb": "https://live.staticflickr.com/65535/49889610232_5b8964334c_n.jpg",
    "id_album": "210584256",
    "description": "2015_rv_Chevrolet_rv_Bolt_rv_EV_rv_Concept_rv_V1_rv_1600",
    "title": "2015_rv_Chevrolet_rv_Bolt_rv_EV_rv_Concept_rv_V1_rv_1600",
    "link_img": "https://live.staticflickr.com/65535/49889610232_fe48e2ab55_o.jpg",
    "id_image": "2015_rv_Chevrolet_rv_Bolt_rv_EV_rv_Concept_rv_V1_rv_1600",
    "count_view": 0
  },
  {
    "link_thumb": "https://live.staticflickr.com/65535/48123179196_48d25090ec_n.jpg",
    "id_album": "1159292543",
    "description": "Volvo_879803",
    "title": "Volvo_879803",
    "link_img": "https://live.staticflickr.com/65535/48123179196_7f513c3296_o.jpg",
    "id_image": "Volvo_879803",
    "count_view": 0
  },
  {
    "link_thumb": "https://live.staticflickr.com/65535/49888917841_d579202b69_n.jpg",
    "id_album": "-15119147",
    "description": "2015_rv_Audi_rv_R8_rv_LMS_rv_V1_rv_1600",
    "title": "2015_rv_Audi_rv_R8_rv_LMS_rv_V1_rv_1600",
    "link_img": "https://live.staticflickr.com/65535/49888917841_4265281860_o.jpg",
    "id_image": "2015_rv_Audi_rv_R8_rv_LMS_rv_V1_rv_1600",
    "count_view": 0
  },
  {
    "link_thumb": "https://live.staticflickr.com/65535/49889124153_42529711f5_n.jpg",
    "id_album": "1558646706",
    "description": "2013_rv_Dodge_rv_SRT_rv_Viper_rv_V4_rv_1600",
    "title": "2013_rv_Dodge_rv_SRT_rv_Viper_rv_V4_rv_1600",
    "link_img": "https://live.staticflickr.com/65535/49889124153_896f78b083_o.jpg",
    "id_image": "2013_rv_Dodge_rv_SRT_rv_Viper_rv_V4_rv_1600",
    "count_view": 0
  },
  {
    "link_thumb": "https://live.staticflickr.com/65535/48112382733_af963927a3_n.jpg",
    "id_album": "-15119147",
    "description": "Audi_495334",
    "title": "Audi_495334",
    "link_img": "https://live.staticflickr.com/65535/48112382733_6e6afeedd1_o.jpg",
    "id_image": "Audi_495334",
    "count_view": 0
  },
  {
    "link_thumb": "https://live.staticflickr.com/65535/48122813601_c34668fc63_n.jpg",
    "id_album": "1274920659",
    "description": "Toyota_949100",
    "title": "Toyota_949100",
    "link_img": "https://live.staticflickr.com/65535/48122813601_f55976df67_o.jpg",
    "id_image": "Toyota_949100",
    "count_view": 0
  },
  {
    "link_thumb": "https://live.staticflickr.com/65535/48121187978_0d0cd4092a_n.jpg",
    "id_album": "-2099496752",
    "description": "Pontiac_498764",
    "title": "Pontiac_498764",
    "link_img": "https://live.staticflickr.com/65535/48121187978_3e041a235b_o.jpg",
    "id_image": "Pontiac_498764",
    "count_view": 0
  },
  {
    "link_thumb": "https://live.staticflickr.com/65535/49892199656_379ecc56c9_n.jpg",
    "id_album": "-461005169",
    "description": "2017_rv_Nissan_rv_GT_rv_R_rv_Nismo_rv_V1_rv_2000",
    "title": "2017_rv_Nissan_rv_GT_rv_R_rv_Nismo_rv_V1_rv_2000",
    "link_img": "https://live.staticflickr.com/65535/49892199656_d749dcd19f_o.jpg",
    "id_image": "2017_rv_Nissan_rv_GT_rv_R_rv_Nismo_rv_V1_rv_2000",
    "count_view": 0
  },
  {
    "link_thumb": "https://live.staticflickr.com/65535/48116524838_20e2328528_n.jpg",
    "id_album": "-803737857",
    "description": "Fiat_547915",
    "title": "Fiat_547915",
    "link_img": "https://live.staticflickr.com/65535/48116524838_d1129bcb0a_o.jpg",
    "id_image": "Fiat_547915",
    "count_view": 0
  },
  {
    "link_thumb": "https://live.staticflickr.com/65535/48114101012_3d338b4dd5_n.jpg",
    "id_album": "-1721545051",
    "description": "Chevrolet_288979",
    "title": "Chevrolet_288979",
    "link_img": "https://live.staticflickr.com/65535/48114101012_f7f13d6968_o.jpg",
    "id_image": "Chevrolet_288979",
    "count_view": 0
  },
  {
    "link_thumb": "https://live.staticflickr.com/65535/48118924417_6bc49034ea_n.jpg",
    "id_album": "446908717",
    "description": "Lexus_229906",
    "title": "Lexus_229906",
    "link_img": "https://live.staticflickr.com/65535/48118924417_bf9a00d5cc_o.jpg",
    "id_image": "Lexus_229906",
    "count_view": 0
  },
  {
    "link_thumb": "https://live.staticflickr.com/65535/48118502622_414531d887_n.jpg",
    "id_album": "-2100339805",
    "description": "Lamborghini_392070",
    "title": "Lamborghini_392070",
    "link_img": "https://live.staticflickr.com/65535/48118502622_17f2478667_o.jpg",
    "id_image": "Lamborghini_392070",
    "count_view": 0
  },
  {
    "link_thumb": "https://live.staticflickr.com/65535/48116315537_d61487679d_n.jpg",
    "id_album": "1364506720",
    "description": "Ferrari_757629",
    "title": "Ferrari_757629",
    "link_img": "https://live.staticflickr.com/65535/48116315537_433d424791_o.jpg",
    "id_image": "Ferrari_757629",
    "count_view": 0
  },
  {
    "link_thumb": "https://live.staticflickr.com/65535/49892010408_15f2d2c6f5_n.jpg",
    "id_album": "883034302",
    "description": "1993_rv_Toyota_rv_Supra_rv_V7_rv_1536",
    "title": "1993_rv_Toyota_rv_Supra_rv_V7_rv_1536",
    "link_img": "https://live.staticflickr.com/65535/49892010408_2a112c5565_o.jpg",
    "id_image": "1993_rv_Toyota_rv_Supra_rv_V7_rv_1536",
    "count_view": 0
  },
  {
    "link_thumb": "https://live.staticflickr.com/65535/48117891807_aeec7042f2_n.jpg",
    "id_album": "-354267407",
    "description": "Honda_446953",
    "title": "Honda_446953",
    "link_img": "https://live.staticflickr.com/65535/48117891807_2d884ec076_o.jpg",
    "id_image": "Honda_446953",
    "count_view": 0
  },
  {
    "link_thumb": "https://live.staticflickr.com/65535/48118118716_54648be250_n.jpg",
    "id_album": "-2009218697",
    "description": "Jeep_828402",
    "title": "Jeep_828402",
    "link_img": "https://live.staticflickr.com/65535/48118118716_5a612c61f9_o.jpg",
    "id_image": "Jeep_828402",
    "count_view": 0
  },
  {
    "link_thumb": "https://live.staticflickr.com/65535/49888316288_82481e4c71_n.jpg",
    "id_album": "-354618933",
    "description": "1964_rv_Aston_rv_Martin_rv_DB5_rv_V1_rv_1536",
    "title": "1964_rv_Aston_rv_Martin_rv_DB5_rv_V1_rv_1536",
    "link_img": "https://live.staticflickr.com/65535/49888316288_7b1ce9e944_o.jpg",
    "id_image": "1964_rv_Aston_rv_Martin_rv_DB5_rv_V1_rv_1536",
    "count_view": 0
  },
  {
    "link_thumb": "https://live.staticflickr.com/65535/48120461666_9101f71fb0_n.jpg",
    "id_album": "810634050",
    "description": "Nissan_478707",
    "title": "Nissan_478707",
    "link_img": "https://live.staticflickr.com/65535/48120461666_93db6571e5_o.jpg",
    "id_image": "Nissan_478707",
    "count_view": 0
  },
  {
    "link_thumb": "https://live.staticflickr.com/65535/48120194978_2d214d9a12_n.jpg",
    "id_album": "666438681",
    "description": "Motorcycles_235246",
    "title": "Motorcycles_235246",
    "link_img": "https://live.staticflickr.com/65535/48120194978_8dafa19f93_o.jpg",
    "id_image": "Motorcycles_235246",
    "count_view": 0
  },
  {
    "link_thumb": "https://live.staticflickr.com/65535/48113350632_c7772a89c5_n.jpg",
    "id_album": "727633301",
    "description": "BMW_936195",
    "title": "BMW_936195",
    "link_img": "https://live.staticflickr.com/65535/48113350632_3da34dd05f_o.jpg",
    "id_image": "BMW_936195",
    "count_view": 0
  },
  {
    "link_thumb": "https://live.staticflickr.com/65535/49891268777_6962ec3603_n.jpg",
    "id_album": "-1297674515",
    "description": "2011_rv_Mini_rv_Coupe_rv_Endurance_rv_V3_rv_1440",
    "title": "2011_rv_Mini_rv_Coupe_rv_Endurance_rv_V3_rv_1440",
    "link_img": "https://live.staticflickr.com/65535/49891268777_be12035766_o.jpg",
    "id_image": "2011_rv_Mini_rv_Coupe_rv_Endurance_rv_V3_rv_1440",
    "count_view": 0
  },
  {
    "link_thumb": "https://live.staticflickr.com/65535/49889170321_660f77a904_n.jpg",
    "id_album": "-1839909978",
    "description": "2015_rv_BMW_rv_i8_rv_V18_rv_1600",
    "title": "2015_rv_BMW_rv_i8_rv_V18_rv_1600",
    "link_img": "https://live.staticflickr.com/65535/49889170321_9a4fd9a671_o.jpg",
    "id_image": "2015_rv_BMW_rv_i8_rv_V18_rv_1600",
    "count_view": 0
  },
  {
    "link_thumb": "https://live.staticflickr.com/65535/48119513732_14b3359243_n.jpg",
    "id_album": "990865885",
    "description": "McLaren_980440",
    "title": "McLaren_980440",
    "link_img": "https://live.staticflickr.com/65535/48119513732_2e5fcd350a_o.jpg",
    "id_image": "McLaren_980440",
    "count_view": 0
  },
  {
    "link_thumb": "https://live.staticflickr.com/65535/49889892083_bbd1a970f9_n.jpg",
    "id_album": "1418617149",
    "description": "1971_rv_Maserati_rv_Bora_rv_V1_rv_1440",
    "title": "1971_rv_Maserati_rv_Bora_rv_V1_rv_1440",
    "link_img": "https://live.staticflickr.com/65535/49889892083_199c01af87_o.jpg",
    "id_image": "1971_rv_Maserati_rv_Bora_rv_V1_rv_1440",
    "count_view": 0
  },
  {
    "link_thumb": "https://live.staticflickr.com/65535/48119975788_e41b9d1f8c_n.jpg",
    "id_album": "-731054311",
    "description": "MercedesBenz_975018",
    "title": "MercedesBenz_975018",
    "link_img": "https://live.staticflickr.com/65535/48119975788_62ef8879db_o.jpg",
    "id_image": "MercedesBenz_975018",
    "count_view": 0
  },
  {
    "link_thumb": "https://live.staticflickr.com/65535/48123133987_0d031d1fb6_n.jpg",
    "id_album": "-150952028",
    "description": "Volkswagen_884595",
    "title": "Volkswagen_884595",
    "link_img": "https://live.staticflickr.com/65535/48123133987_acc466d23b_o.jpg",
    "id_image": "Volkswagen_884595",
    "count_view": 0
  },
  {
    "link_thumb": "https://live.staticflickr.com/65535/48117386306_a7c5f34c47_n.jpg",
    "id_album": "-1846404630",
    "description": "Ford_702882",
    "title": "Ford_702882",
    "link_img": "https://live.staticflickr.com/65535/48117386306_2ed588b894_o.jpg",
    "id_image": "Ford_702882",
    "count_view": 0
  },
  {
    "link_thumb": "https://live.staticflickr.com/65535/49890401861_9107126aaf_n.jpg",
    "id_album": "1258535453",
    "description": "2009_rv_Marussia_rv_B1_rv_V5_rv_1600",
    "title": "2009_rv_Marussia_rv_B1_rv_V5_rv_1600",
    "link_img": "https://live.staticflickr.com/65535/49890401861_15228757d2_o.jpg",
    "id_image": "2009_rv_Marussia_rv_B1_rv_V5_rv_1600",
    "count_view": 0
  },
  {
    "link_thumb": "https://live.staticflickr.com/65535/48118873661_bc821f60af_n.jpg",
    "id_album": "446908717",
    "description": "Lexus_484150",
    "title": "Lexus_484150",
    "link_img": "https://live.staticflickr.com/65535/48118873661_b76f9b7858_o.jpg",
    "id_image": "Lexus_484150",
    "count_view": 0
  },
  {
    "link_thumb": "https://live.staticflickr.com/65535/49890586352_622b1a57e6_n.jpg",
    "id_album": "84688798",
    "description": "2001_rv_Lexus_rv_IS_rv_300_rv_V2_rv_1536",
    "title": "2001_rv_Lexus_rv_IS_rv_300_rv_V2_rv_1536",
    "link_img": "https://live.staticflickr.com/65535/49890586352_cc6313356c_o.jpg",
    "id_image": "2001_rv_Lexus_rv_IS_rv_300_rv_V2_rv_1536",
    "count_view": 0
  },
  {
    "link_thumb": "https://live.staticflickr.com/65535/49892617197_41dec99537_n.jpg",
    "id_album": "1291673563",
    "description": "2015_rv_Saleen_rv_Mustang_rv_302_rv_Black_rv_Label_rv_V3_rv_1600",
    "title": "2015_rv_Saleen_rv_Mustang_rv_302_rv_Black_rv_Label_rv_V3_rv_1600",
    "link_img": "https://live.staticflickr.com/65535/49892617197_1623a4a938_o.jpg",
    "id_image": "2015_rv_Saleen_rv_Mustang_rv_302_rv_Black_rv_Label_rv_V3_rv_1600",
    "count_view": 0
  },
  {
    "link_thumb": "https://live.staticflickr.com/65535/49892675386_04953e5981_n.jpg",
    "id_album": "-393114754",
    "description": "2019_rv_Volkswagen_rv_T_rv_Roc_rv_R_rv_V5_rv_2160",
    "title": "2019_rv_Volkswagen_rv_T_rv_Roc_rv_R_rv_V5_rv_2160",
    "link_img": "https://live.staticflickr.com/65535/49892675386_28fd93fc6d_o.jpg",
    "id_image": "2019_rv_Volkswagen_rv_T_rv_Roc_rv_R_rv_V5_rv_2160",
    "count_view": 0
  },
  {
    "link_thumb": "https://live.staticflickr.com/65535/48115513902_0da7ce3068_n.jpg",
    "id_album": "413141323",
    "description": "Dodge_520248",
    "title": "Dodge_520248",
    "link_img": "https://live.staticflickr.com/65535/48115513902_c03af32e2f_o.jpg",
    "id_image": "Dodge_520248",
    "count_view": 0
  },
  {
    "link_thumb": "https://live.staticflickr.com/65535/48116812948_6144fed7ff_n.jpg",
    "id_album": "-1846404630",
    "description": "Ford_230011",
    "title": "Ford_230011",
    "link_img": "https://live.staticflickr.com/65535/48116812948_e4c851753c_o.jpg",
    "id_image": "Ford_230011",
    "count_view": 0
  },
  {
    "link_thumb": "https://live.staticflickr.com/65535/48115990243_2f767d77f1_n.jpg",
    "id_album": "1364506720",
    "description": "Ferrari_432760",
    "title": "Ferrari_432760",
    "link_img": "https://live.staticflickr.com/65535/48115990243_688ab7db32_o.jpg",
    "id_image": "Ferrari_432760",
    "count_view": 0
  },
  {
    "link_thumb": "https://live.staticflickr.com/65535/48113548448_2f522c287a_n.jpg",
    "id_album": "-680120434",
    "description": "Cadillac_207503",
    "title": "Cadillac_207503",
    "link_img": "https://live.staticflickr.com/65535/48113548448_c1dcb839ff_o.jpg",
    "id_image": "Cadillac_207503",
    "count_view": 0
  },
  {
    "link_thumb": "https://live.staticflickr.com/65535/49889617941_ce741bee31_n.jpg",
    "id_album": "-76453360",
    "description": "2012_rv_Abarth_rv_695_rv_Edizione_rv_Maserati_rv_V2_rv_1440",
    "title": "2012_rv_Abarth_rv_695_rv_Edizione_rv_Maserati_rv_V2_rv_1440",
    "link_img": "https://live.staticflickr.com/65535/49889617941_05120f85c5_o.jpg",
    "id_image": "2012_rv_Abarth_rv_695_rv_Edizione_rv_Maserati_rv_V2_rv_1440",
    "count_view": 0
  },
  {
    "link_thumb": "https://live.staticflickr.com/65535/48115176112_f918f4330c_n.jpg",
    "id_album": "413141323",
    "description": "Dodge_241098",
    "title": "Dodge_241098",
    "link_img": "https://live.staticflickr.com/65535/48115176112_7df552d388_o.jpg",
    "id_image": "Dodge_241098",
    "count_view": 0
  },
  {
    "link_thumb": "https://live.staticflickr.com/65535/48121967216_a30616b1bd_n.jpg",
    "id_album": "-1217333387",
    "description": "Renault_225401",
    "title": "Renault_225401",
    "link_img": "https://live.staticflickr.com/65535/48121967216_f1164ddde6_o.jpg",
    "id_image": "Renault_225401",
    "count_view": 0
  },
  {
    "link_thumb": "https://live.staticflickr.com/65535/48121824406_eef69a5829_n.jpg",
    "id_album": "-1178450892",
    "description": "Porsche_985921",
    "title": "Porsche_985921",
    "link_img": "https://live.staticflickr.com/65535/48121824406_4db600be21_o.jpg",
    "id_image": "Porsche_985921",
    "count_view": 0
  },
  {
    "link_thumb": "https://live.staticflickr.com/65535/48120236163_e5feb1715e_n.jpg",
    "id_album": "666438681",
    "description": "Motorcycles_361409",
    "title": "Motorcycles_361409",
    "link_img": "https://live.staticflickr.com/65535/48120236163_2161330536_o.jpg",
    "id_image": "Motorcycles_361409",
    "count_view": 0
  },
  {
    "link_thumb": "https://live.staticflickr.com/65535/48116139248_5f05ba50ac_n.jpg",
    "id_album": "1364506720",
    "description": "Ferrari_595677",
    "title": "Ferrari_595677",
    "link_img": "https://live.staticflickr.com/65535/48116139248_14ae9174c4_o.jpg",
    "id_image": "Ferrari_595677",
    "count_view": 0
  },
  {
    "link_thumb": "https://live.staticflickr.com/65535/48117565376_ab09a8bdd4_n.jpg",
    "id_album": "-1846404630",
    "description": "Ford_931461",
    "title": "Ford_931461",
    "link_img": "https://live.staticflickr.com/65535/48117565376_bff0c2426d_o.jpg",
    "id_image": "Ford_931461",
    "count_view": 0
  },
  {
    "link_thumb": "https://live.staticflickr.com/65535/49889216797_8b9bb09612_n.jpg",
    "id_album": "-562535449",
    "description": "2016_rv_Aston_rv_Martin_rv_Vulcan_rv_V2_rv_2160",
    "title": "2016_rv_Aston_rv_Martin_rv_Vulcan_rv_V2_rv_2160",
    "link_img": "https://live.staticflickr.com/65535/49889216797_51c183632f_o.jpg",
    "id_image": "2016_rv_Aston_rv_Martin_rv_Vulcan_rv_V2_rv_2160",
    "count_view": 0
  },
  {
    "link_thumb": "https://live.staticflickr.com/65535/49892894117_5aec41a077_n.jpg",
    "id_album": "-1220388988",
    "description": "2017_rv_Audi_rv_R8_rv_Performance_rv_Parts_rv_V4_rv_2000",
    "title": "2017_rv_Audi_rv_R8_rv_Performance_rv_Parts_rv_V4_rv_2000",
    "link_img": "https://live.staticflickr.com/65535/49892894117_edd237f08d_o.jpg",
    "id_image": "2017_rv_Audi_rv_R8_rv_Performance_rv_Parts_rv_V4_rv_2000",
    "count_view": 0
  },
  {
    "link_thumb": "https://live.staticflickr.com/65535/48114974482_66efcbbd69_n.jpg",
    "id_album": "2072464184",
    "description": "Citroen_471923",
    "title": "Citroen_471923",
    "link_img": "https://live.staticflickr.com/65535/48114974482_7de59c6dcb_o.jpg",
    "id_image": "Citroen_471923",
    "count_view": 0
  },
  {
    "link_thumb": "https://live.staticflickr.com/65535/48122997536_9683cc292f_n.jpg",
    "id_album": "-150952028",
    "description": "Volkswagen_591128",
    "title": "Volkswagen_591128",
    "link_img": "https://live.staticflickr.com/65535/48122997536_25ce5d24bd_o.jpg",
    "id_image": "Volkswagen_591128",
    "count_view": 0
  },
  {
    "link_thumb": "https://live.staticflickr.com/65535/48113648851_bd24a1ee15_n.jpg",
    "id_album": "-1721545051",
    "description": "Chevrolet_156297",
    "title": "Chevrolet_156297",
    "link_img": "https://live.staticflickr.com/65535/48113648851_ba36348f1f_o.jpg",
    "id_image": "Chevrolet_156297",
    "count_view": 0
  },
  {
    "link_thumb": "https://live.staticflickr.com/65535/48123081478_d709de9735_n.jpg",
    "id_album": "-150952028",
    "description": "Volkswagen_918570",
    "title": "Volkswagen_918570",
    "link_img": "https://live.staticflickr.com/65535/48123081478_af5d334aae_o.jpg",
    "id_image": "Volkswagen_918570",
    "count_view": 0
  },
  {
    "link_thumb": "https://live.staticflickr.com/65535/49891407901_079f0630cc_n.jpg",
    "id_album": "1795407418",
    "description": "2016_rv_Porsche_rv_Cayman_rv_GT4_rv_V10_rv_1600",
    "title": "2016_rv_Porsche_rv_Cayman_rv_GT4_rv_V10_rv_1600",
    "link_img": "https://live.staticflickr.com/65535/49891407901_1aef281ec9_o.jpg",
    "id_image": "2016_rv_Porsche_rv_Cayman_rv_GT4_rv_V10_rv_1600",
    "count_view": 0
  },
  {
    "link_thumb": "https://live.staticflickr.com/65535/49892510946_f0097fd134_n.jpg",
    "id_album": "-467496004",
    "description": "1993_rv_Toyota_rv_MR2_rv_V7_rv_1536",
    "title": "1993_rv_Toyota_rv_MR2_rv_V7_rv_1536",
    "link_img": "https://live.staticflickr.com/65535/49892510946_31c0c42554_o.jpg",
    "id_image": "1993_rv_Toyota_rv_MR2_rv_V7_rv_1536",
    "count_view": 0
  },
  {
    "link_thumb": "https://live.staticflickr.com/65535/48112363467_6149228aa6_n.jpg",
    "id_album": "-15119147",
    "description": "Audi_253745",
    "title": "Audi_253745",
    "link_img": "https://live.staticflickr.com/65535/48112363467_353623f573_o.jpg",
    "id_image": "Audi_253745",
    "count_view": 0
  },
  {
    "link_thumb": "https://live.staticflickr.com/65535/48116218807_53539b69ef_n.jpg",
    "id_album": "1364506720",
    "description": "Ferrari_630631",
    "title": "Ferrari_630631",
    "link_img": "https://live.staticflickr.com/65535/48116218807_bfe6169cc1_o.jpg",
    "id_image": "Ferrari_630631",
    "count_view": 0
  },
  {
    "link_thumb": "https://live.staticflickr.com/65535/48112682413_d5db29d1b1_n.jpg",
    "id_album": "727633301",
    "description": "BMW_253911",
    "title": "BMW_253911",
    "link_img": "https://live.staticflickr.com/65535/48112682413_beaf47b5ef_o.jpg",
    "id_image": "BMW_253911",
    "count_view": 0
  },
  {
    "link_thumb": "https://live.staticflickr.com/65535/49889735067_9bb2574a74_n.jpg",
    "id_album": "822895535",
    "description": "2012_rv_Falcon_rv_F7_rv_V4_rv_1440",
    "title": "2012_rv_Falcon_rv_F7_rv_V4_rv_1440",
    "link_img": "https://live.staticflickr.com/65535/49889735067_baf4bdee3b_o.jpg",
    "id_image": "2012_rv_Falcon_rv_F7_rv_V4_rv_1440",
    "count_view": 0
  },
  {
    "link_thumb": "https://live.staticflickr.com/65535/48118566018_eac7651522_n.jpg",
    "id_album": "-2100339805",
    "description": "Lamborghini_567960",
    "title": "Lamborghini_567960",
    "link_img": "https://live.staticflickr.com/65535/48118566018_8bf4e1a84f_o.jpg",
    "id_image": "Lamborghini_567960",
    "count_view": 0
  },
  {
    "link_thumb": "https://live.staticflickr.com/65535/49890595698_c9df7a2027_n.jpg",
    "id_album": "-634611517",
    "description": "2018_rv_Nissan_rv_Leaf_rv_Nismo_rv_RC_rv_Concept_rv_V1_rv_2000",
    "title": "2018_rv_Nissan_rv_Leaf_rv_Nismo_rv_RC_rv_Concept_rv_V1_rv_2000",
    "link_img": "https://live.staticflickr.com/65535/49890595698_7bb1909070_o.jpg",
    "id_image": "2018_rv_Nissan_rv_Leaf_rv_Nismo_rv_RC_rv_Concept_rv_V1_rv_2000",
    "count_view": 0
  },
  {
    "link_thumb": "https://live.staticflickr.com/65535/48121822821_903fc91eae_n.jpg",
    "id_album": "-1178450892",
    "description": "Porsche_984632",
    "title": "Porsche_984632",
    "link_img": "https://live.staticflickr.com/65535/48121822821_b98e196ab0_o.jpg",
    "id_image": "Porsche_984632",
    "count_view": 0
  },
  {
    "link_thumb": "https://live.staticflickr.com/65535/49892169078_d6ea2deff2_n.jpg",
    "id_album": "544792383",
    "description": "2008_rv_Volvo_rv_S40_rv_R_rv_Design_rv_V2_rv_1536",
    "title": "2008_rv_Volvo_rv_S40_rv_R_rv_Design_rv_V2_rv_1536",
    "link_img": "https://live.staticflickr.com/65535/49892169078_f2b6b2edf4_o.jpg",
    "id_image": "2008_rv_Volvo_rv_S40_rv_R_rv_Design_rv_V2_rv_1536",
    "count_view": 0
  },
  {
    "link_thumb": "https://live.staticflickr.com/65535/48112722518_2221e5a09b_n.jpg",
    "id_album": "727633301",
    "description": "BMW_274926",
    "title": "BMW_274926",
    "link_img": "https://live.staticflickr.com/65535/48112722518_eafc8820c8_o.jpg",
    "id_image": "BMW_274926",
    "count_view": 0
  },
  {
    "link_thumb": "https://live.staticflickr.com/65535/49889182258_7e57033395_n.jpg",
    "id_album": "-1812338467",
    "description": "2013_rv_Ford_rv_Fiesta_rv_ST_rv_V6_rv_1440",
    "title": "2013_rv_Ford_rv_Fiesta_rv_ST_rv_V6_rv_1440",
    "link_img": "https://live.staticflickr.com/65535/49889182258_27d0808749_o.jpg",
    "id_image": "2013_rv_Ford_rv_Fiesta_rv_ST_rv_V6_rv_1440",
    "count_view": 0
  },
  {
    "link_thumb": "https://live.staticflickr.com/65535/49889390252_b98c8e6556_n.jpg",
    "id_album": "-1839907869",
    "description": "2014_rv_BMW_rv_4_rv_Series_rv_Coupe_rv_V9_rv_1600",
    "title": "2014_rv_BMW_rv_4_rv_Series_rv_Coupe_rv_V9_rv_1600",
    "link_img": "https://live.staticflickr.com/65535/49889390252_bec1bbc688_o.jpg",
    "id_image": "2014_rv_BMW_rv_4_rv_Series_rv_Coupe_rv_V9_rv_1600",
    "count_view": 0
  },
  {
    "link_thumb": "https://live.staticflickr.com/65535/48113470866_68d05c72a4_n.jpg",
    "id_album": "1246496342",
    "description": "Buick_288543",
    "title": "Buick_288543",
    "link_img": "https://live.staticflickr.com/65535/48113470866_1ae34a6acf_o.jpg",
    "id_image": "Buick_288543",
    "count_view": 0
  },
  {
    "link_thumb": "https://live.staticflickr.com/65535/48117936188_c8b63024fb_n.jpg",
    "id_album": "-354267407",
    "description": "Honda_841568",
    "title": "Honda_841568",
    "link_img": "https://live.staticflickr.com/65535/48117936188_75888c2227_o.jpg",
    "id_image": "Honda_841568",
    "count_view": 0
  },
  {
    "link_thumb": "https://live.staticflickr.com/65535/48121474836_3a7949576d_n.jpg",
    "id_album": "-1178450892",
    "description": "Porsche_598061",
    "title": "Porsche_598061",
    "link_img": "https://live.staticflickr.com/65535/48121474836_3b80070c18_o.jpg",
    "id_image": "Porsche_598061",
    "count_view": 0
  },
  {
    "link_thumb": "https://live.staticflickr.com/65535/48112372278_0a6a429cdc_n.jpg",
    "id_album": "-15119147",
    "description": "Audi_478604",
    "title": "Audi_478604",
    "link_img": "https://live.staticflickr.com/65535/48112372278_d767f3bf8d_o.jpg",
    "id_image": "Audi_478604",
    "count_view": 0
  },
  {
    "link_thumb": "https://live.staticflickr.com/65535/49890967426_447a7bfa37_n.jpg",
    "id_album": "606765759",
    "description": "1998_rv_Mitsubishi_rv_3000GT_rv_V6_rv_1440",
    "title": "1998_rv_Mitsubishi_rv_3000GT_rv_V6_rv_1440",
    "link_img": "https://live.staticflickr.com/65535/49890967426_ebb36486bd_o.jpg",
    "id_image": "1998_rv_Mitsubishi_rv_3000GT_rv_V6_rv_1440",
    "count_view": 0
  },
  {
    "link_thumb": "https://live.staticflickr.com/65535/48121877463_634e9a9115_n.jpg",
    "id_album": "-1178450892",
    "description": "Porsche_997508",
    "title": "Porsche_997508",
    "link_img": "https://live.staticflickr.com/65535/48121877463_82d7217029_o.jpg",
    "id_image": "Porsche_997508",
    "count_view": 0
  },
  {
    "link_thumb": "https://live.staticflickr.com/65535/48121228717_9fabde0131_n.jpg",
    "id_album": "-2099496752",
    "description": "Pontiac_401232",
    "title": "Pontiac_401232",
    "link_img": "https://live.staticflickr.com/65535/48121228717_eae165f1d1_o.jpg",
    "id_image": "Pontiac_401232",
    "count_view": 0
  },
  {
    "link_thumb": "https://live.staticflickr.com/65535/48114086661_1a0d50bf81_n.jpg",
    "id_album": "-1721545051",
    "description": "Chevrolet_297871",
    "title": "Chevrolet_297871",
    "link_img": "https://live.staticflickr.com/65535/48114086661_7ee8370de3_o.jpg",
    "id_image": "Chevrolet_297871",
    "count_view": 0
  },
  {
    "link_thumb": "https://live.staticflickr.com/65535/49890097851_45dbd2b8c6_n.jpg",
    "id_album": "-59902933",
    "description": "2017_rv_Lamborghini_rv_Aventador_rv_S_rv_V15_rv_2000",
    "title": "2017_rv_Lamborghini_rv_Aventador_rv_S_rv_V15_rv_2000",
    "link_img": "https://live.staticflickr.com/65535/49890097851_e77aa704ea_o.jpg",
    "id_image": "2017_rv_Lamborghini_rv_Aventador_rv_S_rv_V15_rv_2000",
    "count_view": 0
  },
  {
    "link_thumb": "https://live.staticflickr.com/65535/49892033813_27840d5499_n.jpg",
    "id_album": "1662834735",
    "description": "2020_rv_Porsche_rv_911_rv_Turbo_rv_S_rv_V8_rv_2160",
    "title": "2020_rv_Porsche_rv_911_rv_Turbo_rv_S_rv_V8_rv_2160",
    "link_img": "https://live.staticflickr.com/65535/49892033813_10ba720ce6_o.jpg",
    "id_image": "2020_rv_Porsche_rv_911_rv_Turbo_rv_S_rv_V8_rv_2160",
    "count_view": 0
  },
  {
    "link_thumb": "https://live.staticflickr.com/65535/49892567946_3ed4dfcd22_n.jpg",
    "id_album": "-1913470588",
    "description": "2015_rv_Ultima_rv_Evolution_rv_Coupe_rv_V3_rv_1600",
    "title": "2015_rv_Ultima_rv_Evolution_rv_Coupe_rv_V3_rv_1600",
    "link_img": "https://live.staticflickr.com/65535/49892567946_d96ef41846_o.jpg",
    "id_image": "2015_rv_Ultima_rv_Evolution_rv_Coupe_rv_V3_rv_1600",
    "count_view": 0
  },
  {
    "link_thumb": "https://live.staticflickr.com/65535/48120380692_6506f8fc72_n.jpg",
    "id_album": "666438681",
    "description": "Motorcycles_941134",
    "title": "Motorcycles_941134",
    "link_img": "https://live.staticflickr.com/65535/48120380692_89d9599837_o.jpg",
    "id_image": "Motorcycles_941134",
    "count_view": 0
  },
  {
    "link_thumb": "https://live.staticflickr.com/65535/49890112586_6b68928c14_n.jpg",
    "id_album": "474759831",
    "description": "2017_rv_Lamborghini_rv_Centenario_rv_V3_rv_2000",
    "title": "2017_rv_Lamborghini_rv_Centenario_rv_V3_rv_2000",
    "link_img": "https://live.staticflickr.com/65535/49890112586_4b4e7ab7ca_o.jpg",
    "id_image": "2017_rv_Lamborghini_rv_Centenario_rv_V3_rv_2000",
    "count_view": 0
  },
  {
    "link_thumb": "https://live.staticflickr.com/65535/48121007168_4155135057_n.jpg",
    "id_album": "-1123679742",
    "description": "Plymouth_240914",
    "title": "Plymouth_240914",
    "link_img": "https://live.staticflickr.com/65535/48121007168_ec78f134fb_o.jpg",
    "id_image": "Plymouth_240914",
    "count_view": 0
  },
  {
    "link_thumb": "https://live.staticflickr.com/65535/49888814008_c4a53bc7c2_n.jpg",
    "id_album": "493722967",
    "description": "2020_rv_Chevrolet_rv_Camaro_rv_COPO_rv_John_rv_Force_rv_Edition_rv_V3_rv_2160",
    "title": "2020_rv_Chevrolet_rv_Camaro_rv_COPO_rv_John_rv_Force_rv_Edition_rv_V3_rv_2160",
    "link_img": "https://live.staticflickr.com/65535/49888814008_2a61d7bd1d_o.jpg",
    "id_image": "2020_rv_Chevrolet_rv_Camaro_rv_COPO_rv_John_rv_Force_rv_Edition_rv_V3_rv_2160",
    "count_view": 0
  },
  {
    "link_thumb": "https://live.staticflickr.com/65535/48120796412_bdc29573fa_n.jpg",
    "id_album": "1952909762",
    "description": "Packard_455792",
    "title": "Packard_455792",
    "link_img": "https://live.staticflickr.com/65535/48120796412_59383e1f8f_o.jpg",
    "id_image": "Packard_455792",
    "count_view": 0
  },
  {
    "link_thumb": "https://live.staticflickr.com/65535/49889438598_575c185e8c_n.jpg",
    "id_album": "-1452251642",
    "description": "2012_rv_Infiniti_rv_G37_rv_Coupe_rv_IPL_rv_V5_rv_1536",
    "title": "2012_rv_Infiniti_rv_G37_rv_Coupe_rv_IPL_rv_V5_rv_1536",
    "link_img": "https://live.staticflickr.com/65535/49889438598_bee4cc95ff_o.jpg",
    "id_image": "2012_rv_Infiniti_rv_G37_rv_Coupe_rv_IPL_rv_V5_rv_1536",
    "count_view": 0
  },
  {
    "link_thumb": "https://live.staticflickr.com/65535/48117137492_29d94805e3_n.jpg",
    "id_album": "-1846404630",
    "description": "Ford_355713",
    "title": "Ford_355713",
    "link_img": "https://live.staticflickr.com/65535/48117137492_cba522e54d_o.jpg",
    "id_image": "Ford_355713",
    "count_view": 0
  },
  {
    "link_thumb": "https://live.staticflickr.com/65535/48122785073_6372c99575_n.jpg",
    "id_album": "1274920659",
    "description": "Toyota_579024",
    "title": "Toyota_579024",
    "link_img": "https://live.staticflickr.com/65535/48122785073_c633c70374_o.jpg",
    "id_image": "Toyota_579024",
    "count_view": 0
  },
  {
    "link_thumb": "https://live.staticflickr.com/65535/49892440826_f24233741c_n.jpg",
    "id_album": "-2039917874",
    "description": "2013_rv_Porsche_rv_911_rv_Carrera_rv_4S_rv_by_rv_TechArt_rv_V2_rv_1600",
    "title": "2013_rv_Porsche_rv_911_rv_Carrera_rv_4S_rv_by_rv_TechArt_rv_V2_rv_1600",
    "link_img": "https://live.staticflickr.com/65535/49892440826_5b8defb385_o.jpg",
    "id_image": "2013_rv_Porsche_rv_911_rv_Carrera_rv_4S_rv_by_rv_TechArt_rv_V2_rv_1600",
    "count_view": 0
  },
  {
    "link_thumb": "https://live.staticflickr.com/65535/48118342408_2e4020d46b_n.jpg",
    "id_album": "-2100339805",
    "description": "Lamborghini_318480",
    "title": "Lamborghini_318480",
    "link_img": "https://live.staticflickr.com/65535/48118342408_89c97ff3de_o.jpg",
    "id_image": "Lamborghini_318480",
    "count_view": 0
  },
  {
    "link_thumb": "https://live.staticflickr.com/65535/48122459902_08fee08243_n.jpg",
    "id_album": "422322641",
    "description": "Subaru_190881",
    "title": "Subaru_190881",
    "link_img": "https://live.staticflickr.com/65535/48122459902_a4806d6280_o.jpg",
    "id_image": "Subaru_190881",
    "count_view": 0
  },
  {
    "link_thumb": "https://live.staticflickr.com/65535/49889632653_82f2c86c03_n.jpg",
    "id_album": "-936716449",
    "description": "2015_rv_Lamborghini_rv_Huracan_rv_LP610_rv_4_rv_V1_rv_2160",
    "title": "2015_rv_Lamborghini_rv_Huracan_rv_LP610_rv_4_rv_V1_rv_2160",
    "link_img": "https://live.staticflickr.com/65535/49889632653_97ff6ee444_o.jpg",
    "id_image": "2015_rv_Lamborghini_rv_Huracan_rv_LP610_rv_4_rv_V1_rv_2160",
    "count_view": 0
  },
  {
    "link_thumb": "https://live.staticflickr.com/65535/48118878983_32a7d0faa1_n.jpg",
    "id_album": "446908717",
    "description": "Lexus_256389",
    "title": "Lexus_256389",
    "link_img": "https://live.staticflickr.com/65535/48118878983_3c1bd924b8_o.jpg",
    "id_image": "Lexus_256389",
    "count_view": 0
  },
  {
    "link_thumb": "https://live.staticflickr.com/65535/48114626522_51527559ba_n.jpg",
    "id_album": "-1721545051",
    "description": "Chevrolet_768928",
    "title": "Chevrolet_768928",
    "link_img": "https://live.staticflickr.com/65535/48114626522_2e1992696b_o.jpg",
    "id_image": "Chevrolet_768928",
    "count_view": 0
  },
  {
    "link_thumb": "https://live.staticflickr.com/65535/48112558516_178ab74893_n.jpg",
    "id_album": "2097036181",
    "description": "Bentley_855791",
    "title": "Bentley_855791",
    "link_img": "https://live.staticflickr.com/65535/48112558516_8055548191_o.jpg",
    "id_image": "Bentley_855791",
    "count_view": 0
  },
  {
    "link_thumb": "https://live.staticflickr.com/65535/49890095237_30bef1630f_n.jpg",
    "id_album": "-345994958",
    "description": "2012_rv_GRMN_rv_Sports_rv_FR_rv_Concept_rv_V6_rv_1440",
    "title": "2012_rv_GRMN_rv_Sports_rv_FR_rv_Concept_rv_V6_rv_1440",
    "link_img": "https://live.staticflickr.com/65535/49890095237_ac44552800_o.jpg",
    "id_image": "2012_rv_GRMN_rv_Sports_rv_FR_rv_Concept_rv_V6_rv_1440",
    "count_view": 0
  },
  {
    "link_thumb": "https://live.staticflickr.com/65535/48115871826_0cb564628a_n.jpg",
    "id_album": "1364506720",
    "description": "Ferrari_361878",
    "title": "Ferrari_361878",
    "link_img": "https://live.staticflickr.com/65535/48115871826_7be4e60777_o.jpg",
    "id_image": "Ferrari_361878",
    "count_view": 0
  },
  {
    "link_thumb": "https://live.staticflickr.com/65535/48118741923_067daf1362_n.jpg",
    "id_album": "-2100339805",
    "description": "Lamborghini_964051",
    "title": "Lamborghini_964051",
    "link_img": "https://live.staticflickr.com/65535/48118741923_9e2831de7c_o.jpg",
    "id_image": "Lamborghini_964051",
    "count_view": 0
  },
  {
    "link_thumb": "https://live.staticflickr.com/65535/49889069403_f1aa4d243d_n.jpg",
    "id_album": "-290692475",
    "description": "2013_rv_Novitec_rv_Rosso_rv_Ferrari_rv_F12berlinetta_rv_N_rv_Largo_rv_V4_rv_1600",
    "title": "2013_rv_Novitec_rv_Rosso_rv_Ferrari_rv_F12berlinetta_rv_N_rv_Largo_rv_V4_rv_1600",
    "link_img": "https://live.staticflickr.com/65535/49889069403_eee3de0d8e_o.jpg",
    "id_image": "2013_rv_Novitec_rv_Rosso_rv_Ferrari_rv_F12berlinetta_rv_N_rv_Largo_rv_V4_rv_1600",
    "count_view": 0
  },
  {
    "link_thumb": "https://live.staticflickr.com/65535/49890521192_30c5d348ed_n.jpg",
    "id_album": "1283657530",
    "description": "1976_rv_Lamborghini_rv_Silhouette_rv_P300_rv_V2_rv_1600",
    "title": "1976_rv_Lamborghini_rv_Silhouette_rv_P300_rv_V2_rv_1600",
    "link_img": "https://live.staticflickr.com/65535/49890521192_49ab550fff_o.jpg",
    "id_image": "1976_rv_Lamborghini_rv_Silhouette_rv_P300_rv_V2_rv_1600",
    "count_view": 0
  },
  {
    "link_thumb": "https://live.staticflickr.com/65535/48116976378_92b3f00443_n.jpg",
    "id_album": "-1846404630",
    "description": "Ford_288785",
    "title": "Ford_288785",
    "link_img": "https://live.staticflickr.com/65535/48116976378_44554dd499_o.jpg",
    "id_image": "Ford_288785",
    "count_view": 0
  },
  {
    "link_thumb": "https://live.staticflickr.com/65535/48121940931_9d2c88466b_n.jpg",
    "id_album": "-1377335499",
    "description": "RangeRover_973035",
    "title": "RangeRover_973035",
    "link_img": "https://live.staticflickr.com/65535/48121940931_e4e66104e2_o.jpg",
    "id_image": "RangeRover_973035",
    "count_view": 0
  },
  {
    "link_thumb": "https://live.staticflickr.com/65535/49889608247_1be3746589_n.jpg",
    "id_album": "-1721545051",
    "description": "2014_rv_Chevrolet_rv_Corvette_rv_C7R_rv_V5_rv_1600",
    "title": "2014_rv_Chevrolet_rv_Corvette_rv_C7R_rv_V5_rv_1600",
    "link_img": "https://live.staticflickr.com/65535/49889608247_396e4d2132_o.jpg",
    "id_image": "2014_rv_Chevrolet_rv_Corvette_rv_C7R_rv_V5_rv_1600",
    "count_view": 0
  },
  {
    "link_thumb": "https://live.staticflickr.com/65535/49890659312_e69e6399dc_n.jpg",
    "id_album": "764198353",
    "description": "2005_rv_Lotus_rv_Elise_rv_Spyder1_rv_Custom_rv_V5_rv_1440",
    "title": "2005_rv_Lotus_rv_Elise_rv_Spyder1_rv_Custom_rv_V5_rv_1440",
    "link_img": "https://live.staticflickr.com/65535/49890659312_d7d8beda51_o.jpg",
    "id_image": "2005_rv_Lotus_rv_Elise_rv_Spyder1_rv_Custom_rv_V5_rv_1440",
    "count_view": 0
  },
  {
    "link_thumb": "https://live.staticflickr.com/65535/48112697837_12f0e1b7cb_n.jpg",
    "id_album": "2097036181",
    "description": "Bentley_999472",
    "title": "Bentley_999472",
    "link_img": "https://live.staticflickr.com/65535/48112697837_4fff33062d_o.jpg",
    "id_image": "Bentley_999472",
    "count_view": 0
  },
  {
    "link_thumb": "https://live.staticflickr.com/65535/48118044036_05aca69003_n.jpg",
    "id_album": "-843028318",
    "description": "Jaguar_977829",
    "title": "Jaguar_977829",
    "link_img": "https://live.staticflickr.com/65535/48118044036_0de0124431_o.jpg",
    "id_image": "Jaguar_977829",
    "count_view": 0
  },
  {
    "link_thumb": "https://live.staticflickr.com/65535/48112604758_f12d5d3519_n.jpg",
    "id_album": "2097036181",
    "description": "Bentley_882678",
    "title": "Bentley_882678",
    "link_img": "https://live.staticflickr.com/65535/48112604758_50dcc0eca0_o.jpg",
    "id_image": "Bentley_882678",
    "count_view": 0
  },
  {
    "link_thumb": "https://live.staticflickr.com/65535/49889366252_a6be3bab43_n.jpg",
    "id_album": "-1839908199",
    "description": "2014_rv_BMW_rv_2_rv_Series_rv_Coupe_rv_M_rv_Performance_rv_Parts_rv_V2_rv_1600",
    "title": "2014_rv_BMW_rv_2_rv_Series_rv_Coupe_rv_M_rv_Performance_rv_Parts_rv_V2_rv_1600",
    "link_img": "https://live.staticflickr.com/65535/49889366252_f1739fa2a1_o.jpg",
    "id_image": "2014_rv_BMW_rv_2_rv_Series_rv_Coupe_rv_M_rv_Performance_rv_Parts_rv_V2_rv_1600",
    "count_view": 0
  },
  {
    "link_thumb": "https://live.staticflickr.com/65535/49891196066_29e23d5424_n.jpg",
    "id_album": "-420675233",
    "description": "2015_rv_Novitec_rv_Torado_rv_Lamborghini_rv_Huracan_rv_V6_rv_1600",
    "title": "2015_rv_Novitec_rv_Torado_rv_Lamborghini_rv_Huracan_rv_V6_rv_1600",
    "link_img": "https://live.staticflickr.com/65535/49891196066_c93e35fe26_o.jpg",
    "id_image": "2015_rv_Novitec_rv_Torado_rv_Lamborghini_rv_Huracan_rv_V6_rv_1600",
    "count_view": 0
  },
  {
    "link_thumb": "https://live.staticflickr.com/65535/48118263118_1478db8ac3_n.jpg",
    "id_album": "-2100339805",
    "description": "Lamborghini_155848",
    "title": "Lamborghini_155848",
    "link_img": "https://live.staticflickr.com/65535/48118263118_8827d26ac3_o.jpg",
    "id_image": "Lamborghini_155848",
    "count_view": 0
  },
  {
    "link_thumb": "https://live.staticflickr.com/65535/48115554162_b6b20d2c8e_n.jpg",
    "id_album": "413141323",
    "description": "Dodge_759194",
    "title": "Dodge_759194",
    "link_img": "https://live.staticflickr.com/65535/48115554162_d50441c4e7_o.jpg",
    "id_image": "Dodge_759194",
    "count_view": 0
  },
  {
    "link_thumb": "https://live.staticflickr.com/65535/49891167646_b9f7437557_n.jpg",
    "id_album": "-1746133601",
    "description": "2020_rv_Novitec_rv_McLaren_rv_720S_rv_Spider_rv_N_rv_Largo_rv_V6_rv_2160",
    "title": "2020_rv_Novitec_rv_McLaren_rv_720S_rv_Spider_rv_N_rv_Largo_rv_V6_rv_2160",
    "link_img": "https://live.staticflickr.com/65535/49891167646_b6c1d5b86d_o.jpg",
    "id_image": "2020_rv_Novitec_rv_McLaren_rv_720S_rv_Spider_rv_N_rv_Largo_rv_V6_rv_2160",
    "count_view": 0
  },
  {
    "link_thumb": "https://live.staticflickr.com/65535/48115725528_2304878c12_n.jpg",
    "id_album": "1364506720",
    "description": "Ferrari_255176",
    "title": "Ferrari_255176",
    "link_img": "https://live.staticflickr.com/65535/48115725528_186b54a5b7_o.jpg",
    "id_image": "Ferrari_255176",
    "count_view": 0
  },
  {
    "link_thumb": "https://live.staticflickr.com/65535/49890881477_c09020d9ec_n.jpg",
    "id_album": "1807183876",
    "description": "2019_rv_McLaren_rv_720S_rv_Spider_rv_V6_rv_2000",
    "title": "2019_rv_McLaren_rv_720S_rv_Spider_rv_V6_rv_2000",
    "link_img": "https://live.staticflickr.com/65535/49890881477_4fa5b52422_o.jpg",
    "id_image": "2019_rv_McLaren_rv_720S_rv_Spider_rv_V6_rv_2000",
    "count_view": 0
  },
  {
    "link_thumb": "https://live.staticflickr.com/65535/49891145071_0baabac2b7_n.jpg",
    "id_album": "-909236608",
    "description": "2006_rv_Noble_rv_M15_rv_V2_rv_1440",
    "title": "2006_rv_Noble_rv_M15_rv_V2_rv_1440",
    "link_img": "https://live.staticflickr.com/65535/49891145071_99208bf997_o.jpg",
    "id_image": "2006_rv_Noble_rv_M15_rv_V2_rv_1440",
    "count_view": 0
  },
  {
    "link_thumb": "https://live.staticflickr.com/65535/48118995478_292f82d035_n.jpg",
    "id_album": "446908717",
    "description": "Lexus_965257",
    "title": "Lexus_965257",
    "link_img": "https://live.staticflickr.com/65535/48118995478_8b40565aa8_o.jpg",
    "id_image": "Lexus_965257",
    "count_view": 0
  },
  {
    "link_thumb": "https://live.staticflickr.com/65535/48114323938_a29863c0af_n.jpg",
    "id_album": "-1721545051",
    "description": "Chevrolet_471713",
    "title": "Chevrolet_471713",
    "link_img": "https://live.staticflickr.com/65535/48114323938_d6a02edce2_o.jpg",
    "id_image": "Chevrolet_471713",
    "count_view": 0
  },
  {
    "link_thumb": "https://live.staticflickr.com/65535/49889009952_9ca0d77eee_n.jpg",
    "id_album": "-1199458397",
    "description": "2008_rv_Bugatti_rv_Veyron_rv_Sang_rv_Noir_rv_V1_rv_2160",
    "title": "2008_rv_Bugatti_rv_Veyron_rv_Sang_rv_Noir_rv_V1_rv_2160",
    "link_img": "https://live.staticflickr.com/65535/49889009952_c40d077571_o.jpg",
    "id_image": "2008_rv_Bugatti_rv_Veyron_rv_Sang_rv_Noir_rv_V1_rv_2160",
    "count_view": 0
  }
]