[
  {
    "total_img": 0,
    "number_page": 0,
    "title": "Falcon",
    "tag": "Falcon,",
    "description": "Falcon",
    "link_thumb": "https://live.staticflickr.com/65535/49889424706_1b88b4f632_n.jpg",
    "id_album": "822895535",
    "total_view": 8
  }
]