[
  {
    "total_img": 0,
    "number_page": 0,
    "title": "Carrera",
    "tag": "Carrera,",
    "description": "Carrera",
    "link_thumb": "https://live.staticflickr.com/65535/49889592302_fc7485861d_n.jpg",
    "id_album": "1016927281",
    "total_view": 88
  }
]