[
  {
    "total_img": 0,
    "number_page": 0,
    "title": "Ford Mondeo",
    "tag": "Ford Mondeo,",
    "description": "Ford Mondeo",
    "link_thumb": "https://live.staticflickr.com/65535/49889733876_ebbfa61042_n.jpg",
    "id_album": "-1031394602",
    "total_view": 11
  }
]