[
  {
    "total_img": 0,
    "number_page": 0,
    "title": "Vauxhall Concepts",
    "tag": "Vauxhall Concepts,",
    "description": "Vauxhall Concepts",
    "link_thumb": "https://live.staticflickr.com/65535/49892109998_c1c8c74dc1_n.jpg",
    "id_album": "351002467",
    "total_view": 12
  }
]