[
  {
    "total_img": 0,
    "number_page": 0,
    "title": "Nissan Fairlady",
    "tag": "Nissan Fairlady,",
    "description": "Nissan Fairlady",
    "link_thumb": "https://live.staticflickr.com/65535/49891431302_452bbe8b03_n.jpg",
    "id_album": "1114639227",
    "total_view": 8
  }
]