[
  {
    "total_img": 0,
    "number_page": 0,
    "title": "Chevrolet",
    "tag": "Chevrolet,",
    "description": "Chevrolet",
    "link_thumb": "https://live.staticflickr.com/65535/49888729268_531d7cf69e_n.jpg",
    "id_album": "-1721545051",
    "total_view": 3228
  }
]