[
  {
    "total_img": 0,
    "number_page": 0,
    "title": "Lamborghini",
    "tag": "Lamborghini,",
    "description": "Lamborghini",
    "link_thumb": "https://live.staticflickr.com/65535/49890080226_bb3b15a6ea_n.jpg",
    "id_album": "-2100339805",
    "total_view": 2112
  },
  {
    "total_img": 0,
    "number_page": 0,
    "title": "Lamborghini Gallardo",
    "tag": "Lamborghini Gallardo,",
    "description": "Lamborghini Gallardo",
    "link_thumb": "https://live.staticflickr.com/65535/49890136141_dbcffd81ab_n.jpg",
    "id_album": "636428280",
    "total_view": 73
  }
]