[
  {
    "total_img": 0,
    "number_page": 0,
    "title": "Acura CL",
    "tag": "Acura CL,",
    "description": "Acura CL",
    "link_thumb": "https://live.staticflickr.com/65535/49954674857_5c75f20995_n.jpg",
    "id_album": "1076394388",
    "total_view": 3
  }
]