[
  {
    "link_thumb": "https://live.staticflickr.com/65535/48111984096_62504e14e9_n.jpg",
    "id_album": "1906325017",
    "description": "Infiniti_883968",
    "title": "Infiniti_883968",
    "link_img": "https://live.staticflickr.com/65535/48111984096_233517272e_o.jpg",
    "id_image": "Infiniti_883968",
    "count_view": 0
  },
  {
    "link_thumb": "https://live.staticflickr.com/65535/48112024398_ed43f10014_n.jpg",
    "id_album": "1906325017",
    "description": "Infiniti_883969",
    "title": "Infiniti_883969",
    "link_img": "https://live.staticflickr.com/65535/48112024398_2e05e5615a_o.jpg",
    "id_image": "Infiniti_883969",
    "count_view": 0
  },
  {
    "link_thumb": "https://live.staticflickr.com/65535/48112088462_a4f41cda22_n.jpg",
    "id_album": "1906325017",
    "description": "Infiniti_883970",
    "title": "Infiniti_883970",
    "link_img": "https://live.staticflickr.com/65535/48112088462_3e73a10148_o.jpg",
    "id_image": "Infiniti_883970",
    "count_view": 0
  },
  {
    "link_thumb": "https://live.staticflickr.com/65535/48112024683_e27abc1431_n.jpg",
    "id_album": "1906325017",
    "description": "Infiniti_883971",
    "title": "Infiniti_883971",
    "link_img": "https://live.staticflickr.com/65535/48112024683_ea3774db6f_o.jpg",
    "id_image": "Infiniti_883971",
    "count_view": 0
  },
  {
    "link_thumb": "https://live.staticflickr.com/65535/48111984641_0cecba81e9_n.jpg",
    "id_album": "1906325017",
    "description": "Infiniti_883972",
    "title": "Infiniti_883972",
    "link_img": "https://live.staticflickr.com/65535/48111984641_cae8cf1fe6_o.jpg",
    "id_image": "Infiniti_883972",
    "count_view": 0
  },
  {
    "link_thumb": "https://live.staticflickr.com/65535/48111984856_cab4afd824_n.jpg",
    "id_album": "1906325017",
    "description": "Infiniti_883973",
    "title": "Infiniti_883973",
    "link_img": "https://live.staticflickr.com/65535/48111984856_3ca43b9bb7_o.jpg",
    "id_image": "Infiniti_883973",
    "count_view": 0
  },
  {
    "link_thumb": "https://live.staticflickr.com/65535/48111984996_5409d1a309_n.jpg",
    "id_album": "1906325017",
    "description": "Infiniti_883974",
    "title": "Infiniti_883974",
    "link_img": "https://live.staticflickr.com/65535/48111984996_fcabd3fc7a_o.jpg",
    "id_image": "Infiniti_883974",
    "count_view": 0
  },
  {
    "link_thumb": "https://live.staticflickr.com/65535/48111985161_5117b7d2cb_n.jpg",
    "id_album": "1906325017",
    "description": "Infiniti_883975",
    "title": "Infiniti_883975",
    "link_img": "https://live.staticflickr.com/65535/48111985161_7aa7a43511_o.jpg",
    "id_image": "Infiniti_883975",
    "count_view": 0
  },
  {
    "link_thumb": "https://live.staticflickr.com/65535/48112025363_c5ab85ba81_n.jpg",
    "id_album": "1906325017",
    "description": "Infiniti_883976",
    "title": "Infiniti_883976",
    "link_img": "https://live.staticflickr.com/65535/48112025363_f35786cb5c_o.jpg",
    "id_image": "Infiniti_883976",
    "count_view": 0
  },
  {
    "link_thumb": "https://live.staticflickr.com/65535/48112089607_19af11e049_n.jpg",
    "id_album": "1906325017",
    "description": "Infiniti_883977",
    "title": "Infiniti_883977",
    "link_img": "https://live.staticflickr.com/65535/48112089607_68def1d972_o.jpg",
    "id_image": "Infiniti_883977",
    "count_view": 0
  },
  {
    "link_thumb": "https://live.staticflickr.com/65535/48112025633_5900924096_n.jpg",
    "id_album": "1906325017",
    "description": "Infiniti_883978",
    "title": "Infiniti_883978",
    "link_img": "https://live.staticflickr.com/65535/48112025633_af43cf5a71_o.jpg",
    "id_image": "Infiniti_883978",
    "count_view": 0
  },
  {
    "link_thumb": "https://live.staticflickr.com/65535/48112025788_351bfd967e_n.jpg",
    "id_album": "1906325017",
    "description": "Infiniti_883979",
    "title": "Infiniti_883979",
    "link_img": "https://live.staticflickr.com/65535/48112025788_98ef3dbe58_o.jpg",
    "id_image": "Infiniti_883979",
    "count_view": 0
  },
  {
    "link_thumb": "https://live.staticflickr.com/65535/48112089977_3361c25465_n.jpg",
    "id_album": "1906325017",
    "description": "Infiniti_883980",
    "title": "Infiniti_883980",
    "link_img": "https://live.staticflickr.com/65535/48112089977_37b18a91c5_o.jpg",
    "id_image": "Infiniti_883980",
    "count_view": 0
  },
  {
    "link_thumb": "https://live.staticflickr.com/65535/48111985976_0959bb97f9_n.jpg",
    "id_album": "1906325017",
    "description": "Infiniti_883981",
    "title": "Infiniti_883981",
    "link_img": "https://live.staticflickr.com/65535/48111985976_3222b0db57_o.jpg",
    "id_image": "Infiniti_883981",
    "count_view": 0
  },
  {
    "link_thumb": "https://live.staticflickr.com/65535/48111986086_12903e2efd_n.jpg",
    "id_album": "1906325017",
    "description": "Infiniti_883982",
    "title": "Infiniti_883982",
    "link_img": "https://live.staticflickr.com/65535/48111986086_d9d0986393_o.jpg",
    "id_image": "Infiniti_883982",
    "count_view": 0
  },
  {
    "link_thumb": "https://live.staticflickr.com/65535/48112026338_a63ca99be5_n.jpg",
    "id_album": "1906325017",
    "description": "Infiniti_883983",
    "title": "Infiniti_883983",
    "link_img": "https://live.staticflickr.com/65535/48112026338_3f80614306_o.jpg",
    "id_image": "Infiniti_883983",
    "count_view": 0
  },
  {
    "link_thumb": "https://live.staticflickr.com/65535/48112090497_95c5321cb0_n.jpg",
    "id_album": "1906325017",
    "description": "Infiniti_883984",
    "title": "Infiniti_883984",
    "link_img": "https://live.staticflickr.com/65535/48112090497_604934b27d_o.jpg",
    "id_image": "Infiniti_883984",
    "count_view": 0
  },
  {
    "link_thumb": "https://live.staticflickr.com/65535/48112090647_cdaaa9440f_n.jpg",
    "id_album": "1906325017",
    "description": "Infiniti_883985",
    "title": "Infiniti_883985",
    "link_img": "https://live.staticflickr.com/65535/48112090647_f3f1d7dfaa_o.jpg",
    "id_image": "Infiniti_883985",
    "count_view": 0
  },
  {
    "link_thumb": "https://live.staticflickr.com/65535/48112026708_81d51eb60d_n.jpg",
    "id_album": "1906325017",
    "description": "Infiniti_883986",
    "title": "Infiniti_883986",
    "link_img": "https://live.staticflickr.com/65535/48112026708_7d1cc3506a_o.jpg",
    "id_image": "Infiniti_883986",
    "count_view": 0
  },
  {
    "link_thumb": "https://live.staticflickr.com/65535/48112026848_d5c494fa38_n.jpg",
    "id_album": "1906325017",
    "description": "Infiniti_883987",
    "title": "Infiniti_883987",
    "link_img": "https://live.staticflickr.com/65535/48112026848_820e5da7b2_o.jpg",
    "id_image": "Infiniti_883987",
    "count_view": 0
  },
  {
    "link_thumb": "https://live.staticflickr.com/65535/48111987011_253a856e0d_n.jpg",
    "id_album": "1906325017",
    "description": "Infiniti_883988",
    "title": "Infiniti_883988",
    "link_img": "https://live.staticflickr.com/65535/48111987011_d4dd1f1818_o.jpg",
    "id_image": "Infiniti_883988",
    "count_view": 0
  },
  {
    "link_thumb": "https://live.staticflickr.com/65535/48111987161_247e0df609_n.jpg",
    "id_album": "1906325017",
    "description": "Infiniti_883990",
    "title": "Infiniti_883990",
    "link_img": "https://live.staticflickr.com/65535/48111987161_49e2891f3a_o.jpg",
    "id_image": "Infiniti_883990",
    "count_view": 0
  },
  {
    "link_thumb": "https://live.staticflickr.com/65535/48111987311_34ee0f142e_n.jpg",
    "id_album": "1906325017",
    "description": "Infiniti_883991",
    "title": "Infiniti_883991",
    "link_img": "https://live.staticflickr.com/65535/48111987311_5499c686f1_o.jpg",
    "id_image": "Infiniti_883991",
    "count_view": 0
  },
  {
    "link_thumb": "https://live.staticflickr.com/65535/48111987421_fb0435a967_n.jpg",
    "id_album": "1906325017",
    "description": "Infiniti_883992",
    "title": "Infiniti_883992",
    "link_img": "https://live.staticflickr.com/65535/48111987421_b227355392_o.jpg",
    "id_image": "Infiniti_883992",
    "count_view": 0
  },
  {
    "link_thumb": "https://live.staticflickr.com/65535/48111987531_0dcc53b2aa_n.jpg",
    "id_album": "1906325017",
    "description": "Infiniti_884867",
    "title": "Infiniti_884867",
    "link_img": "https://live.staticflickr.com/65535/48111987531_96ea745b46_o.jpg",
    "id_image": "Infiniti_884867",
    "count_view": 0
  },
  {
    "link_thumb": "https://live.staticflickr.com/65535/48112091742_61d2c9fe7f_n.jpg",
    "id_album": "1906325017",
    "description": "Infiniti_884869",
    "title": "Infiniti_884869",
    "link_img": "https://live.staticflickr.com/65535/48112091742_67a50d558d_o.jpg",
    "id_image": "Infiniti_884869",
    "count_view": 0
  },
  {
    "link_thumb": "https://live.staticflickr.com/65535/48111987926_a881555125_n.jpg",
    "id_album": "1906325017",
    "description": "Infiniti_884870",
    "title": "Infiniti_884870",
    "link_img": "https://live.staticflickr.com/65535/48111987926_b8f24f7e5d_o.jpg",
    "id_image": "Infiniti_884870",
    "count_view": 0
  },
  {
    "link_thumb": "https://live.staticflickr.com/65535/48112091972_fab8eb721d_n.jpg",
    "id_album": "1906325017",
    "description": "Infiniti_884871",
    "title": "Infiniti_884871",
    "link_img": "https://live.staticflickr.com/65535/48112091972_aa0a30dc03_o.jpg",
    "id_image": "Infiniti_884871",
    "count_view": 0
  },
  {
    "link_thumb": "https://live.staticflickr.com/65535/48111988286_23513a6d67_n.jpg",
    "id_album": "1906325017",
    "description": "Infiniti_884872",
    "title": "Infiniti_884872",
    "link_img": "https://live.staticflickr.com/65535/48111988286_473201fae3_o.jpg",
    "id_image": "Infiniti_884872",
    "count_view": 0
  },
  {
    "link_thumb": "https://live.staticflickr.com/65535/48111988371_cbcbd529a1_n.jpg",
    "id_album": "1906325017",
    "description": "Infiniti_884873",
    "title": "Infiniti_884873",
    "link_img": "https://live.staticflickr.com/65535/48111988371_71fce4f962_o.jpg",
    "id_image": "Infiniti_884873",
    "count_view": 0
  },
  {
    "link_thumb": "https://live.staticflickr.com/65535/48112028338_1ed139a7f6_n.jpg",
    "id_album": "1906325017",
    "description": "Infiniti_884874",
    "title": "Infiniti_884874",
    "link_img": "https://live.staticflickr.com/65535/48112028338_a6d41ee546_o.jpg",
    "id_image": "Infiniti_884874",
    "count_view": 0
  },
  {
    "link_thumb": "https://live.staticflickr.com/65535/48112028503_f7928e2ea2_n.jpg",
    "id_album": "1906325017",
    "description": "Infiniti_884875",
    "title": "Infiniti_884875",
    "link_img": "https://live.staticflickr.com/65535/48112028503_7c5cb824d4_o.jpg",
    "id_image": "Infiniti_884875",
    "count_view": 0
  },
  {
    "link_thumb": "https://live.staticflickr.com/65535/48111988756_e2d89ccd8e_n.jpg",
    "id_album": "1906325017",
    "description": "Infiniti_884876",
    "title": "Infiniti_884876",
    "link_img": "https://live.staticflickr.com/65535/48111988756_b2857d8aa8_o.jpg",
    "id_image": "Infiniti_884876",
    "count_view": 0
  },
  {
    "link_thumb": "https://live.staticflickr.com/65535/48111988906_63d2e80daf_n.jpg",
    "id_album": "1906325017",
    "description": "Infiniti_884877",
    "title": "Infiniti_884877",
    "link_img": "https://live.staticflickr.com/65535/48111988906_e8bd0d3200_o.jpg",
    "id_image": "Infiniti_884877",
    "count_view": 0
  },
  {
    "link_thumb": "https://live.staticflickr.com/65535/48111989011_9aa4b758ea_n.jpg",
    "id_album": "1906325017",
    "description": "Infiniti_884878",
    "title": "Infiniti_884878",
    "link_img": "https://live.staticflickr.com/65535/48111989011_704a6cfef0_o.jpg",
    "id_image": "Infiniti_884878",
    "count_view": 0
  },
  {
    "link_thumb": "https://live.staticflickr.com/65535/48111989166_3d073250e9_n.jpg",
    "id_album": "1906325017",
    "description": "Infiniti_884879",
    "title": "Infiniti_884879",
    "link_img": "https://live.staticflickr.com/65535/48111989166_7a2e9a4bb0_o.jpg",
    "id_image": "Infiniti_884879",
    "count_view": 0
  },
  {
    "link_thumb": "https://live.staticflickr.com/65535/48112093152_cb1582512b_n.jpg",
    "id_album": "1906325017",
    "description": "Infiniti_884880",
    "title": "Infiniti_884880",
    "link_img": "https://live.staticflickr.com/65535/48112093152_e74abd83f4_o.jpg",
    "id_image": "Infiniti_884880",
    "count_view": 0
  },
  {
    "link_thumb": "https://live.staticflickr.com/65535/48112029188_541d26ddf8_n.jpg",
    "id_album": "1906325017",
    "description": "Infiniti_884881",
    "title": "Infiniti_884881",
    "link_img": "https://live.staticflickr.com/65535/48112029188_616d104a62_o.jpg",
    "id_image": "Infiniti_884881",
    "count_view": 0
  },
  {
    "link_thumb": "https://live.staticflickr.com/65535/48112029313_9bba3810f5_n.jpg",
    "id_album": "1906325017",
    "description": "Infiniti_884882",
    "title": "Infiniti_884882",
    "link_img": "https://live.staticflickr.com/65535/48112029313_c27137904b_o.jpg",
    "id_image": "Infiniti_884882",
    "count_view": 0
  },
  {
    "link_thumb": "https://live.staticflickr.com/65535/48112093392_60d3399c8b_n.jpg",
    "id_album": "1906325017",
    "description": "Infiniti_884883",
    "title": "Infiniti_884883",
    "link_img": "https://live.staticflickr.com/65535/48112093392_8243e21a0f_o.jpg",
    "id_image": "Infiniti_884883",
    "count_view": 0
  },
  {
    "link_thumb": "https://live.staticflickr.com/65535/48111989671_4c0be5ab8f_n.jpg",
    "id_album": "1906325017",
    "description": "Infiniti_884884",
    "title": "Infiniti_884884",
    "link_img": "https://live.staticflickr.com/65535/48111989671_33db52d8c6_o.jpg",
    "id_image": "Infiniti_884884",
    "count_view": 0
  },
  {
    "link_thumb": "https://live.staticflickr.com/65535/48112029578_0d2c4cd27b_n.jpg",
    "id_album": "1906325017",
    "description": "Infiniti_884885",
    "title": "Infiniti_884885",
    "link_img": "https://live.staticflickr.com/65535/48112029578_f7bef96e6f_o.jpg",
    "id_image": "Infiniti_884885",
    "count_view": 0
  },
  {
    "link_thumb": "https://live.staticflickr.com/65535/48111989861_ee3eaec510_n.jpg",
    "id_album": "1906325017",
    "description": "Infiniti_884886",
    "title": "Infiniti_884886",
    "link_img": "https://live.staticflickr.com/65535/48111989861_2293e39d04_o.jpg",
    "id_image": "Infiniti_884886",
    "count_view": 0
  },
  {
    "link_thumb": "https://live.staticflickr.com/65535/48112093807_76b46988b4_n.jpg",
    "id_album": "1906325017",
    "description": "Infiniti_884887",
    "title": "Infiniti_884887",
    "link_img": "https://live.staticflickr.com/65535/48112093807_3135f06d5e_o.jpg",
    "id_image": "Infiniti_884887",
    "count_view": 0
  },
  {
    "link_thumb": "https://live.staticflickr.com/65535/48111990206_56c67a40d7_n.jpg",
    "id_album": "1906325017",
    "description": "Infiniti_884888",
    "title": "Infiniti_884888",
    "link_img": "https://live.staticflickr.com/65535/48111990206_8bb8dedb14_o.jpg",
    "id_image": "Infiniti_884888",
    "count_view": 0
  },
  {
    "link_thumb": "https://live.staticflickr.com/65535/48111990306_0b403a938c_n.jpg",
    "id_album": "1906325017",
    "description": "Infiniti_884889",
    "title": "Infiniti_884889",
    "link_img": "https://live.staticflickr.com/65535/48111990306_11d33bbe52_o.jpg",
    "id_image": "Infiniti_884889",
    "count_view": 0
  },
  {
    "link_thumb": "https://live.staticflickr.com/65535/48112030258_36659fbf03_n.jpg",
    "id_album": "1906325017",
    "description": "Infiniti_884890",
    "title": "Infiniti_884890",
    "link_img": "https://live.staticflickr.com/65535/48112030258_5e16be06ba_o.jpg",
    "id_image": "Infiniti_884890",
    "count_view": 0
  },
  {
    "link_thumb": "https://live.staticflickr.com/65535/48112094302_e6a31dd954_n.jpg",
    "id_album": "1906325017",
    "description": "Infiniti_884891",
    "title": "Infiniti_884891",
    "link_img": "https://live.staticflickr.com/65535/48112094302_627b1cc2b1_o.jpg",
    "id_image": "Infiniti_884891",
    "count_view": 0
  },
  {
    "link_thumb": "https://live.staticflickr.com/65535/48112094417_16f540e79f_n.jpg",
    "id_album": "1906325017",
    "description": "Infiniti_884892",
    "title": "Infiniti_884892",
    "link_img": "https://live.staticflickr.com/65535/48112094417_2f90c27e32_o.jpg",
    "id_image": "Infiniti_884892",
    "count_view": 0
  },
  {
    "link_thumb": "https://live.staticflickr.com/65535/48112030598_f5f8e2f23b_n.jpg",
    "id_album": "1906325017",
    "description": "Infiniti_884893",
    "title": "Infiniti_884893",
    "link_img": "https://live.staticflickr.com/65535/48112030598_5e016169fe_o.jpg",
    "id_image": "Infiniti_884893",
    "count_view": 0
  },
  {
    "link_thumb": "https://live.staticflickr.com/65535/48111990966_d93dda345e_n.jpg",
    "id_album": "1906325017",
    "description": "Infiniti_884894",
    "title": "Infiniti_884894",
    "link_img": "https://live.staticflickr.com/65535/48111990966_7fe7f8349c_o.jpg",
    "id_image": "Infiniti_884894",
    "count_view": 0
  },
  {
    "link_thumb": "https://live.staticflickr.com/65535/48112094787_68434ebb64_n.jpg",
    "id_album": "1906325017",
    "description": "Infiniti_884895",
    "title": "Infiniti_884895",
    "link_img": "https://live.staticflickr.com/65535/48112094787_50f0e7a8b2_o.jpg",
    "id_image": "Infiniti_884895",
    "count_view": 0
  },
  {
    "link_thumb": "https://live.staticflickr.com/65535/48112030938_5a14f25e45_n.jpg",
    "id_album": "1906325017",
    "description": "Infiniti_884896",
    "title": "Infiniti_884896",
    "link_img": "https://live.staticflickr.com/65535/48112030938_d374c1397e_o.jpg",
    "id_image": "Infiniti_884896",
    "count_view": 0
  },
  {
    "link_thumb": "https://live.staticflickr.com/65535/48112031078_1d3b08c752_n.jpg",
    "id_album": "1906325017",
    "description": "Infiniti_884897",
    "title": "Infiniti_884897",
    "link_img": "https://live.staticflickr.com/65535/48112031078_a690f6ff6a_o.jpg",
    "id_image": "Infiniti_884897",
    "count_view": 0
  },
  {
    "link_thumb": "https://live.staticflickr.com/65535/48112095287_16aa0de812_n.jpg",
    "id_album": "1906325017",
    "description": "Infiniti_884898",
    "title": "Infiniti_884898",
    "link_img": "https://live.staticflickr.com/65535/48112095287_685223c836_o.jpg",
    "id_image": "Infiniti_884898",
    "count_view": 0
  },
  {
    "link_thumb": "https://live.staticflickr.com/65535/48112031573_df1f4f53cc_n.jpg",
    "id_album": "1906325017",
    "description": "Infiniti_884899",
    "title": "Infiniti_884899",
    "link_img": "https://live.staticflickr.com/65535/48112031573_39a03bf349_o.jpg",
    "id_image": "Infiniti_884899",
    "count_view": 0
  },
  {
    "link_thumb": "https://live.staticflickr.com/65535/48111991911_db15c61383_n.jpg",
    "id_album": "1906325017",
    "description": "Infiniti_884900",
    "title": "Infiniti_884900",
    "link_img": "https://live.staticflickr.com/65535/48111991911_1b1c19a53f_o.jpg",
    "id_image": "Infiniti_884900",
    "count_view": 0
  },
  {
    "link_thumb": "https://live.staticflickr.com/65535/48112031823_29603bb115_n.jpg",
    "id_album": "1906325017",
    "description": "Infiniti_886073",
    "title": "Infiniti_886073",
    "link_img": "https://live.staticflickr.com/65535/48112031823_8819ea22a6_o.jpg",
    "id_image": "Infiniti_886073",
    "count_view": 0
  },
  {
    "link_thumb": "https://live.staticflickr.com/65535/48112032003_fe2542aef7_n.jpg",
    "id_album": "1906325017",
    "description": "Infiniti_886074",
    "title": "Infiniti_886074",
    "link_img": "https://live.staticflickr.com/65535/48112032003_6a7aa834dd_o.jpg",
    "id_image": "Infiniti_886074",
    "count_view": 0
  },
  {
    "link_thumb": "https://live.staticflickr.com/65535/48112032073_15d762e42c_n.jpg",
    "id_album": "1906325017",
    "description": "Infiniti_886075",
    "title": "Infiniti_886075",
    "link_img": "https://live.staticflickr.com/65535/48112032073_15b2a701f5_o.jpg",
    "id_image": "Infiniti_886075",
    "count_view": 0
  },
  {
    "link_thumb": "https://live.staticflickr.com/65535/48112096052_c9345e05da_n.jpg",
    "id_album": "1906325017",
    "description": "Infiniti_886076",
    "title": "Infiniti_886076",
    "link_img": "https://live.staticflickr.com/65535/48112096052_d5541a1c6b_o.jpg",
    "id_image": "Infiniti_886076",
    "count_view": 0
  },
  {
    "link_thumb": "https://live.staticflickr.com/65535/48112096147_76bb166a90_n.jpg",
    "id_album": "1906325017",
    "description": "Infiniti_886077",
    "title": "Infiniti_886077",
    "link_img": "https://live.staticflickr.com/65535/48112096147_c090f762fa_o.jpg",
    "id_image": "Infiniti_886077",
    "count_view": 0
  },
  {
    "link_thumb": "https://live.staticflickr.com/65535/48111992696_557b248240_n.jpg",
    "id_album": "1906325017",
    "description": "Infiniti_886078",
    "title": "Infiniti_886078",
    "link_img": "https://live.staticflickr.com/65535/48111992696_60f052b962_o.jpg",
    "id_image": "Infiniti_886078",
    "count_view": 0
  },
  {
    "link_thumb": "https://live.staticflickr.com/65535/48111992811_78bd0a7679_n.jpg",
    "id_album": "1906325017",
    "description": "Infiniti_886079",
    "title": "Infiniti_886079",
    "link_img": "https://live.staticflickr.com/65535/48111992811_a2d36b5df2_o.jpg",
    "id_image": "Infiniti_886079",
    "count_view": 0
  },
  {
    "link_thumb": "https://live.staticflickr.com/65535/48112032618_275cf89fb3_n.jpg",
    "id_album": "1906325017",
    "description": "Infiniti_886080",
    "title": "Infiniti_886080",
    "link_img": "https://live.staticflickr.com/65535/48112032618_79766139a7_o.jpg",
    "id_image": "Infiniti_886080",
    "count_view": 0
  },
  {
    "link_thumb": "https://live.staticflickr.com/65535/48112096647_af3b1ed196_n.jpg",
    "id_album": "1906325017",
    "description": "Infiniti_886081",
    "title": "Infiniti_886081",
    "link_img": "https://live.staticflickr.com/65535/48112096647_88a49a05c8_o.jpg",
    "id_image": "Infiniti_886081",
    "count_view": 0
  },
  {
    "link_thumb": "https://live.staticflickr.com/65535/48111993181_eea44d127c_n.jpg",
    "id_album": "1906325017",
    "description": "Infiniti_886082",
    "title": "Infiniti_886082",
    "link_img": "https://live.staticflickr.com/65535/48111993181_cf3d46b6da_o.jpg",
    "id_image": "Infiniti_886082",
    "count_view": 0
  },
  {
    "link_thumb": "https://live.staticflickr.com/65535/48111993421_8c3d81fd0c_n.jpg",
    "id_album": "1906325017",
    "description": "Infiniti_886083",
    "title": "Infiniti_886083",
    "link_img": "https://live.staticflickr.com/65535/48111993421_32eb675f34_o.jpg",
    "id_image": "Infiniti_886083",
    "count_view": 0
  },
  {
    "link_thumb": "https://live.staticflickr.com/65535/48112097107_67ef5716aa_n.jpg",
    "id_album": "1906325017",
    "description": "Infiniti_886084",
    "title": "Infiniti_886084",
    "link_img": "https://live.staticflickr.com/65535/48112097107_df0b0af6df_o.jpg",
    "id_image": "Infiniti_886084",
    "count_view": 0
  },
  {
    "link_thumb": "https://live.staticflickr.com/65535/48112033398_941e82fccf_n.jpg",
    "id_album": "1906325017",
    "description": "Infiniti_886085",
    "title": "Infiniti_886085",
    "link_img": "https://live.staticflickr.com/65535/48112033398_c440becd75_o.jpg",
    "id_image": "Infiniti_886085",
    "count_view": 0
  },
  {
    "link_thumb": "https://live.staticflickr.com/65535/48112033568_26994a62a6_n.jpg",
    "id_album": "1906325017",
    "description": "Infiniti_886086",
    "title": "Infiniti_886086",
    "link_img": "https://live.staticflickr.com/65535/48112033568_761812cf31_o.jpg",
    "id_image": "Infiniti_886086",
    "count_view": 0
  },
  {
    "link_thumb": "https://live.staticflickr.com/65535/48111993901_d7a45e8ee1_n.jpg",
    "id_album": "1906325017",
    "description": "Infiniti_886087",
    "title": "Infiniti_886087",
    "link_img": "https://live.staticflickr.com/65535/48111993901_6c388c19b9_o.jpg",
    "id_image": "Infiniti_886087",
    "count_view": 0
  },
  {
    "link_thumb": "https://live.staticflickr.com/65535/48112033828_62037078e8_n.jpg",
    "id_album": "1906325017",
    "description": "Infiniti_886088",
    "title": "Infiniti_886088",
    "link_img": "https://live.staticflickr.com/65535/48112033828_88b38c4bf4_o.jpg",
    "id_image": "Infiniti_886088",
    "count_view": 0
  },
  {
    "link_thumb": "https://live.staticflickr.com/65535/48111994106_47f598acdd_n.jpg",
    "id_album": "1906325017",
    "description": "Infiniti_886089",
    "title": "Infiniti_886089",
    "link_img": "https://live.staticflickr.com/65535/48111994106_c813cc07ef_o.jpg",
    "id_image": "Infiniti_886089",
    "count_view": 0
  },
  {
    "link_thumb": "https://live.staticflickr.com/65535/48111994346_395dbf7a16_n.jpg",
    "id_album": "1906325017",
    "description": "Infiniti_886090",
    "title": "Infiniti_886090",
    "link_img": "https://live.staticflickr.com/65535/48111994346_7256d077f3_o.jpg",
    "id_image": "Infiniti_886090",
    "count_view": 0
  },
  {
    "link_thumb": "https://live.staticflickr.com/65535/48112098047_ef4eea0681_n.jpg",
    "id_album": "1906325017",
    "description": "Infiniti_886091",
    "title": "Infiniti_886091",
    "link_img": "https://live.staticflickr.com/65535/48112098047_8b7d836135_o.jpg",
    "id_image": "Infiniti_886091",
    "count_view": 0
  },
  {
    "link_thumb": "https://live.staticflickr.com/65535/48112034463_6133f9fb64_n.jpg",
    "id_album": "1906325017",
    "description": "Infiniti_886092",
    "title": "Infiniti_886092",
    "link_img": "https://live.staticflickr.com/65535/48112034463_aaf2513b9c_o.jpg",
    "id_image": "Infiniti_886092",
    "count_view": 0
  },
  {
    "link_thumb": "https://live.staticflickr.com/65535/48112098357_0bd9c5f3ae_n.jpg",
    "id_album": "1906325017",
    "description": "Infiniti_886093",
    "title": "Infiniti_886093",
    "link_img": "https://live.staticflickr.com/65535/48112098357_cbeda867da_o.jpg",
    "id_image": "Infiniti_886093",
    "count_view": 0
  },
  {
    "link_thumb": "https://live.staticflickr.com/65535/48112034798_2e1dcba5a5_n.jpg",
    "id_album": "1906325017",
    "description": "Infiniti_886094",
    "title": "Infiniti_886094",
    "link_img": "https://live.staticflickr.com/65535/48112034798_e585881101_o.jpg",
    "id_image": "Infiniti_886094",
    "count_view": 0
  },
  {
    "link_thumb": "https://live.staticflickr.com/65535/48112034943_ea505ff480_n.jpg",
    "id_album": "1906325017",
    "description": "Infiniti_886095",
    "title": "Infiniti_886095",
    "link_img": "https://live.staticflickr.com/65535/48112034943_b9dfa27232_o.jpg",
    "id_image": "Infiniti_886095",
    "count_view": 0
  },
  {
    "link_thumb": "https://live.staticflickr.com/65535/48111995061_23e50e9c62_n.jpg",
    "id_album": "1906325017",
    "description": "Infiniti_886096",
    "title": "Infiniti_886096",
    "link_img": "https://live.staticflickr.com/65535/48111995061_8525efec12_o.jpg",
    "id_image": "Infiniti_886096",
    "count_view": 0
  },
  {
    "link_thumb": "https://live.staticflickr.com/65535/48112035258_ba26822456_n.jpg",
    "id_album": "1906325017",
    "description": "Infiniti_886097",
    "title": "Infiniti_886097",
    "link_img": "https://live.staticflickr.com/65535/48112035258_ed92820df5_o.jpg",
    "id_image": "Infiniti_886097",
    "count_view": 0
  },
  {
    "link_thumb": "https://live.staticflickr.com/65535/48112035353_0a0e8865ec_n.jpg",
    "id_album": "1906325017",
    "description": "Infiniti_886098",
    "title": "Infiniti_886098",
    "link_img": "https://live.staticflickr.com/65535/48112035353_411d73c66d_o.jpg",
    "id_image": "Infiniti_886098",
    "count_view": 0
  },
  {
    "link_thumb": "https://live.staticflickr.com/65535/48112099212_dcd39ccf3a_n.jpg",
    "id_album": "1906325017",
    "description": "Infiniti_886099",
    "title": "Infiniti_886099",
    "link_img": "https://live.staticflickr.com/65535/48112099212_78386b0c54_o.jpg",
    "id_image": "Infiniti_886099",
    "count_view": 0
  },
  {
    "link_thumb": "https://live.staticflickr.com/65535/48111995646_4dc45ee5d5_n.jpg",
    "id_album": "1906325017",
    "description": "Infiniti_886100",
    "title": "Infiniti_886100",
    "link_img": "https://live.staticflickr.com/65535/48111995646_670090fbce_o.jpg",
    "id_image": "Infiniti_886100",
    "count_view": 0
  },
  {
    "link_thumb": "https://live.staticflickr.com/65535/48111995771_f2ff357067_n.jpg",
    "id_album": "1906325017",
    "description": "Infiniti_886101",
    "title": "Infiniti_886101",
    "link_img": "https://live.staticflickr.com/65535/48111995771_e1a8ae8598_o.jpg",
    "id_image": "Infiniti_886101",
    "count_view": 0
  },
  {
    "link_thumb": "https://live.staticflickr.com/65535/48112035938_7423bdf6c2_n.jpg",
    "id_album": "1906325017",
    "description": "Infiniti_886102",
    "title": "Infiniti_886102",
    "link_img": "https://live.staticflickr.com/65535/48112035938_46a06ab370_o.jpg",
    "id_image": "Infiniti_886102",
    "count_view": 0
  },
  {
    "link_thumb": "https://live.staticflickr.com/65535/48112099672_6ea21cb80e_n.jpg",
    "id_album": "1906325017",
    "description": "Infiniti_886103",
    "title": "Infiniti_886103",
    "link_img": "https://live.staticflickr.com/65535/48112099672_27f75d4c2c_o.jpg",
    "id_image": "Infiniti_886103",
    "count_view": 0
  },
  {
    "link_thumb": "https://live.staticflickr.com/65535/48112036303_362bd91dd7_n.jpg",
    "id_album": "1906325017",
    "description": "Infiniti_886104",
    "title": "Infiniti_886104",
    "link_img": "https://live.staticflickr.com/65535/48112036303_5819bf152c_o.jpg",
    "id_image": "Infiniti_886104",
    "count_view": 0
  },
  {
    "link_thumb": "https://live.staticflickr.com/65535/48111996291_59c861d955_n.jpg",
    "id_album": "1906325017",
    "description": "Infiniti_886105",
    "title": "Infiniti_886105",
    "link_img": "https://live.staticflickr.com/65535/48111996291_6078e4decf_o.jpg",
    "id_image": "Infiniti_886105",
    "count_view": 0
  },
  {
    "link_thumb": "https://live.staticflickr.com/65535/48112100052_7891ae3568_n.jpg",
    "id_album": "1906325017",
    "description": "Infiniti_886950",
    "title": "Infiniti_886950",
    "link_img": "https://live.staticflickr.com/65535/48112100052_4391828d6e_o.jpg",
    "id_image": "Infiniti_886950",
    "count_view": 0
  },
  {
    "link_thumb": "https://live.staticflickr.com/65535/48112036733_7a19c678f6_n.jpg",
    "id_album": "1906325017",
    "description": "Infiniti_886951",
    "title": "Infiniti_886951",
    "link_img": "https://live.staticflickr.com/65535/48112036733_f5da27cd67_o.jpg",
    "id_image": "Infiniti_886951",
    "count_view": 0
  },
  {
    "link_thumb": "https://live.staticflickr.com/65535/48111996776_5680bb7485_n.jpg",
    "id_album": "1906325017",
    "description": "Infiniti_888403",
    "title": "Infiniti_888403",
    "link_img": "https://live.staticflickr.com/65535/48111996776_93eb53b296_o.jpg",
    "id_image": "Infiniti_888403",
    "count_view": 0
  },
  {
    "link_thumb": "https://live.staticflickr.com/65535/48112100602_e87a7a0d6b_n.jpg",
    "id_album": "1906325017",
    "description": "Infiniti_901378",
    "title": "Infiniti_901378",
    "link_img": "https://live.staticflickr.com/65535/48112100602_2d3c521689_o.jpg",
    "id_image": "Infiniti_901378",
    "count_view": 0
  },
  {
    "link_thumb": "https://live.staticflickr.com/65535/48112100892_3f80b05034_n.jpg",
    "id_album": "1906325017",
    "description": "Infiniti_901379",
    "title": "Infiniti_901379",
    "link_img": "https://live.staticflickr.com/65535/48112100892_7b9bdfe387_o.jpg",
    "id_image": "Infiniti_901379",
    "count_view": 0
  },
  {
    "link_thumb": "https://live.staticflickr.com/65535/48111997501_e32ce8fce9_n.jpg",
    "id_album": "1906325017",
    "description": "Infiniti_901380",
    "title": "Infiniti_901380",
    "link_img": "https://live.staticflickr.com/65535/48111997501_e1cfe7d2a7_o.jpg",
    "id_image": "Infiniti_901380",
    "count_view": 0
  },
  {
    "link_thumb": "https://live.staticflickr.com/65535/48112037913_c2297b55f2_n.jpg",
    "id_album": "1906325017",
    "description": "Infiniti_901381",
    "title": "Infiniti_901381",
    "link_img": "https://live.staticflickr.com/65535/48112037913_f27a48111d_o.jpg",
    "id_image": "Infiniti_901381",
    "count_view": 0
  },
  {
    "link_thumb": "https://live.staticflickr.com/65535/48111997941_141e5b53ec_n.jpg",
    "id_album": "1906325017",
    "description": "Infiniti_960144",
    "title": "Infiniti_960144",
    "link_img": "https://live.staticflickr.com/65535/48111997941_2b46bc4b09_o.jpg",
    "id_image": "Infiniti_960144",
    "count_view": 0
  },
  {
    "link_thumb": "https://live.staticflickr.com/65535/48111998086_45e3726943_n.jpg",
    "id_album": "1906325017",
    "description": "Infiniti_960145",
    "title": "Infiniti_960145",
    "link_img": "https://live.staticflickr.com/65535/48111998086_743a2f06bb_o.jpg",
    "id_image": "Infiniti_960145",
    "count_view": 0
  },
  {
    "link_thumb": "https://live.staticflickr.com/65535/48111998181_61d1c9ffa3_n.jpg",
    "id_album": "1906325017",
    "description": "Infiniti_960146",
    "title": "Infiniti_960146",
    "link_img": "https://live.staticflickr.com/65535/48111998181_493699347d_o.jpg",
    "id_image": "Infiniti_960146",
    "count_view": 0
  },
  {
    "link_thumb": "https://live.staticflickr.com/65535/48112038498_9bb16080e5_n.jpg",
    "id_album": "1906325017",
    "description": "Infiniti_960147",
    "title": "Infiniti_960147",
    "link_img": "https://live.staticflickr.com/65535/48112038498_0dfd5552eb_o.jpg",
    "id_image": "Infiniti_960147",
    "count_view": 0
  },
  {
    "link_thumb": "https://live.staticflickr.com/65535/48112101987_9a00ddb5d4_n.jpg",
    "id_album": "1906325017",
    "description": "Infiniti_960148",
    "title": "Infiniti_960148",
    "link_img": "https://live.staticflickr.com/65535/48112101987_97a1829c93_o.jpg",
    "id_image": "Infiniti_960148",
    "count_view": 0
  },
  {
    "link_thumb": "https://live.staticflickr.com/65535/48112102162_b022d2880d_n.jpg",
    "id_album": "1906325017",
    "description": "Infiniti_960149",
    "title": "Infiniti_960149",
    "link_img": "https://live.staticflickr.com/65535/48112102162_d001a987b6_o.jpg",
    "id_image": "Infiniti_960149",
    "count_view": 0
  },
  {
    "link_thumb": "https://live.staticflickr.com/65535/48112038863_3b1449aafc_n.jpg",
    "id_album": "1906325017",
    "description": "Infiniti_960150",
    "title": "Infiniti_960150",
    "link_img": "https://live.staticflickr.com/65535/48112038863_8bb24fed93_o.jpg",
    "id_image": "Infiniti_960150",
    "count_view": 0
  },
  {
    "link_thumb": "https://live.staticflickr.com/65535/48112102402_d8da8434f7_n.jpg",
    "id_album": "1906325017",
    "description": "Infiniti_962173",
    "title": "Infiniti_962173",
    "link_img": "https://live.staticflickr.com/65535/48112102402_2170d9e247_o.jpg",
    "id_image": "Infiniti_962173",
    "count_view": 0
  },
  {
    "link_thumb": "https://live.staticflickr.com/65535/48111998986_842f5b54a0_n.jpg",
    "id_album": "1906325017",
    "description": "Infiniti_962174",
    "title": "Infiniti_962174",
    "link_img": "https://live.staticflickr.com/65535/48111998986_df70879f94_o.jpg",
    "id_image": "Infiniti_962174",
    "count_view": 0
  },
  {
    "link_thumb": "https://live.staticflickr.com/65535/48112102707_b5da2b2785_n.jpg",
    "id_album": "1906325017",
    "description": "Infiniti_962175",
    "title": "Infiniti_962175",
    "link_img": "https://live.staticflickr.com/65535/48112102707_5bec4b6a08_o.jpg",
    "id_image": "Infiniti_962175",
    "count_view": 0
  },
  {
    "link_thumb": "https://live.staticflickr.com/65535/48111999286_f9f74c8a84_n.jpg",
    "id_album": "1906325017",
    "description": "Infiniti_962177",
    "title": "Infiniti_962177",
    "link_img": "https://live.staticflickr.com/65535/48111999286_ded1e7a892_o.jpg",
    "id_image": "Infiniti_962177",
    "count_view": 0
  },
  {
    "link_thumb": "https://live.staticflickr.com/65535/48111999461_241fbf6c32_n.jpg",
    "id_album": "1906325017",
    "description": "Infiniti_962179",
    "title": "Infiniti_962179",
    "link_img": "https://live.staticflickr.com/65535/48111999461_00e23b30af_o.jpg",
    "id_image": "Infiniti_962179",
    "count_view": 0
  },
  {
    "link_thumb": "https://live.staticflickr.com/65535/48112103192_9b4c7d6e27_n.jpg",
    "id_album": "1906325017",
    "description": "Infiniti_962183",
    "title": "Infiniti_962183",
    "link_img": "https://live.staticflickr.com/65535/48112103192_41d7cfb323_o.jpg",
    "id_image": "Infiniti_962183",
    "count_view": 0
  },
  {
    "link_thumb": "https://live.staticflickr.com/65535/48112039798_9776945e7b_n.jpg",
    "id_album": "1906325017",
    "description": "Infiniti_962185",
    "title": "Infiniti_962185",
    "link_img": "https://live.staticflickr.com/65535/48112039798_a182ee1a12_o.jpg",
    "id_image": "Infiniti_962185",
    "count_view": 0
  },
  {
    "link_thumb": "https://live.staticflickr.com/65535/48111999726_ac08113c28_n.jpg",
    "id_album": "1906325017",
    "description": "Infiniti_962187",
    "title": "Infiniti_962187",
    "link_img": "https://live.staticflickr.com/65535/48111999726_896894a266_o.jpg",
    "id_image": "Infiniti_962187",
    "count_view": 0
  },
  {
    "link_thumb": "https://live.staticflickr.com/65535/48112103572_c891d237e1_n.jpg",
    "id_album": "1906325017",
    "description": "Infiniti_962188",
    "title": "Infiniti_962188",
    "link_img": "https://live.staticflickr.com/65535/48112103572_03bb4d6dc5_o.jpg",
    "id_image": "Infiniti_962188",
    "count_view": 0
  },
  {
    "link_thumb": "https://live.staticflickr.com/65535/48112040263_8bc67b68d8_n.jpg",
    "id_album": "1906325017",
    "description": "Infiniti_962189",
    "title": "Infiniti_962189",
    "link_img": "https://live.staticflickr.com/65535/48112040263_aa0d4ef1c6_o.jpg",
    "id_image": "Infiniti_962189",
    "count_view": 0
  },
  {
    "link_thumb": "https://live.staticflickr.com/65535/48112000156_56a6da6f0d_n.jpg",
    "id_album": "1906325017",
    "description": "Infiniti_962190",
    "title": "Infiniti_962190",
    "link_img": "https://live.staticflickr.com/65535/48112000156_d92138326d_o.jpg",
    "id_image": "Infiniti_962190",
    "count_view": 0
  },
  {
    "link_thumb": "https://live.staticflickr.com/65535/48112040448_1662792597_n.jpg",
    "id_album": "1906325017",
    "description": "Infiniti_962191",
    "title": "Infiniti_962191",
    "link_img": "https://live.staticflickr.com/65535/48112040448_1bb1de0b44_o.jpg",
    "id_image": "Infiniti_962191",
    "count_view": 0
  },
  {
    "link_thumb": "https://live.staticflickr.com/65535/48112104062_6f04b804be_n.jpg",
    "id_album": "1906325017",
    "description": "Infiniti_984409",
    "title": "Infiniti_984409",
    "link_img": "https://live.staticflickr.com/65535/48112104062_1e78001f04_o.jpg",
    "id_image": "Infiniti_984409",
    "count_view": 0
  },
  {
    "link_thumb": "https://live.staticflickr.com/65535/48112104447_dac64f3236_n.jpg",
    "id_album": "1906325017",
    "description": "Infiniti_984625",
    "title": "Infiniti_984625",
    "link_img": "https://live.staticflickr.com/65535/48112104447_eabcc9e30a_o.jpg",
    "id_image": "Infiniti_984625",
    "count_view": 0
  },
  {
    "link_thumb": "https://live.staticflickr.com/65535/48112001041_c277f0db5c_n.jpg",
    "id_album": "1906325017",
    "description": "Infiniti_984626",
    "title": "Infiniti_984626",
    "link_img": "https://live.staticflickr.com/65535/48112001041_69d5a23040_o.jpg",
    "id_image": "Infiniti_984626",
    "count_view": 0
  },
  {
    "link_thumb": "https://live.staticflickr.com/65535/48112041443_93e0d13184_n.jpg",
    "id_album": "1906325017",
    "description": "Infiniti_984627",
    "title": "Infiniti_984627",
    "link_img": "https://live.staticflickr.com/65535/48112041443_c1680fc44e_o.jpg",
    "id_image": "Infiniti_984627",
    "count_view": 0
  },
  {
    "link_thumb": "https://live.staticflickr.com/65535/48112105227_046e638bde_n.jpg",
    "id_album": "1906325017",
    "description": "Infiniti_984628",
    "title": "Infiniti_984628",
    "link_img": "https://live.staticflickr.com/65535/48112105227_b1c08f1d69_o.jpg",
    "id_image": "Infiniti_984628",
    "count_view": 0
  },
  {
    "link_thumb": "https://live.staticflickr.com/65535/48112001711_0a41beca4f_n.jpg",
    "id_album": "1906325017",
    "description": "Infiniti_984829",
    "title": "Infiniti_984829",
    "link_img": "https://live.staticflickr.com/65535/48112001711_13c5678442_o.jpg",
    "id_image": "Infiniti_984829",
    "count_view": 0
  },
  {
    "link_thumb": "https://live.staticflickr.com/65535/48112041988_7ee36d62a2_n.jpg",
    "id_album": "1906325017",
    "description": "Infiniti_985427",
    "title": "Infiniti_985427",
    "link_img": "https://live.staticflickr.com/65535/48112041988_9e41b82fc3_o.jpg",
    "id_image": "Infiniti_985427",
    "count_view": 0
  },
  {
    "link_thumb": "https://live.staticflickr.com/65535/48112042128_f3027fa4ec_n.jpg",
    "id_album": "1906325017",
    "description": "Infiniti_995559",
    "title": "Infiniti_995559",
    "link_img": "https://live.staticflickr.com/65535/48112042128_fa4f53d9c9_o.jpg",
    "id_image": "Infiniti_995559",
    "count_view": 0
  }
]