[
  {
    "link_thumb": "https://live.staticflickr.com/65535/49889499863_cbdf0a736d_n.jpg",
    "id_album": "-1171889069",
    "description": "1992_rv_Jaguar_rv_XJ220_rv_V6_rv_1440",
    "title": "1992_rv_Jaguar_rv_XJ220_rv_V6_rv_1440",
    "link_img": "https://live.staticflickr.com/65535/49889499863_dd119865ba_o.jpg",
    "id_image": "1992_rv_Jaguar_rv_XJ220_rv_V6_rv_1440",
    "count_view": 0
  },
  {
    "link_thumb": "https://live.staticflickr.com/65535/48118029491_a5353998bb_n.jpg",
    "id_album": "-843028318",
    "description": "Jaguar_894108",
    "title": "Jaguar_894108",
    "link_img": "https://live.staticflickr.com/65535/48118029491_a0febd76db_o.jpg",
    "id_image": "Jaguar_894108",
    "count_view": 0
  },
  {
    "link_thumb": "https://live.staticflickr.com/65535/49893033422_03c20742ab_n.jpg",
    "id_album": "1158113959",
    "description": "2020_rv_Aston_rv_Martin_rv_DBS_rv_GT_rv_Zagato_rv_V6_rv_2160",
    "title": "2020_rv_Aston_rv_Martin_rv_DBS_rv_GT_rv_Zagato_rv_V6_rv_2160",
    "link_img": "https://live.staticflickr.com/65535/49893033422_bfb8497e8c_o.jpg",
    "id_image": "2020_rv_Aston_rv_Martin_rv_DBS_rv_GT_rv_Zagato_rv_V6_rv_2160",
    "count_view": 0
  },
  {
    "link_thumb": "https://live.staticflickr.com/65535/48118348317_ffc870fe91_n.jpg",
    "id_album": "-2100339805",
    "description": "Lamborghini_250012",
    "title": "Lamborghini_250012",
    "link_img": "https://live.staticflickr.com/65535/48118348317_494c1fe2b2_o.jpg",
    "id_image": "Lamborghini_250012",
    "count_view": 0
  },
  {
    "link_thumb": "https://live.staticflickr.com/65535/49889952653_d88de47e5c_n.jpg",
    "id_album": "-168734084",
    "description": "2015_rv_Mazda_rv_6_rv_V6_rv_1600",
    "title": "2015_rv_Mazda_rv_6_rv_V6_rv_1600",
    "link_img": "https://live.staticflickr.com/65535/49889952653_9a0e3ca384_o.jpg",
    "id_image": "2015_rv_Mazda_rv_6_rv_V6_rv_1600",
    "count_view": 0
  },
  {
    "link_thumb": "https://live.staticflickr.com/65535/49891385541_0ddbf1f422_n.jpg",
    "id_album": "-857328710",
    "description": "2013_rv_Porsche_rv_Boxster_rv_V3_rv_1536",
    "title": "2013_rv_Porsche_rv_Boxster_rv_V3_rv_1536",
    "link_img": "https://live.staticflickr.com/65535/49891385541_fd4438c402_o.jpg",
    "id_image": "2013_rv_Porsche_rv_Boxster_rv_V3_rv_1536",
    "count_view": 0
  },
  {
    "link_thumb": "https://live.staticflickr.com/65535/48113331938_6dd57e01e2_n.jpg",
    "id_album": "727633301",
    "description": "BMW_991306",
    "title": "BMW_991306",
    "link_img": "https://live.staticflickr.com/65535/48113331938_0964c28c74_o.jpg",
    "id_image": "BMW_991306",
    "count_view": 0
  },
  {
    "link_thumb": "https://live.staticflickr.com/65535/48115313208_98c60c9942_n.jpg",
    "id_album": "413141323",
    "description": "Dodge_457697",
    "title": "Dodge_457697",
    "link_img": "https://live.staticflickr.com/65535/48115313208_b5a0f44d4d_o.jpg",
    "id_image": "Dodge_457697",
    "count_view": 0
  },
  {
    "link_thumb": "https://live.staticflickr.com/65535/49889333566_d38218fa4d_n.jpg",
    "id_album": "-217731868",
    "description": "1998_rv_De_rv_Tomaso_rv_Guara_rv_Spyder_rv_V1_rv_2160",
    "title": "1998_rv_De_rv_Tomaso_rv_Guara_rv_Spyder_rv_V1_rv_2160",
    "link_img": "https://live.staticflickr.com/65535/49889333566_c1467b076a_o.jpg",
    "id_image": "1998_rv_De_rv_Tomaso_rv_Guara_rv_Spyder_rv_V1_rv_2160",
    "count_view": 0
  },
  {
    "link_thumb": "https://live.staticflickr.com/65535/48119682247_e76e2b4802_n.jpg",
    "id_album": "-731054311",
    "description": "MercedesBenz_318919",
    "title": "MercedesBenz_318919",
    "link_img": "https://live.staticflickr.com/65535/48119682247_6e7efbc145_o.jpg",
    "id_image": "MercedesBenz_318919",
    "count_view": 0
  },
  {
    "link_thumb": "https://live.staticflickr.com/65535/49889432502_26448f640c_n.jpg",
    "id_album": "-1839908265",
    "description": "1989_rv_BMW_rv_8_rv_Series_rv_V1_rv_1440",
    "title": "1989_rv_BMW_rv_8_rv_Series_rv_V1_rv_1440",
    "link_img": "https://live.staticflickr.com/65535/49889432502_cdab7476c0_o.jpg",
    "id_image": "1989_rv_BMW_rv_8_rv_Series_rv_V1_rv_1440",
    "count_view": 0
  },
  {
    "link_thumb": "https://live.staticflickr.com/65535/48121535106_2116a248d4_n.jpg",
    "id_album": "-1178450892",
    "description": "Porsche_681905",
    "title": "Porsche_681905",
    "link_img": "https://live.staticflickr.com/65535/48121535106_c707fc2f7b_o.jpg",
    "id_image": "Porsche_681905",
    "count_view": 0
  },
  {
    "link_thumb": "https://live.staticflickr.com/65535/48116098027_5e46ac9398_n.jpg",
    "id_album": "1364506720",
    "description": "Ferrari_454724",
    "title": "Ferrari_454724",
    "link_img": "https://live.staticflickr.com/65535/48116098027_05a7e57cee_o.jpg",
    "id_image": "Ferrari_454724",
    "count_view": 0
  },
  {
    "link_thumb": "https://live.staticflickr.com/65535/49888213678_cb4379dd17_n.jpg",
    "id_album": "1115167550",
    "description": "2014_rv_Acura_rv_TLX_rv_Prototype_rv_V3_rv_1600",
    "title": "2014_rv_Acura_rv_TLX_rv_Prototype_rv_V3_rv_1600",
    "link_img": "https://live.staticflickr.com/65535/49888213678_effd1da19d_o.jpg",
    "id_image": "2014_rv_Acura_rv_TLX_rv_Prototype_rv_V3_rv_1600",
    "count_view": 0
  },
  {
    "link_thumb": "https://live.staticflickr.com/65535/49889443447_082341ff2a_n.jpg",
    "id_album": "-1839908265",
    "description": "2019_rv_BMW_rv_8_rv_Series_rv_Coupe_rv_V2_rv_2000",
    "title": "2019_rv_BMW_rv_8_rv_Series_rv_Coupe_rv_V2_rv_2000",
    "link_img": "https://live.staticflickr.com/65535/49889443447_cc50995328_o.jpg",
    "id_image": "2019_rv_BMW_rv_8_rv_Series_rv_Coupe_rv_V2_rv_2000",
    "count_view": 0
  },
  {
    "link_thumb": "https://live.staticflickr.com/65535/49889505918_e3e2d2e76f_n.jpg",
    "id_album": "1773051538",
    "description": "2011_rv_Jaguar_rv_XKR_rv_75_rv_V3_rv_1440",
    "title": "2011_rv_Jaguar_rv_XKR_rv_75_rv_V3_rv_1440",
    "link_img": "https://live.staticflickr.com/65535/49889505918_0431b4f0c9_o.jpg",
    "id_image": "2011_rv_Jaguar_rv_XKR_rv_75_rv_V3_rv_1440",
    "count_view": 0
  },
  {
    "link_thumb": "https://live.staticflickr.com/65535/48115531737_4f1819d844_n.jpg",
    "id_album": "413141323",
    "description": "Dodge_6359",
    "title": "Dodge_6359",
    "link_img": "https://live.staticflickr.com/65535/48115531737_edee355893_o.jpg",
    "id_image": "Dodge_6359",
    "count_view": 0
  },
  {
    "link_thumb": "https://live.staticflickr.com/65535/48123212118_fb4e90e43f_n.jpg",
    "id_album": "1159292543",
    "description": "Volvo_879823",
    "title": "Volvo_879823",
    "link_img": "https://live.staticflickr.com/65535/48123212118_2dcf828c6f_o.jpg",
    "id_image": "Volvo_879823",
    "count_view": 0
  },
  {
    "link_thumb": "https://live.staticflickr.com/65535/48113041157_a4ab44158e_n.jpg",
    "id_album": "727633301",
    "description": "BMW_499535",
    "title": "BMW_499535",
    "link_img": "https://live.staticflickr.com/65535/48113041157_f335f3b334_o.jpg",
    "id_image": "BMW_499535",
    "count_view": 0
  },
  {
    "link_thumb": "https://live.staticflickr.com/65535/48122885431_a4634f7a9d_n.jpg",
    "id_album": "-150952028",
    "description": "Volkswagen_259127",
    "title": "Volkswagen_259127",
    "link_img": "https://live.staticflickr.com/65535/48122885431_f05e194041_o.jpg",
    "id_image": "Volkswagen_259127",
    "count_view": 0
  },
  {
    "link_thumb": "https://live.staticflickr.com/65535/48112402007_9e9db1a1de_n.jpg",
    "id_album": "-15119147",
    "description": "Audi_450585",
    "title": "Audi_450585",
    "link_img": "https://live.staticflickr.com/65535/48112402007_5f77d7f896_o.jpg",
    "id_image": "Audi_450585",
    "count_view": 0
  },
  {
    "link_thumb": "https://live.staticflickr.com/65535/48118036017_95f0cb260d_n.jpg",
    "id_album": "427416146",
    "description": "Hummer_256053",
    "title": "Hummer_256053",
    "link_img": "https://live.staticflickr.com/65535/48118036017_9bf235cbb0_o.jpg",
    "id_image": "Hummer_256053",
    "count_view": 0
  },
  {
    "link_thumb": "https://live.staticflickr.com/65535/48119129917_5e6655352f_n.jpg",
    "id_album": "-1153253263",
    "description": "Lotus_918726",
    "title": "Lotus_918726",
    "link_img": "https://live.staticflickr.com/65535/48119129917_894bb0921a_o.jpg",
    "id_image": "Lotus_918726",
    "count_view": 0
  },
  {
    "link_thumb": "https://live.staticflickr.com/65535/48117633596_d6f6b81620_n.jpg",
    "id_album": "-1846404630",
    "description": "Ford_960010",
    "title": "Ford_960010",
    "link_img": "https://live.staticflickr.com/65535/48117633596_fc254016e3_o.jpg",
    "id_image": "Ford_960010",
    "count_view": 0
  },
  {
    "link_thumb": "https://live.staticflickr.com/65535/48113811582_f3c5304af4_n.jpg",
    "id_album": "-1721545051",
    "description": "Chevrolet_172958",
    "title": "Chevrolet_172958",
    "link_img": "https://live.staticflickr.com/65535/48113811582_46a6fb5e23_o.jpg",
    "id_image": "Chevrolet_172958",
    "count_view": 0
  },
  {
    "link_thumb": "https://live.staticflickr.com/65535/49890077641_4d36bb8e88_n.jpg",
    "id_album": "465737886",
    "description": "2016_rv_Koenigsegg_rv_Regera_rv_V7_rv_1600",
    "title": "2016_rv_Koenigsegg_rv_Regera_rv_V7_rv_1600",
    "link_img": "https://live.staticflickr.com/65535/49890077641_b0e113ee8a_o.jpg",
    "id_image": "2016_rv_Koenigsegg_rv_Regera_rv_V7_rv_1600",
    "count_view": 0
  },
  {
    "link_thumb": "https://live.staticflickr.com/65535/49891593587_e41e79f30b_n.jpg",
    "id_album": "-741950554",
    "description": "2013_rv_Peugeot_rv_RCZ_rv_V3_rv_1440",
    "title": "2013_rv_Peugeot_rv_RCZ_rv_V3_rv_1440",
    "link_img": "https://live.staticflickr.com/65535/49891593587_3e71139b24_o.jpg",
    "id_image": "2013_rv_Peugeot_rv_RCZ_rv_V3_rv_1440",
    "count_view": 0
  },
  {
    "link_thumb": "https://live.staticflickr.com/65535/48122111963_3cc784ec92_n.jpg",
    "id_album": "1536700661",
    "description": "RollsRoyce_190319",
    "title": "RollsRoyce_190319",
    "link_img": "https://live.staticflickr.com/65535/48122111963_87925d36e2_o.jpg",
    "id_image": "RollsRoyce_190319",
    "count_view": 0
  },
  {
    "link_thumb": "https://live.staticflickr.com/65535/48122408048_0b18227767_n.jpg",
    "id_album": "422322641",
    "description": "Subaru_207399",
    "title": "Subaru_207399",
    "link_img": "https://live.staticflickr.com/65535/48122408048_096538fc6f_o.jpg",
    "id_image": "Subaru_207399",
    "count_view": 0
  },
  {
    "link_thumb": "https://live.staticflickr.com/65535/48122935166_e523139c7a_n.jpg",
    "id_album": "-150952028",
    "description": "Volkswagen_355660",
    "title": "Volkswagen_355660",
    "link_img": "https://live.staticflickr.com/65535/48122935166_5974fd66d2_o.jpg",
    "id_image": "Volkswagen_355660",
    "count_view": 0
  },
  {
    "link_thumb": "https://live.staticflickr.com/65535/49888836596_838145fff3_n.jpg",
    "id_album": "1601696203",
    "description": "2018_rv_Aston_rv_Martin_rv_DB4_rv_GT_rv_Continuation_rv_V7_rv_2000",
    "title": "2018_rv_Aston_rv_Martin_rv_DB4_rv_GT_rv_Continuation_rv_V7_rv_2000",
    "link_img": "https://live.staticflickr.com/65535/49888836596_8769cd8542_o.jpg",
    "id_image": "2018_rv_Aston_rv_Martin_rv_DB4_rv_GT_rv_Continuation_rv_V7_rv_2000",
    "count_view": 0
  },
  {
    "link_thumb": "https://live.staticflickr.com/65535/48114207872_76fda6330d_n.jpg",
    "id_album": "-1721545051",
    "description": "Chevrolet_322362",
    "title": "Chevrolet_322362",
    "link_img": "https://live.staticflickr.com/65535/48114207872_efd6230f4e_o.jpg",
    "id_image": "Chevrolet_322362",
    "count_view": 0
  },
  {
    "link_thumb": "https://live.staticflickr.com/65535/49889404311_35f988cd52_n.jpg",
    "id_album": "123809772",
    "description": "2018_rv_Formula1_rv_Sauber_rv_C37_rv_V1_rv_2000",
    "title": "2018_rv_Formula1_rv_Sauber_rv_C37_rv_V1_rv_2000",
    "link_img": "https://live.staticflickr.com/65535/49889404311_8dd91945be_o.jpg",
    "id_image": "2018_rv_Formula1_rv_Sauber_rv_C37_rv_V1_rv_2000",
    "count_view": 0
  },
  {
    "link_thumb": "https://live.staticflickr.com/65535/48117367716_f26630b28c_n.jpg",
    "id_album": "-1846404630",
    "description": "Ford_676375",
    "title": "Ford_676375",
    "link_img": "https://live.staticflickr.com/65535/48117367716_e5b1753dee_o.jpg",
    "id_image": "Ford_676375",
    "count_view": 0
  },
  {
    "link_thumb": "https://live.staticflickr.com/65535/48123210308_ea430af043_n.jpg",
    "id_album": "1159292543",
    "description": "Volvo_879815",
    "title": "Volvo_879815",
    "link_img": "https://live.staticflickr.com/65535/48123210308_10ec7b8c9b_o.jpg",
    "id_image": "Volvo_879815",
    "count_view": 0
  },
  {
    "link_thumb": "https://live.staticflickr.com/65535/48117354421_f78dd839bf_n.jpg",
    "id_album": "-1846404630",
    "description": "Ford_640411",
    "title": "Ford_640411",
    "link_img": "https://live.staticflickr.com/65535/48117354421_0ef5176e61_o.jpg",
    "id_image": "Ford_640411",
    "count_view": 0
  },
  {
    "link_thumb": "https://live.staticflickr.com/65535/48115349653_22aef60902_n.jpg",
    "id_album": "413141323",
    "description": "Dodge_472151",
    "title": "Dodge_472151",
    "link_img": "https://live.staticflickr.com/65535/48115349653_53f3b4de7a_o.jpg",
    "id_image": "Dodge_472151",
    "count_view": 0
  },
  {
    "link_thumb": "https://live.staticflickr.com/65535/49889348186_1ee9166964_n.jpg",
    "id_album": "1584908108",
    "description": "2013_rv_Dodge_rv_Dart_rv_Mopar_rv_V6_rv_1600",
    "title": "2013_rv_Dodge_rv_Dart_rv_Mopar_rv_V6_rv_1600",
    "link_img": "https://live.staticflickr.com/65535/49889348186_90f34da921_o.jpg",
    "id_image": "2013_rv_Dodge_rv_Dart_rv_Mopar_rv_V6_rv_1600",
    "count_view": 0
  },
  {
    "link_thumb": "https://live.staticflickr.com/65535/48112865067_4670690d21_n.jpg",
    "id_album": "727633301",
    "description": "BMW_449688",
    "title": "BMW_449688",
    "link_img": "https://live.staticflickr.com/65535/48112865067_441c70a9f2_o.jpg",
    "id_image": "BMW_449688",
    "count_view": 0
  },
  {
    "link_thumb": "https://live.staticflickr.com/65535/49889830732_77eb9d7bce_n.jpg",
    "id_album": "665596165",
    "description": "2020_rv_Ferrari_rv_812_rv_GTS_rv_V5_rv_2160",
    "title": "2020_rv_Ferrari_rv_812_rv_GTS_rv_V5_rv_2160",
    "link_img": "https://live.staticflickr.com/65535/49889830732_e5f784e4de_o.jpg",
    "id_image": "2020_rv_Ferrari_rv_812_rv_GTS_rv_V5_rv_2160",
    "count_view": 0
  },
  {
    "link_thumb": "https://live.staticflickr.com/65535/48113524451_bb81a2a3d7_n.jpg",
    "id_album": "-680120434",
    "description": "Cadillac_254224",
    "title": "Cadillac_254224",
    "link_img": "https://live.staticflickr.com/65535/48113524451_0b68d533d3_o.jpg",
    "id_image": "Cadillac_254224",
    "count_view": 0
  },
  {
    "link_thumb": "https://live.staticflickr.com/65535/48116912861_8d4136ab9a_n.jpg",
    "id_album": "-1846404630",
    "description": "Ford_267587",
    "title": "Ford_267587",
    "link_img": "https://live.staticflickr.com/65535/48116912861_aa09a5d74b_o.jpg",
    "id_image": "Ford_267587",
    "count_view": 0
  },
  {
    "link_thumb": "https://live.staticflickr.com/65535/48117332177_dc4004bdb6_n.jpg",
    "id_album": "-1846404630",
    "description": "Ford_468293",
    "title": "Ford_468293",
    "link_img": "https://live.staticflickr.com/65535/48117332177_8e02e9ec72_o.jpg",
    "id_image": "Ford_468293",
    "count_view": 0
  },
  {
    "link_thumb": "https://live.staticflickr.com/65535/48114001381_3142ac4e5f_n.jpg",
    "id_album": "-1721545051",
    "description": "Chevrolet_288973",
    "title": "Chevrolet_288973",
    "link_img": "https://live.staticflickr.com/65535/48114001381_61b7f20376_o.jpg",
    "id_image": "Chevrolet_288973",
    "count_view": 0
  },
  {
    "link_thumb": "https://live.staticflickr.com/65535/48116237873_4ac6b572de_n.jpg",
    "id_album": "1364506720",
    "description": "Ferrari_757601",
    "title": "Ferrari_757601",
    "link_img": "https://live.staticflickr.com/65535/48116237873_b49807c66a_o.jpg",
    "id_image": "Ferrari_757601",
    "count_view": 0
  },
  {
    "link_thumb": "https://live.staticflickr.com/65535/49890504691_7134faa534_n.jpg",
    "id_album": "990865885",
    "description": "2015_rv_McLaren_rv_P1_rv_GTR_rv_V10_rv_2000",
    "title": "2015_rv_McLaren_rv_P1_rv_GTR_rv_V10_rv_2000",
    "link_img": "https://live.staticflickr.com/65535/49890504691_a644ca2a4c_o.jpg",
    "id_image": "2015_rv_McLaren_rv_P1_rv_GTR_rv_V10_rv_2000",
    "count_view": 0
  },
  {
    "link_thumb": "https://live.staticflickr.com/65535/49889982568_e9a2aa2795_n.jpg",
    "id_album": "653224008",
    "description": "2009_rv_Mazda_rv_RX_rv_8_rv_V9_rv_1536",
    "title": "2009_rv_Mazda_rv_RX_rv_8_rv_V9_rv_1536",
    "link_img": "https://live.staticflickr.com/65535/49889982568_dffa58a001_o.jpg",
    "id_image": "2009_rv_Mazda_rv_RX_rv_8_rv_V9_rv_1536",
    "count_view": 0
  },
  {
    "link_thumb": "https://live.staticflickr.com/65535/48116061942_2fabf23ca9_n.jpg",
    "id_album": "1364506720",
    "description": "Ferrari_449702",
    "title": "Ferrari_449702",
    "link_img": "https://live.staticflickr.com/65535/48116061942_2ff5733ce6_o.jpg",
    "id_image": "Ferrari_449702",
    "count_view": 0
  },
  {
    "link_thumb": "https://live.staticflickr.com/65535/48123027772_d0ee3e5cb7_n.jpg",
    "id_album": "-150952028",
    "description": "Volkswagen_355628",
    "title": "Volkswagen_355628",
    "link_img": "https://live.staticflickr.com/65535/48123027772_9ae15fee81_o.jpg",
    "id_image": "Volkswagen_355628",
    "count_view": 0
  },
  {
    "link_thumb": "https://live.staticflickr.com/65535/48120716622_b109db5f46_n.jpg",
    "id_album": "-2131154733",
    "description": "Oldsmobile_162825",
    "title": "Oldsmobile_162825",
    "link_img": "https://live.staticflickr.com/65535/48120716622_4f4b008f2c_o.jpg",
    "id_image": "Oldsmobile_162825",
    "count_view": 0
  },
  {
    "link_thumb": "https://live.staticflickr.com/65535/49889791856_eee34586f2_n.jpg",
    "id_album": "-837371943",
    "description": "2019_rv_Bentley_rv_Continental_rv_GT_rv_Convertible_rv_V8_rv_2000",
    "title": "2019_rv_Bentley_rv_Continental_rv_GT_rv_Convertible_rv_V8_rv_2000",
    "link_img": "https://live.staticflickr.com/65535/49889791856_5f43a63630_o.jpg",
    "id_image": "2019_rv_Bentley_rv_Continental_rv_GT_rv_Convertible_rv_V8_rv_2000",
    "count_view": 0
  },
  {
    "link_thumb": "https://live.staticflickr.com/65535/48121907036_b4e4af48a5_n.jpg",
    "id_album": "-1377335499",
    "description": "RangeRover_612364",
    "title": "RangeRover_612364",
    "link_img": "https://live.staticflickr.com/65535/48121907036_b469886fd7_o.jpg",
    "id_image": "RangeRover_612364",
    "count_view": 0
  },
  {
    "link_thumb": "https://live.staticflickr.com/65535/48120469872_465730a7c6_n.jpg",
    "id_album": "810634050",
    "description": "Nissan_320194",
    "title": "Nissan_320194",
    "link_img": "https://live.staticflickr.com/65535/48120469872_4b89d23dcf_o.jpg",
    "id_image": "Nissan_320194",
    "count_view": 0
  },
  {
    "link_thumb": "https://live.staticflickr.com/65535/48112767676_bfabeb70a4_n.jpg",
    "id_album": "727633301",
    "description": "BMW_450009",
    "title": "BMW_450009",
    "link_img": "https://live.staticflickr.com/65535/48112767676_a2ea103815_o.jpg",
    "id_image": "BMW_450009",
    "count_view": 0
  },
  {
    "link_thumb": "https://live.staticflickr.com/65535/49889730673_2307196b5d_n.jpg",
    "id_album": "2051566758",
    "description": "1972_rv_Lancia_rv_Stratos_rv_Group_rv_4_rv_V3_rv_1440",
    "title": "1972_rv_Lancia_rv_Stratos_rv_Group_rv_4_rv_V3_rv_1440",
    "link_img": "https://live.staticflickr.com/65535/49889730673_92e91c5249_o.jpg",
    "id_image": "1972_rv_Lancia_rv_Stratos_rv_Group_rv_4_rv_V3_rv_1440",
    "count_view": 0
  },
  {
    "link_thumb": "https://live.staticflickr.com/65535/48117634146_16106c76ea_n.jpg",
    "id_album": "-1846404630",
    "description": "Ford_960038",
    "title": "Ford_960038",
    "link_img": "https://live.staticflickr.com/65535/48117634146_a795f1ee0b_o.jpg",
    "id_image": "Ford_960038",
    "count_view": 0
  },
  {
    "link_thumb": "https://live.staticflickr.com/65535/49889823206_2ef1c6948d_n.jpg",
    "id_album": "-1617578684",
    "description": "2016_rv_Porsche_rv_911_rv_GT3_rv_RS_rv_V7_rv_1600",
    "title": "2016_rv_Porsche_rv_911_rv_GT3_rv_RS_rv_V7_rv_1600",
    "link_img": "https://live.staticflickr.com/65535/49889823206_0605684c3f_o.jpg",
    "id_image": "2016_rv_Porsche_rv_911_rv_GT3_rv_RS_rv_V7_rv_1600",
    "count_view": 0
  },
  {
    "link_thumb": "https://live.staticflickr.com/65535/48112026848_d5c494fa38_n.jpg",
    "id_album": "1906325017",
    "description": "Infiniti_883987",
    "title": "Infiniti_883987",
    "link_img": "https://live.staticflickr.com/65535/48112026848_820e5da7b2_o.jpg",
    "id_image": "Infiniti_883987",
    "count_view": 0
  },
  {
    "link_thumb": "https://live.staticflickr.com/65535/48121059046_f784af04eb_n.jpg",
    "id_album": "-2099496752",
    "description": "Pontiac_169145",
    "title": "Pontiac_169145",
    "link_img": "https://live.staticflickr.com/65535/48121059046_d294e4c366_o.jpg",
    "id_image": "Pontiac_169145",
    "count_view": 0
  },
  {
    "link_thumb": "https://live.staticflickr.com/65535/48112354743_8b0ce1520d_n.jpg",
    "id_album": "-15119147",
    "description": "Audi_475217",
    "title": "Audi_475217",
    "link_img": "https://live.staticflickr.com/65535/48112354743_9472a23956_o.jpg",
    "id_image": "Audi_475217",
    "count_view": 0
  },
  {
    "link_thumb": "https://live.staticflickr.com/65535/48112030258_36659fbf03_n.jpg",
    "id_album": "1906325017",
    "description": "Infiniti_884890",
    "title": "Infiniti_884890",
    "link_img": "https://live.staticflickr.com/65535/48112030258_5e16be06ba_o.jpg",
    "id_image": "Infiniti_884890",
    "count_view": 0
  },
  {
    "link_thumb": "https://live.staticflickr.com/65535/49889873868_9a51080984_n.jpg",
    "id_album": "-843792943",
    "description": "2017_rv_Lotus_rv_Exige_rv_Cup_rv_380_rv_V4_rv_1600",
    "title": "2017_rv_Lotus_rv_Exige_rv_Cup_rv_380_rv_V4_rv_1600",
    "link_img": "https://live.staticflickr.com/65535/49889873868_b14de231f9_o.jpg",
    "id_image": "2017_rv_Lotus_rv_Exige_rv_Cup_rv_380_rv_V4_rv_1600",
    "count_view": 0
  },
  {
    "link_thumb": "https://live.staticflickr.com/65535/48114463112_19c49279ca_n.jpg",
    "id_album": "-1721545051",
    "description": "Chevrolet_506381",
    "title": "Chevrolet_506381",
    "link_img": "https://live.staticflickr.com/65535/48114463112_8948f7056d_o.jpg",
    "id_image": "Chevrolet_506381",
    "count_view": 0
  },
  {
    "link_thumb": "https://live.staticflickr.com/65535/49892715612_b97ae93929_n.jpg",
    "id_album": "2008321481",
    "description": "2008_rv_Spyker_rv_C8_rv_Aileron_rv_V1_rv_1440",
    "title": "2008_rv_Spyker_rv_C8_rv_Aileron_rv_V1_rv_1440",
    "link_img": "https://live.staticflickr.com/65535/49892715612_7f9ed3d353_o.jpg",
    "id_image": "2008_rv_Spyker_rv_C8_rv_Aileron_rv_V1_rv_1440",
    "count_view": 0
  },
  {
    "link_thumb": "https://live.staticflickr.com/65535/48116404372_666328ee36_n.jpg",
    "id_album": "1364506720",
    "description": "Ferrari_81496",
    "title": "Ferrari_81496",
    "link_img": "https://live.staticflickr.com/65535/48116404372_812e8747d6_o.jpg",
    "id_image": "Ferrari_81496",
    "count_view": 0
  },
  {
    "link_thumb": "https://live.staticflickr.com/65535/48123244012_ed829823e5_n.jpg",
    "id_album": "1159292543",
    "description": "Volvo_631125",
    "title": "Volvo_631125",
    "link_img": "https://live.staticflickr.com/65535/48123244012_f691488af3_o.jpg",
    "id_image": "Volvo_631125",
    "count_view": 0
  },
  {
    "link_thumb": "https://live.staticflickr.com/65535/49891265471_58f2bbe4a3_n.jpg",
    "id_album": "-925276176",
    "description": "2015_rv_Peugeot_rv_Vision_rv_Gran_rv_Turismo_rv_Concept_rv_V5_rv_1600",
    "title": "2015_rv_Peugeot_rv_Vision_rv_Gran_rv_Turismo_rv_Concept_rv_V5_rv_1600",
    "link_img": "https://live.staticflickr.com/65535/49891265471_7a926924a2_o.jpg",
    "id_image": "2015_rv_Peugeot_rv_Vision_rv_Gran_rv_Turismo_rv_Concept_rv_V5_rv_1600",
    "count_view": 0
  },
  {
    "link_thumb": "https://live.staticflickr.com/65535/49890214608_5601c95b3f_n.jpg",
    "id_album": "-2130466459",
    "description": "2015_rv_Mercedes_rv_Benz_rv_CLS63_rv_AMG_rv_V4_rv_1600",
    "title": "2015_rv_Mercedes_rv_Benz_rv_CLS63_rv_AMG_rv_V4_rv_1600",
    "link_img": "https://live.staticflickr.com/65535/49890214608_617979cf5c_o.jpg",
    "id_image": "2015_rv_Mercedes_rv_Benz_rv_CLS63_rv_AMG_rv_V4_rv_1600",
    "count_view": 0
  },
  {
    "link_thumb": "https://live.staticflickr.com/65535/48117476986_5b64c17948_n.jpg",
    "id_album": "-1846404630",
    "description": "Ford_844303",
    "title": "Ford_844303",
    "link_img": "https://live.staticflickr.com/65535/48117476986_f94c2c8d10_o.jpg",
    "id_image": "Ford_844303",
    "count_view": 0
  },
  {
    "link_thumb": "https://live.staticflickr.com/65535/49892993202_e3fd94d649_n.jpg",
    "id_album": "-1595779521",
    "description": "2020_rv_Polestar_rv_1_rv_V2_rv_2160",
    "title": "2020_rv_Polestar_rv_1_rv_V2_rv_2160",
    "link_img": "https://live.staticflickr.com/65535/49892993202_fa2463780e_o.jpg",
    "id_image": "2020_rv_Polestar_rv_1_rv_V2_rv_2160",
    "count_view": 0
  },
  {
    "link_thumb": "https://live.staticflickr.com/65535/48122584946_81a38ee110_n.jpg",
    "id_album": "1822826527",
    "description": "TeslaMotors_942378",
    "title": "TeslaMotors_942378",
    "link_img": "https://live.staticflickr.com/65535/48122584946_be8725b0a9_o.jpg",
    "id_image": "TeslaMotors_942378",
    "count_view": 0
  },
  {
    "link_thumb": "https://live.staticflickr.com/65535/49889239497_b7165edd32_n.jpg",
    "id_album": "1171449162",
    "description": "2014_rv_Audi_rv_Prologue_rv_Concept_rv_V3_rv_1600",
    "title": "2014_rv_Audi_rv_Prologue_rv_Concept_rv_V3_rv_1600",
    "link_img": "https://live.staticflickr.com/65535/49889239497_cd83a3cc35_o.jpg",
    "id_image": "2014_rv_Audi_rv_Prologue_rv_Concept_rv_V3_rv_1600",
    "count_view": 0
  },
  {
    "link_thumb": "https://live.staticflickr.com/65535/49888207473_bd5170410c_n.jpg",
    "id_album": "504832144",
    "description": "2016_rv_Acura_rv_NSX_rv_V9_rv_1600",
    "title": "2016_rv_Acura_rv_NSX_rv_V9_rv_1600",
    "link_img": "https://live.staticflickr.com/65535/49888207473_5479d70cf9_o.jpg",
    "id_image": "2016_rv_Acura_rv_NSX_rv_V9_rv_1600",
    "count_view": 0
  },
  {
    "link_thumb": "https://live.staticflickr.com/65535/49890182637_c867d038bc_n.jpg",
    "id_album": "919962254",
    "description": "2011_rv_Gumpert_rv_Tornante_rv_V1_rv_1440",
    "title": "2011_rv_Gumpert_rv_Tornante_rv_V1_rv_1440",
    "link_img": "https://live.staticflickr.com/65535/49890182637_8215f63513_o.jpg",
    "id_image": "2011_rv_Gumpert_rv_Tornante_rv_V1_rv_1440",
    "count_view": 0
  },
  {
    "link_thumb": "https://live.staticflickr.com/65535/49890228868_8ff163424c_n.jpg",
    "id_album": "-1036470022",
    "description": "2014_rv_Mercedes_rv_Benz_rv_Vision_rv_G_rv_Code_rv_Concept_rv_V3_rv_1600",
    "title": "2014_rv_Mercedes_rv_Benz_rv_Vision_rv_G_rv_Code_rv_Concept_rv_V3_rv_1600",
    "link_img": "https://live.staticflickr.com/65535/49890228868_05ecdab4ca_o.jpg",
    "id_image": "2014_rv_Mercedes_rv_Benz_rv_Vision_rv_G_rv_Code_rv_Concept_rv_V3_rv_1600",
    "count_view": 0
  },
  {
    "link_thumb": "https://live.staticflickr.com/65535/48113097658_110aa588fd_n.jpg",
    "id_album": "727633301",
    "description": "BMW_773526",
    "title": "BMW_773526",
    "link_img": "https://live.staticflickr.com/65535/48113097658_f34561aff8_o.jpg",
    "id_image": "BMW_773526",
    "count_view": 0
  },
  {
    "link_thumb": "https://live.staticflickr.com/65535/48116321183_647d2bfc1e_n.jpg",
    "id_album": "1364506720",
    "description": "Ferrari_758359",
    "title": "Ferrari_758359",
    "link_img": "https://live.staticflickr.com/65535/48116321183_0d7a627001_o.jpg",
    "id_image": "Ferrari_758359",
    "count_view": 0
  },
  {
    "link_thumb": "https://live.staticflickr.com/65535/49888480498_241381d15e_n.jpg",
    "id_album": "669176001",
    "description": "2016_rv_Audi_rv_S8_rv_Plus_rv_V2_rv_1600",
    "title": "2016_rv_Audi_rv_S8_rv_Plus_rv_V2_rv_1600",
    "link_img": "https://live.staticflickr.com/65535/49888480498_12148377dc_o.jpg",
    "id_image": "2016_rv_Audi_rv_S8_rv_Plus_rv_V2_rv_1600",
    "count_view": 0
  },
  {
    "link_thumb": "https://live.staticflickr.com/65535/48121856948_abf355b464_n.jpg",
    "id_album": "-1178450892",
    "description": "Porsche_985540",
    "title": "Porsche_985540",
    "link_img": "https://live.staticflickr.com/65535/48121856948_a9e37a6671_o.jpg",
    "id_image": "Porsche_985540",
    "count_view": 0
  },
  {
    "link_thumb": "https://live.staticflickr.com/65535/48115024563_3d41280e3c_n.jpg",
    "id_album": "1906998752",
    "description": "Daewoo_440579",
    "title": "Daewoo_440579",
    "link_img": "https://live.staticflickr.com/65535/48115024563_554b8d6a14_o.jpg",
    "id_image": "Daewoo_440579",
    "count_view": 0
  },
  {
    "link_thumb": "https://live.staticflickr.com/65535/48118174026_14b0a73c32_n.jpg",
    "id_album": "-625217782",
    "description": "Kia_935826",
    "title": "Kia_935826",
    "link_img": "https://live.staticflickr.com/65535/48118174026_0df9cb7c65_o.jpg",
    "id_image": "Kia_935826",
    "count_view": 0
  },
  {
    "link_thumb": "https://live.staticflickr.com/65535/48119183116_b981cce4fd_n.jpg",
    "id_album": "898314866",
    "description": "Mazda_216706",
    "title": "Mazda_216706",
    "link_img": "https://live.staticflickr.com/65535/48119183116_7f4fb94866_o.jpg",
    "id_image": "Mazda_216706",
    "count_view": 0
  },
  {
    "link_thumb": "https://live.staticflickr.com/65535/49890009922_71e157350a_n.jpg",
    "id_album": "-1812338467",
    "description": "2014_rv_Ford_rv_Fiesta_rv_ST_rv_V3_rv_1440",
    "title": "2014_rv_Ford_rv_Fiesta_rv_ST_rv_V3_rv_1440",
    "link_img": "https://live.staticflickr.com/65535/49890009922_32936ba8fb_o.jpg",
    "id_image": "2014_rv_Ford_rv_Fiesta_rv_ST_rv_V3_rv_1440",
    "count_view": 0
  },
  {
    "link_thumb": "https://live.staticflickr.com/65535/48118622112_913d26fb4c_n.jpg",
    "id_album": "-2100339805",
    "description": "Lamborghini_552563",
    "title": "Lamborghini_552563",
    "link_img": "https://live.staticflickr.com/65535/48118622112_4ee7d677e9_o.jpg",
    "id_image": "Lamborghini_552563",
    "count_view": 0
  },
  {
    "link_thumb": "https://live.staticflickr.com/65535/48118563453_3f9cd5ffac_n.jpg",
    "id_album": "-2100339805",
    "description": "Lamborghini_552561",
    "title": "Lamborghini_552561",
    "link_img": "https://live.staticflickr.com/65535/48118563453_fc6117d2c1_o.jpg",
    "id_image": "Lamborghini_552561",
    "count_view": 0
  },
  {
    "link_thumb": "https://live.staticflickr.com/65535/48120302271_763a488200_n.jpg",
    "id_album": "810634050",
    "description": "Nissan_138904",
    "title": "Nissan_138904",
    "link_img": "https://live.staticflickr.com/65535/48120302271_2f2e42114e_o.jpg",
    "id_image": "Nissan_138904",
    "count_view": 0
  },
  {
    "link_thumb": "https://live.staticflickr.com/65535/48120873663_6cfa66ace8_n.jpg",
    "id_album": "1965631892",
    "description": "Peugeot_251537",
    "title": "Peugeot_251537",
    "link_img": "https://live.staticflickr.com/65535/48120873663_cc20c447f0_o.jpg",
    "id_image": "Peugeot_251537",
    "count_view": 0
  },
  {
    "link_thumb": "https://live.staticflickr.com/65535/48117867257_0d7eeceff1_n.jpg",
    "id_album": "-354267407",
    "description": "Honda_301926",
    "title": "Honda_301926",
    "link_img": "https://live.staticflickr.com/65535/48117867257_6bdcc94628_o.jpg",
    "id_image": "Honda_301926",
    "count_view": 0
  },
  {
    "link_thumb": "https://live.staticflickr.com/65535/48112447192_13d25b7a26_n.jpg",
    "id_album": "-15119147",
    "description": "Audi_495343",
    "title": "Audi_495343",
    "link_img": "https://live.staticflickr.com/65535/48112447192_0f3e361b41_o.jpg",
    "id_image": "Audi_495343",
    "count_view": 0
  },
  {
    "link_thumb": "https://live.staticflickr.com/65535/48112278668_5bf287484b_n.jpg",
    "id_album": "-15119147",
    "description": "Audi_219875",
    "title": "Audi_219875",
    "link_img": "https://live.staticflickr.com/65535/48112278668_98a08b67c7_o.jpg",
    "id_image": "Audi_219875",
    "count_view": 0
  },
  {
    "link_thumb": "https://live.staticflickr.com/65535/48118020031_5b16da5475_n.jpg",
    "id_album": "-843028318",
    "description": "Jaguar_864002",
    "title": "Jaguar_864002",
    "link_img": "https://live.staticflickr.com/65535/48118020031_7c57662caa_o.jpg",
    "id_image": "Jaguar_864002",
    "count_view": 0
  },
  {
    "link_thumb": "https://live.staticflickr.com/65535/49888833768_d75b405018_n.jpg",
    "id_album": "-549514508",
    "description": "2015_rv_Donkervoort_rv_D8_rv_GTO_rv_Bilster_rv_Berg_rv_Edition_rv_V2_rv_1440",
    "title": "2015_rv_Donkervoort_rv_D8_rv_GTO_rv_Bilster_rv_Berg_rv_Edition_rv_V2_rv_1440",
    "link_img": "https://live.staticflickr.com/65535/49888833768_ef299bf508_o.jpg",
    "id_image": "2015_rv_Donkervoort_rv_D8_rv_GTO_rv_Bilster_rv_Berg_rv_Edition_rv_V2_rv_1440",
    "count_view": 0
  },
  {
    "link_thumb": "https://live.staticflickr.com/65535/48116912188_8c5e5bddae_n.jpg",
    "id_album": "-1846404630",
    "description": "Ford_255395",
    "title": "Ford_255395",
    "link_img": "https://live.staticflickr.com/65535/48116912188_c58b1d54d5_o.jpg",
    "id_image": "Ford_255395",
    "count_view": 0
  },
  {
    "link_thumb": "https://live.staticflickr.com/65535/48117243861_7d2da1d67b_n.jpg",
    "id_album": "-1846404630",
    "description": "Ford_472801",
    "title": "Ford_472801",
    "link_img": "https://live.staticflickr.com/65535/48117243861_006be42cd0_o.jpg",
    "id_image": "Ford_472801",
    "count_view": 0
  },
  {
    "link_thumb": "https://live.staticflickr.com/65535/49891203762_52b83d779d_n.jpg",
    "id_album": "-376919707",
    "description": "2013_rv_Mercedes_rv_Benz_rv_SL63_rv_AMG_rv_V1_rv_1440",
    "title": "2013_rv_Mercedes_rv_Benz_rv_SL63_rv_AMG_rv_V1_rv_1440",
    "link_img": "https://live.staticflickr.com/65535/49891203762_7c61a17f79_o.jpg",
    "id_image": "2013_rv_Mercedes_rv_Benz_rv_SL63_rv_AMG_rv_V1_rv_1440",
    "count_view": 0
  },
  {
    "link_thumb": "https://live.staticflickr.com/65535/48116218807_53539b69ef_n.jpg",
    "id_album": "1364506720",
    "description": "Ferrari_630631",
    "title": "Ferrari_630631",
    "link_img": "https://live.staticflickr.com/65535/48116218807_bfe6169cc1_o.jpg",
    "id_image": "Ferrari_630631",
    "count_view": 0
  },
  {
    "link_thumb": "https://live.staticflickr.com/65535/49040905331_7b1c298a73_n.jpg",
    "id_album": "-495894181",
    "description": "AlfaRomeo_253539",
    "title": "AlfaRomeo_253539",
    "link_img": "https://live.staticflickr.com/65535/49040905331_9e0bce4a7e_o.jpg",
    "id_image": "AlfaRomeo_253539",
    "count_view": 0
  },
  {
    "link_thumb": "https://live.staticflickr.com/65535/48113438698_93767d4cc2_n.jpg",
    "id_album": "1456070666",
    "description": "Bugatti_494792",
    "title": "Bugatti_494792",
    "link_img": "https://live.staticflickr.com/65535/48113438698_1060f979e2_o.jpg",
    "id_image": "Bugatti_494792",
    "count_view": 0
  },
  {
    "link_thumb": "https://live.staticflickr.com/65535/49889036648_50ebb8a60e_n.jpg",
    "id_album": "1828723205",
    "description": "1987_rv_Ferrari_rv_F40_rv_V3_rv_1440",
    "title": "1987_rv_Ferrari_rv_F40_rv_V3_rv_1440",
    "link_img": "https://live.staticflickr.com/65535/49889036648_a39f1d841d_o.jpg",
    "id_image": "1987_rv_Ferrari_rv_F40_rv_V3_rv_1440",
    "count_view": 0
  },
  {
    "link_thumb": "https://live.staticflickr.com/65535/49889247662_0cd8ae5e8d_n.jpg",
    "id_album": "1342281184",
    "description": "2008_rv_Audi_rv_R10_rv_TDI_rv_V3_rv_1440",
    "title": "2008_rv_Audi_rv_R10_rv_TDI_rv_V3_rv_1440",
    "link_img": "https://live.staticflickr.com/65535/49889247662_a4b448dbd1_o.jpg",
    "id_image": "2008_rv_Audi_rv_R10_rv_TDI_rv_V3_rv_1440",
    "count_view": 0
  },
  {
    "link_thumb": "https://live.staticflickr.com/65535/49889821956_1e21482e3c_n.jpg",
    "id_album": "-1617578684",
    "description": "2016_rv_Porsche_rv_911_rv_GT3_rv_R_rv_V4_rv_1600",
    "title": "2016_rv_Porsche_rv_911_rv_GT3_rv_R_rv_V4_rv_1600",
    "link_img": "https://live.staticflickr.com/65535/49889821956_1939dcbbc9_o.jpg",
    "id_image": "2016_rv_Porsche_rv_911_rv_GT3_rv_R_rv_V4_rv_1600",
    "count_view": 0
  },
  {
    "link_thumb": "https://live.staticflickr.com/65535/48112314826_bd50568741_n.jpg",
    "id_album": "-15119147",
    "description": "Audi_475478",
    "title": "Audi_475478",
    "link_img": "https://live.staticflickr.com/65535/48112314826_5dce66bef0_o.jpg",
    "id_image": "Audi_475478",
    "count_view": 0
  },
  {
    "link_thumb": "https://live.staticflickr.com/65535/48112850188_393340355b_n.jpg",
    "id_album": "727633301",
    "description": "BMW_468714",
    "title": "BMW_468714",
    "link_img": "https://live.staticflickr.com/65535/48112850188_07fdbeec75_o.jpg",
    "id_image": "BMW_468714",
    "count_view": 0
  },
  {
    "link_thumb": "https://live.staticflickr.com/65535/48120101673_9cbf5d63fd_n.jpg",
    "id_album": "-1116477526",
    "description": "Mitsubishi_494304",
    "title": "Mitsubishi_494304",
    "link_img": "https://live.staticflickr.com/65535/48120101673_e49f986a8c_o.jpg",
    "id_image": "Mitsubishi_494304",
    "count_view": 0
  },
  {
    "link_thumb": "https://live.staticflickr.com/65535/49890201068_83574cdda7_n.jpg",
    "id_album": "1310566757",
    "description": "2020_rv_Mercedes_rv_AMG_rv_CLA35_rv_Shooting_rv_Brake_rv_V3_rv_2160",
    "title": "2020_rv_Mercedes_rv_AMG_rv_CLA35_rv_Shooting_rv_Brake_rv_V3_rv_2160",
    "link_img": "https://live.staticflickr.com/65535/49890201068_f5c6b0d1f4_o.jpg",
    "id_image": "2020_rv_Mercedes_rv_AMG_rv_CLA35_rv_Shooting_rv_Brake_rv_V3_rv_2160",
    "count_view": 0
  },
  {
    "link_thumb": "https://live.staticflickr.com/65535/48116494048_1136027139_n.jpg",
    "id_album": "-803737857",
    "description": "Fiat_255204",
    "title": "Fiat_255204",
    "link_img": "https://live.staticflickr.com/65535/48116494048_341a869f55_o.jpg",
    "id_image": "Fiat_255204",
    "count_view": 0
  },
  {
    "link_thumb": "https://live.staticflickr.com/65535/48115456533_07a1e9e31e_n.jpg",
    "id_album": "413141323",
    "description": "Dodge_521501",
    "title": "Dodge_521501",
    "link_img": "https://live.staticflickr.com/65535/48115456533_eff09d5081_o.jpg",
    "id_image": "Dodge_521501",
    "count_view": 0
  },
  {
    "link_thumb": "https://live.staticflickr.com/65535/48122781916_f36b1ff655_n.jpg",
    "id_album": "1274920659",
    "description": "Toyota_844504",
    "title": "Toyota_844504",
    "link_img": "https://live.staticflickr.com/65535/48122781916_c1e642806f_o.jpg",
    "id_image": "Toyota_844504",
    "count_view": 0
  },
  {
    "link_thumb": "https://live.staticflickr.com/65535/48120329757_2b62609103_n.jpg",
    "id_album": "666438681",
    "description": "Motorcycles_598508",
    "title": "Motorcycles_598508",
    "link_img": "https://live.staticflickr.com/65535/48120329757_8b17693535_o.jpg",
    "id_image": "Motorcycles_598508",
    "count_view": 0
  },
  {
    "link_thumb": "https://live.staticflickr.com/65535/48112147151_2c63fe57bc_n.jpg",
    "id_album": "555757480",
    "description": "AstonMartin_472678",
    "title": "AstonMartin_472678",
    "link_img": "https://live.staticflickr.com/65535/48112147151_de725ee757_o.jpg",
    "id_image": "AstonMartin_472678",
    "count_view": 0
  },
  {
    "link_thumb": "https://live.staticflickr.com/65535/48113988937_3ce2c59833_n.jpg",
    "id_album": "-1721545051",
    "description": "Chevrolet_250812",
    "title": "Chevrolet_250812",
    "link_img": "https://live.staticflickr.com/65535/48113988937_5bae8f19f4_o.jpg",
    "id_image": "Chevrolet_250812",
    "count_view": 0
  },
  {
    "link_thumb": "https://live.staticflickr.com/65535/48119360046_71c15b0ca6_n.jpg",
    "id_album": "990865885",
    "description": "McLaren_872083",
    "title": "McLaren_872083",
    "link_img": "https://live.staticflickr.com/65535/48119360046_b9a1f39892_o.jpg",
    "id_image": "McLaren_872083",
    "count_view": 0
  },
  {
    "link_thumb": "https://live.staticflickr.com/65535/48116638756_0b79794860_n.jpg",
    "id_album": "-1846404630",
    "description": "Ford_170671",
    "title": "Ford_170671",
    "link_img": "https://live.staticflickr.com/65535/48116638756_d9caf8a006_o.jpg",
    "id_image": "Ford_170671",
    "count_view": 0
  },
  {
    "link_thumb": "https://live.staticflickr.com/65535/49889513466_8efc581298_n.jpg",
    "id_album": "-1257242429",
    "description": "2010_rv_Ferrari_rv_599_rv_GTO_rv_V3_rv_1440",
    "title": "2010_rv_Ferrari_rv_599_rv_GTO_rv_V3_rv_1440",
    "link_img": "https://live.staticflickr.com/65535/49889513466_d7b461ec8f_o.jpg",
    "id_image": "2010_rv_Ferrari_rv_599_rv_GTO_rv_V3_rv_1440",
    "count_view": 0
  },
  {
    "link_thumb": "https://live.staticflickr.com/65535/48120024781_16e72913ca_n.jpg",
    "id_album": "-1116477526",
    "description": "Mitsubishi_257444",
    "title": "Mitsubishi_257444",
    "link_img": "https://live.staticflickr.com/65535/48120024781_a23c9470ca_o.jpg",
    "id_image": "Mitsubishi_257444",
    "count_view": 0
  },
  {
    "link_thumb": "https://live.staticflickr.com/65535/49889253026_fbef08ff41_n.jpg",
    "id_album": "-843860003",
    "description": "2014_rv_Chevrolet_rv_Corvette_rv_Stingray_rv_Convertible_rv_V2_rv_1600",
    "title": "2014_rv_Chevrolet_rv_Corvette_rv_Stingray_rv_Convertible_rv_V2_rv_1600",
    "link_img": "https://live.staticflickr.com/65535/49889253026_4d01e4aa13_o.jpg",
    "id_image": "2014_rv_Chevrolet_rv_Corvette_rv_Stingray_rv_Convertible_rv_V2_rv_1600",
    "count_view": 0
  },
  {
    "link_thumb": "https://live.staticflickr.com/65535/49889230748_835442ba0d_n.jpg",
    "id_album": "559688419",
    "description": "1971_rv_Ford_rv_Torino_rv_Cobra_rv_V1_rv_2160",
    "title": "1971_rv_Ford_rv_Torino_rv_Cobra_rv_V1_rv_2160",
    "link_img": "https://live.staticflickr.com/65535/49889230748_5b54b29520_o.jpg",
    "id_image": "1971_rv_Ford_rv_Torino_rv_Cobra_rv_V1_rv_2160",
    "count_view": 0
  },
  {
    "link_thumb": "https://live.staticflickr.com/65535/49889213246_98ee1a6f98_n.jpg",
    "id_album": "-1678364421",
    "description": "2017_rv_Bugatti_rv_Chiron_rv_V13_rv_2000",
    "title": "2017_rv_Bugatti_rv_Chiron_rv_V13_rv_2000",
    "link_img": "https://live.staticflickr.com/65535/49889213246_72e4ff9b45_o.jpg",
    "id_image": "2017_rv_Bugatti_rv_Chiron_rv_V13_rv_2000",
    "count_view": 0
  },
  {
    "link_thumb": "https://live.staticflickr.com/65535/49890509482_2dd74d4a0d_n.jpg",
    "id_album": "1957300237",
    "description": "2016_rv_Novitec_rv_Torado_rv_Lamborghini_rv_Aventador_rv_LP_rv_750_rv_4_rv_Superveloce_rv_V6_rv_2000",
    "title": "2016_rv_Novitec_rv_Torado_rv_Lamborghini_rv_Aventador_rv_LP_rv_750_rv_4_rv_Superveloce_rv_V6_rv_2000",
    "link_img": "https://live.staticflickr.com/65535/49890509482_7efb01b418_o.jpg",
    "id_image": "2016_rv_Novitec_rv_Torado_rv_Lamborghini_rv_Aventador_rv_LP_rv_750_rv_4_rv_Superveloce_rv_V6_rv_2000",
    "count_view": 0
  },
  {
    "link_thumb": "https://live.staticflickr.com/65535/48112008941_3fe6546cb5_n.jpg",
    "id_album": "-843028318",
    "description": "Jaguar_226105",
    "title": "Jaguar_226105",
    "link_img": "https://live.staticflickr.com/65535/48112008941_207bd7e2f2_o.jpg",
    "id_image": "Jaguar_226105",
    "count_view": 0
  },
  {
    "link_thumb": "https://live.staticflickr.com/65535/48116149457_370679b8d7_n.jpg",
    "id_album": "1364506720",
    "description": "Ferrari_524011",
    "title": "Ferrari_524011",
    "link_img": "https://live.staticflickr.com/65535/48116149457_90dcb96a0e_o.jpg",
    "id_image": "Ferrari_524011",
    "count_view": 0
  },
  {
    "link_thumb": "https://live.staticflickr.com/65535/49892127538_673b5b165d_n.jpg",
    "id_album": "431273687",
    "description": "2004_rv_Mitsubishi_rv_Lancer_rv_Evolution_rv_VIII_rv_MR_rv_FQ_rv_400_rv_V1_rv_1440",
    "title": "2004_rv_Mitsubishi_rv_Lancer_rv_Evolution_rv_VIII_rv_MR_rv_FQ_rv_400_rv_V1_rv_1440",
    "link_img": "https://live.staticflickr.com/65535/49892127538_30df338801_o.jpg",
    "id_image": "2004_rv_Mitsubishi_rv_Lancer_rv_Evolution_rv_VIII_rv_MR_rv_FQ_rv_400_rv_V1_rv_1440",
    "count_view": 0
  },
  {
    "link_thumb": "https://live.staticflickr.com/65535/49890408958_03f3bb7fb0_n.jpg",
    "id_album": "-2129417883",
    "description": "2014_rv_Mercedes_rv_Benz_rv_SLS_rv_AMG_rv_Black_rv_Series_rv_V9_rv_1600",
    "title": "2014_rv_Mercedes_rv_Benz_rv_SLS_rv_AMG_rv_Black_rv_Series_rv_V9_rv_1600",
    "link_img": "https://live.staticflickr.com/65535/49890408958_d97ca41e90_o.jpg",
    "id_image": "2014_rv_Mercedes_rv_Benz_rv_SLS_rv_AMG_rv_Black_rv_Series_rv_V9_rv_1600",
    "count_view": 0
  },
  {
    "link_thumb": "https://live.staticflickr.com/65535/49888297518_2e73bb4d41_n.jpg",
    "id_album": "2068783385",
    "description": "2019_rv_Aston_rv_Martin_rv_AM_rv_RB_rv_003_rv_Concept_rv_V1_rv_2160",
    "title": "2019_rv_Aston_rv_Martin_rv_AM_rv_RB_rv_003_rv_Concept_rv_V1_rv_2160",
    "link_img": "https://live.staticflickr.com/65535/49888297518_a309c74aca_o.jpg",
    "id_image": "2019_rv_Aston_rv_Martin_rv_AM_rv_RB_rv_003_rv_Concept_rv_V1_rv_2160",
    "count_view": 0
  },
  {
    "link_thumb": "https://live.staticflickr.com/65535/48118527602_f1d0e33c8b_n.jpg",
    "id_album": "-2100339805",
    "description": "Lamborghini_418354",
    "title": "Lamborghini_418354",
    "link_img": "https://live.staticflickr.com/65535/48118527602_102e74e86f_o.jpg",
    "id_image": "Lamborghini_418354",
    "count_view": 0
  },
  {
    "link_thumb": "https://live.staticflickr.com/65535/48113884036_066701bde8_n.jpg",
    "id_album": "-1721545051",
    "description": "Chevrolet_249344",
    "title": "Chevrolet_249344",
    "link_img": "https://live.staticflickr.com/65535/48113884036_640e8ccbc7_o.jpg",
    "id_image": "Chevrolet_249344",
    "count_view": 0
  },
  {
    "link_thumb": "https://live.staticflickr.com/65535/48117156587_980e389156_n.jpg",
    "id_album": "-1846404630",
    "description": "Ford_378272",
    "title": "Ford_378272",
    "link_img": "https://live.staticflickr.com/65535/48117156587_836e59341b_o.jpg",
    "id_image": "Ford_378272",
    "count_view": 0
  },
  {
    "link_thumb": "https://live.staticflickr.com/65535/49888981091_b71a1ce261_n.jpg",
    "id_album": "1119514695",
    "description": "2009_rv_Audi_rv_RS_rv_6_rv_V2_rv_1536",
    "title": "2009_rv_Audi_rv_RS_rv_6_rv_V2_rv_1536",
    "link_img": "https://live.staticflickr.com/65535/49888981091_59ba3c9b9e_o.jpg",
    "id_image": "2009_rv_Audi_rv_RS_rv_6_rv_V2_rv_1536",
    "count_view": 0
  },
  {
    "link_thumb": "https://live.staticflickr.com/65535/49889775376_0dcdf3b857_n.jpg",
    "id_album": "1370790237",
    "description": "2018_rv_Dodge_rv_Challenger_rv_SRT_rv_Demon_rv_V11_rv_2000",
    "title": "2018_rv_Dodge_rv_Challenger_rv_SRT_rv_Demon_rv_V11_rv_2000",
    "link_img": "https://live.staticflickr.com/65535/49889775376_79cea1b9aa_o.jpg",
    "id_image": "2018_rv_Dodge_rv_Challenger_rv_SRT_rv_Demon_rv_V11_rv_2000",
    "count_view": 0
  },
  {
    "link_thumb": "https://live.staticflickr.com/65535/48115176201_8ffc9fbfc5_n.jpg",
    "id_album": "413141323",
    "description": "Dodge_319804",
    "title": "Dodge_319804",
    "link_img": "https://live.staticflickr.com/65535/48115176201_ed53253167_o.jpg",
    "id_image": "Dodge_319804",
    "count_view": 0
  },
  {
    "link_thumb": "https://live.staticflickr.com/65535/49888185343_bf73e64545_n.jpg",
    "id_album": "-1199458397",
    "description": "2010_rv_Bugatti_rv_Veyron_rv_16_rv_4_rv_Super_rv_Sport_rv_V3_rv_1536",
    "title": "2010_rv_Bugatti_rv_Veyron_rv_16_rv_4_rv_Super_rv_Sport_rv_V3_rv_1536",
    "link_img": "https://live.staticflickr.com/65535/49888185343_c28f8f9572_o.jpg",
    "id_image": "2010_rv_Bugatti_rv_Veyron_rv_16_rv_4_rv_Super_rv_Sport_rv_V3_rv_1536",
    "count_view": 0
  },
  {
    "link_thumb": "https://live.staticflickr.com/65535/49891380412_03cc6beef5_n.jpg",
    "id_album": "1926016549",
    "description": "1980_rv_Nissan_rv_280ZX_rv_V2_rv_1440",
    "title": "1980_rv_Nissan_rv_280ZX_rv_V2_rv_1440",
    "link_img": "https://live.staticflickr.com/65535/49891380412_728a7584cd_o.jpg",
    "id_image": "1980_rv_Nissan_rv_280ZX_rv_V2_rv_1440",
    "count_view": 0
  },
  {
    "link_thumb": "https://live.staticflickr.com/65535/48117971208_a697877978_n.jpg",
    "id_album": "427416146",
    "description": "Hummer_192375",
    "title": "Hummer_192375",
    "link_img": "https://live.staticflickr.com/65535/48117971208_49334bf761_o.jpg",
    "id_image": "Hummer_192375",
    "count_view": 0
  },
  {
    "link_thumb": "https://live.staticflickr.com/65535/48112837943_fc0bb4b948_n.jpg",
    "id_album": "727633301",
    "description": "BMW_459255",
    "title": "BMW_459255",
    "link_img": "https://live.staticflickr.com/65535/48112837943_3b28dabb4e_o.jpg",
    "id_image": "BMW_459255",
    "count_view": 0
  },
  {
    "link_thumb": "https://live.staticflickr.com/65535/48114710533_5b5422051c_n.jpg",
    "id_album": "-1721545051",
    "description": "Chevrolet_948747",
    "title": "Chevrolet_948747",
    "link_img": "https://live.staticflickr.com/65535/48114710533_2dc38e67a5_o.jpg",
    "id_image": "Chevrolet_948747",
    "count_view": 0
  },
  {
    "link_thumb": "https://live.staticflickr.com/65535/48122630058_2103df5ee8_n.jpg",
    "id_album": "1822826527",
    "description": "TeslaMotors_942544",
    "title": "TeslaMotors_942544",
    "link_img": "https://live.staticflickr.com/65535/48122630058_25c8907f89_o.jpg",
    "id_image": "TeslaMotors_942544",
    "count_view": 0
  },
  {
    "link_thumb": "https://live.staticflickr.com/65535/48116144916_0b2385cf5e_n.jpg",
    "id_album": "1364506720",
    "description": "Ferrari_682909",
    "title": "Ferrari_682909",
    "link_img": "https://live.staticflickr.com/65535/48116144916_422e73160a_o.jpg",
    "id_image": "Ferrari_682909",
    "count_view": 0
  },
  {
    "link_thumb": "https://live.staticflickr.com/65535/49892657777_e487e49f76_n.jpg",
    "id_album": "734773618",
    "description": "1999_rv_Shelby_rv_Series_rv_1_rv_V5_rv_1536",
    "title": "1999_rv_Shelby_rv_Series_rv_1_rv_V5_rv_1536",
    "link_img": "https://live.staticflickr.com/65535/49892657777_63fa25930b_o.jpg",
    "id_image": "1999_rv_Shelby_rv_Series_rv_1_rv_V5_rv_1536",
    "count_view": 0
  },
  {
    "link_thumb": "https://live.staticflickr.com/65535/49889009952_9ca0d77eee_n.jpg",
    "id_album": "-1199458397",
    "description": "2008_rv_Bugatti_rv_Veyron_rv_Sang_rv_Noir_rv_V1_rv_2160",
    "title": "2008_rv_Bugatti_rv_Veyron_rv_Sang_rv_Noir_rv_V1_rv_2160",
    "link_img": "https://live.staticflickr.com/65535/49889009952_c40d077571_o.jpg",
    "id_image": "2008_rv_Bugatti_rv_Veyron_rv_Sang_rv_Noir_rv_V1_rv_2160",
    "count_view": 0
  },
  {
    "link_thumb": "https://live.staticflickr.com/65535/48116930152_ab99322c44_n.jpg",
    "id_album": "-1846404630",
    "description": "Ford_244759",
    "title": "Ford_244759",
    "link_img": "https://live.staticflickr.com/65535/48116930152_74cf1ee931_o.jpg",
    "id_image": "Ford_244759",
    "count_view": 0
  },
  {
    "link_thumb": "https://live.staticflickr.com/65535/48119058633_99deab3088_n.jpg",
    "id_album": "-1153253263",
    "description": "Lotus_800016",
    "title": "Lotus_800016",
    "link_img": "https://live.staticflickr.com/65535/48119058633_ecdfd47a9b_o.jpg",
    "id_image": "Lotus_800016",
    "count_view": 0
  },
  {
    "link_thumb": "https://live.staticflickr.com/65535/48119312628_f98e177a96_n.jpg",
    "id_album": "990865885",
    "description": "McLaren_449745",
    "title": "McLaren_449745",
    "link_img": "https://live.staticflickr.com/65535/48119312628_819fee214c_o.jpg",
    "id_image": "McLaren_449745",
    "count_view": 0
  },
  {
    "link_thumb": "https://live.staticflickr.com/65535/48114504532_804e8f9515_n.jpg",
    "id_album": "-1721545051",
    "description": "Chevrolet_594877",
    "title": "Chevrolet_594877",
    "link_img": "https://live.staticflickr.com/65535/48114504532_0ecfacbc0b_o.jpg",
    "id_image": "Chevrolet_594877",
    "count_view": 0
  },
  {
    "link_thumb": "https://live.staticflickr.com/65535/48118068108_e60d631a65_n.jpg",
    "id_album": "-843028318",
    "description": "Jaguar_919550",
    "title": "Jaguar_919550",
    "link_img": "https://live.staticflickr.com/65535/48118068108_323ae37568_o.jpg",
    "id_image": "Jaguar_919550",
    "count_view": 0
  },
  {
    "link_thumb": "https://live.staticflickr.com/65535/49892724021_b3fc11b85e_n.jpg",
    "id_album": "-1985851063",
    "description": "2015_rv_Zenvo_rv_ST1_rv_V3_rv_1600",
    "title": "2015_rv_Zenvo_rv_ST1_rv_V3_rv_1600",
    "link_img": "https://live.staticflickr.com/65535/49892724021_1e16f8fc13_o.jpg",
    "id_image": "2015_rv_Zenvo_rv_ST1_rv_V3_rv_1600",
    "count_view": 0
  },
  {
    "link_thumb": "https://live.staticflickr.com/65535/49889336196_85ea38a942_n.jpg",
    "id_album": "-823621687",
    "description": "1971_rv_De_rv_Tomaso_rv_Pantera_rv_V3_rv_1440",
    "title": "1971_rv_De_rv_Tomaso_rv_Pantera_rv_V3_rv_1440",
    "link_img": "https://live.staticflickr.com/65535/49889336196_6a60f8a34e_o.jpg",
    "id_image": "1971_rv_De_rv_Tomaso_rv_Pantera_rv_V3_rv_1440",
    "count_view": 0
  },
  {
    "link_thumb": "https://live.staticflickr.com/65535/48116768003_44a693ea1a_n.jpg",
    "id_album": "-1846404630",
    "description": "Ford_202785",
    "title": "Ford_202785",
    "link_img": "https://live.staticflickr.com/65535/48116768003_010d87e6a3_o.jpg",
    "id_image": "Ford_202785",
    "count_view": 0
  },
  {
    "link_thumb": "https://live.staticflickr.com/65535/48114037872_7cd8c083dd_n.jpg",
    "id_album": "-1721545051",
    "description": "Chevrolet_272880",
    "title": "Chevrolet_272880",
    "link_img": "https://live.staticflickr.com/65535/48114037872_a38cf2a909_o.jpg",
    "id_image": "Chevrolet_272880",
    "count_view": 0
  },
  {
    "link_thumb": "https://live.staticflickr.com/65535/48115594361_676cfb921e_n.jpg",
    "id_album": "594975066",
    "description": "Duesenberg_742334",
    "title": "Duesenberg_742334",
    "link_img": "https://live.staticflickr.com/65535/48115594361_b0bfd2058e_o.jpg",
    "id_image": "Duesenberg_742334",
    "count_view": 0
  },
  {
    "link_thumb": "https://live.staticflickr.com/65535/49890173058_505ab8787d_n.jpg",
    "id_album": "-538739456",
    "description": "2017_rv_Mercedes_rv_Benz_rv_C43_rv_AMG_rv_Coupe_rv_V3_rv_2000",
    "title": "2017_rv_Mercedes_rv_Benz_rv_C43_rv_AMG_rv_Coupe_rv_V3_rv_2000",
    "link_img": "https://live.staticflickr.com/65535/49890173058_c8843a9e79_o.jpg",
    "id_image": "2017_rv_Mercedes_rv_Benz_rv_C43_rv_AMG_rv_Coupe_rv_V3_rv_2000",
    "count_view": 0
  },
  {
    "link_thumb": "https://live.staticflickr.com/65535/49889308198_c0ec1d2f39_n.jpg",
    "id_album": "-1617578684",
    "description": "2018_rv_Bentley_rv_Continental_rv_GT3_rv_V8_rv_2000",
    "title": "2018_rv_Bentley_rv_Continental_rv_GT3_rv_V8_rv_2000",
    "link_img": "https://live.staticflickr.com/65535/49889308198_8a6305173b_o.jpg",
    "id_image": "2018_rv_Bentley_rv_Continental_rv_GT3_rv_V8_rv_2000",
    "count_view": 0
  },
  {
    "link_thumb": "https://live.staticflickr.com/65535/49889859606_9d2e21bdb2_n.jpg",
    "id_album": "1891022534",
    "description": "2009_rv_Volkswagen_rv_Golf_rv_GTI_rv_V5_rv_1440",
    "title": "2009_rv_Volkswagen_rv_Golf_rv_GTI_rv_V5_rv_1440",
    "link_img": "https://live.staticflickr.com/65535/49889859606_c72162fed8_o.jpg",
    "id_image": "2009_rv_Volkswagen_rv_Golf_rv_GTI_rv_V5_rv_1440",
    "count_view": 0
  },
  {
    "link_thumb": "https://live.staticflickr.com/65535/48116725148_621d4fb862_n.jpg",
    "id_album": "-1846404630",
    "description": "Ford_188430",
    "title": "Ford_188430",
    "link_img": "https://live.staticflickr.com/65535/48116725148_9e09653f9b_o.jpg",
    "id_image": "Ford_188430",
    "count_view": 0
  },
  {
    "link_thumb": "https://live.staticflickr.com/65535/48114076236_9b4c41fa61_n.jpg",
    "id_album": "-1721545051",
    "description": "Chevrolet_292270",
    "title": "Chevrolet_292270",
    "link_img": "https://live.staticflickr.com/65535/48114076236_6dc4ea71d7_o.jpg",
    "id_image": "Chevrolet_292270",
    "count_view": 0
  },
  {
    "link_thumb": "https://live.staticflickr.com/65535/48118913146_d165485e2a_n.jpg",
    "id_album": "446908717",
    "description": "Lexus_881146",
    "title": "Lexus_881146",
    "link_img": "https://live.staticflickr.com/65535/48118913146_9b199355ca_o.jpg",
    "id_image": "Lexus_881146",
    "count_view": 0
  },
  {
    "link_thumb": "https://live.staticflickr.com/65535/48119473331_6995352370_n.jpg",
    "id_album": "-731054311",
    "description": "MercedesBenz_193641",
    "title": "MercedesBenz_193641",
    "link_img": "https://live.staticflickr.com/65535/48119473331_2cbe61bfe5_o.jpg",
    "id_image": "MercedesBenz_193641",
    "count_view": 0
  },
  {
    "link_thumb": "https://live.staticflickr.com/65535/48115170577_34ab485a09_n.jpg",
    "id_album": "413141323",
    "description": "Dodge_240066",
    "title": "Dodge_240066",
    "link_img": "https://live.staticflickr.com/65535/48115170577_be0ed8e2ef_o.jpg",
    "id_image": "Dodge_240066",
    "count_view": 0
  },
  {
    "link_thumb": "https://live.staticflickr.com/65535/49889721096_62267ff441_n.jpg",
    "id_album": "524349362",
    "description": "1967_rv_Ford_rv_GT40_rv_V2_rv_1440",
    "title": "1967_rv_Ford_rv_GT40_rv_V2_rv_1440",
    "link_img": "https://live.staticflickr.com/65535/49889721096_87c7fb869f_o.jpg",
    "id_image": "1967_rv_Ford_rv_GT40_rv_V2_rv_1440",
    "count_view": 0
  },
  {
    "link_thumb": "https://live.staticflickr.com/65535/48113802642_dbece3455a_n.jpg",
    "id_album": "-1721545051",
    "description": "Chevrolet_170506",
    "title": "Chevrolet_170506",
    "link_img": "https://live.staticflickr.com/65535/48113802642_40c6e5b921_o.jpg",
    "id_image": "Chevrolet_170506",
    "count_view": 0
  },
  {
    "link_thumb": "https://live.staticflickr.com/65535/49892502462_b372fcd96c_n.jpg",
    "id_album": "-461005169",
    "description": "2015_rv_Nissan_rv_GT_rv_R_rv_Nismo_rv_V3_rv_1600",
    "title": "2015_rv_Nissan_rv_GT_rv_R_rv_Nismo_rv_V3_rv_1600",
    "link_img": "https://live.staticflickr.com/65535/49892502462_ef0e094663_o.jpg",
    "id_image": "2015_rv_Nissan_rv_GT_rv_R_rv_Nismo_rv_V3_rv_1600",
    "count_view": 0
  },
  {
    "link_thumb": "https://live.staticflickr.com/65535/48116799543_92365b0b9d_n.jpg",
    "id_album": "-1846404630",
    "description": "Ford_220969",
    "title": "Ford_220969",
    "link_img": "https://live.staticflickr.com/65535/48116799543_00899bfedd_o.jpg",
    "id_image": "Ford_220969",
    "count_view": 0
  },
  {
    "link_thumb": "https://live.staticflickr.com/65535/48115629046_8963527118_n.jpg",
    "id_album": "1364506720",
    "description": "Ferrari_170507",
    "title": "Ferrari_170507",
    "link_img": "https://live.staticflickr.com/65535/48115629046_caeda9d192_o.jpg",
    "id_image": "Ferrari_170507",
    "count_view": 0
  },
  {
    "link_thumb": "https://live.staticflickr.com/65535/48114863368_671cbf685d_n.jpg",
    "id_album": "2072464184",
    "description": "Citroen_250865",
    "title": "Citroen_250865",
    "link_img": "https://live.staticflickr.com/65535/48114863368_a6a54cd8a0_o.jpg",
    "id_image": "Citroen_250865",
    "count_view": 0
  },
  {
    "link_thumb": "https://live.staticflickr.com/65535/48114588073_24a51ddf1e_n.jpg",
    "id_album": "-1721545051",
    "description": "Chevrolet_805339",
    "title": "Chevrolet_805339",
    "link_img": "https://live.staticflickr.com/65535/48114588073_c0bf20a404_o.jpg",
    "id_image": "Chevrolet_805339",
    "count_view": 0
  },
  {
    "link_thumb": "https://live.staticflickr.com/65535/48116582268_d76818d94a_n.jpg",
    "id_album": "-1846404630",
    "description": "Ford_143664",
    "title": "Ford_143664",
    "link_img": "https://live.staticflickr.com/65535/48116582268_9cabb37f4e_o.jpg",
    "id_image": "Ford_143664",
    "count_view": 0
  },
  {
    "link_thumb": "https://live.staticflickr.com/65535/48112448052_ef1d71b09b_n.jpg",
    "id_album": "-15119147",
    "description": "Audi_496420",
    "title": "Audi_496420",
    "link_img": "https://live.staticflickr.com/65535/48112448052_3265f8b5e7_o.jpg",
    "id_image": "Audi_496420",
    "count_view": 0
  },
  {
    "link_thumb": "https://live.staticflickr.com/65535/48112983003_f980db6d65_n.jpg",
    "id_album": "727633301",
    "description": "BMW_500087",
    "title": "BMW_500087",
    "link_img": "https://live.staticflickr.com/65535/48112983003_120bca2a39_o.jpg",
    "id_image": "BMW_500087",
    "count_view": 0
  },
  {
    "link_thumb": "https://live.staticflickr.com/65535/48119295082_3db9f8b4d2_n.jpg",
    "id_album": "898314866",
    "description": "Mazda_401419",
    "title": "Mazda_401419",
    "link_img": "https://live.staticflickr.com/65535/48119295082_c7714940fc_o.jpg",
    "id_image": "Mazda_401419",
    "count_view": 0
  },
  {
    "link_thumb": "https://live.staticflickr.com/65535/48123291033_e3b98b0d69_n.jpg",
    "id_album": "-360260466",
    "description": "Yamaha_649144",
    "title": "Yamaha_649144",
    "link_img": "https://live.staticflickr.com/65535/48123291033_949e32ffaa_o.jpg",
    "id_image": "Yamaha_649144",
    "count_view": 0
  },
  {
    "link_thumb": "https://live.staticflickr.com/65535/48113262088_15409d7d32_n.jpg",
    "id_album": "727633301",
    "description": "BMW_922593",
    "title": "BMW_922593",
    "link_img": "https://live.staticflickr.com/65535/48113262088_fa8af0ccf2_o.jpg",
    "id_image": "BMW_922593",
    "count_view": 0
  },
  {
    "link_thumb": "https://live.staticflickr.com/65535/48113375968_b1d8a26dc4_n.jpg",
    "id_album": "1456070666",
    "description": "Bugatti_272867",
    "title": "Bugatti_272867",
    "link_img": "https://live.staticflickr.com/65535/48113375968_99aff37b22_o.jpg",
    "id_image": "Bugatti_272867",
    "count_view": 0
  },
  {
    "link_thumb": "https://live.staticflickr.com/65535/48122744232_35d873957b_n.jpg",
    "id_album": "1274920659",
    "description": "Toyota_381967",
    "title": "Toyota_381967",
    "link_img": "https://live.staticflickr.com/65535/48122744232_cc5a18b611_o.jpg",
    "id_image": "Toyota_381967",
    "count_view": 0
  },
  {
    "link_thumb": "https://live.staticflickr.com/65535/48122898606_d32a9cc8a7_n.jpg",
    "id_album": "-150952028",
    "description": "Volkswagen_259180",
    "title": "Volkswagen_259180",
    "link_img": "https://live.staticflickr.com/65535/48122898606_79a7e2b3d7_o.jpg",
    "id_image": "Volkswagen_259180",
    "count_view": 0
  },
  {
    "link_thumb": "https://live.staticflickr.com/65535/49889183716_d861130c70_n.jpg",
    "id_album": "-1839909257",
    "description": "2019_rv_BMW_rv_X7_rv_V1_rv_2000",
    "title": "2019_rv_BMW_rv_X7_rv_V1_rv_2000",
    "link_img": "https://live.staticflickr.com/65535/49889183716_e64effa9f1_o.jpg",
    "id_image": "2019_rv_BMW_rv_X7_rv_V1_rv_2000",
    "count_view": 0
  },
  {
    "link_thumb": "https://live.staticflickr.com/65535/48118698583_9f5ebc9d9c_n.jpg",
    "id_album": "-2100339805",
    "description": "Lamborghini_928596",
    "title": "Lamborghini_928596",
    "link_img": "https://live.staticflickr.com/65535/48118698583_ccb4cab4fe_o.jpg",
    "id_image": "Lamborghini_928596",
    "count_view": 0
  },
  {
    "link_thumb": "https://live.staticflickr.com/65535/48112744928_4cf61e4b00_n.jpg",
    "id_album": "727633301",
    "description": "BMW_317520",
    "title": "BMW_317520",
    "link_img": "https://live.staticflickr.com/65535/48112744928_1c06118a53_o.jpg",
    "id_image": "BMW_317520",
    "count_view": 0
  },
  {
    "link_thumb": "https://live.staticflickr.com/65535/48112440988_c5060d233c_n.jpg",
    "id_album": "-15119147",
    "description": "Audi_816011",
    "title": "Audi_816011",
    "link_img": "https://live.staticflickr.com/65535/48112440988_6dde49d011_o.jpg",
    "id_image": "Audi_816011",
    "count_view": 0
  },
  {
    "link_thumb": "https://live.staticflickr.com/65535/49890992712_7ed4b47e2a_n.jpg",
    "id_album": "-538739456",
    "description": "2015_rv_Mercedes_rv_Benz_rv_C63_rv_AMG_rv_V9_rv_1600",
    "title": "2015_rv_Mercedes_rv_Benz_rv_C63_rv_AMG_rv_V9_rv_1600",
    "link_img": "https://live.staticflickr.com/65535/49890992712_cffab79050_o.jpg",
    "id_image": "2015_rv_Mercedes_rv_Benz_rv_C63_rv_AMG_rv_V9_rv_1600",
    "count_view": 0
  },
  {
    "link_thumb": "https://live.staticflickr.com/65535/48123107441_b76d4a6f76_n.jpg",
    "id_album": "1159292543",
    "description": "Volvo_259209",
    "title": "Volvo_259209",
    "link_img": "https://live.staticflickr.com/65535/48123107441_9642ef12a1_o.jpg",
    "id_image": "Volvo_259209",
    "count_view": 0
  },
  {
    "link_thumb": "https://live.staticflickr.com/65535/48120235691_700b4bdf06_n.jpg",
    "id_album": "666438681",
    "description": "Motorcycles_576448",
    "title": "Motorcycles_576448",
    "link_img": "https://live.staticflickr.com/65535/48120235691_7e4b442296_o.jpg",
    "id_image": "Motorcycles_576448",
    "count_view": 0
  },
  {
    "link_thumb": "https://live.staticflickr.com/65535/48120345267_e01f669721_n.jpg",
    "id_album": "666438681",
    "description": "Motorcycles_648784",
    "title": "Motorcycles_648784",
    "link_img": "https://live.staticflickr.com/65535/48120345267_ab19eef3cf_o.jpg",
    "id_image": "Motorcycles_648784",
    "count_view": 0
  },
  {
    "link_thumb": "https://live.staticflickr.com/65535/48118137666_e99596fec6_n.jpg",
    "id_album": "-625217782",
    "description": "Kia_256226",
    "title": "Kia_256226",
    "link_img": "https://live.staticflickr.com/65535/48118137666_0c13e6ae2a_o.jpg",
    "id_image": "Kia_256226",
    "count_view": 0
  },
  {
    "link_thumb": "https://live.staticflickr.com/65535/49892188886_194867f9e7_n.jpg",
    "id_album": "-461005169",
    "description": "2014_rv_Nissan_rv_GT_rv_R_rv_V9_rv_1600",
    "title": "2014_rv_Nissan_rv_GT_rv_R_rv_V9_rv_1600",
    "link_img": "https://live.staticflickr.com/65535/49892188886_d9beebe26b_o.jpg",
    "id_image": "2014_rv_Nissan_rv_GT_rv_R_rv_V9_rv_1600",
    "count_view": 0
  },
  {
    "link_thumb": "https://live.staticflickr.com/65535/49889157943_18c6d412ba_n.jpg",
    "id_album": "-717927882",
    "description": "2015_rv_Fisker_rv_Thunderbolt_rv_V1_rv_1600",
    "title": "2015_rv_Fisker_rv_Thunderbolt_rv_V1_rv_1600",
    "link_img": "https://live.staticflickr.com/65535/49889157943_e1fc416f36_o.jpg",
    "id_image": "2015_rv_Fisker_rv_Thunderbolt_rv_V1_rv_1600",
    "count_view": 0
  },
  {
    "link_thumb": "https://live.staticflickr.com/65535/48121654792_c02bd1756b_n.jpg",
    "id_album": "-1178450892",
    "description": "Porsche_694415",
    "title": "Porsche_694415",
    "link_img": "https://live.staticflickr.com/65535/48121654792_6ae1b502d6_o.jpg",
    "id_image": "Porsche_694415",
    "count_view": 0
  },
  {
    "link_thumb": "https://live.staticflickr.com/65535/48120074551_d50f73a6dd_n.jpg",
    "id_album": "-1116477526",
    "description": "Mitsubishi_499837",
    "title": "Mitsubishi_499837",
    "link_img": "https://live.staticflickr.com/65535/48120074551_480e9e3e55_o.jpg",
    "id_image": "Mitsubishi_499837",
    "count_view": 0
  },
  {
    "link_thumb": "https://live.staticflickr.com/65535/48114230227_0109f46b4f_n.jpg",
    "id_album": "-1721545051",
    "description": "Chevrolet_345976",
    "title": "Chevrolet_345976",
    "link_img": "https://live.staticflickr.com/65535/48114230227_099c248a8e_o.jpg",
    "id_image": "Chevrolet_345976",
    "count_view": 0
  },
  {
    "link_thumb": "https://live.staticflickr.com/65535/49888205893_07a0a69008_n.jpg",
    "id_album": "504832144",
    "description": "2016_rv_Acura_rv_NSX_rv_V14_rv_1600",
    "title": "2016_rv_Acura_rv_NSX_rv_V14_rv_1600",
    "link_img": "https://live.staticflickr.com/65535/49888205893_3e4a952c86_o.jpg",
    "id_image": "2016_rv_Acura_rv_NSX_rv_V14_rv_1600",
    "count_view": 0
  },
  {
    "link_thumb": "https://live.staticflickr.com/65535/49892610602_bbcae732dd_n.jpg",
    "id_album": "1486499240",
    "description": "2014_rv_Rolls_rv_Royce_rv_Wraith_rv_V5_rv_1600",
    "title": "2014_rv_Rolls_rv_Royce_rv_Wraith_rv_V5_rv_1600",
    "link_img": "https://live.staticflickr.com/65535/49892610602_55fb855b0a_o.jpg",
    "id_image": "2014_rv_Rolls_rv_Royce_rv_Wraith_rv_V5_rv_1600",
    "count_view": 0
  },
  {
    "link_thumb": "https://live.staticflickr.com/65535/48119503006_f184561e21_n.jpg",
    "id_album": "-731054311",
    "description": "MercedesBenz_251444",
    "title": "MercedesBenz_251444",
    "link_img": "https://live.staticflickr.com/65535/48119503006_56c7ae2821_o.jpg",
    "id_image": "MercedesBenz_251444",
    "count_view": 0
  },
  {
    "link_thumb": "https://live.staticflickr.com/65535/48121498501_c445bfce7e_n.jpg",
    "id_album": "-1178450892",
    "description": "Porsche_618210",
    "title": "Porsche_618210",
    "link_img": "https://live.staticflickr.com/65535/48121498501_c6f74091ce_o.jpg",
    "id_image": "Porsche_618210",
    "count_view": 0
  },
  {
    "link_thumb": "https://live.staticflickr.com/65535/48114012978_be5157c3a5_n.jpg",
    "id_album": "-1721545051",
    "description": "Chevrolet_288526",
    "title": "Chevrolet_288526",
    "link_img": "https://live.staticflickr.com/65535/48114012978_995eccee59_o.jpg",
    "id_image": "Chevrolet_288526",
    "count_view": 0
  },
  {
    "link_thumb": "https://live.staticflickr.com/65535/49892686537_d45b3a0d52_n.jpg",
    "id_album": "2063224475",
    "description": "2019_rv_Chevrolet_rv_Camaro_rv_SS_rv_V1_rv_2160",
    "title": "2019_rv_Chevrolet_rv_Camaro_rv_SS_rv_V1_rv_2160",
    "link_img": "https://live.staticflickr.com/65535/49892686537_986bdc0268_o.jpg",
    "id_image": "2019_rv_Chevrolet_rv_Camaro_rv_SS_rv_V1_rv_2160",
    "count_view": 0
  },
  {
    "link_thumb": "https://live.staticflickr.com/65535/48123079496_3121852a89_n.jpg",
    "id_album": "-150952028",
    "description": "Volkswagen_960792",
    "title": "Volkswagen_960792",
    "link_img": "https://live.staticflickr.com/65535/48123079496_775339953a_o.jpg",
    "id_image": "Volkswagen_960792",
    "count_view": 0
  },
  {
    "link_thumb": "https://live.staticflickr.com/65535/48114910172_fd5f43221d_n.jpg",
    "id_album": "2072464184",
    "description": "Citroen_194466",
    "title": "Citroen_194466",
    "link_img": "https://live.staticflickr.com/65535/48114910172_407b0dd66b_o.jpg",
    "id_image": "Citroen_194466",
    "count_view": 0
  },
  {
    "link_thumb": "https://live.staticflickr.com/65535/48115643441_fb1f3b9987_n.jpg",
    "id_album": "1364506720",
    "description": "Ferrari_193301",
    "title": "Ferrari_193301",
    "link_img": "https://live.staticflickr.com/65535/48115643441_cae64b74fd_o.jpg",
    "id_image": "Ferrari_193301",
    "count_view": 0
  },
  {
    "link_thumb": "https://live.staticflickr.com/65535/49888760363_05d949d8b5_n.jpg",
    "id_album": "-10446952",
    "description": "2016_rv_Cadillac_rv_CTS_rv_V_rv_Sedan_rv_V12_rv_1600",
    "title": "2016_rv_Cadillac_rv_CTS_rv_V_rv_Sedan_rv_V12_rv_1600",
    "link_img": "https://live.staticflickr.com/65535/49888760363_1c68ea8de8_o.jpg",
    "id_image": "2016_rv_Cadillac_rv_CTS_rv_V_rv_Sedan_rv_V12_rv_1600",
    "count_view": 0
  },
  {
    "link_thumb": "https://live.staticflickr.com/65535/48114028526_6bc7911a5c_n.jpg",
    "id_album": "-1721545051",
    "description": "Chevrolet_289128",
    "title": "Chevrolet_289128",
    "link_img": "https://live.staticflickr.com/65535/48114028526_cc1326d744_o.jpg",
    "id_image": "Chevrolet_289128",
    "count_view": 0
  },
  {
    "link_thumb": "https://live.staticflickr.com/65535/48112973737_fa8f8d8e37_n.jpg",
    "id_album": "727633301",
    "description": "BMW_484671",
    "title": "BMW_484671",
    "link_img": "https://live.staticflickr.com/65535/48112973737_e8b9741b67_o.jpg",
    "id_image": "BMW_484671",
    "count_view": 0
  },
  {
    "link_thumb": "https://live.staticflickr.com/65535/48116405617_7a68a04053_n.jpg",
    "id_album": "1364506720",
    "description": "Ferrari_81500",
    "title": "Ferrari_81500",
    "link_img": "https://live.staticflickr.com/65535/48116405617_9575aa3197_o.jpg",
    "id_image": "Ferrari_81500",
    "count_view": 0
  },
  {
    "link_thumb": "https://live.staticflickr.com/65535/49889436386_36a8222069_n.jpg",
    "id_album": "1828657713",
    "description": "1962_rv_Ferrari_rv_250_rv_GTO_rv_V5_rv_1440",
    "title": "1962_rv_Ferrari_rv_250_rv_GTO_rv_V5_rv_1440",
    "link_img": "https://live.staticflickr.com/65535/49889436386_ae7083dfc5_o.jpg",
    "id_image": "1962_rv_Ferrari_rv_250_rv_GTO_rv_V5_rv_1440",
    "count_view": 0
  },
  {
    "link_thumb": "https://live.staticflickr.com/65535/48117741176_277f5bf533_n.jpg",
    "id_album": "249743491",
    "description": "HarleyDavidson_758489",
    "title": "HarleyDavidson_758489",
    "link_img": "https://live.staticflickr.com/65535/48117741176_c1f06e8d8c_o.jpg",
    "id_image": "HarleyDavidson_758489",
    "count_view": 0
  },
  {
    "link_thumb": "https://live.staticflickr.com/65535/48114243133_c0066969c9_n.jpg",
    "id_album": "-1721545051",
    "description": "Chevrolet_412361",
    "title": "Chevrolet_412361",
    "link_img": "https://live.staticflickr.com/65535/48114243133_b0557fff32_o.jpg",
    "id_image": "Chevrolet_412361",
    "count_view": 0
  },
  {
    "link_thumb": "https://live.staticflickr.com/65535/49892720711_daaab36421_n.jpg",
    "id_album": "1158113959",
    "description": "2017_rv_Aston_rv_Martin_rv_Vanquish_rv_Zagato_rv_V2_rv_2000",
    "title": "2017_rv_Aston_rv_Martin_rv_Vanquish_rv_Zagato_rv_V2_rv_2000",
    "link_img": "https://live.staticflickr.com/65535/49892720711_ac5a8bb9de_o.jpg",
    "id_image": "2017_rv_Aston_rv_Martin_rv_Vanquish_rv_Zagato_rv_V2_rv_2000",
    "count_view": 0
  },
  {
    "link_thumb": "https://live.staticflickr.com/65535/49889674407_4c56cd656a_n.jpg",
    "id_album": "-57065301",
    "description": "2013_rv_BMW_rv_M3_rv_Frozen_rv_Edition_rv_V3_rv_1440",
    "title": "2013_rv_BMW_rv_M3_rv_Frozen_rv_Edition_rv_V3_rv_1440",
    "link_img": "https://live.staticflickr.com/65535/49889674407_09f47f99e8_o.jpg",
    "id_image": "2013_rv_BMW_rv_M3_rv_Frozen_rv_Edition_rv_V3_rv_1440",
    "count_view": 0
  },
  {
    "link_thumb": "https://live.staticflickr.com/65535/49889917113_d5e1a4a5c1_n.jpg",
    "id_album": "-1470719774",
    "description": "2018_rv_Maserati_rv_Gran_rv_Turismo_rv_MC_rv_V3_rv_2000",
    "title": "2018_rv_Maserati_rv_Gran_rv_Turismo_rv_MC_rv_V3_rv_2000",
    "link_img": "https://live.staticflickr.com/65535/49889917113_037a44ce20_o.jpg",
    "id_image": "2018_rv_Maserati_rv_Gran_rv_Turismo_rv_MC_rv_V3_rv_2000",
    "count_view": 0
  },
  {
    "link_thumb": "https://live.staticflickr.com/65535/49889850253_c6234b2481_n.jpg",
    "id_album": "321212031",
    "description": "2006_rv_Lotus_rv_Europa_rv_S_rv_V2_rv_1440",
    "title": "2006_rv_Lotus_rv_Europa_rv_S_rv_V2_rv_1440",
    "link_img": "https://live.staticflickr.com/65535/49889850253_d944e49869_o.jpg",
    "id_image": "2006_rv_Lotus_rv_Europa_rv_S_rv_V2_rv_1440",
    "count_view": 0
  },
  {
    "link_thumb": "https://live.staticflickr.com/65535/49893024942_e38a3c6275_n.jpg",
    "id_album": "1158113959",
    "description": "2011_rv_Aston_rv_Martin_rv_V12_rv_Zagato_rv_V1_rv_1440",
    "title": "2011_rv_Aston_rv_Martin_rv_V12_rv_Zagato_rv_V1_rv_1440",
    "link_img": "https://live.staticflickr.com/65535/49893024942_09d0ac94d8_o.jpg",
    "id_image": "2011_rv_Aston_rv_Martin_rv_V12_rv_Zagato_rv_V1_rv_1440",
    "count_view": 0
  },
  {
    "link_thumb": "https://live.staticflickr.com/65535/48118821983_312b187368_n.jpg",
    "id_album": "1234246491",
    "description": "LandRover_281941",
    "title": "LandRover_281941",
    "link_img": "https://live.staticflickr.com/65535/48118821983_ef63346a7f_o.jpg",
    "id_image": "LandRover_281941",
    "count_view": 0
  },
  {
    "link_thumb": "https://live.staticflickr.com/65535/49889659272_4f6d980039_n.jpg",
    "id_album": "-549514508",
    "description": "2014_rv_Donkervoort_rv_D8_rv_GTO_rv_V2_rv_1600",
    "title": "2014_rv_Donkervoort_rv_D8_rv_GTO_rv_V2_rv_1600",
    "link_img": "https://live.staticflickr.com/65535/49889659272_377c630857_o.jpg",
    "id_image": "2014_rv_Donkervoort_rv_D8_rv_GTO_rv_V2_rv_1600",
    "count_view": 0
  },
  {
    "link_thumb": "https://live.staticflickr.com/65535/48123252252_a1a9bf23ae_n.jpg",
    "id_album": "1159292543",
    "description": "Volvo_683527",
    "title": "Volvo_683527",
    "link_img": "https://live.staticflickr.com/65535/48123252252_0b0b4f6255_o.jpg",
    "id_image": "Volvo_683527",
    "count_view": 0
  },
  {
    "link_thumb": "https://live.staticflickr.com/65535/48118862258_9e8e66c58e_n.jpg",
    "id_album": "446908717",
    "description": "Lexus_158062",
    "title": "Lexus_158062",
    "link_img": "https://live.staticflickr.com/65535/48118862258_0639e8e2ec_o.jpg",
    "id_image": "Lexus_158062",
    "count_view": 0
  },
  {
    "link_thumb": "https://live.staticflickr.com/65535/49892930632_cb55250768_n.jpg",
    "id_album": "-842876950",
    "description": "2019_rv_Aston_rv_Martin_rv_Vantage_rv_V17_rv_2000",
    "title": "2019_rv_Aston_rv_Martin_rv_Vantage_rv_V17_rv_2000",
    "link_img": "https://live.staticflickr.com/65535/49892930632_38d514c074_o.jpg",
    "id_image": "2019_rv_Aston_rv_Martin_rv_Vantage_rv_V17_rv_2000",
    "count_view": 0
  },
  {
    "link_thumb": "https://live.staticflickr.com/65535/48115720503_0fa35d770b_n.jpg",
    "id_album": "1364506720",
    "description": "Ferrari_255155",
    "title": "Ferrari_255155",
    "link_img": "https://live.staticflickr.com/65535/48115720503_4d83ae8f75_o.jpg",
    "id_image": "Ferrari_255155",
    "count_view": 0
  },
  {
    "link_thumb": "https://live.staticflickr.com/65535/49889376306_37e943a25a_n.jpg",
    "id_album": "-1276282568",
    "description": "2018_rv_Formula1_rv_Ferrari_rv_SF71H_rv_V1_rv_2000",
    "title": "2018_rv_Formula1_rv_Ferrari_rv_SF71H_rv_V1_rv_2000",
    "link_img": "https://live.staticflickr.com/65535/49889376306_e2ddddd94b_o.jpg",
    "id_image": "2018_rv_Formula1_rv_Ferrari_rv_SF71H_rv_V1_rv_2000",
    "count_view": 0
  },
  {
    "link_thumb": "https://live.staticflickr.com/65535/48120934466_07f97779e9_n.jpg",
    "id_album": "-1123679742",
    "description": "Plymouth_164794",
    "title": "Plymouth_164794",
    "link_img": "https://live.staticflickr.com/65535/48120934466_c12934631b_o.jpg",
    "id_image": "Plymouth_164794",
    "count_view": 0
  },
  {
    "link_thumb": "https://live.staticflickr.com/65535/49889542506_e39e58544e_n.jpg",
    "id_album": "-1163422051",
    "description": "1972_rv_Ferrari_rv_Dino_rv_246_rv_GTS_rv_V6_rv_1536",
    "title": "1972_rv_Ferrari_rv_Dino_rv_246_rv_GTS_rv_V6_rv_1536",
    "link_img": "https://live.staticflickr.com/65535/49889542506_a335ab7d61_o.jpg",
    "id_image": "1972_rv_Ferrari_rv_Dino_rv_246_rv_GTS_rv_V6_rv_1536",
    "count_view": 0
  },
  {
    "link_thumb": "https://live.staticflickr.com/65535/48112648897_483285eb9e_n.jpg",
    "id_album": "2097036181",
    "description": "Bentley_574457",
    "title": "Bentley_574457",
    "link_img": "https://live.staticflickr.com/65535/48112648897_60d7561eb6_o.jpg",
    "id_image": "Bentley_574457",
    "count_view": 0
  },
  {
    "link_thumb": "https://live.staticflickr.com/65535/48118388221_25ec423ac5_n.jpg",
    "id_album": "-2100339805",
    "description": "Lamborghini_377106",
    "title": "Lamborghini_377106",
    "link_img": "https://live.staticflickr.com/65535/48118388221_b77f19ffc5_o.jpg",
    "id_image": "Lamborghini_377106",
    "count_view": 0
  },
  {
    "link_thumb": "https://live.staticflickr.com/65535/48119462053_86821fa0a4_n.jpg",
    "id_album": "990865885",
    "description": "McLaren_985283",
    "title": "McLaren_985283",
    "link_img": "https://live.staticflickr.com/65535/48119462053_24c7eb6f5c_o.jpg",
    "id_image": "McLaren_985283",
    "count_view": 0
  },
  {
    "link_thumb": "https://live.staticflickr.com/65535/48119004791_b1c6700417_n.jpg",
    "id_album": "-1153253263",
    "description": "Lotus_250042",
    "title": "Lotus_250042",
    "link_img": "https://live.staticflickr.com/65535/48119004791_4c181cde0f_o.jpg",
    "id_image": "Lotus_250042",
    "count_view": 0
  },
  {
    "link_thumb": "https://live.staticflickr.com/65535/48114539832_8bb80a7624_n.jpg",
    "id_album": "-1721545051",
    "description": "Chevrolet_681291",
    "title": "Chevrolet_681291",
    "link_img": "https://live.staticflickr.com/65535/48114539832_f9dbdd7144_o.jpg",
    "id_image": "Chevrolet_681291",
    "count_view": 0
  },
  {
    "link_thumb": "https://live.staticflickr.com/65535/48121679157_e4d7678f55_n.jpg",
    "id_album": "-1178450892",
    "description": "Porsche_712531",
    "title": "Porsche_712531",
    "link_img": "https://live.staticflickr.com/65535/48121679157_4e49d29f11_o.jpg",
    "id_image": "Porsche_712531",
    "count_view": 0
  },
  {
    "link_thumb": "https://live.staticflickr.com/65535/49891102896_d63dc86a73_n.jpg",
    "id_album": "-634611517",
    "description": "2014_rv_Nissan_rv_Sport_rv_Sedan_rv_Concept_rv_V2_rv_1600",
    "title": "2014_rv_Nissan_rv_Sport_rv_Sedan_rv_Concept_rv_V2_rv_1600",
    "link_img": "https://live.staticflickr.com/65535/49891102896_0cd403ba71_o.jpg",
    "id_image": "2014_rv_Nissan_rv_Sport_rv_Sedan_rv_Concept_rv_V2_rv_1600",
    "count_view": 0
  },
  {
    "link_thumb": "https://live.staticflickr.com/65535/48116640723_7a482ec6a4_n.jpg",
    "id_album": "-1846404630",
    "description": "Ford_160970",
    "title": "Ford_160970",
    "link_img": "https://live.staticflickr.com/65535/48116640723_59a50bb6f4_o.jpg",
    "id_image": "Ford_160970",
    "count_view": 0
  },
  {
    "link_thumb": "https://live.staticflickr.com/65535/48113548448_2f522c287a_n.jpg",
    "id_album": "-680120434",
    "description": "Cadillac_207503",
    "title": "Cadillac_207503",
    "link_img": "https://live.staticflickr.com/65535/48113548448_c1dcb839ff_o.jpg",
    "id_image": "Cadillac_207503",
    "count_view": 0
  },
  {
    "link_thumb": "https://live.staticflickr.com/65535/48117616777_b6530ce001_n.jpg",
    "id_album": "-1846404630",
    "description": "Ford_912670",
    "title": "Ford_912670",
    "link_img": "https://live.staticflickr.com/65535/48117616777_55ffe49d8d_o.jpg",
    "id_image": "Ford_912670",
    "count_view": 0
  },
  {
    "link_thumb": "https://live.staticflickr.com/65535/48121665602_3ddacaba77_n.jpg",
    "id_album": "-1178450892",
    "description": "Porsche_702133",
    "title": "Porsche_702133",
    "link_img": "https://live.staticflickr.com/65535/48121665602_a8f86df0a0_o.jpg",
    "id_image": "Porsche_702133",
    "count_view": 0
  },
  {
    "link_thumb": "https://live.staticflickr.com/65535/48114740772_173d3b08c9_n.jpg",
    "id_album": "-1721545051",
    "description": "Chevrolet_919569",
    "title": "Chevrolet_919569",
    "link_img": "https://live.staticflickr.com/65535/48114740772_35d7042a3f_o.jpg",
    "id_image": "Chevrolet_919569",
    "count_view": 0
  },
  {
    "link_thumb": "https://live.staticflickr.com/65535/48113510351_40f0610971_n.jpg",
    "id_album": "-680120434",
    "description": "Cadillac_209889",
    "title": "Cadillac_209889",
    "link_img": "https://live.staticflickr.com/65535/48113510351_bf6b38720b_o.jpg",
    "id_image": "Cadillac_209889",
    "count_view": 0
  },
  {
    "link_thumb": "https://live.staticflickr.com/65535/48117189072_863e848fc5_n.jpg",
    "id_album": "-1846404630",
    "description": "Ford_397031",
    "title": "Ford_397031",
    "link_img": "https://live.staticflickr.com/65535/48117189072_ebda168ee6_o.jpg",
    "id_image": "Ford_397031",
    "count_view": 0
  },
  {
    "link_thumb": "https://live.staticflickr.com/65535/48121869063_4e6e32b4a1_n.jpg",
    "id_album": "-1178450892",
    "description": "Porsche_997492",
    "title": "Porsche_997492",
    "link_img": "https://live.staticflickr.com/65535/48121869063_154d6163f1_o.jpg",
    "id_image": "Porsche_997492",
    "count_view": 0
  },
  {
    "link_thumb": "https://live.staticflickr.com/65535/49890737107_32eba8949d_n.jpg",
    "id_album": "-1470719774",
    "description": "2011_rv_Maserati_rv_GranTurismo_rv_MC_rv_Stradale_rv_V4_rv_2000",
    "title": "2011_rv_Maserati_rv_GranTurismo_rv_MC_rv_Stradale_rv_V4_rv_2000",
    "link_img": "https://live.staticflickr.com/65535/49890737107_e2a2756b25_o.jpg",
    "id_image": "2011_rv_Maserati_rv_GranTurismo_rv_MC_rv_Stradale_rv_V4_rv_2000",
    "count_view": 0
  },
  {
    "link_thumb": "https://live.staticflickr.com/65535/48121660036_fc20283f21_n.jpg",
    "id_album": "-1178450892",
    "description": "Porsche_844411",
    "title": "Porsche_844411",
    "link_img": "https://live.staticflickr.com/65535/48121660036_380efdb8ae_o.jpg",
    "id_image": "Porsche_844411",
    "count_view": 0
  },
  {
    "link_thumb": "https://live.staticflickr.com/65535/48117534901_72af5b8133_n.jpg",
    "id_album": "-1846404630",
    "description": "Ford_926096",
    "title": "Ford_926096",
    "link_img": "https://live.staticflickr.com/65535/48117534901_ecfe2eb564_o.jpg",
    "id_image": "Ford_926096",
    "count_view": 0
  },
  {
    "link_thumb": "https://live.staticflickr.com/65535/48119427653_7fd71596df_n.jpg",
    "id_album": "990865885",
    "description": "McLaren_932916",
    "title": "McLaren_932916",
    "link_img": "https://live.staticflickr.com/65535/48119427653_2050db507a_o.jpg",
    "id_image": "McLaren_932916",
    "count_view": 0
  },
  {
    "link_thumb": "https://live.staticflickr.com/65535/49888872698_9650279c72_n.jpg",
    "id_album": "715958079",
    "description": "2019_rv_Formula1_rv_Mercedes_rv_AMG_rv_F1_rv_W10_rv_V1_rv_2160",
    "title": "2019_rv_Formula1_rv_Mercedes_rv_AMG_rv_F1_rv_W10_rv_V1_rv_2160",
    "link_img": "https://live.staticflickr.com/65535/49888872698_a00053ff74_o.jpg",
    "id_image": "2019_rv_Formula1_rv_Mercedes_rv_AMG_rv_F1_rv_W10_rv_V1_rv_2160",
    "count_view": 0
  },
  {
    "link_thumb": "https://live.staticflickr.com/65535/48112388512_a467ca1782_n.jpg",
    "id_album": "-15119147",
    "description": "Audi_383255",
    "title": "Audi_383255",
    "link_img": "https://live.staticflickr.com/65535/48112388512_8e77c1e722_o.jpg",
    "id_image": "Audi_383255",
    "count_view": 0
  },
  {
    "link_thumb": "https://live.staticflickr.com/65535/48112698768_cff47e726b_n.jpg",
    "id_album": "727633301",
    "description": "BMW_254041",
    "title": "BMW_254041",
    "link_img": "https://live.staticflickr.com/65535/48112698768_25fd7f13e4_o.jpg",
    "id_image": "BMW_254041",
    "count_view": 0
  },
  {
    "link_thumb": "https://live.staticflickr.com/65535/48119326988_1e42eb679f_n.jpg",
    "id_album": "990865885",
    "description": "McLaren_507337",
    "title": "McLaren_507337",
    "link_img": "https://live.staticflickr.com/65535/48119326988_a034334dd8_o.jpg",
    "id_image": "McLaren_507337",
    "count_view": 0
  },
  {
    "link_thumb": "https://live.staticflickr.com/65535/48113916238_5df86d438b_n.jpg",
    "id_album": "-1721545051",
    "description": "Chevrolet_246038",
    "title": "Chevrolet_246038",
    "link_img": "https://live.staticflickr.com/65535/48113916238_ccf8a27741_o.jpg",
    "id_image": "Chevrolet_246038",
    "count_view": 0
  },
  {
    "link_thumb": "https://live.staticflickr.com/65535/48112195388_da27c82083_n.jpg",
    "id_album": "-1072797263",
    "description": "AstonMartin_545872",
    "title": "AstonMartin_545872",
    "link_img": "https://live.staticflickr.com/65535/48112195388_e31cab4589_o.jpg",
    "id_image": "AstonMartin_545872",
    "count_view": 0
  },
  {
    "link_thumb": "https://live.staticflickr.com/65535/49889900206_90849f14d6_n.jpg",
    "id_album": "-1822879856",
    "description": "2001_rv_Holden_rv_Monaro_rv_CV8_rv_V1_rv_1440",
    "title": "2001_rv_Holden_rv_Monaro_rv_CV8_rv_V1_rv_1440",
    "link_img": "https://live.staticflickr.com/65535/49889900206_fbdf7c878c_o.jpg",
    "id_image": "2001_rv_Holden_rv_Monaro_rv_CV8_rv_V1_rv_1440",
    "count_view": 0
  },
  {
    "link_thumb": "https://live.staticflickr.com/65535/48117036101_8b9690a4c2_n.jpg",
    "id_album": "-1846404630",
    "description": "Ford_350292",
    "title": "Ford_350292",
    "link_img": "https://live.staticflickr.com/65535/48117036101_fd723c4fcb_o.jpg",
    "id_image": "Ford_350292",
    "count_view": 0
  },
  {
    "link_thumb": "https://live.staticflickr.com/65535/48116841161_c5b3e72ea5_n.jpg",
    "id_album": "-1846404630",
    "description": "Ford_245763",
    "title": "Ford_245763",
    "link_img": "https://live.staticflickr.com/65535/48116841161_f7f2df3ab6_o.jpg",
    "id_image": "Ford_245763",
    "count_view": 0
  },
  {
    "link_thumb": "https://live.staticflickr.com/65535/49891394221_3cbb4dfa08_n.jpg",
    "id_album": "-857328710",
    "description": "2020_rv_Porsche_rv_718_rv_Spyder_rv_V1_rv_2160",
    "title": "2020_rv_Porsche_rv_718_rv_Spyder_rv_V1_rv_2160",
    "link_img": "https://live.staticflickr.com/65535/49891394221_5fef5d7751_o.jpg",
    "id_image": "2020_rv_Porsche_rv_718_rv_Spyder_rv_V1_rv_2160",
    "count_view": 0
  },
  {
    "link_thumb": "https://live.staticflickr.com/65535/48116856138_7fc7c50bbd_n.jpg",
    "id_album": "-1846404630",
    "description": "Ford_242193",
    "title": "Ford_242193",
    "link_img": "https://live.staticflickr.com/65535/48116856138_33d3633f0e_o.jpg",
    "id_image": "Ford_242193",
    "count_view": 0
  },
  {
    "link_thumb": "https://live.staticflickr.com/65535/48119924061_280e109213_n.jpg",
    "id_album": "-731054311",
    "description": "MercedesBenz_937064",
    "title": "MercedesBenz_937064",
    "link_img": "https://live.staticflickr.com/65535/48119924061_cc93fc5bc0_o.jpg",
    "id_image": "MercedesBenz_937064",
    "count_view": 0
  },
  {
    "link_thumb": "https://live.staticflickr.com/65535/48113028973_489e81e255_n.jpg",
    "id_album": "727633301",
    "description": "BMW_590456",
    "title": "BMW_590456",
    "link_img": "https://live.staticflickr.com/65535/48113028973_53b675e5c5_o.jpg",
    "id_image": "BMW_590456",
    "count_view": 0
  },
  {
    "link_thumb": "https://live.staticflickr.com/65535/49891637483_fbc46425a3_n.jpg",
    "id_album": "326624747",
    "description": "2015_rv_Porsche_rv_Macan_rv_V2_rv_1600",
    "title": "2015_rv_Porsche_rv_Macan_rv_V2_rv_1600",
    "link_img": "https://live.staticflickr.com/65535/49891637483_36877e0ebc_o.jpg",
    "id_image": "2015_rv_Porsche_rv_Macan_rv_V2_rv_1600",
    "count_view": 0
  }
]