[
  {
    "total_img": 0,
    "number_page": 0,
    "title": "Mazda",
    "tag": "Mazda,",
    "description": "Mazda",
    "link_thumb": "https://live.staticflickr.com/65535/48119210603_e836d619e3_n.jpg",
    "id_album": "898314866",
    "total_view": 310
  }
]