[
  {
    "link_thumb": "https://live.staticflickr.com/65535/49889798508_3617653c34_n.jpg",
    "id_album": "1226851568",
    "description": "1997_rv_Lexus_rv_SC_rv_V1_rv_1536",
    "title": "1997_rv_Lexus_rv_SC_rv_V1_rv_1536",
    "link_img": "https://live.staticflickr.com/65535/49889798508_9094cf434d_o.jpg",
    "id_image": "1997_rv_Lexus_rv_SC_rv_V1_rv_1536",
    "count_view": 0
  },
  {
    "link_thumb": "https://live.staticflickr.com/65535/49889798638_397f751b2f_n.jpg",
    "id_album": "1226851568",
    "description": "1997_rv_Lexus_rv_SC_rv_V2_rv_1536",
    "title": "1997_rv_Lexus_rv_SC_rv_V2_rv_1536",
    "link_img": "https://live.staticflickr.com/65535/49889798638_afe5dc4fed_o.jpg",
    "id_image": "1997_rv_Lexus_rv_SC_rv_V2_rv_1536",
    "count_view": 0
  },
  {
    "link_thumb": "https://live.staticflickr.com/65535/49890625667_7e119eb630_n.jpg",
    "id_album": "1226851568",
    "description": "1997_rv_Lexus_rv_SC_rv_V3_rv_1536",
    "title": "1997_rv_Lexus_rv_SC_rv_V3_rv_1536",
    "link_img": "https://live.staticflickr.com/65535/49890625667_f23fb49974_o.jpg",
    "id_image": "1997_rv_Lexus_rv_SC_rv_V3_rv_1536",
    "count_view": 0
  },
  {
    "link_thumb": "https://live.staticflickr.com/65535/49889798943_e8d0a51625_n.jpg",
    "id_album": "1226851568",
    "description": "1997_rv_Lexus_rv_SC_rv_V4_rv_1536",
    "title": "1997_rv_Lexus_rv_SC_rv_V4_rv_1536",
    "link_img": "https://live.staticflickr.com/65535/49889798943_1c88167337_o.jpg",
    "id_image": "1997_rv_Lexus_rv_SC_rv_V4_rv_1536",
    "count_view": 0
  },
  {
    "link_thumb": "https://live.staticflickr.com/65535/49889799053_04f5e8be4a_n.jpg",
    "id_album": "1226851568",
    "description": "1997_rv_Lexus_rv_SC_rv_V5_rv_1536",
    "title": "1997_rv_Lexus_rv_SC_rv_V5_rv_1536",
    "link_img": "https://live.staticflickr.com/65535/49889799053_81f3b488dc_o.jpg",
    "id_image": "1997_rv_Lexus_rv_SC_rv_V5_rv_1536",
    "count_view": 0
  },
  {
    "link_thumb": "https://live.staticflickr.com/65535/49890317506_982a3c5480_n.jpg",
    "id_album": "1226851568",
    "description": "1997_rv_Lexus_rv_SC_rv_V6_rv_1536",
    "title": "1997_rv_Lexus_rv_SC_rv_V6_rv_1536",
    "link_img": "https://live.staticflickr.com/65535/49890317506_cfb3bb4e13_o.jpg",
    "id_image": "1997_rv_Lexus_rv_SC_rv_V6_rv_1536",
    "count_view": 0
  }
]