[
  {
    "total_img": 0,
    "number_page": 0,
    "title": "Mitsubishi Magna",
    "tag": "Mitsubishi Magna,",
    "description": "Mitsubishi Magna",
    "link_thumb": "https://live.staticflickr.com/65535/49890977086_3a45400944_n.jpg",
    "id_album": "-163958736",
    "total_view": 9
  }
]