[
  {
    "link_thumb": "https://live.staticflickr.com/65535/48113269753_ba5bbe90f6_n.jpg",
    "id_album": "727633301",
    "description": "BMW_925266",
    "title": "BMW_925266",
    "link_img": "https://live.staticflickr.com/65535/48113269753_9b684d8a33_o.jpg",
    "id_image": "BMW_925266",
    "count_view": 0
  },
  {
    "link_thumb": "https://live.staticflickr.com/65535/48113330477_94d6c95dc5_n.jpg",
    "id_album": "727633301",
    "description": "BMW_925267",
    "title": "BMW_925267",
    "link_img": "https://live.staticflickr.com/65535/48113330477_2754820e7f_o.jpg",
    "id_image": "BMW_925267",
    "count_view": 0
  },
  {
    "link_thumb": "https://live.staticflickr.com/65535/48113270423_c5182fb8db_n.jpg",
    "id_album": "727633301",
    "description": "BMW_925269",
    "title": "BMW_925269",
    "link_img": "https://live.staticflickr.com/65535/48113270423_dc4c4e3895_o.jpg",
    "id_image": "BMW_925269",
    "count_view": 0
  },
  {
    "link_thumb": "https://live.staticflickr.com/65535/48113270833_969277a779_n.jpg",
    "id_album": "727633301",
    "description": "BMW_925270",
    "title": "BMW_925270",
    "link_img": "https://live.staticflickr.com/65535/48113270833_87b0e5288c_o.jpg",
    "id_image": "BMW_925270",
    "count_view": 0
  },
  {
    "link_thumb": "https://live.staticflickr.com/65535/48113331662_50c8d4ffb1_n.jpg",
    "id_album": "727633301",
    "description": "BMW_925271",
    "title": "BMW_925271",
    "link_img": "https://live.staticflickr.com/65535/48113331662_aa6ab74503_o.jpg",
    "id_image": "BMW_925271",
    "count_view": 0
  },
  {
    "link_thumb": "https://live.staticflickr.com/65535/48113232511_e0e61834d1_n.jpg",
    "id_album": "727633301",
    "description": "BMW_925275",
    "title": "BMW_925275",
    "link_img": "https://live.staticflickr.com/65535/48113232511_6c56cec4ec_o.jpg",
    "id_image": "BMW_925275",
    "count_view": 0
  },
  {
    "link_thumb": "https://live.staticflickr.com/65535/48113273153_f6aefd6a76_n.jpg",
    "id_album": "727633301",
    "description": "BMW_925276",
    "title": "BMW_925276",
    "link_img": "https://live.staticflickr.com/65535/48113273153_9a5823df65_o.jpg",
    "id_image": "BMW_925276",
    "count_view": 0
  },
  {
    "link_thumb": "https://live.staticflickr.com/65535/48113274273_672b0b9429_n.jpg",
    "id_album": "727633301",
    "description": "BMW_925391",
    "title": "BMW_925391",
    "link_img": "https://live.staticflickr.com/65535/48113274273_ee6f0a65c4_o.jpg",
    "id_image": "BMW_925391",
    "count_view": 0
  },
  {
    "link_thumb": "https://live.staticflickr.com/65535/48113274778_c101cefef3_n.jpg",
    "id_album": "727633301",
    "description": "BMW_925392",
    "title": "BMW_925392",
    "link_img": "https://live.staticflickr.com/65535/48113274778_a07cdff2d8_o.jpg",
    "id_image": "BMW_925392",
    "count_view": 0
  },
  {
    "link_thumb": "https://live.staticflickr.com/65535/48113235456_205ec6a0ce_n.jpg",
    "id_album": "727633301",
    "description": "BMW_925393",
    "title": "BMW_925393",
    "link_img": "https://live.staticflickr.com/65535/48113235456_3212c04e3c_o.jpg",
    "id_image": "BMW_925393",
    "count_view": 0
  },
  {
    "link_thumb": "https://live.staticflickr.com/65535/48113337307_8039d8fd36_n.jpg",
    "id_album": "727633301",
    "description": "BMW_925395",
    "title": "BMW_925395",
    "link_img": "https://live.staticflickr.com/65535/48113337307_bae4962deb_o.jpg",
    "id_image": "BMW_925395",
    "count_view": 0
  },
  {
    "link_thumb": "https://live.staticflickr.com/65535/48113277588_9a871d825d_n.jpg",
    "id_album": "727633301",
    "description": "BMW_925396",
    "title": "BMW_925396",
    "link_img": "https://live.staticflickr.com/65535/48113277588_e01076316a_o.jpg",
    "id_image": "BMW_925396",
    "count_view": 0
  },
  {
    "link_thumb": "https://live.staticflickr.com/65535/48113278513_9d1de19953_n.jpg",
    "id_album": "727633301",
    "description": "BMW_925397",
    "title": "BMW_925397",
    "link_img": "https://live.staticflickr.com/65535/48113278513_38c206f87f_o.jpg",
    "id_image": "BMW_925397",
    "count_view": 0
  },
  {
    "link_thumb": "https://live.staticflickr.com/65535/48113279098_c88479940d_n.jpg",
    "id_album": "727633301",
    "description": "BMW_925398",
    "title": "BMW_925398",
    "link_img": "https://live.staticflickr.com/65535/48113279098_1e014d38f4_o.jpg",
    "id_image": "BMW_925398",
    "count_view": 0
  },
  {
    "link_thumb": "https://live.staticflickr.com/65535/48113240766_4775338c19_n.jpg",
    "id_album": "727633301",
    "description": "BMW_925400",
    "title": "BMW_925400",
    "link_img": "https://live.staticflickr.com/65535/48113240766_9e4bc38713_o.jpg",
    "id_image": "BMW_925400",
    "count_view": 0
  },
  {
    "link_thumb": "https://live.staticflickr.com/65535/48113241436_fede692d91_n.jpg",
    "id_album": "727633301",
    "description": "BMW_925403",
    "title": "BMW_925403",
    "link_img": "https://live.staticflickr.com/65535/48113241436_d715c7e2e7_o.jpg",
    "id_image": "BMW_925403",
    "count_view": 0
  },
  {
    "link_thumb": "https://live.staticflickr.com/65535/48113242491_651aaaac0a_n.jpg",
    "id_album": "727633301",
    "description": "BMW_926184",
    "title": "BMW_926184",
    "link_img": "https://live.staticflickr.com/65535/48113242491_1831e1f5b8_o.jpg",
    "id_image": "BMW_926184",
    "count_view": 0
  },
  {
    "link_thumb": "https://live.staticflickr.com/65535/48113242716_8b2672bb60_n.jpg",
    "id_album": "727633301",
    "description": "BMW_927316",
    "title": "BMW_927316",
    "link_img": "https://live.staticflickr.com/65535/48113242716_58401acaa1_o.jpg",
    "id_image": "BMW_927316",
    "count_view": 0
  },
  {
    "link_thumb": "https://live.staticflickr.com/65535/48113282548_76f992d7e6_n.jpg",
    "id_album": "727633301",
    "description": "BMW_927317",
    "title": "BMW_927317",
    "link_img": "https://live.staticflickr.com/65535/48113282548_75c0232e68_o.jpg",
    "id_image": "BMW_927317",
    "count_view": 0
  },
  {
    "link_thumb": "https://live.staticflickr.com/65535/48113243046_12ffd9b08d_n.jpg",
    "id_album": "727633301",
    "description": "BMW_927318",
    "title": "BMW_927318",
    "link_img": "https://live.staticflickr.com/65535/48113243046_f53e078052_o.jpg",
    "id_image": "BMW_927318",
    "count_view": 0
  },
  {
    "link_thumb": "https://live.staticflickr.com/65535/48113343277_67520ddcdf_n.jpg",
    "id_album": "727633301",
    "description": "BMW_927319",
    "title": "BMW_927319",
    "link_img": "https://live.staticflickr.com/65535/48113343277_0bf4026a9f_o.jpg",
    "id_image": "BMW_927319",
    "count_view": 0
  },
  {
    "link_thumb": "https://live.staticflickr.com/65535/48113343517_5e9fa2e2d4_n.jpg",
    "id_album": "727633301",
    "description": "BMW_927320",
    "title": "BMW_927320",
    "link_img": "https://live.staticflickr.com/65535/48113343517_b5f290158b_o.jpg",
    "id_image": "BMW_927320",
    "count_view": 0
  },
  {
    "link_thumb": "https://live.staticflickr.com/65535/48113243606_084eafc104_n.jpg",
    "id_album": "727633301",
    "description": "BMW_927321",
    "title": "BMW_927321",
    "link_img": "https://live.staticflickr.com/65535/48113243606_9b11929f9a_o.jpg",
    "id_image": "BMW_927321",
    "count_view": 0
  },
  {
    "link_thumb": "https://live.staticflickr.com/65535/48113243981_aa40e5a3d1_n.jpg",
    "id_album": "727633301",
    "description": "BMW_929021",
    "title": "BMW_929021",
    "link_img": "https://live.staticflickr.com/65535/48113243981_8c5c791e0c_o.jpg",
    "id_image": "BMW_929021",
    "count_view": 0
  },
  {
    "link_thumb": "https://live.staticflickr.com/65535/48113244241_a10303458b_n.jpg",
    "id_album": "727633301",
    "description": "BMW_929411",
    "title": "BMW_929411",
    "link_img": "https://live.staticflickr.com/65535/48113244241_074b380b0b_o.jpg",
    "id_image": "BMW_929411",
    "count_view": 0
  },
  {
    "link_thumb": "https://live.staticflickr.com/65535/48113344687_2d886c7ef1_n.jpg",
    "id_album": "727633301",
    "description": "BMW_929417",
    "title": "BMW_929417",
    "link_img": "https://live.staticflickr.com/65535/48113344687_408eabf84f_o.jpg",
    "id_image": "BMW_929417",
    "count_view": 0
  },
  {
    "link_thumb": "https://live.staticflickr.com/65535/48113345082_226c83f622_n.jpg",
    "id_album": "727633301",
    "description": "BMW_929418",
    "title": "BMW_929418",
    "link_img": "https://live.staticflickr.com/65535/48113345082_cf5cf332c2_o.jpg",
    "id_image": "BMW_929418",
    "count_view": 0
  },
  {
    "link_thumb": "https://live.staticflickr.com/65535/48113345297_c11817eee1_n.jpg",
    "id_album": "727633301",
    "description": "BMW_929488",
    "title": "BMW_929488",
    "link_img": "https://live.staticflickr.com/65535/48113345297_6d71502cf4_o.jpg",
    "id_image": "BMW_929488",
    "count_view": 0
  },
  {
    "link_thumb": "https://live.staticflickr.com/65535/48113345942_6b3b558ee1_n.jpg",
    "id_album": "727633301",
    "description": "BMW_930180",
    "title": "BMW_930180",
    "link_img": "https://live.staticflickr.com/65535/48113345942_2a2d6b16dc_o.jpg",
    "id_image": "BMW_930180",
    "count_view": 0
  },
  {
    "link_thumb": "https://live.staticflickr.com/65535/48113246251_32ac2c3cd6_n.jpg",
    "id_album": "727633301",
    "description": "BMW_930653",
    "title": "BMW_930653",
    "link_img": "https://live.staticflickr.com/65535/48113246251_04bfe2363e_o.jpg",
    "id_image": "BMW_930653",
    "count_view": 0
  },
  {
    "link_thumb": "https://live.staticflickr.com/65535/48113246746_d0745dc41a_n.jpg",
    "id_album": "727633301",
    "description": "BMW_930879",
    "title": "BMW_930879",
    "link_img": "https://live.staticflickr.com/65535/48113246746_10540eb5fc_o.jpg",
    "id_image": "BMW_930879",
    "count_view": 0
  },
  {
    "link_thumb": "https://live.staticflickr.com/65535/48113347112_1f94848bab_n.jpg",
    "id_album": "727633301",
    "description": "BMW_930880",
    "title": "BMW_930880",
    "link_img": "https://live.staticflickr.com/65535/48113347112_b141fee5eb_o.jpg",
    "id_image": "BMW_930880",
    "count_view": 0
  },
  {
    "link_thumb": "https://live.staticflickr.com/65535/48113287258_a6083c4365_n.jpg",
    "id_album": "727633301",
    "description": "BMW_930881",
    "title": "BMW_930881",
    "link_img": "https://live.staticflickr.com/65535/48113287258_0bdcf40930_o.jpg",
    "id_image": "BMW_930881",
    "count_view": 0
  },
  {
    "link_thumb": "https://live.staticflickr.com/65535/48113287563_59a8377c82_n.jpg",
    "id_album": "727633301",
    "description": "BMW_931559",
    "title": "BMW_931559",
    "link_img": "https://live.staticflickr.com/65535/48113287563_ec9d9af394_o.jpg",
    "id_image": "BMW_931559",
    "count_view": 0
  },
  {
    "link_thumb": "https://live.staticflickr.com/65535/48113347977_9556274f99_n.jpg",
    "id_album": "727633301",
    "description": "BMW_932336",
    "title": "BMW_932336",
    "link_img": "https://live.staticflickr.com/65535/48113347977_b64d20d276_o.jpg",
    "id_image": "BMW_932336",
    "count_view": 0
  },
  {
    "link_thumb": "https://live.staticflickr.com/65535/48113248396_f810ddc077_n.jpg",
    "id_album": "727633301",
    "description": "BMW_934597",
    "title": "BMW_934597",
    "link_img": "https://live.staticflickr.com/65535/48113248396_82c7bb4af5_o.jpg",
    "id_image": "BMW_934597",
    "count_view": 0
  },
  {
    "link_thumb": "https://live.staticflickr.com/65535/48113288988_2c1e9be0e8_n.jpg",
    "id_album": "727633301",
    "description": "BMW_935253",
    "title": "BMW_935253",
    "link_img": "https://live.staticflickr.com/65535/48113288988_f2e6aac2a8_o.jpg",
    "id_image": "BMW_935253",
    "count_view": 0
  },
  {
    "link_thumb": "https://live.staticflickr.com/65535/48113349367_6f2bca0a75_n.jpg",
    "id_album": "727633301",
    "description": "BMW_935322",
    "title": "BMW_935322",
    "link_img": "https://live.staticflickr.com/65535/48113349367_094090ef7b_o.jpg",
    "id_image": "BMW_935322",
    "count_view": 0
  },
  {
    "link_thumb": "https://live.staticflickr.com/65535/48113249741_de66c75d56_n.jpg",
    "id_album": "727633301",
    "description": "BMW_935323",
    "title": "BMW_935323",
    "link_img": "https://live.staticflickr.com/65535/48113249741_53c74a3780_o.jpg",
    "id_image": "BMW_935323",
    "count_view": 0
  },
  {
    "link_thumb": "https://live.staticflickr.com/65535/48113289698_0eb7fa39e5_n.jpg",
    "id_album": "727633301",
    "description": "BMW_935324",
    "title": "BMW_935324",
    "link_img": "https://live.staticflickr.com/65535/48113289698_c9a2b13712_o.jpg",
    "id_image": "BMW_935324",
    "count_view": 0
  },
  {
    "link_thumb": "https://live.staticflickr.com/65535/48113250056_ec639ba118_n.jpg",
    "id_album": "727633301",
    "description": "BMW_935325",
    "title": "BMW_935325",
    "link_img": "https://live.staticflickr.com/65535/48113250056_647a43bcf9_o.jpg",
    "id_image": "BMW_935325",
    "count_view": 0
  },
  {
    "link_thumb": "https://live.staticflickr.com/65535/48113289993_d9150050e4_n.jpg",
    "id_album": "727633301",
    "description": "BMW_935326",
    "title": "BMW_935326",
    "link_img": "https://live.staticflickr.com/65535/48113289993_9f6318a8e8_o.jpg",
    "id_image": "BMW_935326",
    "count_view": 0
  },
  {
    "link_thumb": "https://live.staticflickr.com/65535/48113250371_56dbd16e7e_n.jpg",
    "id_album": "727633301",
    "description": "BMW_935327",
    "title": "BMW_935327",
    "link_img": "https://live.staticflickr.com/65535/48113250371_3f0d5a440f_o.jpg",
    "id_image": "BMW_935327",
    "count_view": 0
  },
  {
    "link_thumb": "https://live.staticflickr.com/65535/48113290363_65be3054b7_n.jpg",
    "id_album": "727633301",
    "description": "BMW_935328",
    "title": "BMW_935328",
    "link_img": "https://live.staticflickr.com/65535/48113290363_71e1936336_o.jpg",
    "id_image": "BMW_935328",
    "count_view": 0
  },
  {
    "link_thumb": "https://live.staticflickr.com/65535/48113350632_c7772a89c5_n.jpg",
    "id_album": "727633301",
    "description": "BMW_936195",
    "title": "BMW_936195",
    "link_img": "https://live.staticflickr.com/65535/48113350632_3da34dd05f_o.jpg",
    "id_image": "BMW_936195",
    "count_view": 0
  },
  {
    "link_thumb": "https://live.staticflickr.com/65535/48113350807_8680509425_n.jpg",
    "id_album": "727633301",
    "description": "BMW_936366",
    "title": "BMW_936366",
    "link_img": "https://live.staticflickr.com/65535/48113350807_70c2c20e82_o.jpg",
    "id_image": "BMW_936366",
    "count_view": 0
  },
  {
    "link_thumb": "https://live.staticflickr.com/65535/48113290893_b10bbc2d10_n.jpg",
    "id_album": "727633301",
    "description": "BMW_936775",
    "title": "BMW_936775",
    "link_img": "https://live.staticflickr.com/65535/48113290893_739dd838aa_o.jpg",
    "id_image": "BMW_936775",
    "count_view": 0
  },
  {
    "link_thumb": "https://live.staticflickr.com/65535/48113351122_6850b83c06_n.jpg",
    "id_album": "727633301",
    "description": "BMW_936776",
    "title": "BMW_936776",
    "link_img": "https://live.staticflickr.com/65535/48113351122_c6de2cde62_o.jpg",
    "id_image": "BMW_936776",
    "count_view": 0
  },
  {
    "link_thumb": "https://live.staticflickr.com/65535/48113351337_83924dd336_n.jpg",
    "id_album": "727633301",
    "description": "BMW_936777",
    "title": "BMW_936777",
    "link_img": "https://live.staticflickr.com/65535/48113351337_2e8d85fc42_o.jpg",
    "id_image": "BMW_936777",
    "count_view": 0
  },
  {
    "link_thumb": "https://live.staticflickr.com/65535/48113251731_df3c292fc0_n.jpg",
    "id_album": "727633301",
    "description": "BMW_936778",
    "title": "BMW_936778",
    "link_img": "https://live.staticflickr.com/65535/48113251731_ace9dc7892_o.jpg",
    "id_image": "BMW_936778",
    "count_view": 0
  },
  {
    "link_thumb": "https://live.staticflickr.com/65535/48113291533_c4b3b6dc3c_n.jpg",
    "id_album": "727633301",
    "description": "BMW_936779",
    "title": "BMW_936779",
    "link_img": "https://live.staticflickr.com/65535/48113291533_c51fd9cb70_o.jpg",
    "id_image": "BMW_936779",
    "count_view": 0
  },
  {
    "link_thumb": "https://live.staticflickr.com/65535/48113351762_1a5116af54_n.jpg",
    "id_album": "727633301",
    "description": "BMW_936905",
    "title": "BMW_936905",
    "link_img": "https://live.staticflickr.com/65535/48113351762_416f82ed9f_o.jpg",
    "id_image": "BMW_936905",
    "count_view": 0
  },
  {
    "link_thumb": "https://live.staticflickr.com/65535/48113291973_55ccd94dd6_n.jpg",
    "id_album": "727633301",
    "description": "BMW_937021",
    "title": "BMW_937021",
    "link_img": "https://live.staticflickr.com/65535/48113291973_ccb99fa2b1_o.jpg",
    "id_image": "BMW_937021",
    "count_view": 0
  },
  {
    "link_thumb": "https://live.staticflickr.com/65535/48113352172_9ea287cc1d_n.jpg",
    "id_album": "727633301",
    "description": "BMW_937022",
    "title": "BMW_937022",
    "link_img": "https://live.staticflickr.com/65535/48113352172_4d228378d9_o.jpg",
    "id_image": "BMW_937022",
    "count_view": 0
  },
  {
    "link_thumb": "https://live.staticflickr.com/65535/48113352352_4f82e6b6a1_n.jpg",
    "id_album": "727633301",
    "description": "BMW_937023",
    "title": "BMW_937023",
    "link_img": "https://live.staticflickr.com/65535/48113352352_e630b9d256_o.jpg",
    "id_image": "BMW_937023",
    "count_view": 0
  },
  {
    "link_thumb": "https://live.staticflickr.com/65535/48113292438_0445915faf_n.jpg",
    "id_album": "727633301",
    "description": "BMW_937024",
    "title": "BMW_937024",
    "link_img": "https://live.staticflickr.com/65535/48113292438_57a7396ae2_o.jpg",
    "id_image": "BMW_937024",
    "count_view": 0
  },
  {
    "link_thumb": "https://live.staticflickr.com/65535/48113352647_bbf2d9f8dd_n.jpg",
    "id_album": "727633301",
    "description": "BMW_937025",
    "title": "BMW_937025",
    "link_img": "https://live.staticflickr.com/65535/48113352647_9c58e435b3_o.jpg",
    "id_image": "BMW_937025",
    "count_view": 0
  },
  {
    "link_thumb": "https://live.staticflickr.com/65535/48113292813_139e50572c_n.jpg",
    "id_album": "727633301",
    "description": "BMW_937026",
    "title": "BMW_937026",
    "link_img": "https://live.staticflickr.com/65535/48113292813_e7b8777daa_o.jpg",
    "id_image": "BMW_937026",
    "count_view": 0
  },
  {
    "link_thumb": "https://live.staticflickr.com/65535/48113253206_2b740cca29_n.jpg",
    "id_album": "727633301",
    "description": "BMW_937027",
    "title": "BMW_937027",
    "link_img": "https://live.staticflickr.com/65535/48113253206_f0643d8cf2_o.jpg",
    "id_image": "BMW_937027",
    "count_view": 0
  },
  {
    "link_thumb": "https://live.staticflickr.com/65535/48113253381_dcf7487efa_n.jpg",
    "id_album": "727633301",
    "description": "BMW_937028",
    "title": "BMW_937028",
    "link_img": "https://live.staticflickr.com/65535/48113253381_d0153b363e_o.jpg",
    "id_image": "BMW_937028",
    "count_view": 0
  },
  {
    "link_thumb": "https://live.staticflickr.com/65535/48113253586_51e7601a8e_n.jpg",
    "id_album": "727633301",
    "description": "BMW_937029",
    "title": "BMW_937029",
    "link_img": "https://live.staticflickr.com/65535/48113253586_14e3254eba_o.jpg",
    "id_image": "BMW_937029",
    "count_view": 0
  },
  {
    "link_thumb": "https://live.staticflickr.com/65535/48113293488_efe16ee94f_n.jpg",
    "id_album": "727633301",
    "description": "BMW_937030",
    "title": "BMW_937030",
    "link_img": "https://live.staticflickr.com/65535/48113293488_58b0552fa4_o.jpg",
    "id_image": "BMW_937030",
    "count_view": 0
  },
  {
    "link_thumb": "https://live.staticflickr.com/65535/48113253936_0503281934_n.jpg",
    "id_album": "727633301",
    "description": "BMW_937031",
    "title": "BMW_937031",
    "link_img": "https://live.staticflickr.com/65535/48113253936_2871102a0b_o.jpg",
    "id_image": "BMW_937031",
    "count_view": 0
  },
  {
    "link_thumb": "https://live.staticflickr.com/65535/48113254326_77dbc5173f_n.jpg",
    "id_album": "727633301",
    "description": "BMW_937193",
    "title": "BMW_937193",
    "link_img": "https://live.staticflickr.com/65535/48113254326_b80753fe0c_o.jpg",
    "id_image": "BMW_937193",
    "count_view": 0
  },
  {
    "link_thumb": "https://live.staticflickr.com/65535/48113354372_eb4eceaf24_n.jpg",
    "id_album": "727633301",
    "description": "BMW_937194",
    "title": "BMW_937194",
    "link_img": "https://live.staticflickr.com/65535/48113354372_e08da94b31_o.jpg",
    "id_image": "BMW_937194",
    "count_view": 0
  },
  {
    "link_thumb": "https://live.staticflickr.com/65535/48113255146_7c4bc7c763_n.jpg",
    "id_album": "727633301",
    "description": "BMW_937775",
    "title": "BMW_937775",
    "link_img": "https://live.staticflickr.com/65535/48113255146_8dbf695145_o.jpg",
    "id_image": "BMW_937775",
    "count_view": 0
  },
  {
    "link_thumb": "https://live.staticflickr.com/65535/48113295163_bf9626847a_n.jpg",
    "id_album": "727633301",
    "description": "BMW_938085",
    "title": "BMW_938085",
    "link_img": "https://live.staticflickr.com/65535/48113295163_29019bb311_o.jpg",
    "id_image": "BMW_938085",
    "count_view": 0
  },
  {
    "link_thumb": "https://live.staticflickr.com/65535/48113355457_1f838192f3_n.jpg",
    "id_album": "727633301",
    "description": "BMW_938140",
    "title": "BMW_938140",
    "link_img": "https://live.staticflickr.com/65535/48113355457_8d569ecc72_o.jpg",
    "id_image": "BMW_938140",
    "count_view": 0
  },
  {
    "link_thumb": "https://live.staticflickr.com/65535/48113355742_599c8dc228_n.jpg",
    "id_album": "727633301",
    "description": "BMW_939556",
    "title": "BMW_939556",
    "link_img": "https://live.staticflickr.com/65535/48113355742_7446d3e172_o.jpg",
    "id_image": "BMW_939556",
    "count_view": 0
  },
  {
    "link_thumb": "https://live.staticflickr.com/65535/48113295978_4807300d55_n.jpg",
    "id_album": "727633301",
    "description": "BMW_940351",
    "title": "BMW_940351",
    "link_img": "https://live.staticflickr.com/65535/48113295978_cb70e10aa5_o.jpg",
    "id_image": "BMW_940351",
    "count_view": 0
  },
  {
    "link_thumb": "https://live.staticflickr.com/65535/48113256616_d97aff67c9_n.jpg",
    "id_album": "727633301",
    "description": "BMW_940352",
    "title": "BMW_940352",
    "link_img": "https://live.staticflickr.com/65535/48113256616_55d9a9301f_o.jpg",
    "id_image": "BMW_940352",
    "count_view": 0
  },
  {
    "link_thumb": "https://live.staticflickr.com/65535/48113256766_689389bcf0_n.jpg",
    "id_album": "727633301",
    "description": "BMW_940509",
    "title": "BMW_940509",
    "link_img": "https://live.staticflickr.com/65535/48113256766_c26f9864dd_o.jpg",
    "id_image": "BMW_940509",
    "count_view": 0
  },
  {
    "link_thumb": "https://live.staticflickr.com/65535/48113256901_78d3d516b5_n.jpg",
    "id_album": "727633301",
    "description": "BMW_943694",
    "title": "BMW_943694",
    "link_img": "https://live.staticflickr.com/65535/48113256901_12d10dfc61_o.jpg",
    "id_image": "BMW_943694",
    "count_view": 0
  },
  {
    "link_thumb": "https://live.staticflickr.com/65535/48113257086_a37783b508_n.jpg",
    "id_album": "727633301",
    "description": "BMW_946021",
    "title": "BMW_946021",
    "link_img": "https://live.staticflickr.com/65535/48113257086_02c39729b7_o.jpg",
    "id_image": "BMW_946021",
    "count_view": 0
  },
  {
    "link_thumb": "https://live.staticflickr.com/65535/48113257356_9a8f14608e_n.jpg",
    "id_album": "727633301",
    "description": "BMW_946562",
    "title": "BMW_946562",
    "link_img": "https://live.staticflickr.com/65535/48113257356_8c21b6a62a_o.jpg",
    "id_image": "BMW_946562",
    "count_view": 0
  },
  {
    "link_thumb": "https://live.staticflickr.com/65535/48113257496_1a7f8e90c8_n.jpg",
    "id_album": "727633301",
    "description": "BMW_947818",
    "title": "BMW_947818",
    "link_img": "https://live.staticflickr.com/65535/48113257496_e089d517bf_o.jpg",
    "id_image": "BMW_947818",
    "count_view": 0
  },
  {
    "link_thumb": "https://live.staticflickr.com/65535/48113257756_c9ce1430b2_n.jpg",
    "id_album": "727633301",
    "description": "BMW_948432",
    "title": "BMW_948432",
    "link_img": "https://live.staticflickr.com/65535/48113257756_bae098c84c_o.jpg",
    "id_image": "BMW_948432",
    "count_view": 0
  },
  {
    "link_thumb": "https://live.staticflickr.com/65535/48113258251_c6e608a978_n.jpg",
    "id_album": "727633301",
    "description": "BMW_948433",
    "title": "BMW_948433",
    "link_img": "https://live.staticflickr.com/65535/48113258251_6d618b49a7_o.jpg",
    "id_image": "BMW_948433",
    "count_view": 0
  },
  {
    "link_thumb": "https://live.staticflickr.com/65535/48113358277_cdb4722269_n.jpg",
    "id_album": "727633301",
    "description": "BMW_948434",
    "title": "BMW_948434",
    "link_img": "https://live.staticflickr.com/65535/48113358277_54446404cb_o.jpg",
    "id_image": "BMW_948434",
    "count_view": 0
  },
  {
    "link_thumb": "https://live.staticflickr.com/65535/48113358687_115db9d6bf_n.jpg",
    "id_album": "727633301",
    "description": "BMW_948435",
    "title": "BMW_948435",
    "link_img": "https://live.staticflickr.com/65535/48113358687_a94ae9ae6f_o.jpg",
    "id_image": "BMW_948435",
    "count_view": 0
  },
  {
    "link_thumb": "https://live.staticflickr.com/65535/48113359097_987c58b621_n.jpg",
    "id_album": "727633301",
    "description": "BMW_948436",
    "title": "BMW_948436",
    "link_img": "https://live.staticflickr.com/65535/48113359097_36da68458d_o.jpg",
    "id_image": "BMW_948436",
    "count_view": 0
  },
  {
    "link_thumb": "https://live.staticflickr.com/65535/48113259601_9f6925fd74_n.jpg",
    "id_album": "727633301",
    "description": "BMW_948942",
    "title": "BMW_948942",
    "link_img": "https://live.staticflickr.com/65535/48113259601_13288d8bcd_o.jpg",
    "id_image": "BMW_948942",
    "count_view": 0
  },
  {
    "link_thumb": "https://live.staticflickr.com/65535/48113359637_81de75a0db_n.jpg",
    "id_album": "727633301",
    "description": "BMW_949688",
    "title": "BMW_949688",
    "link_img": "https://live.staticflickr.com/65535/48113359637_b1776a2fa1_o.jpg",
    "id_image": "BMW_949688",
    "count_view": 0
  },
  {
    "link_thumb": "https://live.staticflickr.com/65535/48113299933_1d147359fd_n.jpg",
    "id_album": "727633301",
    "description": "BMW_949977",
    "title": "BMW_949977",
    "link_img": "https://live.staticflickr.com/65535/48113299933_eec52e7689_o.jpg",
    "id_image": "BMW_949977",
    "count_view": 0
  },
  {
    "link_thumb": "https://live.staticflickr.com/65535/48113260471_5d8526fbbb_n.jpg",
    "id_album": "727633301",
    "description": "BMW_951233",
    "title": "BMW_951233",
    "link_img": "https://live.staticflickr.com/65535/48113260471_a7bcf0f77b_o.jpg",
    "id_image": "BMW_951233",
    "count_view": 0
  },
  {
    "link_thumb": "https://live.staticflickr.com/65535/48113360357_0d189c923e_n.jpg",
    "id_album": "727633301",
    "description": "BMW_951295",
    "title": "BMW_951295",
    "link_img": "https://live.staticflickr.com/65535/48113360357_221a40cb13_o.jpg",
    "id_image": "BMW_951295",
    "count_view": 0
  },
  {
    "link_thumb": "https://live.staticflickr.com/65535/48113301058_e610507d47_n.jpg",
    "id_album": "727633301",
    "description": "BMW_952158",
    "title": "BMW_952158",
    "link_img": "https://live.staticflickr.com/65535/48113301058_30ef478af2_o.jpg",
    "id_image": "BMW_952158",
    "count_view": 0
  },
  {
    "link_thumb": "https://live.staticflickr.com/65535/48113361487_0f0ca9b24b_n.jpg",
    "id_album": "727633301",
    "description": "BMW_952256",
    "title": "BMW_952256",
    "link_img": "https://live.staticflickr.com/65535/48113361487_1964f0a722_o.jpg",
    "id_image": "BMW_952256",
    "count_view": 0
  },
  {
    "link_thumb": "https://live.staticflickr.com/65535/48113301683_da4bc7da9a_n.jpg",
    "id_album": "727633301",
    "description": "BMW_952800",
    "title": "BMW_952800",
    "link_img": "https://live.staticflickr.com/65535/48113301683_bc36966e54_o.jpg",
    "id_image": "BMW_952800",
    "count_view": 0
  },
  {
    "link_thumb": "https://live.staticflickr.com/65535/48113262146_226464eb5c_n.jpg",
    "id_album": "727633301",
    "description": "BMW_952801",
    "title": "BMW_952801",
    "link_img": "https://live.staticflickr.com/65535/48113262146_7d25408f18_o.jpg",
    "id_image": "BMW_952801",
    "count_view": 0
  },
  {
    "link_thumb": "https://live.staticflickr.com/65535/48113362137_c9bc16ed48_n.jpg",
    "id_album": "727633301",
    "description": "BMW_955558",
    "title": "BMW_955558",
    "link_img": "https://live.staticflickr.com/65535/48113362137_87b32b48f9_o.jpg",
    "id_image": "BMW_955558",
    "count_view": 0
  },
  {
    "link_thumb": "https://live.staticflickr.com/65535/48113302573_cc39da991e_n.jpg",
    "id_album": "727633301",
    "description": "BMW_955906",
    "title": "BMW_955906",
    "link_img": "https://live.staticflickr.com/65535/48113302573_c81e95d11d_o.jpg",
    "id_image": "BMW_955906",
    "count_view": 0
  },
  {
    "link_thumb": "https://live.staticflickr.com/65535/48113263241_1807095471_n.jpg",
    "id_album": "727633301",
    "description": "BMW_956158",
    "title": "BMW_956158",
    "link_img": "https://live.staticflickr.com/65535/48113263241_e6d3b497dc_o.jpg",
    "id_image": "BMW_956158",
    "count_view": 0
  },
  {
    "link_thumb": "https://live.staticflickr.com/65535/48113263471_3cee4b9779_n.jpg",
    "id_album": "727633301",
    "description": "BMW_956334",
    "title": "BMW_956334",
    "link_img": "https://live.staticflickr.com/65535/48113263471_a7a5b0bf1b_o.jpg",
    "id_image": "BMW_956334",
    "count_view": 0
  },
  {
    "link_thumb": "https://live.staticflickr.com/65535/48113363527_6b0fc87caf_n.jpg",
    "id_album": "727633301",
    "description": "BMW_957990",
    "title": "BMW_957990",
    "link_img": "https://live.staticflickr.com/65535/48113363527_ded90e3afe_o.jpg",
    "id_image": "BMW_957990",
    "count_view": 0
  },
  {
    "link_thumb": "https://live.staticflickr.com/65535/48113363702_fdefe30732_n.jpg",
    "id_album": "727633301",
    "description": "BMW_958470",
    "title": "BMW_958470",
    "link_img": "https://live.staticflickr.com/65535/48113363702_d01c69865c_o.jpg",
    "id_image": "BMW_958470",
    "count_view": 0
  },
  {
    "link_thumb": "https://live.staticflickr.com/65535/48113303768_a9bbf3b4b9_n.jpg",
    "id_album": "727633301",
    "description": "BMW_958509",
    "title": "BMW_958509",
    "link_img": "https://live.staticflickr.com/65535/48113303768_dfe6887c05_o.jpg",
    "id_image": "BMW_958509",
    "count_view": 0
  },
  {
    "link_thumb": "https://live.staticflickr.com/65535/48113266436_832ff7151e_n.jpg",
    "id_album": "727633301",
    "description": "BMW_959226",
    "title": "BMW_959226",
    "link_img": "https://live.staticflickr.com/65535/48113266436_8a60cf5821_o.jpg",
    "id_image": "BMW_959226",
    "count_view": 0
  },
  {
    "link_thumb": "https://live.staticflickr.com/65535/48113266811_dbed35ee30_n.jpg",
    "id_album": "727633301",
    "description": "BMW_961907",
    "title": "BMW_961907",
    "link_img": "https://live.staticflickr.com/65535/48113266811_845f51e7c2_o.jpg",
    "id_image": "BMW_961907",
    "count_view": 0
  },
  {
    "link_thumb": "https://live.staticflickr.com/65535/48113266991_1e2133e1b9_n.jpg",
    "id_album": "727633301",
    "description": "BMW_961911",
    "title": "BMW_961911",
    "link_img": "https://live.staticflickr.com/65535/48113266991_9e87e68079_o.jpg",
    "id_image": "BMW_961911",
    "count_view": 0
  },
  {
    "link_thumb": "https://live.staticflickr.com/65535/48113367362_a024f52358_n.jpg",
    "id_album": "727633301",
    "description": "BMW_961912",
    "title": "BMW_961912",
    "link_img": "https://live.staticflickr.com/65535/48113367362_4120818b07_o.jpg",
    "id_image": "BMW_961912",
    "count_view": 0
  },
  {
    "link_thumb": "https://live.staticflickr.com/65535/48113307368_2699e5b931_n.jpg",
    "id_album": "727633301",
    "description": "BMW_961913",
    "title": "BMW_961913",
    "link_img": "https://live.staticflickr.com/65535/48113307368_ecc24c9239_o.jpg",
    "id_image": "BMW_961913",
    "count_view": 0
  },
  {
    "link_thumb": "https://live.staticflickr.com/65535/48113307483_412d49e8a9_n.jpg",
    "id_album": "727633301",
    "description": "BMW_961915",
    "title": "BMW_961915",
    "link_img": "https://live.staticflickr.com/65535/48113307483_45619e1734_o.jpg",
    "id_image": "BMW_961915",
    "count_view": 0
  },
  {
    "link_thumb": "https://live.staticflickr.com/65535/48113267806_5affd64b6a_n.jpg",
    "id_album": "727633301",
    "description": "BMW_961920",
    "title": "BMW_961920",
    "link_img": "https://live.staticflickr.com/65535/48113267806_daedfe0f6a_o.jpg",
    "id_image": "BMW_961920",
    "count_view": 0
  },
  {
    "link_thumb": "https://live.staticflickr.com/65535/48113267951_8b4c326e80_n.jpg",
    "id_album": "727633301",
    "description": "BMW_961924",
    "title": "BMW_961924",
    "link_img": "https://live.staticflickr.com/65535/48113267951_83883a870e_o.jpg",
    "id_image": "BMW_961924",
    "count_view": 0
  },
  {
    "link_thumb": "https://live.staticflickr.com/65535/48113368222_dd0fae15c4_n.jpg",
    "id_album": "727633301",
    "description": "BMW_961925",
    "title": "BMW_961925",
    "link_img": "https://live.staticflickr.com/65535/48113368222_13d2472d20_o.jpg",
    "id_image": "BMW_961925",
    "count_view": 0
  },
  {
    "link_thumb": "https://live.staticflickr.com/65535/48113268391_d9e057964a_n.jpg",
    "id_album": "727633301",
    "description": "BMW_962171",
    "title": "BMW_962171",
    "link_img": "https://live.staticflickr.com/65535/48113268391_fc8eb30891_o.jpg",
    "id_image": "BMW_962171",
    "count_view": 0
  },
  {
    "link_thumb": "https://live.staticflickr.com/65535/48113308298_c553a51b41_n.jpg",
    "id_album": "727633301",
    "description": "BMW_962172",
    "title": "BMW_962172",
    "link_img": "https://live.staticflickr.com/65535/48113308298_b4f7f3a669_o.jpg",
    "id_image": "BMW_962172",
    "count_view": 0
  },
  {
    "link_thumb": "https://live.staticflickr.com/65535/48113269196_d1baa82fea_n.jpg",
    "id_album": "727633301",
    "description": "BMW_964638",
    "title": "BMW_964638",
    "link_img": "https://live.staticflickr.com/65535/48113269196_e45b97f924_o.jpg",
    "id_image": "BMW_964638",
    "count_view": 0
  },
  {
    "link_thumb": "https://live.staticflickr.com/65535/48113309388_a893be9d9e_n.jpg",
    "id_album": "727633301",
    "description": "BMW_964640",
    "title": "BMW_964640",
    "link_img": "https://live.staticflickr.com/65535/48113309388_161e9bcc16_o.jpg",
    "id_image": "BMW_964640",
    "count_view": 0
  },
  {
    "link_thumb": "https://live.staticflickr.com/65535/48113309688_2ae4eb6562_n.jpg",
    "id_album": "727633301",
    "description": "BMW_964851",
    "title": "BMW_964851",
    "link_img": "https://live.staticflickr.com/65535/48113309688_9e8a422bee_o.jpg",
    "id_image": "BMW_964851",
    "count_view": 0
  },
  {
    "link_thumb": "https://live.staticflickr.com/65535/48113270221_6273e85122_n.jpg",
    "id_album": "727633301",
    "description": "BMW_964852",
    "title": "BMW_964852",
    "link_img": "https://live.staticflickr.com/65535/48113270221_5094205b56_o.jpg",
    "id_image": "BMW_964852",
    "count_view": 0
  },
  {
    "link_thumb": "https://live.staticflickr.com/65535/48113310138_fbc264e7e1_n.jpg",
    "id_album": "727633301",
    "description": "BMW_964853",
    "title": "BMW_964853",
    "link_img": "https://live.staticflickr.com/65535/48113310138_52bff13a01_o.jpg",
    "id_image": "BMW_964853",
    "count_view": 0
  },
  {
    "link_thumb": "https://live.staticflickr.com/65535/48113270641_3f66c45c41_n.jpg",
    "id_album": "727633301",
    "description": "BMW_964854",
    "title": "BMW_964854",
    "link_img": "https://live.staticflickr.com/65535/48113270641_d5648b9732_o.jpg",
    "id_image": "BMW_964854",
    "count_view": 0
  },
  {
    "link_thumb": "https://live.staticflickr.com/65535/48113310603_5b97277a68_n.jpg",
    "id_album": "727633301",
    "description": "BMW_964855",
    "title": "BMW_964855",
    "link_img": "https://live.staticflickr.com/65535/48113310603_83cc56f819_o.jpg",
    "id_image": "BMW_964855",
    "count_view": 0
  },
  {
    "link_thumb": "https://live.staticflickr.com/65535/48113370952_2993628732_n.jpg",
    "id_album": "727633301",
    "description": "BMW_964856",
    "title": "BMW_964856",
    "link_img": "https://live.staticflickr.com/65535/48113370952_858c850083_o.jpg",
    "id_image": "BMW_964856",
    "count_view": 0
  },
  {
    "link_thumb": "https://live.staticflickr.com/65535/48113311263_1a8ef398c5_n.jpg",
    "id_album": "727633301",
    "description": "BMW_965740",
    "title": "BMW_965740",
    "link_img": "https://live.staticflickr.com/65535/48113311263_024dc23903_o.jpg",
    "id_image": "BMW_965740",
    "count_view": 0
  },
  {
    "link_thumb": "https://live.staticflickr.com/65535/48113311623_c9e968243f_n.jpg",
    "id_album": "727633301",
    "description": "BMW_966521",
    "title": "BMW_966521",
    "link_img": "https://live.staticflickr.com/65535/48113311623_76946a8ef4_o.jpg",
    "id_image": "BMW_966521",
    "count_view": 0
  },
  {
    "link_thumb": "https://live.staticflickr.com/65535/48113272031_57264fe182_n.jpg",
    "id_album": "727633301",
    "description": "BMW_968289",
    "title": "BMW_968289",
    "link_img": "https://live.staticflickr.com/65535/48113272031_a502834b01_o.jpg",
    "id_image": "BMW_968289",
    "count_view": 0
  },
  {
    "link_thumb": "https://live.staticflickr.com/65535/48113312293_4f2839e05e_n.jpg",
    "id_album": "727633301",
    "description": "BMW_968792",
    "title": "BMW_968792",
    "link_img": "https://live.staticflickr.com/65535/48113312293_abe4dec20d_o.jpg",
    "id_image": "BMW_968792",
    "count_view": 0
  },
  {
    "link_thumb": "https://live.staticflickr.com/65535/48113372677_b9ea43c374_n.jpg",
    "id_album": "727633301",
    "description": "BMW_970335",
    "title": "BMW_970335",
    "link_img": "https://live.staticflickr.com/65535/48113372677_5752119047_o.jpg",
    "id_image": "BMW_970335",
    "count_view": 0
  },
  {
    "link_thumb": "https://live.staticflickr.com/65535/48113373047_f97e7eb2ab_n.jpg",
    "id_album": "727633301",
    "description": "BMW_970341",
    "title": "BMW_970341",
    "link_img": "https://live.staticflickr.com/65535/48113373047_6f35f284e3_o.jpg",
    "id_image": "BMW_970341",
    "count_view": 0
  },
  {
    "link_thumb": "https://live.staticflickr.com/65535/48113373207_17825b459b_n.jpg",
    "id_album": "727633301",
    "description": "BMW_971371",
    "title": "BMW_971371",
    "link_img": "https://live.staticflickr.com/65535/48113373207_b50816d73d_o.jpg",
    "id_image": "BMW_971371",
    "count_view": 0
  },
  {
    "link_thumb": "https://live.staticflickr.com/65535/48113313338_025296be71_n.jpg",
    "id_album": "727633301",
    "description": "BMW_974176",
    "title": "BMW_974176",
    "link_img": "https://live.staticflickr.com/65535/48113313338_59e08070a8_o.jpg",
    "id_image": "BMW_974176",
    "count_view": 0
  },
  {
    "link_thumb": "https://live.staticflickr.com/65535/48113373927_e62262c337_n.jpg",
    "id_album": "727633301",
    "description": "BMW_974178",
    "title": "BMW_974178",
    "link_img": "https://live.staticflickr.com/65535/48113373927_40d860165b_o.jpg",
    "id_image": "BMW_974178",
    "count_view": 0
  },
  {
    "link_thumb": "https://live.staticflickr.com/65535/48113274326_f457fd0f32_n.jpg",
    "id_album": "727633301",
    "description": "BMW_974179",
    "title": "BMW_974179",
    "link_img": "https://live.staticflickr.com/65535/48113274326_0aafb412e5_o.jpg",
    "id_image": "BMW_974179",
    "count_view": 0
  },
  {
    "link_thumb": "https://live.staticflickr.com/65535/48113314323_46404fe30a_n.jpg",
    "id_album": "727633301",
    "description": "BMW_974410",
    "title": "BMW_974410",
    "link_img": "https://live.staticflickr.com/65535/48113314323_4f05a7f971_o.jpg",
    "id_image": "BMW_974410",
    "count_view": 0
  },
  {
    "link_thumb": "https://live.staticflickr.com/65535/48113374732_24a647ef98_n.jpg",
    "id_album": "727633301",
    "description": "BMW_974419",
    "title": "BMW_974419",
    "link_img": "https://live.staticflickr.com/65535/48113374732_d63c0c5e48_o.jpg",
    "id_image": "BMW_974419",
    "count_view": 0
  },
  {
    "link_thumb": "https://live.staticflickr.com/65535/48113375282_7bd1c62839_n.jpg",
    "id_album": "727633301",
    "description": "BMW_979340",
    "title": "BMW_979340",
    "link_img": "https://live.staticflickr.com/65535/48113375282_0b9fb24ed3_o.jpg",
    "id_image": "BMW_979340",
    "count_view": 0
  },
  {
    "link_thumb": "https://live.staticflickr.com/65535/48113315213_ef6b6a87b7_n.jpg",
    "id_album": "727633301",
    "description": "BMW_98000",
    "title": "BMW_98000",
    "link_img": "https://live.staticflickr.com/65535/48113315213_7016146731_o.jpg",
    "id_image": "BMW_98000",
    "count_view": 0
  },
  {
    "link_thumb": "https://live.staticflickr.com/65535/48113375767_b7c29b2692_n.jpg",
    "id_album": "727633301",
    "description": "BMW_981860",
    "title": "BMW_981860",
    "link_img": "https://live.staticflickr.com/65535/48113375767_75e46b31e1_o.jpg",
    "id_image": "BMW_981860",
    "count_view": 0
  },
  {
    "link_thumb": "https://live.staticflickr.com/65535/48113276101_cf1b576092_n.jpg",
    "id_album": "727633301",
    "description": "BMW_981861",
    "title": "BMW_981861",
    "link_img": "https://live.staticflickr.com/65535/48113276101_8758790235_o.jpg",
    "id_image": "BMW_981861",
    "count_view": 0
  },
  {
    "link_thumb": "https://live.staticflickr.com/65535/48113276516_9bd1faf801_n.jpg",
    "id_album": "727633301",
    "description": "BMW_981862",
    "title": "BMW_981862",
    "link_img": "https://live.staticflickr.com/65535/48113276516_d1ac4a6703_o.jpg",
    "id_image": "BMW_981862",
    "count_view": 0
  },
  {
    "link_thumb": "https://live.staticflickr.com/65535/48113316968_437b31c5b6_n.jpg",
    "id_album": "727633301",
    "description": "BMW_981863",
    "title": "BMW_981863",
    "link_img": "https://live.staticflickr.com/65535/48113316968_2fa7544d22_o.jpg",
    "id_image": "BMW_981863",
    "count_view": 0
  },
  {
    "link_thumb": "https://live.staticflickr.com/65535/48113317433_5ffafb3e09_n.jpg",
    "id_album": "727633301",
    "description": "BMW_981864",
    "title": "BMW_981864",
    "link_img": "https://live.staticflickr.com/65535/48113317433_6a38c46acb_o.jpg",
    "id_image": "BMW_981864",
    "count_view": 0
  },
  {
    "link_thumb": "https://live.staticflickr.com/65535/48113317783_661c3935ee_n.jpg",
    "id_album": "727633301",
    "description": "BMW_981865",
    "title": "BMW_981865",
    "link_img": "https://live.staticflickr.com/65535/48113317783_37fda6680f_o.jpg",
    "id_image": "BMW_981865",
    "count_view": 0
  },
  {
    "link_thumb": "https://live.staticflickr.com/65535/48113278196_67f85794d9_n.jpg",
    "id_album": "727633301",
    "description": "BMW_981866",
    "title": "BMW_981866",
    "link_img": "https://live.staticflickr.com/65535/48113278196_d8413d4d46_o.jpg",
    "id_image": "BMW_981866",
    "count_view": 0
  },
  {
    "link_thumb": "https://live.staticflickr.com/65535/48113278601_6cd1901117_n.jpg",
    "id_album": "727633301",
    "description": "BMW_981867",
    "title": "BMW_981867",
    "link_img": "https://live.staticflickr.com/65535/48113278601_63516581df_o.jpg",
    "id_image": "BMW_981867",
    "count_view": 0
  },
  {
    "link_thumb": "https://live.staticflickr.com/65535/48113318768_1a3d791194_n.jpg",
    "id_album": "727633301",
    "description": "BMW_981868",
    "title": "BMW_981868",
    "link_img": "https://live.staticflickr.com/65535/48113318768_d65c1c176c_o.jpg",
    "id_image": "BMW_981868",
    "count_view": 0
  },
  {
    "link_thumb": "https://live.staticflickr.com/65535/48113279161_b6f5609a5b_n.jpg",
    "id_album": "727633301",
    "description": "BMW_982089",
    "title": "BMW_982089",
    "link_img": "https://live.staticflickr.com/65535/48113279161_5ec5ab7000_o.jpg",
    "id_image": "BMW_982089",
    "count_view": 0
  },
  {
    "link_thumb": "https://live.staticflickr.com/65535/48113379232_2c2143a5d7_n.jpg",
    "id_album": "727633301",
    "description": "BMW_982090",
    "title": "BMW_982090",
    "link_img": "https://live.staticflickr.com/65535/48113379232_a65e964b23_o.jpg",
    "id_image": "BMW_982090",
    "count_view": 0
  },
  {
    "link_thumb": "https://live.staticflickr.com/65535/48113379527_acaa130e66_n.jpg",
    "id_album": "727633301",
    "description": "BMW_982270",
    "title": "BMW_982270",
    "link_img": "https://live.staticflickr.com/65535/48113379527_ef162fb461_o.jpg",
    "id_image": "BMW_982270",
    "count_view": 0
  },
  {
    "link_thumb": "https://live.staticflickr.com/65535/48113379797_0e0829f991_n.jpg",
    "id_album": "727633301",
    "description": "BMW_982353",
    "title": "BMW_982353",
    "link_img": "https://live.staticflickr.com/65535/48113379797_fed9f617f1_o.jpg",
    "id_image": "BMW_982353",
    "count_view": 0
  },
  {
    "link_thumb": "https://live.staticflickr.com/65535/48113380047_765ffb125d_n.jpg",
    "id_album": "727633301",
    "description": "BMW_982507",
    "title": "BMW_982507",
    "link_img": "https://live.staticflickr.com/65535/48113380047_0a8e39a8f3_o.jpg",
    "id_image": "BMW_982507",
    "count_view": 0
  },
  {
    "link_thumb": "https://live.staticflickr.com/65535/48113380277_870b268722_n.jpg",
    "id_album": "727633301",
    "description": "BMW_982508",
    "title": "BMW_982508",
    "link_img": "https://live.staticflickr.com/65535/48113380277_e03f62f580_o.jpg",
    "id_image": "BMW_982508",
    "count_view": 0
  },
  {
    "link_thumb": "https://live.staticflickr.com/65535/48113380642_c0729f4db0_n.jpg",
    "id_album": "727633301",
    "description": "BMW_982785",
    "title": "BMW_982785",
    "link_img": "https://live.staticflickr.com/65535/48113380642_1276f20b7a_o.jpg",
    "id_image": "BMW_982785",
    "count_view": 0
  },
  {
    "link_thumb": "https://live.staticflickr.com/65535/48113281021_8ebd47e6c3_n.jpg",
    "id_album": "727633301",
    "description": "BMW_982879",
    "title": "BMW_982879",
    "link_img": "https://live.staticflickr.com/65535/48113281021_4e14748c86_o.jpg",
    "id_image": "BMW_982879",
    "count_view": 0
  },
  {
    "link_thumb": "https://live.staticflickr.com/65535/48113281226_3c06ae0b34_n.jpg",
    "id_album": "727633301",
    "description": "BMW_983044",
    "title": "BMW_983044",
    "link_img": "https://live.staticflickr.com/65535/48113281226_1c68e15f52_o.jpg",
    "id_image": "BMW_983044",
    "count_view": 0
  },
  {
    "link_thumb": "https://live.staticflickr.com/65535/48113281451_310c7fa82a_n.jpg",
    "id_album": "727633301",
    "description": "BMW_983045",
    "title": "BMW_983045",
    "link_img": "https://live.staticflickr.com/65535/48113281451_0aba7a0bfa_o.jpg",
    "id_image": "BMW_983045",
    "count_view": 0
  },
  {
    "link_thumb": "https://live.staticflickr.com/65535/48113321393_28a035e560_n.jpg",
    "id_album": "727633301",
    "description": "BMW_983046",
    "title": "BMW_983046",
    "link_img": "https://live.staticflickr.com/65535/48113321393_02d5470072_o.jpg",
    "id_image": "BMW_983046",
    "count_view": 0
  },
  {
    "link_thumb": "https://live.staticflickr.com/65535/48113281856_6d95941e19_n.jpg",
    "id_album": "727633301",
    "description": "BMW_983047",
    "title": "BMW_983047",
    "link_img": "https://live.staticflickr.com/65535/48113281856_c90221535b_o.jpg",
    "id_image": "BMW_983047",
    "count_view": 0
  },
  {
    "link_thumb": "https://live.staticflickr.com/65535/48113282106_aa578bf173_n.jpg",
    "id_album": "727633301",
    "description": "BMW_983048",
    "title": "BMW_983048",
    "link_img": "https://live.staticflickr.com/65535/48113282106_39196fe564_o.jpg",
    "id_image": "BMW_983048",
    "count_view": 0
  },
  {
    "link_thumb": "https://live.staticflickr.com/65535/48113282351_d77c7285b1_n.jpg",
    "id_album": "727633301",
    "description": "BMW_983450",
    "title": "BMW_983450",
    "link_img": "https://live.staticflickr.com/65535/48113282351_1600f204fa_o.jpg",
    "id_image": "BMW_983450",
    "count_view": 0
  },
  {
    "link_thumb": "https://live.staticflickr.com/65535/48113322313_aa9c46cf58_n.jpg",
    "id_album": "727633301",
    "description": "BMW_983451",
    "title": "BMW_983451",
    "link_img": "https://live.staticflickr.com/65535/48113322313_b78202f766_o.jpg",
    "id_image": "BMW_983451",
    "count_view": 0
  },
  {
    "link_thumb": "https://live.staticflickr.com/65535/48113322543_5bb9d0fab4_n.jpg",
    "id_album": "727633301",
    "description": "BMW_983452",
    "title": "BMW_983452",
    "link_img": "https://live.staticflickr.com/65535/48113322543_954b1b0910_o.jpg",
    "id_image": "BMW_983452",
    "count_view": 0
  },
  {
    "link_thumb": "https://live.staticflickr.com/65535/48113322733_b47398acf2_n.jpg",
    "id_album": "727633301",
    "description": "BMW_983453",
    "title": "BMW_983453",
    "link_img": "https://live.staticflickr.com/65535/48113322733_1365bc9d22_o.jpg",
    "id_image": "BMW_983453",
    "count_view": 0
  },
  {
    "link_thumb": "https://live.staticflickr.com/65535/48113322913_d8eca4d988_n.jpg",
    "id_album": "727633301",
    "description": "BMW_983670",
    "title": "BMW_983670",
    "link_img": "https://live.staticflickr.com/65535/48113322913_d9d281b5f5_o.jpg",
    "id_image": "BMW_983670",
    "count_view": 0
  },
  {
    "link_thumb": "https://live.staticflickr.com/65535/48113283616_a8ce738c45_n.jpg",
    "id_album": "727633301",
    "description": "BMW_983671",
    "title": "BMW_983671",
    "link_img": "https://live.staticflickr.com/65535/48113283616_97aa6c4883_o.jpg",
    "id_image": "BMW_983671",
    "count_view": 0
  },
  {
    "link_thumb": "https://live.staticflickr.com/65535/48113385077_708f3ac9c8_n.jpg",
    "id_album": "727633301",
    "description": "BMW_984164",
    "title": "BMW_984164",
    "link_img": "https://live.staticflickr.com/65535/48113385077_3abb77e6b1_o.jpg",
    "id_image": "BMW_984164",
    "count_view": 0
  },
  {
    "link_thumb": "https://live.staticflickr.com/65535/48113324858_d55d5ace40_n.jpg",
    "id_album": "727633301",
    "description": "BMW_984263",
    "title": "BMW_984263",
    "link_img": "https://live.staticflickr.com/65535/48113324858_99e550f25a_o.jpg",
    "id_image": "BMW_984263",
    "count_view": 0
  },
  {
    "link_thumb": "https://live.staticflickr.com/65535/48113285621_661db76eae_n.jpg",
    "id_album": "727633301",
    "description": "BMW_984264",
    "title": "BMW_984264",
    "link_img": "https://live.staticflickr.com/65535/48113285621_d84f5839a1_o.jpg",
    "id_image": "BMW_984264",
    "count_view": 0
  },
  {
    "link_thumb": "https://live.staticflickr.com/65535/48113285941_5bbaa97ce2_n.jpg",
    "id_album": "727633301",
    "description": "BMW_984430",
    "title": "BMW_984430",
    "link_img": "https://live.staticflickr.com/65535/48113285941_8946eb421e_o.jpg",
    "id_image": "BMW_984430",
    "count_view": 0
  },
  {
    "link_thumb": "https://live.staticflickr.com/65535/48113386172_fe1493e68d_n.jpg",
    "id_album": "727633301",
    "description": "BMW_984638",
    "title": "BMW_984638",
    "link_img": "https://live.staticflickr.com/65535/48113386172_5f5f68e222_o.jpg",
    "id_image": "BMW_984638",
    "count_view": 0
  },
  {
    "link_thumb": "https://live.staticflickr.com/65535/48113325983_7c0a044575_n.jpg",
    "id_album": "727633301",
    "description": "BMW_985278",
    "title": "BMW_985278",
    "link_img": "https://live.staticflickr.com/65535/48113325983_23627998cc_o.jpg",
    "id_image": "BMW_985278",
    "count_view": 0
  },
  {
    "link_thumb": "https://live.staticflickr.com/65535/48113286666_348b1d9728_n.jpg",
    "id_album": "727633301",
    "description": "BMW_985288",
    "title": "BMW_985288",
    "link_img": "https://live.staticflickr.com/65535/48113286666_0bb2b66ec0_o.jpg",
    "id_image": "BMW_985288",
    "count_view": 0
  },
  {
    "link_thumb": "https://live.staticflickr.com/65535/48113287216_145918e71d_n.jpg",
    "id_album": "727633301",
    "description": "BMW_985289",
    "title": "BMW_985289",
    "link_img": "https://live.staticflickr.com/65535/48113287216_28f59a8133_o.jpg",
    "id_image": "BMW_985289",
    "count_view": 0
  },
  {
    "link_thumb": "https://live.staticflickr.com/65535/48113327713_53b517c131_n.jpg",
    "id_album": "727633301",
    "description": "BMW_985290",
    "title": "BMW_985290",
    "link_img": "https://live.staticflickr.com/65535/48113327713_55101acb38_o.jpg",
    "id_image": "BMW_985290",
    "count_view": 0
  },
  {
    "link_thumb": "https://live.staticflickr.com/65535/48113388377_daf80071c3_n.jpg",
    "id_album": "727633301",
    "description": "BMW_985428",
    "title": "BMW_985428",
    "link_img": "https://live.staticflickr.com/65535/48113388377_eafeefc457_o.jpg",
    "id_image": "BMW_985428",
    "count_view": 0
  },
  {
    "link_thumb": "https://live.staticflickr.com/65535/48113328523_e6f4212241_n.jpg",
    "id_album": "727633301",
    "description": "BMW_985542",
    "title": "BMW_985542",
    "link_img": "https://live.staticflickr.com/65535/48113328523_77121e210d_o.jpg",
    "id_image": "BMW_985542",
    "count_view": 0
  },
  {
    "link_thumb": "https://live.staticflickr.com/65535/48113328913_be9b357836_n.jpg",
    "id_album": "727633301",
    "description": "BMW_985543",
    "title": "BMW_985543",
    "link_img": "https://live.staticflickr.com/65535/48113328913_feed6a8e11_o.jpg",
    "id_image": "BMW_985543",
    "count_view": 0
  },
  {
    "link_thumb": "https://live.staticflickr.com/65535/48113289551_5288e32931_n.jpg",
    "id_album": "727633301",
    "description": "BMW_985544",
    "title": "BMW_985544",
    "link_img": "https://live.staticflickr.com/65535/48113289551_f82d5b244c_o.jpg",
    "id_image": "BMW_985544",
    "count_view": 0
  },
  {
    "link_thumb": "https://live.staticflickr.com/65535/48113390037_ab1b434af9_n.jpg",
    "id_album": "727633301",
    "description": "BMW_98868",
    "title": "BMW_98868",
    "link_img": "https://live.staticflickr.com/65535/48113390037_9723b615e9_o.jpg",
    "id_image": "BMW_98868",
    "count_view": 0
  },
  {
    "link_thumb": "https://live.staticflickr.com/65535/48113290236_0f9122bf49_n.jpg",
    "id_album": "727633301",
    "description": "BMW_989182",
    "title": "BMW_989182",
    "link_img": "https://live.staticflickr.com/65535/48113290236_fd63ab952d_o.jpg",
    "id_image": "BMW_989182",
    "count_view": 0
  },
  {
    "link_thumb": "https://live.staticflickr.com/65535/48113290526_5125d0d0f8_n.jpg",
    "id_album": "727633301",
    "description": "BMW_989784",
    "title": "BMW_989784",
    "link_img": "https://live.staticflickr.com/65535/48113290526_010e6c604e_o.jpg",
    "id_image": "BMW_989784",
    "count_view": 0
  },
  {
    "link_thumb": "https://live.staticflickr.com/65535/48113330553_5eeb695a40_n.jpg",
    "id_album": "727633301",
    "description": "BMW_989785",
    "title": "BMW_989785",
    "link_img": "https://live.staticflickr.com/65535/48113330553_9e03d535bf_o.jpg",
    "id_image": "BMW_989785",
    "count_view": 0
  },
  {
    "link_thumb": "https://live.staticflickr.com/65535/48113291221_58551560c8_n.jpg",
    "id_album": "727633301",
    "description": "BMW_989786",
    "title": "BMW_989786",
    "link_img": "https://live.staticflickr.com/65535/48113291221_e319a66b13_o.jpg",
    "id_image": "BMW_989786",
    "count_view": 0
  },
  {
    "link_thumb": "https://live.staticflickr.com/65535/48113331303_4e9926a142_n.jpg",
    "id_album": "727633301",
    "description": "BMW_989787",
    "title": "BMW_989787",
    "link_img": "https://live.staticflickr.com/65535/48113331303_18e46bf4a3_o.jpg",
    "id_image": "BMW_989787",
    "count_view": 0
  },
  {
    "link_thumb": "https://live.staticflickr.com/65535/48113391942_37c41e0a72_n.jpg",
    "id_album": "727633301",
    "description": "BMW_989862",
    "title": "BMW_989862",
    "link_img": "https://live.staticflickr.com/65535/48113391942_f30b31eb3b_o.jpg",
    "id_image": "BMW_989862",
    "count_view": 0
  },
  {
    "link_thumb": "https://live.staticflickr.com/65535/48113331938_6dd57e01e2_n.jpg",
    "id_album": "727633301",
    "description": "BMW_991306",
    "title": "BMW_991306",
    "link_img": "https://live.staticflickr.com/65535/48113331938_0964c28c74_o.jpg",
    "id_image": "BMW_991306",
    "count_view": 0
  },
  {
    "link_thumb": "https://live.staticflickr.com/65535/48113292671_2924c145df_n.jpg",
    "id_album": "727633301",
    "description": "BMW_992342",
    "title": "BMW_992342",
    "link_img": "https://live.staticflickr.com/65535/48113292671_71a4305dd9_o.jpg",
    "id_image": "BMW_992342",
    "count_view": 0
  },
  {
    "link_thumb": "https://live.staticflickr.com/65535/48113332708_e02c23afe3_n.jpg",
    "id_album": "727633301",
    "description": "BMW_992343",
    "title": "BMW_992343",
    "link_img": "https://live.staticflickr.com/65535/48113332708_8c4cbeb3d9_o.jpg",
    "id_image": "BMW_992343",
    "count_view": 0
  },
  {
    "link_thumb": "https://live.staticflickr.com/65535/48113393687_527040024b_n.jpg",
    "id_album": "727633301",
    "description": "BMW_992347",
    "title": "BMW_992347",
    "link_img": "https://live.staticflickr.com/65535/48113393687_4da9339cf3_o.jpg",
    "id_image": "BMW_992347",
    "count_view": 0
  },
  {
    "link_thumb": "https://live.staticflickr.com/65535/48113394082_3881f67827_n.jpg",
    "id_album": "727633301",
    "description": "BMW_992348",
    "title": "BMW_992348",
    "link_img": "https://live.staticflickr.com/65535/48113394082_404df6f2b8_o.jpg",
    "id_image": "BMW_992348",
    "count_view": 0
  },
  {
    "link_thumb": "https://live.staticflickr.com/65535/48113394337_3d962d0909_n.jpg",
    "id_album": "727633301",
    "description": "BMW_992349",
    "title": "BMW_992349",
    "link_img": "https://live.staticflickr.com/65535/48113394337_53e9282ec3_o.jpg",
    "id_image": "BMW_992349",
    "count_view": 0
  },
  {
    "link_thumb": "https://live.staticflickr.com/65535/48113394817_7db57f176d_n.jpg",
    "id_album": "727633301",
    "description": "BMW_992354",
    "title": "BMW_992354",
    "link_img": "https://live.staticflickr.com/65535/48113394817_bf0d0902b2_o.jpg",
    "id_image": "BMW_992354",
    "count_view": 0
  },
  {
    "link_thumb": "https://live.staticflickr.com/65535/48113395087_223245fddd_n.jpg",
    "id_album": "727633301",
    "description": "BMW_992738",
    "title": "BMW_992738",
    "link_img": "https://live.staticflickr.com/65535/48113395087_5f3220a5f4_o.jpg",
    "id_image": "BMW_992738",
    "count_view": 0
  },
  {
    "link_thumb": "https://live.staticflickr.com/65535/48113295266_76ff2f3583_n.jpg",
    "id_album": "727633301",
    "description": "BMW_992743",
    "title": "BMW_992743",
    "link_img": "https://live.staticflickr.com/65535/48113295266_876dc486da_o.jpg",
    "id_image": "BMW_992743",
    "count_view": 0
  },
  {
    "link_thumb": "https://live.staticflickr.com/65535/48113396307_670bc10233_n.jpg",
    "id_album": "727633301",
    "description": "BMW_992918",
    "title": "BMW_992918",
    "link_img": "https://live.staticflickr.com/65535/48113396307_cb7b6a1e58_o.jpg",
    "id_image": "BMW_992918",
    "count_view": 0
  },
  {
    "link_thumb": "https://live.staticflickr.com/65535/48113297131_fd251d757c_n.jpg",
    "id_album": "727633301",
    "description": "BMW_992919",
    "title": "BMW_992919",
    "link_img": "https://live.staticflickr.com/65535/48113297131_4199b5eec7_o.jpg",
    "id_image": "BMW_992919",
    "count_view": 0
  },
  {
    "link_thumb": "https://live.staticflickr.com/65535/48113298236_b465248a53_n.jpg",
    "id_album": "727633301",
    "description": "BMW_992922",
    "title": "BMW_992922",
    "link_img": "https://live.staticflickr.com/65535/48113298236_59db3bdaac_o.jpg",
    "id_image": "BMW_992922",
    "count_view": 0
  },
  {
    "link_thumb": "https://live.staticflickr.com/65535/48113398507_947618815a_n.jpg",
    "id_album": "727633301",
    "description": "BMW_993578",
    "title": "BMW_993578",
    "link_img": "https://live.staticflickr.com/65535/48113398507_7353a03ff3_o.jpg",
    "id_image": "BMW_993578",
    "count_view": 0
  },
  {
    "link_thumb": "https://live.staticflickr.com/65535/48113338053_28b68f3234_n.jpg",
    "id_album": "727633301",
    "description": "BMW_994126",
    "title": "BMW_994126",
    "link_img": "https://live.staticflickr.com/65535/48113338053_982076c308_o.jpg",
    "id_image": "BMW_994126",
    "count_view": 0
  },
  {
    "link_thumb": "https://live.staticflickr.com/65535/48113338578_40844e324b_n.jpg",
    "id_album": "727633301",
    "description": "BMW_994338",
    "title": "BMW_994338",
    "link_img": "https://live.staticflickr.com/65535/48113338578_eb5d9cd686_o.jpg",
    "id_image": "BMW_994338",
    "count_view": 0
  },
  {
    "link_thumb": "https://live.staticflickr.com/65535/48113299596_6aa1ae1d29_n.jpg",
    "id_album": "727633301",
    "description": "BMW_994339",
    "title": "BMW_994339",
    "link_img": "https://live.staticflickr.com/65535/48113299596_1b35a44eea_o.jpg",
    "id_image": "BMW_994339",
    "count_view": 0
  },
  {
    "link_thumb": "https://live.staticflickr.com/65535/48113400312_9c406df855_n.jpg",
    "id_album": "727633301",
    "description": "BMW_994340",
    "title": "BMW_994340",
    "link_img": "https://live.staticflickr.com/65535/48113400312_717da6471c_o.jpg",
    "id_image": "BMW_994340",
    "count_view": 0
  },
  {
    "link_thumb": "https://live.staticflickr.com/65535/48113300696_0cbfb13e9a_n.jpg",
    "id_album": "727633301",
    "description": "BMW_994341",
    "title": "BMW_994341",
    "link_img": "https://live.staticflickr.com/65535/48113300696_ca899ff3ea_o.jpg",
    "id_image": "BMW_994341",
    "count_view": 0
  },
  {
    "link_thumb": "https://live.staticflickr.com/65535/48113301356_fb911a7cd0_n.jpg",
    "id_album": "727633301",
    "description": "BMW_994342",
    "title": "BMW_994342",
    "link_img": "https://live.staticflickr.com/65535/48113301356_0f27dd2efb_o.jpg",
    "id_image": "BMW_994342",
    "count_view": 0
  },
  {
    "link_thumb": "https://live.staticflickr.com/65535/48113401647_e39ce5f06d_n.jpg",
    "id_album": "727633301",
    "description": "BMW_994343",
    "title": "BMW_994343",
    "link_img": "https://live.staticflickr.com/65535/48113401647_c48e4b4c6b_o.jpg",
    "id_image": "BMW_994343",
    "count_view": 0
  },
  {
    "link_thumb": "https://live.staticflickr.com/65535/48113302441_522986c710_n.jpg",
    "id_album": "727633301",
    "description": "BMW_994344",
    "title": "BMW_994344",
    "link_img": "https://live.staticflickr.com/65535/48113302441_a29518d690_o.jpg",
    "id_image": "BMW_994344",
    "count_view": 0
  },
  {
    "link_thumb": "https://live.staticflickr.com/65535/48113302956_0367dc474a_n.jpg",
    "id_album": "727633301",
    "description": "BMW_994345",
    "title": "BMW_994345",
    "link_img": "https://live.staticflickr.com/65535/48113302956_41b396abc5_o.jpg",
    "id_image": "BMW_994345",
    "count_view": 0
  }
]